\BOOKMARK [1][-]{section.1}{A problem of law, not of patent examination}{}
\BOOKMARK [1][-]{section.2}{Why not just raise the ``inventive step'' standard?}{}
\BOOKMARK [1][-]{section.3}{The broken regulative: technicity, industriality}{}
\BOOKMARK [1][-]{section.4}{Further Reading}{}
