\contentsline {section}{\numberline {1}A problem of law, not of patent examination}{2}{section.1}
\contentsline {section}{\numberline {2}Why not just raise the ``inventive step'' standard?}{4}{section.2}
\contentsline {section}{\numberline {3}The broken regulative: technicity, industriality}{5}{section.3}
\contentsline {section}{\numberline {4}Further Reading}{8}{section.4}
