\relax 
\ifx\hyper@anchor\@undefined
\global \let \oldcontentsline\contentsline
\gdef \contentsline#1#2#3#4{\oldcontentsline{#1}{#2}{#3}}
\global \let \oldnewlabel\newlabel
\gdef \newlabel#1#2{\newlabelxx{#1}#2}
\gdef \newlabelxx#1#2#3#4#5#6{\oldnewlabel{#1}{{#2}{#3}}}
\AtEndDocument{\let \contentsline\oldcontentsline
\let \newlabel\oldnewlabel}
\else
\global \let \hyper@last\relax 
\fi

\@writefile{toc}{\contentsline {section}{\numberline {1}A problem of law, not of patent examination}{2}{section.1}}
\newlabel{sys}{{1}{2}{A problem of law, not of patent examination\relax }{section.1}{}}
\@writefile{toc}{\contentsline {section}{\numberline {2}Why not just raise the ``inventive step'' standard?}{4}{section.2}}
\newlabel{inv}{{2}{4}{Why not just raise the ``inventive step'' standard?\relax }{section.2}{}}
\@writefile{toc}{\contentsline {section}{\numberline {3}The broken regulative: technicity, industriality}{5}{section.3}}
\newlabel{tech}{{3}{5}{The broken regulative: technicity, industriality\relax }{section.3}{}}
\@writefile{toc}{\contentsline {section}{\numberline {4}Further Reading}{8}{section.4}}
\newlabel{ref}{{4}{8}{Further Reading\relax }{section.4}{}}
\gdef\scr@tpo@lst{0}
