\contentsline {chapter}{\numberline {1}Limiting patentability}{4}{chapter.1}
\contentsline {chapter}{\numberline {2}Interoperability}{5}{chapter.2}
\contentsline {chapter}{\numberline {3}Program Claims}{6}{chapter.3}
\contentsline {chapter}{\numberline {4}Wider considerations}{7}{chapter.4}
\contentsline {chapter}{\numberline {5}The Text}{8}{chapter.5}
\contentsline {chapter}{\numberline {6}Annotated Links}{10}{chapter.6}
