\relax 
\ifx\hyper@anchor\@undefined
\global \let \oldcontentsline\contentsline
\gdef \contentsline#1#2#3#4{\oldcontentsline{#1}{#2}{#3}}
\global \let \oldnewlabel\newlabel
\gdef \newlabel#1#2{\newlabelxx{#1}#2}
\gdef \newlabelxx#1#2#3#4#5#6{\oldnewlabel{#1}{{#2}{#3}}}
\AtEndDocument{\let \contentsline\oldcontentsline
\let \newlabel\oldnewlabel}
\else
\global \let \hyper@last\relax 
\fi

\@writefile{toc}{\contentsline {chapter}{\numberline {1}Limiting patentability}{4}{chapter.1}}
\@writefile{lof}{\addvspace {10\p@ }}
\@writefile{lot}{\addvspace {10\p@ }}
\newlabel{gtlim}{{1}{4}{Limiting patentability\relax }{chapter.1}{}}
\@writefile{toc}{\contentsline {chapter}{\numberline {2}Interoperability}{5}{chapter.2}}
\@writefile{lof}{\addvspace {10\p@ }}
\@writefile{lot}{\addvspace {10\p@ }}
\newlabel{intop}{{2}{5}{Interoperability\relax }{chapter.2}{}}
\@writefile{toc}{\contentsline {chapter}{\numberline {3}Program Claims}{6}{chapter.3}}
\@writefile{lof}{\addvspace {10\p@ }}
\@writefile{lot}{\addvspace {10\p@ }}
\newlabel{prog}{{3}{6}{Program Claims\relax }{chapter.3}{}}
\@writefile{toc}{\contentsline {chapter}{\numberline {4}Wider considerations}{7}{chapter.4}}
\@writefile{lof}{\addvspace {10\p@ }}
\@writefile{lot}{\addvspace {10\p@ }}
\newlabel{larg}{{4}{7}{Wider considerations\relax }{chapter.4}{}}
\@writefile{toc}{\contentsline {chapter}{\numberline {5}The Text}{8}{chapter.5}}
\@writefile{lof}{\addvspace {10\p@ }}
\@writefile{lot}{\addvspace {10\p@ }}
\newlabel{text}{{5}{8}{The Text\relax }{chapter.5}{}}
\@writefile{toc}{\contentsline {chapter}{\numberline {6}Annotated Links}{10}{chapter.6}}
\@writefile{lof}{\addvspace {10\p@ }}
\@writefile{lot}{\addvspace {10\p@ }}
\newlabel{links}{{6}{10}{Annotated Links\relax }{chapter.6}{}}
