\relax 
\ifx\hyper@anchor\@undefined
\global \let \oldcontentsline\contentsline
\gdef \contentsline#1#2#3#4{\oldcontentsline{#1}{#2}{#3}}
\global \let \oldnewlabel\newlabel
\gdef \newlabel#1#2{\newlabelxx{#1}#2}
\gdef \newlabelxx#1#2#3#4#5#6{\oldnewlabel{#1}{{#2}{#3}}}
\AtEndDocument{\let \contentsline\oldcontentsline
\let \newlabel\oldnewlabel}
\else
\global \let \hyper@last\relax 
\fi

\csname auxWARNINGii\endcsname {\typeout {-34- this file and other auxiliary files require to use the following}}
\csname auxWARNINGii\endcsname {\typeout {-34- LaTeX packages: french and babel!}}
\csname auxWARNINGii\endcsname {\typeout {-34- check \protect \usepackage \space or remove these files. Typesetting is aborted!} \stop }
\select@language{french}
\@writefile{toc}{\select@language{french}}
\@writefile{lof}{\select@language{french}}
\@writefile{lot}{\select@language{french}}
\select@language{french}
\@writefile{toc}{\select@language{french}}
\@writefile{lof}{\select@language{french}}
\@writefile{lot}{\select@language{french}}
\@writefile{toc}{\contentsline {section}{\numberline {1}d\'{e}tails}{1}{section.0.1}}
\newlabel{detal}{{1}{1}{d\'{e}tails\relax }{section.0.1}{}}
\@writefile{toc}{\contentsline {section}{\numberline {2}contact}{3}{section.0.2}}
\newlabel{media}{{2}{3}{contact\relax }{section.0.2}{}}
\@writefile{toc}{\contentsline {section}{\numberline {3}A propos de l'Alliance Eurolinux -- www.eurolinux.org}{3}{section.0.3}}
\newlabel{eurolinux}{{3}{3}{A propos de l'Alliance Eurolinux -- www.eurolinux.org\relax }{section.0.3}{}}
\@writefile{toc}{\contentsline {section}{\numberline {4}A propos de la FFII -- www.ffii.org}{3}{section.0.4}}
\newlabel{ffii}{{4}{3}{A propos de la FFII -- www.ffii.org\relax }{section.0.4}{}}
\@writefile{toc}{\contentsline {section}{\numberline {5}About Strasbourg Linux User Group -- strasbourg.linuxfr.org}{3}{section.0.5}}
\newlabel{sbxlug}{{5}{3}{About Strasbourg Linux User Group -- strasbourg.linuxfr.org\relax }{section.0.5}{}}
\@writefile{toc}{\contentsline {section}{\numberline {6}URL permanente de cette d\'{e}p\^{e}che}{3}{section.0.6}}
\newlabel{url}{{6}{3}{URL permanente de cette d\'{e}p\^{e}che\relax }{section.0.6}{}}
\@writefile{toc}{\contentsline {section}{\numberline {7}}{3}{section.0.7}}
\newlabel{links}{{7}{3}{\relax }{section.0.7}{}}
