\BOOKMARK [1][-]{section.1}{details}{}
\BOOKMARK [1][-]{section.2}{Kontakt}{}
\BOOKMARK [1][-]{section.3}{\334ber die Eurolinux-Allianz -- www.eurolinux.org}{}
\BOOKMARK [1][-]{section.4}{\334ber den FFII -- www.ffii.org}{}
\BOOKMARK [1][-]{section.5}{\334ber die Stra\337burger Linux-Anwendergruppe -- strasbourg.linuxfr.org}{}
\BOOKMARK [1][-]{section.6}{Permanente Netzadresse dieser Presseerkl\344rung}{}
\BOOKMARK [1][-]{section.7}{}{}
