\select@language {french}
\select@language {french}
\contentsline {section}{\numberline {1}d\'{e}tails}{1}{section.0.1}
\contentsline {section}{\numberline {2}contact}{3}{section.0.2}
\contentsline {section}{\numberline {3}A propos de l'Alliance Eurolinux -- www.eurolinux.org}{3}{section.0.3}
\contentsline {section}{\numberline {4}A propos de la FFII -- www.ffii.org}{3}{section.0.4}
\contentsline {section}{\numberline {5}About Strasbourg Linux User Group -- strasbourg.linuxfr.org}{3}{section.0.5}
\contentsline {section}{\numberline {6}URL permanente de cette d\'{e}p\^{e}che}{3}{section.0.6}
\contentsline {section}{\numberline {7}}{3}{section.0.7}
