\relax 
\ifx\hyper@anchor\@undefined
\global \let \oldcontentsline\contentsline
\gdef \contentsline#1#2#3#4{\oldcontentsline{#1}{#2}{#3}}
\global \let \oldnewlabel\newlabel
\gdef \newlabel#1#2{\newlabelxx{#1}#2}
\gdef \newlabelxx#1#2#3#4#5#6{\oldnewlabel{#1}{{#2}{#3}}}
\AtEndDocument{\let \contentsline\oldcontentsline
\let \newlabel\oldnewlabel}
\else
\global \let \hyper@last\relax 
\fi

\@writefile{toc}{\contentsline {section}{\numberline {1}details}{1}{section.1}}
\newlabel{detal}{{1}{1}{details\relax }{section.1}{}}
\@writefile{toc}{\contentsline {section}{\numberline {2}contact}{3}{section.2}}
\newlabel{media}{{2}{3}{contact\relax }{section.2}{}}
\@writefile{toc}{\contentsline {section}{\numberline {3}About the Eurolinux Alliance -- www.eurolinux.org}{3}{section.3}}
\newlabel{eurolinux}{{3}{3}{About the Eurolinux Alliance -- www.eurolinux.org\relax }{section.3}{}}
\@writefile{toc}{\contentsline {section}{\numberline {4}About the FFII -- www.ffii.org}{3}{section.4}}
\newlabel{ffii}{{4}{3}{About the FFII -- www.ffii.org\relax }{section.4}{}}
\@writefile{toc}{\contentsline {section}{\numberline {5}About Strasbourg Linux User Group -- strasbourg.linuxfr.org}{3}{section.5}}
\newlabel{sbxlug}{{5}{3}{About Strasbourg Linux User Group -- strasbourg.linuxfr.org\relax }{section.5}{}}
\@writefile{toc}{\contentsline {section}{\numberline {6}Permanent URL of this Press Release}{4}{section.6}}
\newlabel{url}{{6}{4}{Permanent URL of this Press Release\relax }{section.6}{}}
\@writefile{toc}{\contentsline {section}{\numberline {7}}{4}{section.7}}
\newlabel{links}{{7}{4}{\relax }{section.7}{}}
