\contentsline {section}{\numberline {1}details}{1}{section.1}
\contentsline {section}{\numberline {2}Kontakt}{3}{section.2}
\contentsline {section}{\numberline {3}\"{U}ber die Eurolinux-Allianz -- www.eurolinux.org}{3}{section.3}
\contentsline {section}{\numberline {4}\"{U}ber den FFII -- www.ffii.org}{3}{section.4}
\contentsline {section}{\numberline {5}\"{U}ber die Stra{\ss }burger Linux-Anwendergruppe -- strasbourg.linuxfr.org}{3}{section.5}
\contentsline {section}{\numberline {6}Permanente Netzadresse dieser Presseerkl\"{a}rung}{4}{section.6}
\contentsline {section}{\numberline {7}}{4}{section.7}
