\contentsline {section}{\numberline {1}details}{1}{section.1}
\contentsline {section}{\numberline {2}contact}{3}{section.2}
\contentsline {section}{\numberline {3}About the Eurolinux Alliance -- www.eurolinux.org}{3}{section.3}
\contentsline {section}{\numberline {4}About the FFII -- www.ffii.org}{3}{section.4}
\contentsline {section}{\numberline {5}About Strasbourg Linux User Group -- strasbourg.linuxfr.org}{3}{section.5}
\contentsline {section}{\numberline {6}Permanent URL of this Press Release}{4}{section.6}
\contentsline {section}{\numberline {7}}{4}{section.7}
