\relax 
\ifx\hyper@anchor\@undefined
\global \let \oldcontentsline\contentsline
\gdef \contentsline#1#2#3#4{\oldcontentsline{#1}{#2}{#3}}
\global \let \oldnewlabel\newlabel
\gdef \newlabel#1#2{\newlabelxx{#1}#2}
\gdef \newlabelxx#1#2#3#4#5#6{\oldnewlabel{#1}{{#2}{#3}}}
\AtEndDocument{\let \contentsline\oldcontentsline
\let \newlabel\oldnewlabel}
\else
\global \let \hyper@last\relax 
\fi

\@writefile{toc}{\contentsline {section}{\numberline {1}details}{1}{section.1}}
\newlabel{detal}{{1}{1}{details\relax }{section.1}{}}
\@writefile{toc}{\contentsline {section}{\numberline {2}Kontakt}{3}{section.2}}
\newlabel{media}{{2}{3}{Kontakt\relax }{section.2}{}}
\@writefile{toc}{\contentsline {section}{\numberline {3}\"{U}ber die Eurolinux-Allianz -- www.eurolinux.org}{3}{section.3}}
\newlabel{eurolinux}{{3}{3}{\"{U}ber die Eurolinux-Allianz -- www.eurolinux.org\relax }{section.3}{}}
\@writefile{toc}{\contentsline {section}{\numberline {4}\"{U}ber den FFII -- www.ffii.org}{3}{section.4}}
\newlabel{ffii}{{4}{3}{\"{U}ber den FFII -- www.ffii.org\relax }{section.4}{}}
\@writefile{toc}{\contentsline {section}{\numberline {5}\"{U}ber die Stra{\ss }burger Linux-Anwendergruppe -- strasbourg.linuxfr.org}{3}{section.5}}
\newlabel{sbxlug}{{5}{3}{\"{U}ber die Stra{\ss }burger Linux-Anwendergruppe -- strasbourg.linuxfr.org\relax }{section.5}{}}
\@writefile{toc}{\contentsline {section}{\numberline {6}Permanente Netzadresse dieser Presseerkl\"{a}rung}{4}{section.6}}
\newlabel{url}{{6}{4}{Permanente Netzadresse dieser Presseerkl\"{a}rung\relax }{section.6}{}}
\@writefile{toc}{\contentsline {section}{\numberline {7}}{4}{section.7}}
\newlabel{links}{{7}{4}{\relax }{section.7}{}}
