\relax 
\ifx\hyper@anchor\@undefined
\global \let \oldcontentsline\contentsline
\gdef \contentsline#1#2#3#4{\oldcontentsline{#1}{#2}{#3}}
\global \let \oldnewlabel\newlabel
\gdef \newlabel#1#2{\newlabelxx{#1}#2}
\gdef \newlabelxx#1#2#3#4#5#6{\oldnewlabel{#1}{{#2}{#3}}}
\AtEndDocument{\let \contentsline\oldcontentsline
\let \newlabel\oldnewlabel}
\else
\global \let \hyper@last\relax 
\fi

\@writefile{toc}{\contentsline {section}{\numberline {1}dmmv als solcher}{2}{section.1}}
\newlabel{alss}{{1}{2}{dmmv als solcher\relax }{section.1}{}}
\@writefile{toc}{\contentsline {section}{\numberline {2}Vorstand (board) des dmmv}{2}{section.2}}
\newlabel{vorst}{{2}{2}{Vorstand (board) des dmmv\relax }{section.2}{}}
\@writefile{toc}{\contentsline {section}{\numberline {3}Kooperation dmmv-VSI}{2}{section.3}}
\newlabel{vsi}{{3}{2}{Kooperation dmmv-VSI\relax }{section.3}{}}
\@writefile{toc}{\contentsline {section}{\numberline {4}VSI, Microsoft und Software-Patente}{2}{section.4}}
\newlabel{vsims}{{4}{2}{VSI, Microsoft und Software-Patente\relax }{section.4}{}}
\@writefile{toc}{\contentsline {section}{\numberline {5}Fazit}{2}{section.5}}
\newlabel{fazit}{{5}{2}{Fazit\relax }{section.5}{}}
\@writefile{toc}{\contentsline {section}{\numberline {6}Kommentierte Verweise}{2}{section.6}}
\newlabel{links}{{6}{2}{Kommentierte Verweise\relax }{section.6}{}}
