\BOOKMARK [1][-]{section.1}{dmmv als solcher}{}
\BOOKMARK [1][-]{section.2}{Vorstand \(board\) des dmmv}{}
\BOOKMARK [1][-]{section.3}{Kooperation dmmv-VSI}{}
\BOOKMARK [1][-]{section.4}{VSI, Microsoft und Software-Patente}{}
\BOOKMARK [1][-]{section.5}{Fazit}{}
\BOOKMARK [1][-]{section.6}{Kommentierte Verweise}{}
