\relax 
\ifx\hyper@anchor\@undefined
\global \let \oldcontentsline\contentsline
\gdef \contentsline#1#2#3#4{\oldcontentsline{#1}{#2}{#3}}
\global \let \oldnewlabel\newlabel
\gdef \newlabel#1#2{\newlabelxx{#1}#2}
\gdef \newlabelxx#1#2#3#4#5#6{\oldnewlabel{#1}{{#2}{#3}}}
\AtEndDocument{\let \contentsline\oldcontentsline
\let \newlabel\oldnewlabel}
\else
\global \let \hyper@last\relax 
\fi

\@writefile{toc}{\contentsline {section}{\numberline {1}dmmv als solcher}{1}{section.1}}
\newlabel{alss}{{1}{1}{dmmv als solcher\relax }{section.1}{}}
\@writefile{toc}{\contentsline {section}{\numberline {2}Vorstand (board) des dmmv}{3}{section.2}}
\newlabel{vorst}{{2}{3}{Vorstand (board) des dmmv\relax }{section.2}{}}
\@writefile{toc}{\contentsline {section}{\numberline {3}Kooperation dmmv-VSI}{4}{section.3}}
\newlabel{vsi}{{3}{4}{Kooperation dmmv-VSI\relax }{section.3}{}}
\@writefile{toc}{\contentsline {section}{\numberline {4}VSI, Microsoft und Software-Patente}{4}{section.4}}
\newlabel{vsims}{{4}{4}{VSI, Microsoft und Software-Patente\relax }{section.4}{}}
\@writefile{toc}{\contentsline {section}{\numberline {5}Fazit}{7}{section.5}}
\newlabel{fazit}{{5}{7}{Fazit\relax }{section.5}{}}
\@writefile{toc}{\contentsline {section}{\numberline {6}Annotated Links}{7}{section.6}}
\newlabel{links}{{6}{7}{Annotated Links\relax }{section.6}{}}
