\contentsline {section}{\numberline {1}Einzelheiten}{1}{section.1}
\contentsline {section}{\numberline {2}Medienkontakte}{4}{section.2}
\contentsline {section}{\numberline {3}\"{U}ber die Essener Linux User Group -- www.elug.de}{4}{section.3}
\contentsline {section}{\numberline {4}Permanente Netzadresse dieser Mitteilung}{4}{section.4}
\contentsline {section}{\numberline {5}Kommentierte Verweise}{4}{section.5}
