\relax 
\ifx\hyper@anchor\@undefined
\global \let \oldcontentsline\contentsline
\gdef \contentsline#1#2#3#4{\oldcontentsline{#1}{#2}{#3}}
\global \let \oldnewlabel\newlabel
\gdef \newlabel#1#2{\newlabelxx{#1}#2}
\gdef \newlabelxx#1#2#3#4#5#6{\oldnewlabel{#1}{{#2}{#3}}}
\AtEndDocument{\let \contentsline\oldcontentsline
\let \newlabel\oldnewlabel}
\else
\global \let \hyper@last\relax 
\fi

\@writefile{toc}{\contentsline {section}{\numberline {1}Einzelheiten}{1}{section.1}}
\newlabel{detal}{{1}{1}{Einzelheiten\relax }{section.1}{}}
\@writefile{toc}{\contentsline {section}{\numberline {2}Medienkontakte}{4}{section.2}}
\newlabel{media}{{2}{4}{Medienkontakte\relax }{section.2}{}}
\@writefile{toc}{\contentsline {section}{\numberline {3}\"{U}ber die Essener Linux User Group -- www.elug.de}{4}{section.3}}
\newlabel{elug}{{3}{4}{\"{U}ber die Essener Linux User Group -- www.elug.de\relax }{section.3}{}}
\@writefile{toc}{\contentsline {section}{\numberline {4}Permanente Netzadresse dieser Mitteilung}{4}{section.4}}
\newlabel{url}{{4}{4}{Permanente Netzadresse dieser Mitteilung\relax }{section.4}{}}
\@writefile{toc}{\contentsline {section}{\numberline {5}Kommentierte Verweise}{4}{section.5}}
\newlabel{links}{{5}{4}{Kommentierte Verweise\relax }{section.5}{}}
