\relax 
\ifx\hyper@anchor\@undefined
\global \let \oldcontentsline\contentsline
\gdef \contentsline#1#2#3#4{\oldcontentsline{#1}{#2}{#3}}
\global \let \oldnewlabel\newlabel
\gdef \newlabel#1#2{\newlabelxx{#1}#2}
\gdef \newlabelxx#1#2#3#4#5#6{\oldnewlabel{#1}{{#2}{#3}}}
\AtEndDocument{\let \contentsline\oldcontentsline
\let \newlabel\oldnewlabel}
\else
\global \let \hyper@last\relax 
\fi

\newlabel{intro}{{1}{2}{\"{U}ber das Papier und den Autor\label {intro}\relax }{section.1}{}}
\@writefile{toc}{\contentsline {section}{\numberline {1}\"{U}ber das Papier und den Autor}{2}{section.1}}
\newlabel{paper}{{2}{2}{Stellungnahme\label {paper}\relax }{section.2}{}}
\@writefile{toc}{\contentsline {section}{\numberline {2}Stellungnahme}{2}{section.2}}
\newlabel{haupt}{{2.1}{2}{Zu den Hauptfragen\label {haupt}\relax }{subsection.2.1}{}}
\@writefile{toc}{\contentsline {subsection}{\numberline {2.1}Zu den Hauptfragen}{2}{subsection.2.1}}
\newlabel{umf}{{2.1.1}{2}{Umfang der Harmonisierung\label {umf}\relax }{subsubsection.2.1.1}{}}
\@writefile{toc}{\contentsline {subsubsection}{\numberline {2.1.1}Umfang der Harmonisierung}{2}{subsubsection.2.1.1}}
\newlabel{aus}{{2.1.2}{2}{Auswirkungen der Harmonisierung\label {aus}\relax }{subsubsection.2.1.2}{}}
\@writefile{toc}{\contentsline {subsubsection}{\numberline {2.1.2}Auswirkungen der Harmonisierung}{2}{subsubsection.2.1.2}}
