\relax 
\ifx\hyper@anchor\@undefined
\global \let \oldcontentsline\contentsline
\gdef \contentsline#1#2#3#4{\oldcontentsline{#1}{#2}{#3}}
\global \let \oldnewlabel\newlabel
\gdef \newlabel#1#2{\newlabelxx{#1}#2}
\gdef \newlabelxx#1#2#3#4#5#6{\oldnewlabel{#1}{{#2}{#3}}}
\AtEndDocument{\let \contentsline\oldcontentsline
\let \newlabel\oldnewlabel}
\else
\global \let \hyper@last\relax 
\fi

\@writefile{toc}{\contentsline {section}{\numberline {1}About the Paper and the Author}{2}{section.1}}
\newlabel{intro}{{1}{2}{About the Paper and the Author\relax }{section.1}{}}
\@writefile{toc}{\contentsline {section}{\numberline {2}Position Paper}{2}{section.2}}
\newlabel{paper}{{2}{2}{Position Paper\relax }{section.2}{}}
\@writefile{toc}{\contentsline {subsection}{\numberline {2.1}On the Main Questions}{2}{subsection.2.1}}
\newlabel{haupt}{{2.1}{2}{On the Main Questions\relax }{subsection.2.1}{}}
\@writefile{toc}{\contentsline {subsubsection}{\numberline {2.1.1}Scope of Harmonisation}{2}{subsubsection.2.1.1}}
\newlabel{umf}{{2.1.1}{2}{Scope of Harmonisation\relax }{subsubsection.2.1.1}{}}
\@writefile{toc}{\contentsline {subsubsection}{\numberline {2.1.2}Effects of Harmonisation}{3}{subsubsection.2.1.2}}
\newlabel{aus}{{2.1.2}{3}{Effects of Harmonisation\relax }{subsubsection.2.1.2}{}}
\@writefile{toc}{\contentsline {subsection}{\numberline {2.2}Key Elements}{5}{subsection.2.2}}
\newlabel{klav}{{2.2}{5}{Key Elements\relax }{subsection.2.2}{}}
\@writefile{toc}{\contentsline {subsubsection}{\numberline {2.2.1}i. Principle}{5}{subsubsection.2.2.1}}
\newlabel{grun}{{2.2.1}{5}{i. Principle\relax }{subsubsection.2.2.1}{}}
\@writefile{toc}{\contentsline {subsubsection}{\numberline {2.2.2}ii. Complementarity}{6}{subsubsection.2.2.2}}
\newlabel{kompl}{{2.2.2}{6}{ii. Complementarity\relax }{subsubsection.2.2.2}{}}
\@writefile{toc}{\contentsline {subsubsection}{\numberline {2.2.3}iii. Technical Contribution}{6}{subsubsection.2.2.3}}
\newlabel{beit}{{2.2.3}{6}{iii. Technical Contribution\relax }{subsubsection.2.2.3}{}}
\@writefile{toc}{\contentsline {subsubsection}{\numberline {2.2.4}iv. Technical Considerations}{6}{subsubsection.2.2.4}}
\newlabel{uebe}{{2.2.4}{6}{iv. Technical Considerations\relax }{subsubsection.2.2.4}{}}
\@writefile{toc}{\contentsline {subsubsection}{\numberline {2.2.5}v. Technical and Non-Technical Features}{8}{subsubsection.2.2.5}}
\newlabel{techm}{{2.2.5}{8}{v. Technical and Non-Technical Features\relax }{subsubsection.2.2.5}{}}
\@writefile{toc}{\contentsline {subsubsection}{\numberline {2.2.6}iv. Permissible Claims}{8}{subsubsection.2.2.6}}
\newlabel{zulans}{{2.2.6}{8}{iv. Permissible Claims\relax }{subsubsection.2.2.6}{}}
\@writefile{toc}{\contentsline {subsubsection}{\numberline {2.2.7}vii. General Patent Law}{9}{subsubsection.2.2.7}}
\newlabel{allgpr}{{2.2.7}{9}{vii. General Patent Law\relax }{subsubsection.2.2.7}{}}
\@writefile{toc}{\contentsline {subsection}{\numberline {2.3}Summary}{9}{subsection.2.3}}
\newlabel{zusamf}{{2.3}{9}{Summary\relax }{subsection.2.3}{}}
\@writefile{toc}{\contentsline {section}{\numberline {3}Related Reading}{10}{section.3}}
\newlabel{links}{{3}{10}{Related Reading\relax }{section.3}{}}
