\relax 
\ifx\hyper@anchor\@undefined
\global \let \oldcontentsline\contentsline
\gdef \contentsline#1#2#3#4{\oldcontentsline{#1}{#2}{#3}}
\global \let \oldnewlabel\newlabel
\gdef \newlabel#1#2{\newlabelxx{#1}#2}
\gdef \newlabelxx#1#2#3#4#5#6{\oldnewlabel{#1}{{#2}{#3}}}
\AtEndDocument{\let \contentsline\oldcontentsline
\let \newlabel\oldnewlabel}
\else
\global \let \hyper@last\relax 
\fi

\@writefile{toc}{\contentsline {section}{\numberline {1}\"{U}ber das Papier und den Autor}{2}{section.1}}
\newlabel{intro}{{1}{2}{\"{U}ber das Papier und den Autor\relax }{section.1}{}}
\@writefile{toc}{\contentsline {section}{\numberline {2}Stellungnahme}{2}{section.2}}
\newlabel{paper}{{2}{2}{Stellungnahme\relax }{section.2}{}}
\@writefile{toc}{\contentsline {subsection}{\numberline {2.1}Zu den Hauptfragen}{2}{subsection.2.1}}
\newlabel{haupt}{{2.1}{2}{Zu den Hauptfragen\relax }{subsection.2.1}{}}
\@writefile{toc}{\contentsline {subsubsection}{\numberline {2.1.1}Umfang der Harmonisierung}{2}{subsubsection.2.1.1}}
\newlabel{umf}{{2.1.1}{2}{Umfang der Harmonisierung\relax }{subsubsection.2.1.1}{}}
\@writefile{toc}{\contentsline {subsubsection}{\numberline {2.1.2}Auswirkungen der Harmonisierung}{2}{subsubsection.2.1.2}}
\newlabel{aus}{{2.1.2}{2}{Auswirkungen der Harmonisierung\relax }{subsubsection.2.1.2}{}}
\@writefile{toc}{\contentsline {subsection}{\numberline {2.2}Zu den Schl\"{u}sselelementen}{5}{subsection.2.2}}
\newlabel{klav}{{2.2}{5}{Zu den Schl\"{u}sselelementen\relax }{subsection.2.2}{}}
\@writefile{toc}{\contentsline {subsubsection}{\numberline {2.2.1}i. Grundsatz}{5}{subsubsection.2.2.1}}
\newlabel{grun}{{2.2.1}{5}{i. Grundsatz\relax }{subsubsection.2.2.1}{}}
\@writefile{toc}{\contentsline {subsubsection}{\numberline {2.2.2}ii. Komplementarit\"{a}t}{6}{subsubsection.2.2.2}}
\newlabel{kompl}{{2.2.2}{6}{ii. Komplementarit\"{a}t\relax }{subsubsection.2.2.2}{}}
\@writefile{toc}{\contentsline {subsubsection}{\numberline {2.2.3}iii. Technischer Beitrag}{6}{subsubsection.2.2.3}}
\newlabel{beit}{{2.2.3}{6}{iii. Technischer Beitrag\relax }{subsubsection.2.2.3}{}}
\@writefile{toc}{\contentsline {subsubsection}{\numberline {2.2.4}iv. Technische \"{U}berlegungen}{6}{subsubsection.2.2.4}}
\newlabel{uebe}{{2.2.4}{6}{iv. Technische \"{U}berlegungen\relax }{subsubsection.2.2.4}{}}
\@writefile{toc}{\contentsline {subsubsection}{\numberline {2.2.5}v. Technische und nichttechnische Merkmale}{7}{subsubsection.2.2.5}}
\newlabel{techm}{{2.2.5}{7}{v. Technische und nichttechnische Merkmale\relax }{subsubsection.2.2.5}{}}
\@writefile{toc}{\contentsline {subsubsection}{\numberline {2.2.6}vi. Zul\"{a}ssige Patentanspr\"{u}che}{8}{subsubsection.2.2.6}}
\newlabel{zulans}{{2.2.6}{8}{vi. Zul\"{a}ssige Patentanspr\"{u}che\relax }{subsubsection.2.2.6}{}}
\@writefile{toc}{\contentsline {subsubsection}{\numberline {2.2.7}vii. Allgemeines Patentrecht....}{8}{subsubsection.2.2.7}}
\newlabel{allgpr}{{2.2.7}{8}{vii. Allgemeines Patentrecht...}{subsubsection.2.2.7}{}}
\@writefile{toc}{\contentsline {subsection}{\numberline {2.3}Zusammenfassend}{9}{subsection.2.3}}
\newlabel{zusamf}{{2.3}{9}{Zusammenfassend\relax }{subsection.2.3}{}}
\@writefile{toc}{\contentsline {section}{\numberline {3}Weitere Lekt\"{u}re}{10}{section.3}}
\newlabel{links}{{3}{10}{Weitere Lekt\"{u}re\relax }{section.3}{}}
