# -*- coding: utf-8 -*-

# FIELDS
# id [files] : author : date : langs : descr : mail

# EXPLANATIONS
# ID : usually the one chosen by ec-indprop (European Commission's Industrial Property department)
#      in this case, the FILES field can remain empty
#      in some cases, unusable names were chosen or several files exist, e.g. eurolinux, baharona, zander
# FILES : space-separated list of full file names 
# AUTHOR : author of the submission
# DATE: date of submisson: yyyy-mm-dd
# LANGS : languages of the submission and our descriptions written so far, as a space-separated list.
# DESCR : a few sentences that summarize the contents
# MAIL : mail address of the author 

angumema : Günther Schölch <angumema@t-online.de> : 2000 : de en : An examiner of the German Patent Office points out that the paper uses a meaningless concept of technical invention
maryland : University of Maryland, College of Information Studies, Center for Information Policy; Brian Kahin <bk90@umail.umd.edu> : 2000 : en : Criticises the consultation paper in detail, starting from implicit assumptions.  Explains that software patentability in the US has not been the result of a well-informed democratic decision process and that there is very little evidence to support any claim that it has been beneficial.  Directs attention to the relation between innovation and standardisation and notes a growing conflict between patent practise and open standards, which are of particular importance for software development.  Warns that Europe, as a late comer, would gain even less and suffer even more than the US from the negative impacts of software patentability.  Labels this paper as 'work in progress' and offers more references on request.
eurolinux core.pdf : EuroLinux Alliance <info@eurolinux.org> : 2001-12-15 : en : Cites a few typical examples of companies that would suffer from software patentability, explains how patents harm innovation and competition in the software field, criticises flaws in the consultation paper, proposes an alternative regulation that would only restate the current law in way that makes misinterpretation more difficult, comes with a voluminous appendix that contains many study papers on the question of software patentability
smets : Jean-Paul Smets <jp@smets.com> : 2000-10-26 : en : an author of a scientific study report on the question of software patentability explains why more property rights may mean less innovation and points to a series of questions that the European Commission should ask and research papers that it should read
ferran : Xavier Drudis Ferran <xdrudis@tinet.org> : 2000-10-27 : ca en : software engineer, systematically and eloquently responds to all the consultation questions.  Could have served as a draft for the official Eurolinux response.
hands : Philip Hands <phil@hands.com> : 2000-12-13 : en : CTO of Alcove Britain, responds to British consultation questions: software should not be patentable at all, regardless of whether it can be claimed to have a technical effect or not.  
widenius : Michael Widenius : 2000-12-05 : en : a chief developper of MySQL (opensource database of TCX, company of 100 employees), explains that software patents are silly, harm innovation and competition and pose a grave threat to software development, especially of small businesses and opensource projects.  while American companies have to spend their money keeping lawyers happy, Europeans can spend it on software development.  This is a great competitive advantage.  Copyright is adequate for protecting software investments.
syntec delatour1.pdf : SYNTEC INFORMATIQUE Chambre Syndicale des SSII et des Éditeurs de logiciels, Anne de la Tour <adelatour@syntec-informatique.fr> : 2000 : fr en : A french association of professionals working in software companies explains that software patents tend to do more harm than good and protests against the claims of the European Patent Office and the European Commission, who pretend that under current law software innovations are already patentable and the current debate is only about clarification: until 1999 the vast majority of SYNTEC members was absolutely sure that under French law software is not patentable and only copyright can be applied.
bileta : BILETA The British and Irish Law, Education and Technology Association : 2000 : en : expresses doubts about the wisdom of making software patentable and about the impartiality of the patent offices and others engaged in the consultation process.  Demands that the EU should sponsor research into the impact of extending patentability, and that much of this research effort should be directed to research in problems of law practise.
cledipa : CLEDIPA Comité de Liaison Européen de la Distribution Indépendante de Pièces de rechange et Equipements pour Automobiles, Silvia Gotzen : 2000 : en : The general secretary of the organisations worries that patents on software and business methods could lead to monopolisation of the secondary aftermarket for maintenance and repair of automobil parts and asks for an opportunity to take part in further consultations
bbc : BBC British Broadcasting Corporation, London : 2000 : en : warns that software patents could have a negative impact on standardisation and that this could touch the interests of the BBC in being able to develop various kinds of software.  remarks that the recourse to competition law is too slow and clumsy to be of any significant corrective value.
fernandez fernandez.pdf fernandez1.pdf : Professor Joaquin Seoane, Ramón García Fernández <ramon@jl1.quim.ucm.es> : 2000 : en : 2 spanish scientists say that the problem of triviality in the patent system must be solved before any software patents can be accepted, since the latter tend to be even more trivial and damaging than conventional patents.  The authors explain that patent offices show no interest in solving the problem of triviality and that current patent law is not suited to solve it.
hoevekamp : Tobias Hoevekamp : 2000-10-26 : de : swiss computer scientist, explains how he together with a few partners once tried to play the game of software patenting but failed because it is not suited to marketing software in the context of a small company
watts : Richard Watts <rrw@semiramis.org.uk> : 2000 : en : a computer scientist with BA and MA from Cambridge university, explains in this detailed paper why on the one hand side all software has a technical effect since it runs on a computer, on the other relaxing the restrictions on patentability on this basis will not lead to satisfactory results.  Lists in detail what the adverse effects would be.  Moreover explains that we are facing a choice of social paradigms: either a centralistic extension of TV-like media to the Internet or a global village where people more freely and actively participate in social and economic life. 
longo : Nick Longo <nlongo@cesiumsound.com> : 2000-10-20 : en : Nick Long, developper of music software (cesiumsound.com) and owner of several patents on music software algorithms, resents that opensource developpers, some of whom have worked together with him before, are now free-riding on him by taking the fruits of his pioneering work and reimplementing it under opensource form.  If that is allowed to happen, people will be deterred from investing in finding new algorithms.  This is especially so in the music field, where a lot of analogous technology is gradually being replaced by digital means, but may also be so in other fields.
geer : Benjamin Geer : 2000 : en : a software developper explains why he finds the idea of software patents abhorrent and thinks that they can only lead to endless legal quagmires and legal insecurity and do nothing to foster innovation
pclerc : Pierre Clerc <pclerc@ablys.com> : 2000 : fr : An owner of a small software company explains that the game of software patentability would force him to apply for thousands of patents per year and put him at great legal risks of being sued by others.  It would, due to massive rejection by the software community, not enjoy any moral support, thus giving rise to a rampant culture of piracy, which again is detrimental to software companies.  
roedding : Daniel Roedding : 2000-10-27 : de : german head of small software company, explains that software patents create an environment of legal insecurity in which it becomes entrepreneurially irresponsible for anybody to build a new company on writing and selling software
dijk : VOSN, Luuk van Dijk <Luuk.van.Dijk@xs4all.nl> : 2000-12-14 : en : two representatives of VOSN, the dutch open source society, analyse in detail the 'independent study' presented by the European Commission and show that it is full of apparent flaws, contradictions and unsubstantiated patent propaganda statements.  Demands a return to the letter and spirit of Art 52 EPC and its underlying concept of technical invention. 
isf : Internet Society France : 2000 : fr : against software patents, explains that patents in any area are in principle an unjustified restriction of freedom and competition and can therefore be accepted only if it is shown that the promote the progress of science and the useful arts.  In the software and internet area, the opposite can be shown to be true. 
avis : Edward Avis <epa98@doc.ic.ac.uk> : 2000-11-24 : en : Comments on the Study 'The Economic Impact of the Patentability of Computer Programs'.  This small (4 page) paper responds to some points in the 'independent study', gives reasons why software patents are counter-productive, why they must be clearly banned, how the European Patent Office has been abusing its power and why it must be given clear instructions what to do
trapp : RA Andreas Trapp <atrapp@ra-trapp.de> : 2000-11-22 : de : a lawyer from Leipzig who heard Mr. Mueller (EU patent department) speak in Munich on 2001-11-18 at a patent lawyer meeting, doubts the wisdom of software patenting, demands that computer programs be reconfirmed non-patentable, says that patents do not suit software.  examination and search is almost impossible, small and medium businesses are put at a disadvantage, investments are transferred from software development to legal costs.
jensen : Niels K Jensen <news2001@e-box.dk> : 2000-12-14 : en : a fulltime professional software developper working in the field of embedded software demands that the software exclusion from patentability be maintained, meaning that not the software as such but only independent technical devices or process into which the software is embedded can be patented.  If this separation is given up like in the US, work will become very difficult and even the companies that work in the technical field will be adversely affected due to legal incertainty.  Small companies will find it hard to raise funds even if they have patents, because investors don't want to share the risk of incurring unforseeable patent trouble. 
barahona baharonaen.pdf : Jesus M. Gonzalez Barahona <jgb@gsyc.escet.urjc.es> : 2000 : en : spanish information scientist explains how software patentability harms innovation and competition in the software field
familyrbg : Anonymous : 2000 : fr : An anonymous french writer with above-average knowledge of both patent law and the software situation criticises the EU commission for having campaigned for american-style software patents many years although this is very harmful for the European software industry and warns against legalising software patents, against officially sanctioning EPO practise and against instituting a European Supreme patent court.  Demands a return to legality.
ibm : IBM Europe : 2000 : en : an anonymous patent lawyer from the patent department of IBM applauds, demands that the current practise of the European Patent Office should be codified, that Art 52 EPC need not be changed, that however the TRIPS agreement requires an interpretation that makes %(q:software technology) patentable while business methods should not be patentable, because they do not constitute a field of technology of their own and they do not contribute to the technical progress of software technology
colombe : Bull SA, Michel Colombe <michel.colombe@bull.net> : 2000-12-14 : en : patent expert from legal department of Bull, a large subsidy-alimented French software giant, applauds the EU paper, says that our system must be modelled on the US model, because anyone who wants to succeed globally needs to succeed on the US market.  The patent system is particularly important for SMEs, for whom it is often the only way to protect their interests, access risk capital and expand into the US market.  Demands that software patents must be fully enforcable against the end-user and in particular against any commercial intermediaries.
alcatel : ALCATEL SA : 2000 : fr : patent expert from the legal department of Alcatel, French telecom giant, applauds, explains that all patents stimulate innovation and the fact that the US has the most advanced software industry sufficiently proves that software patents also stimulate software innovation.  Moreover, a chief reason to support patents is that SMEs badly need them. 
coppenholle : European Affairs Office, GE International : 2000 : en : patent lawyers of the legal department of General Electrics (US mega corporation) applaud, explain that software is equivalent to hardware and just one technology like any other and that the TRIPS treaty demands that patents must be available for all technologies.
geglobal : GE Global eXchange Service : 2000 : en : patent lawyers from GE global exchange service applaud, very similar to the GE International paper, some authors the same.  Demands that anything running on a computer should be patentable directly, and that no special consideration for the situation of open source developpers be given, as they are in exactly the same situtation as everybody else
philips : Philips : 2000 : en : patent lawyer applauds
bsa : BSA Business Software Alliance, Philipp Tamussino <ptamussino@cov.com> : 2000-12 : en : Philippe Tamussino, independent legal counsellor to BSA, applauds the EC patent department's paper and says that the BSA, which represents a lot of software companies, including those in the opensource business, is very much in favor of software patents.  Does not supply any examples but only abstract reasoning which echoes what is written in the EC paper.  It should be noted that some BSA representatives have in the passed expressed opposition to software patents, and that the primary concern of BSA is copyright enforcement.  It seems thus more than clear that this paper is not based on any process of opinion formation within BSA.
eicta : EICTA European Information and Communications Technology Industry Association : 2000 : en : an anonymous patent lawyer writes in the name of the European software industry that software patents are good for innovation and competition and even helpful and fair for opensource software, because opensource companies can use patents to impose their business model on others.  criticises the study of Bessen & Maskin as based on old data and wrong models 
planck : Max Planck Institut für ausländisches und internationales Patent, Urheber und Wettbewerbsrecht, München : 2000 : de : german patent law professors applaud the EC patent department paper but demand that it should make it more clear that software innovations can be patented without any restrictions.
parker : The EU Committee of the American Chamber of Commerce in Belgium  : 2001-01-12 : en : a patent lawyer writes that software patents have had a positive impact on business in the United States and that neither small companies nor opensource software have been seriously harmed
aippi aippi.pdf, q133.pdf : Association Internationale pour la protection de la Propriété industrielle : 2000-12-15 : en : world association of patent law professionals applauds and demands clear statement of software patentability
aspi : ASPI Association des Spécialistes en Propriété Industrielle de l'Industrie, Paris : 2000 : en : French patent lawyers applaud and demand clear statement of patentability of software, regardless of technical character, which is always there because software runs on a processor.  The exclusion of software from the European Patent Convention in 1973 was based on misunderstandings.  Software patents help small and medium companies to defend themselves against giants.  Stance very similar to that of INPI, the French patent office.
bjerke : Flemming Bjerke <flemming@bjerke.dk> : 2000 : en : A reseracher at Copenhagen Business School argues against software patents and for a new formulation of the concept of the technical invention, in such a way that only the use of natural laws and not abstract principles can be patented.  The reasoning is independent of but similar to the German concept of technical invention and the Eurolinux Regulation Proposal.
eisa : EISA European IT Services Association - Harrison, Laurence : 2000 : en : a patent lawyer applauds, explains that software patents promote innovation and help small and medium enterprises
icl : ICL PLC : 2000-12-15 : en : An anonymous patent lawyer, contactable via snailmail through the Intellectual Property Department of the British branch of ICL PLC, an IT service company with 22000 employees worldwide, explains that software patents stimulate innovation, help small and medium enterprises, are useful for opensource software and must be legalised if Europe is to comply with the TRIPS treaty.  Fully supporting the TRIPS treaty is important because otherwise other European industries (pharma?) might lose support in their struggle with third world countries
simons : KLID - Kommercielle Linux Interessenter i Danmark, Keld Simonsen <keld@dkuug.dk> : 2000 : en : KLID.dk, a Danish organisation of Linux-related companies, says that there is no economic rationale for granting software patents, that they particularly harm opensource software, and that patentability should be limited to physical inventions, i.e. processes that require more than ordinary computer equipment to run on. 
ficpi sonn1.pdf : FICPI - Fédération Internationale des Conseils en Propriété Industrielle : 2000 : en : a software patent lawyer, representing an association of patent lawyers, applauds, demands clear regulation in favor of software patentability
sonn : Österreichische Vereinigung für gewerblichen Rechtsschutz und Urheberrecht : 2000 : de : applauds, demands that we should, like in 1877 in Germany, have the courage to extend patentability to new spheres, including software and business methods.  All extensions of the patent system in the past have proven to be beneficial and there is not reason why this should not be so with new technologies.  Publishing source code on the Internet should be considered a patent infringement, but private circulation among developpers should be allowed, as a concession to the open source movement.  Written by Helmut Sonn, head of an Austrian IP association and apparently also at least co-author of the FICPI paper
unice : UNICE The voice of Business Europe : 2000 : en : a patent lawyer applauds, demands clear regulation for patentability of software
endres : Endres, A. : 2000-11-28 : de : professor of informatics, demands that his field should be treated in the same way as engineering, where patents are available, because informatics is about inventions rather than discoveries.
mayr : Gesellschaft für Informatik e.V : 2000-12-14 : de : Heinrich Mayr, president of german Society of Informatics, representing teachers, students and professionals of computer science in universities, applauds, demands that software should be patentable, because information science is a kind of engineering and engineering achievements of information scientists should receive the same kind of reward incentive as those of engineering scientists do.  Similar to paper of Prof. Endres, who is also active in this organisation.
kalton : Maitland Kalton : 2000-12-14 : en : Louis Joseph, senior IP consultant of Kalton, a British Internet company, explains what awkward interpretation of the law the EPO has given and how illogical and contrary to the spirit of the law its argumentatio concerning computer programs as such is.  The EPO did this in order to accomodate as well as it could the strong needs of the software industry for protection.  Software companies will only invest in a place where intellectual property is sufficiently protected.  If Europe doesn't make software patentable, they will go to the US. 
michelet : Alain Michelet : 2000 : fr : two french patent lawyers explain that Art 52.2c EPC owes its existence to misunderstandings or to a limited understanding of computers in the 70s and should be deleted.  Innovative SMEs need software patents to access venture capital.  Software should be patentable, but not in the form of function claims, only of means of achieving a result.  Special considerations may have to be taken for interoperability.
tmpdf : Trade Marks Patents & Design Federation, London : 2000 : en : applauds the EC patent department paper, explains matters in the common British style, according to which software should be patentable when it has a technical effect, and this should be understood to clearly exclude business methods.
tange tange.pdf tange1.pdf : Tange, Ole : 2000-12-14 : en da : a danish software professional explains in a detailed report with many references why software should not be patentable 
fei : Federation of the Electronics Industry : 2000 : en : a patent lawyer applauds in the name of this british organisation, explaining that patents promote innovation and help small and medium enterprises
breese : Pierre Breese : 2000 : fr : a french patent lawyer applauds and explains that small and medium enterprises badly need software patents in order to protect themselves against big idea snatchers and to attract investors
nissoux : Jean-Louis Nissoux <jean-louis.nissoux@lcpc.fr> : 2000 : fr : written apparently by someone with experience in the patent system, says that before an introduction of software patents strict standards of non-obviousness must be found and the problem of poor prior art search must be solved.  Moreover, the EPO's way of twisting the law to suit the purpose of granting more patents cannot be tolerated.  Although the author does not believe in the opensource or free software gospel, he cannot help to agree that the software patent system as it has been introduced by the EPO harms software development and puts small entities at an unfair disadvantage.
hossle : Hössle & Kudlek : 2000 : de : german software patent law practitioner and leading pro swpat lobbyist applauds the paper in the name of the German Chamber of Patent Lawyers.  Says inter alia: any new idea that is implemented on a computer, including business methods, must be patentable.  The publication of programs on the Net must be considered a direct patent infringement.  Linus Torvalds himself has acknowledged that Linux is in no way innovative.  Opensource software is unimportant.  The patent system has been beneficial in all areas, and patent-less areas such as software have always suffered from too much secrecy and too little innovation.
kiani : Rechtsanwälte Kiani & Springorum : 2000 : de : a german patent lawyer applauds
basinsky : Erwin Basinsky : 2000 : en : patent attorney from San Francisco explains that software must be patentable because it is no different from hardware, because of TRIPS and because patents allow small software companies access venture capital more easily, and because Europe needs access to more venture capital.   The opensource won't be harmed, because the corporate world is not interested in harming it.  Assertions about bad macro-economic efficiency of patents are academic and speculative.  
telecom : France Telecom : 2000 : fr : patent expert from legal department of France Telecom applauds, explains that anything technical must be patented and computer programs are technical because they run on a processor, demands that the publication of a program on disk or in the Internet should constitute an infringement
freischem : Stephan Freischem, European Patent and Trademark Attorney : 2000 : de : a german patent lawyer applauds, says patents are needed to protect small companies and it is an outrage that a group of opensource advocates was allowed to slow down this urgently needed clarification
castanet : Laboratoire Bordelais de Recherche en Informatique - Richard Castanet <castanet@labri.u-bordeaux.fr> : 2000-12-12 : en : A french information scientist explains very much in detail and with a lot of interesting examples and references what software patents are and how they harm the development of software, both research and commercial applications 
walle : Internet Society Luxembourg, Patrick Vande Walle <patrick@luxembourg-isoc.org> : 2000 : fr : explains that software patents attack the foundations of the Internet and have various nefarious effects on software innovation and standardisation in general and on SMEs and opensource software in particular.  Demands that the practise of the European Patent Office be brought in line with the law rather than codified into a directive
hartnack : Anonymous : 2000-11-20 : de : patent lawyer, applauds consultation paper, wants current EPO practise to be confirmed, sees difference to USPTO practise in requirement of 'further technical effect', stresses need to define 'computer program as such' as 'the code which is protected by copyright' 
axel : Calvet, Axel <axso@cybercable.fr> : 2000-11-20 : fr : protests that Europe is once again bowing to the patent lobby, the multinationals and to the US and acting against its economic interests
demoulin : J-Brice Demoulin <demoulin@mandrakesoft.com> : 2000-11-15 : fr : a manager from Mandrakesoft remarks that property may important for the economy in other areas, but for information economics freedom from restrictions is more important.  The ideal price at which software can unfold its social productivity is zero.  Money should be gained by complementary services.
eriksson : Jakov af Wallby <jakov@vmlinux.org> : 2000-11-15 : en : patenting software is as absurd as patenting mathematics, and it marginalises and criminalises small enterprises and opensource software.  is that maybe the intention?
tullo : Anonymous : 2000-11-09 : en : a rather naive paper, expressing unease about the malfunctioning of the patent system, proposing that the EU should adopt the law that allows patents to be invalidated using prior art
malde : Ketil Malde <ketil@ii.uib.no> : 2000-11-09 : en : against all kinds of software patents, enumerates some well known abuses, says that Europe is better positioned in cryptography because it did not follow the lead of bad US examples
smile : Alan Smile <emile_noland@hotmail.com> : 2000-11-02 : fr : short comment against swpat: lack of swpats protects European companies from a suffocating and unproductive regime of large mostly American patent portfolio holders
short : Justin Short : 2000-10-31 : en : explains some basics of software economics.  says that systems are complex, individual ideas are small building blocks, sufficiently and nearly ideally protected by temporary secrecy, copyright and other mechanisms
oksanen : Ville Oksanen <ville.oksanen@turre.com> : 2000-10-30 : en : Resolution of YEPP (union of youth organisations center-right European parties) against software patents.  After a lively and controversial debate, YEPP voted by a narrow margin for this resolution which calls for a clear ban on all software patents.
markham : Gervase Markham <gervase.markham@university-college.oxford.ac.uk> : 2000-10-29 : en : a 22 year old computer science student of Oxford University feels that software patentability will degrade his future work environment as a software engineer
zander zander1.pdf zander2.pdf zander3.pdf : Thomas Zander <zander@earthling.net> : 2000-10-29 : de : A software developper analyses the various levels of problem solving involved in programming and explains that for each of these levels there are more or less important reasons not to have software patents.  Supports FFII proposal for reinforcing the wording of Art 52 so as to avoid misinterpretation by certain lawcourts.
chown : Peter Chown <pete.chown@skygate.co.uk> : 2000-10-28 : en : CEO of Skygate, a small british software company says that there are many situations in which having software patents could be helpful, but these possible advantages of software patents are by far outweighed by the negative impact of the thousands of patents that at least a small company cannot cope with and that it will be infringing.  Skygate is already experiencing a lot of trouble with US patents and urges the EU not to allow this kind of thing in Europe.
roth : Magnus Roth : 2000-10-28 : en : Swedish software developper, against swpat, points to a swedish site http://hempassagen.se/ingets1/index.htm
schaffert : Sebastian Schaffert : 2000-10-28 : de : German software developper and businessman protests against software patents, says he and his colleagues feel not helped but threatened by them.  Copyright is enough.
playez : playez : 2000-10-27 : fr : French software developper feels threatened by software patents, finds copyright useful and patents only harmful 
horvath : Anonymous : 2000-10-27 : de : An austrian interested in obtaining software patents but proposing that utility certificates should be offered instead, like in Austria, since they are easier and cheaper to obtain
bruyninckx : Prof. Dr. ir. Herman Bruyninckx <Herman.Bruyninckx@mech.kuleuven.ac.be> : 2000-10-27 : en : a professor in an engineering department of a Belgian university, who has been observing the development of patenting for many years, warns that in the software field patents hamper the free flow of ideas, which is one of the basic conditions for progress.  Moreover they prevent the formation of spinoffs from university research because they create a lot of bureaucratic obstacles and restrict the proliferation of free software, which allows spinoffs to grow and specialise quickly.  Without free software these spinoffs would have to reimplement a lot of basic libraries themselves.  Software patenting would be a major civilisational disaster which must not be allowed to happen.
isaac : Prof. Alan Isaac <aisaac@american.edu> : 2000-10-27 : en : an american economist writes a few sentences on the demerits of software patents and concludes: 'The move towards software patents is insane, anti-growth, counter-productive and destructive.
holemans : Didier Holemans <cr33237@chello.be> : 2000-10-27 : fr : short statement in the name of a company called MODULO architects, warns that the software business is intrinsically monopolistic and that patents make matters worse.
lakofski : Lakofski : 2000-10-27 : en : an anonymous software developper says that he is currently trying to patent an idea, and without the patent system he would have had no motivation to develop this idea or to let the public know it.  Patents are therefore necessary but need to be implemented responsibly, with sufficient participation of industry peers.
dliebart : Dominique Liebart <dliebart@wanadoo.fr> : 2000-10-27 : fr : a software power user and hobby programmer finds software patents insane, enumerates their harmful effects on economic organisation and asks the Brussels legislators whether they are doing their job of serving the people and defining our basic freedom
mcininch : PhD James McIninch <james.mcinich@cereon.com> : 2000-10-27 : en : refutes claims of the EU-sponsored 'independent study' which claimed that opensource developpers can and should make good use of patents, explains how software patents harm software innovation and offers to describe further scenarios if asked
rue : Tim Rue <timrue@mindspring.com> : 2000-10-27 : en : a hobby economist gives references to a lot of interesting web pages, containing a lot of speculation about where our society is heading, and says that software patentability won't work because it is historically premature
selig : Christian Selig <selig@bnv-bamberg.de> : 2000-10-27 : en : a young student, system adminstrator and programmer explains why software patents are useless and a grave threat to him, and how the 'independent study' is flawed and clearly not independet. 
yerrick : Damian Yerrick : 2000-10-27 : en : a fan of opensource software from the USA explains why software patents harm the development of software and benefit only lawyers
agopoglu : Agopoglu <agopoglu@agol.com> : 2000-10-26 : fr : software patents are like charging usage fees from people for their daily activities such as a way of using a hammer: pure nonsense, unfeasable because much good software is developped by individuals and small networks and companies.
causton : Raymond Causton : 2000-10-26 : en : Master of Science from the US, explains that US software companies are having a hard time dealing with the hassle of software patents, that this usually helps nobody except for lawyers, and suggests that European companies use their time better, by writing good software while their american colleagues are sitting in courtrooms.
clerc : Maurice Clerc <maurice.clerc@writeme.com> : 2000-10-26 : fr : a fan of open source software, thinks that software patents are a bad, because software works are complex systems of text similar to works of literature.  Patenting a software idea is like patenting a plot of a novel.  Moreover the models of authorship are continuously changing and especially in the information network world they are not compatible with the model of the patentable invention.  Thus software patents fail to promote innovation and instead only reinforce certain vested interests.
darche : Marc-Aurèle Darche, Paul Rousset, Armell Darche, Jeanine Buard, Christiane Darche : 2000 : en : A group of software developpers against swpat because (1) the examination process does not work and cannot be expected to work any time soon (2) in a domain like software you will get huge numbers of trivial and broad patents (3) copyright is better adapted to promote software innovation.  Europe will be dominated if it follows the US.  If it takes the lead against swpat, it will on the contrary attract investments while the others spend their money on patent portfolio managment and litigation. 
higgins : Amy Higgins : 2000 : en : A doctorand from the John F Kennedy School of Government at Harvard University explains the rationale of the patent system but says that it is too bulky.  For software something faster and shorter, e.g. with a duration of 5 instead of 20 years is needed.
pettiaux : Nicolas Pettiaux <pettiaux@openbe.org> : 2000-12-15 : en : asks what is the difference between computer programs and computer programs with a technical effect
muriel : Manuel Muriel <mmurie@terra.es> : 2001-02-28 : en es : an individual from Spain explains in general terms that software patents are dangerous to SMEs and free software and that they tend to be granted for trivial innovations.
studierende : Studierende der Universitaet des Saarlandes : 2000 : de : students of Saarbrücken University against software patents
moens : Annelis Moens <as.drummond@fedcourt.gov.au> : 2000-10-26 : en : An employee (judge associate) of the Australian Federal Court draws attention to a pro swpat article she published in an Australian IP journal
luguet : Grégory Luguet : 2000-10-26 : fr : in the interest of innovation, please do not make software patentable
rodriguez : Mathias Rodriguez : 2000-10-26 : fr : against swpat: serves only to augment the power of the powerful
