\relax 
\catcode`:\active
\catcode`;\active
\catcode`!\active
\catcode`?\active
\ifx\hyper@anchor\@undefined
\global \let \oldcontentsline\contentsline
\gdef \contentsline#1#2#3#4{\oldcontentsline{#1}{#2}{#3}}
\global \let \oldnewlabel\newlabel
\gdef \newlabel#1#2{\newlabelxx{#1}#2}
\gdef \newlabelxx#1#2#3#4#5#6{\oldnewlabel{#1}{{#2}{#3}}}
\AtEndDocument{\let \contentsline\oldcontentsline
\let \newlabel\oldnewlabel}
\else
\global \let \hyper@last\relax 
\fi

\select@language{french}
\@writefile{toc}{\select@language{french}}
\@writefile{lof}{\select@language{french}}
\@writefile{lot}{\select@language{french}}
\@writefile{toc}{\contentsline {section}{\numberline {1}Journaux et S\'{e}ries}{2}{section.1}}
\newlabel{jurn}{{1}{2}{Journaux et S\'{e}ries\relax }{section.1}{}}
\newlabel{BPatG}{{1}{2}{Journaux et S\'{e}ries\relax }{section.1}{}}
\newlabel{AES}{{1}{2}{Journaux et S\'{e}ries\relax }{section.1}{}}
\newlabel{BGH}{{1}{2}{Journaux et S\'{e}ries\relax }{section.1}{}}
\newlabel{BGHZiv}{{1}{2}{Journaux et S\'{e}ries\relax }{section.1}{}}
\newlabel{EPO}{{1}{2}{Journaux et S\'{e}ries\relax }{section.1}{}}
\newlabel{MDP}{{1}{2}{Journaux et S\'{e}ries\relax }{section.1}{}}
\newlabel{CR}{{1}{2}{Journaux et S\'{e}ries\relax }{section.1}{}}
\newlabel{GRUR}{{1}{2}{Journaux et S\'{e}ries\relax }{section.1}{}}
\newlabel{GRUR-Int}{{1}{2}{Journaux et S\'{e}ries\relax }{section.1}{}}
\newlabel{NJW}{{1}{2}{Journaux et S\'{e}ries\relax }{section.1}{}}
\newlabel{IIC}{{1}{2}{Journaux et S\'{e}ries\relax }{section.1}{}}
\newlabel{EIPR}{{1}{2}{Journaux et S\'{e}ries\relax }{section.1}{}}
\newlabel{HBR}{{1}{2}{Journaux et S\'{e}ries\relax }{section.1}{}}
\newlabel{HLR}{{1}{2}{Journaux et S\'{e}ries\relax }{section.1}{}}
\newlabel{IDEA}{{1}{2}{Journaux et S\'{e}ries\relax }{section.1}{}}
\newlabel{IPQ}{{1}{2}{Journaux et S\'{e}ries\relax }{section.1}{}}
\newlabel{JJ}{{1}{2}{Journaux et S\'{e}ries\relax }{section.1}{}}
\newlabel{AIPLA}{{1}{2}{Journaux et S\'{e}ries\relax }{section.1}{}}
\newlabel{ACM}{{1}{2}{Journaux et S\'{e}ries\relax }{section.1}{}}
\newlabel{AIPJ}{{1}{2}{Journaux et S\'{e}ries\relax }{section.1}{}}
\newlabel{SMI}{{1}{2}{Journaux et S\'{e}ries\relax }{section.1}{}}
\newlabel{WuW}{{1}{2}{Journaux et S\'{e}ries\relax }{section.1}{}}
\newlabel{CLSR}{{1}{2}{Journaux et S\'{e}ries\relax }{section.1}{}}
\newlabel{UPLR}{{1}{2}{Journaux et S\'{e}ries\relax }{section.1}{}}
\newlabel{IST}{{1}{2}{Journaux et S\'{e}ries\relax }{section.1}{}}
\newlabel{NYT}{{1}{2}{Journaux et S\'{e}ries\relax }{section.1}{}}
\newlabel{RP}{{1}{2}{Journaux et S\'{e}ries\relax }{section.1}{}}
\newlabel{PrincetonUP}{{1}{2}{Journaux et S\'{e}ries\relax }{section.1}{}}
\newlabel{Liedl}{{1}{2}{Journaux et S\'{e}ries\relax }{section.1}{}}
\@writefile{toc}{\contentsline {section}{\numberline {2}Textes}{3}{section.2}}
\newlabel{text}{{2}{3}{Textes\relax }{section.2}{}}
