\contentsline {section}{\numberline {1}Warum die Aufregung um Softwarepatente?}{2}{section.1}
\contentsline {section}{\numberline {2}Computerprogramme aus der Sicht des Patentwesens}{2}{section.2}
\contentsline {section}{\numberline {3}Gescheiterter Versuch, Art 52 EP\"{U} zu entsorgen}{3}{section.3}
\contentsline {section}{\numberline {4}Gescheiterter Versuch, das Parlament irrezuf\"{u}hren}{4}{section.4}
\contentsline {section}{\numberline {5}Der Rat unter schwindender Kontrolle des Patentapparats}{5}{section.5}
