\relax 
\ifx\hyper@anchor\@undefined
\global \let \oldcontentsline\contentsline
\gdef \contentsline#1#2#3#4{\oldcontentsline{#1}{#2}{#3}}
\global \let \oldnewlabel\newlabel
\gdef \newlabel#1#2{\newlabelxx{#1}#2}
\gdef \newlabelxx#1#2#3#4#5#6{\oldnewlabel{#1}{{#2}{#3}}}
\AtEndDocument{\let \contentsline\oldcontentsline
\let \newlabel\oldnewlabel}
\else
\global \let \hyper@last\relax 
\fi

\@writefile{toc}{\contentsline {section}{\numberline {1}Miks kogu see viha tarkvarapatentide vastu?}{1}{section.1}}
\newlabel{swpat}{{1}{1}{Miks kogu see viha tarkvarapatentide vastu?\relax }{section.1}{}}
\@writefile{toc}{\contentsline {section}{\numberline {2}Arvutiprogrammid patendis\"{u}steemi vaatevinklist}{2}{section.2}}
\newlabel{legal}{{2}{2}{Arvutiprogrammid patendis\"{u}steemi vaatevinklist\relax }{section.2}{}}
\@writefile{toc}{\contentsline {section}{\numberline {3}Nurjunud katse muuta Euroopa patendikonventsiooni artiklit 52}{3}{section.3}}
\newlabel{reskr}{{3}{3}{Nurjunud katse muuta Euroopa patendikonventsiooni artiklit 52\relax }{section.3}{}}
\@writefile{toc}{\contentsline {section}{\numberline {4}Eba\~{o}nnestunud katse lollitada Euroopa Parlamenti}{3}{section.4}}
\newlabel{europarl}{{4}{3}{Eba\~{o}nnestunud katse lollitada Euroopa Parlamenti\relax }{section.4}{}}
\@writefile{toc}{\contentsline {section}{\numberline {5}N\~{o}ukogu patendiladviku vankuva kontrolli all}{4}{section.5}}
\newlabel{cons}{{5}{4}{N\~{o}ukogu patendiladviku vankuva kontrolli all\relax }{section.5}{}}
\gdef\scr@tpo@lst{0}
