\relax 
\ifx\hyper@anchor\@undefined
\global \let \oldcontentsline\contentsline
\gdef \contentsline#1#2#3#4{\oldcontentsline{#1}{#2}{#3}}
\global \let \oldnewlabel\newlabel
\gdef \newlabel#1#2{\newlabelxx{#1}#2}
\gdef \newlabelxx#1#2#3#4#5#6{\oldnewlabel{#1}{{#2}{#3}}}
\AtEndDocument{\let \contentsline\oldcontentsline
\let \newlabel\oldnewlabel}
\else
\global \let \hyper@last\relax 
\fi

\@writefile{toc}{\contentsline {section}{\numberline {1}Warum die Aufregung um Softwarepatente?}{2}{section.1}}
\newlabel{swpat}{{1}{2}{Warum die Aufregung um Softwarepatente?\relax }{section.1}{}}
\@writefile{toc}{\contentsline {section}{\numberline {2}Computerprogramme aus der Sicht des Patentwesens}{2}{section.2}}
\newlabel{legal}{{2}{2}{Computerprogramme aus der Sicht des Patentwesens\relax }{section.2}{}}
\@writefile{toc}{\contentsline {section}{\numberline {3}Gescheiterter Versuch, Art 52 EP\"{U} zu entsorgen}{3}{section.3}}
\newlabel{reskr}{{3}{3}{Gescheiterter Versuch, Art 52 EP\"{U} zu entsorgen\relax }{section.3}{}}
\@writefile{toc}{\contentsline {section}{\numberline {4}Gescheiterter Versuch, das Parlament irrezuf\"{u}hren}{4}{section.4}}
\newlabel{europarl}{{4}{4}{Gescheiterter Versuch, das Parlament irrezuf\"{u}hren\relax }{section.4}{}}
\@writefile{toc}{\contentsline {section}{\numberline {5}Der Rat unter schwindender Kontrolle des Patentapparats}{5}{section.5}}
\newlabel{cons}{{5}{5}{Der Rat unter schwindender Kontrolle des Patentapparats\relax }{section.5}{}}
\gdef\scr@tpo@lst{0}
