\contentsline {section}{\numberline {1}Waarom al deze heibel over softwarepatenten?}{2}{section.1}
\contentsline {section}{\numberline {2}Computerprogramma's vanuit het perspectief van het octrooisysteem}{2}{section.2}
\contentsline {section}{\numberline {3}Een stopgezette poging om Art 52 EOV te amenderen}{3}{section.3}
\contentsline {section}{\numberline {4}Een mislukte poging om het Europees Parlement te misleiden}{4}{section.4}
\contentsline {section}{\numberline {5}De Raad onder de wankele controle van het octrooi-etablishment}{5}{section.5}
