\relax 
\catcode`.\active
\catcode`\.=12
\catcode`"\active
\catcode`<\active
\catcode`>\active
\es@quoting
\ifx\hyper@anchor\@undefined
\global \let \oldcontentsline\contentsline
\gdef \contentsline#1#2#3#4{\oldcontentsline{#1}{#2}{#3}}
\global \let \oldnewlabel\newlabel
\gdef \newlabel#1#2{\newlabelxx{#1}#2}
\gdef \newlabelxx#1#2#3#4#5#6{\oldnewlabel{#1}{{#2}{#3}}}
\AtEndDocument{\let \contentsline\oldcontentsline
\let \newlabel\oldnewlabel}
\else
\global \let \hyper@last\relax 
\fi

\select@language{spanish}
\@writefile{toc}{\select@language{spanish}}
\@writefile{lof}{\select@language{spanish}}
\@writefile{lot}{\select@language{spanish}}
\@writefile{toc}{\contentsline {section}{\numberline {1}?`Por qu\'{e} tanta furia sobre las patentes de software?}{2}{section.1}}
\newlabel{swpat}{{1}{2}{?`Por qu\'{e} tanta furia sobre las patentes de software?\relax }{section.1}{}}
\@writefile{toc}{\contentsline {section}{\numberline {2}Los Programas de Ordenador desde la Perspectiva del Sistema de Patentes}{2}{section.2}}
\newlabel{legal}{{2}{2}{Los Programas de Ordenador desde la Perspectiva del Sistema de Patentes\relax }{section.2}{}}
\@writefile{toc}{\contentsline {section}{\numberline {3}Intento Abortade de Enmendar el Art 52 EPC}{3}{section.3}}
\newlabel{reskr}{{3}{3}{Intento Abortade de Enmendar el Art 52 EPC\relax }{section.3}{}}
\@writefile{toc}{\contentsline {section}{\numberline {4}Intento Fallido de Ningunear el Parlamento}{4}{section.4}}
\newlabel{europarl}{{4}{4}{Intento Fallido de Ningunear el Parlamento\relax }{section.4}{}}
\@writefile{toc}{\contentsline {section}{\numberline {5}El Consejo bajo el control fallido del Stablishment del Parlamento}{5}{section.5}}
\newlabel{cons}{{5}{5}{El Consejo bajo el control fallido del Stablishment del Parlamento\relax }{section.5}{}}
\gdef\scr@tpo@lst{0}
