\select@language {french}
\contentsline {section}{\numberline {1}Pourquoi tant de tapage autour des brevets logiciels ?}{1}{section.1}
\contentsline {section}{\numberline {2}Les programmes d'ordinateurs du point de vue du Syst\`{e}me de brevets}{2}{section.2}
\contentsline {section}{\numberline {3}Tentative avort\'{e}e d'amender l'article 52 de la CBE}{3}{section.3}
\contentsline {section}{\numberline {4}Tentative vaine de tromper le Parlement}{4}{section.4}
\contentsline {section}{\numberline {5}Le Conseil sous le contr\^{o}le chancelant de l'establishment des brevets}{4}{section.5}
