\relax 
\ifx\hyper@anchor\@undefined
\global \let \oldcontentsline\contentsline
\gdef \contentsline#1#2#3#4{\oldcontentsline{#1}{#2}{#3}}
\global \let \oldnewlabel\newlabel
\gdef \newlabel#1#2{\newlabelxx{#1}#2}
\gdef \newlabelxx#1#2#3#4#5#6{\oldnewlabel{#1}{{#2}{#3}}}
\AtEndDocument{\let \contentsline\oldcontentsline
\let \newlabel\oldnewlabel}
\else
\global \let \hyper@last\relax 
\fi

\@writefile{toc}{\contentsline {section}{\numberline {1}Why all this fury about software patents?}{1}{section.1}}
\newlabel{swpat}{{1}{1}{Why all this fury about software patents?\relax }{section.1}{}}
\@writefile{toc}{\contentsline {section}{\numberline {2}Computer Programs from the Patent System's Perspective}{2}{section.2}}
\newlabel{legal}{{2}{2}{Computer Programs from the Patent System's Perspective\relax }{section.2}{}}
\@writefile{toc}{\contentsline {section}{\numberline {3}Abortive Attempt to Amend Art 52 EPC}{3}{section.3}}
\newlabel{reskr}{{3}{3}{Abortive Attempt to Amend Art 52 EPC\relax }{section.3}{}}
\@writefile{toc}{\contentsline {section}{\numberline {4}Failed Attempt to Fool the Parliament}{4}{section.4}}
\newlabel{europarl}{{4}{4}{Failed Attempt to Fool the Parliament\relax }{section.4}{}}
\@writefile{toc}{\contentsline {section}{\numberline {5}The Council under Faltering Control of the Patent Establishment}{4}{section.5}}
\newlabel{cons}{{5}{4}{The Council under Faltering Control of the Patent Establishment\relax }{section.5}{}}
\gdef\scr@tpo@lst{0}
