\select@language {czech}
\contentsline {section}{\numberline {1}Pro\v {c} v\v {s}echen ten rozruch kv\r {u}li softwarov\'{y}m patent\r {u}m?}{2}{section.1}
\contentsline {section}{\numberline {2}Po\v {c}\'{\i }ta\v {c}ov\'{e} programy z perspektivy patentov\'{e}ho syst\'{e}mu}{2}{section.2}
\contentsline {section}{\numberline {3}Nezda\v {r}en\'{y} pokus zm\v {e}nit \v {c}l\'{a}nek 52 EPC}{3}{section.3}
\contentsline {section}{\numberline {4}Nezda\v {r}en\'{y} pokus o\v {s}\'{a}lit parlament}{4}{section.4}
\contentsline {section}{\numberline {5}Rada pod nejistou nadvl\'{a}dou patentov\'{e}ho establishmentu}{4}{section.5}
