\contentsline {section}{\numberline {1}Miks kogu see viha tarkvarapatentide vastu?}{1}{section.1}
\contentsline {section}{\numberline {2}Arvutiprogrammid patendis\"{u}steemi vaatevinklist}{2}{section.2}
\contentsline {section}{\numberline {3}Nurjunud katse muuta Euroopa patendikonventsiooni artiklit 52}{3}{section.3}
\contentsline {section}{\numberline {4}Eba\~{o}nnestunud katse lollitada Euroopa Parlamenti}{3}{section.4}
\contentsline {section}{\numberline {5}N\~{o}ukogu patendiladviku vankuva kontrolli all}{4}{section.5}
