\relax 
\ifx\hyper@anchor\@undefined
\global \let \oldcontentsline\contentsline
\gdef \contentsline#1#2#3#4{\oldcontentsline{#1}{#2}{#3}}
\global \let \oldnewlabel\newlabel
\gdef \newlabel#1#2{\newlabelxx{#1}#2}
\gdef \newlabelxx#1#2#3#4#5#6{\oldnewlabel{#1}{{#2}{#3}}}
\AtEndDocument{\let \contentsline\oldcontentsline
\let \newlabel\oldnewlabel}
\else
\global \let \hyper@last\relax 
\fi

\@writefile{toc}{\contentsline {section}{\numberline {1}Waarom al deze heibel over softwarepatenten?}{2}{section.1}}
\newlabel{swpat}{{1}{2}{Waarom al deze heibel over softwarepatenten?\relax }{section.1}{}}
\@writefile{toc}{\contentsline {section}{\numberline {2}Computerprogramma's vanuit het perspectief van het octrooisysteem}{2}{section.2}}
\newlabel{legal}{{2}{2}{Computerprogramma's vanuit het perspectief van het octrooisysteem\relax }{section.2}{}}
\@writefile{toc}{\contentsline {section}{\numberline {3}Een stopgezette poging om Art 52 EOV te amenderen}{3}{section.3}}
\newlabel{reskr}{{3}{3}{Een stopgezette poging om Art 52 EOV te amenderen\relax }{section.3}{}}
\@writefile{toc}{\contentsline {section}{\numberline {4}Een mislukte poging om het Europees Parlement te misleiden}{4}{section.4}}
\newlabel{europarl}{{4}{4}{Een mislukte poging om het Europees Parlement te misleiden\relax }{section.4}{}}
\@writefile{toc}{\contentsline {section}{\numberline {5}De Raad onder de wankele controle van het octrooi-etablishment}{5}{section.5}}
\newlabel{cons}{{5}{5}{De Raad onder de wankele controle van het octrooi-etablishment\relax }{section.5}{}}
\gdef\scr@tpo@lst{0}
