\BOOKMARK [1][-]{section.1}{Proc v\235echen ten rozruch kvuli softwarov\375m patentum?}{}
\BOOKMARK [1][-]{section.2}{Poc\355tacov\351 programy z perspektivy patentov\351ho syst\351mu}{}
\BOOKMARK [1][-]{section.3}{Nezdaren\375 pokus zmenit cl\341nek 52 EPC}{}
\BOOKMARK [1][-]{section.4}{Nezdaren\375 pokus o\235\341lit parlament}{}
\BOOKMARK [1][-]{section.5}{Rada pod nejistou nadvl\341dou patentov\351ho establishmentu}{}
