\relax 
\catcode`:\active
\catcode`;\active
\catcode`!\active
\catcode`?\active
\ifx\hyper@anchor\@undefined
\global \let \oldcontentsline\contentsline
\gdef \contentsline#1#2#3#4{\oldcontentsline{#1}{#2}{#3}}
\global \let \oldnewlabel\newlabel
\gdef \newlabel#1#2{\newlabelxx{#1}#2}
\gdef \newlabelxx#1#2#3#4#5#6{\oldnewlabel{#1}{{#2}{#3}}}
\AtEndDocument{\let \contentsline\oldcontentsline
\let \newlabel\oldnewlabel}
\else
\global \let \hyper@last\relax 
\fi

\select@language{french}
\@writefile{toc}{\select@language{french}}
\@writefile{lof}{\select@language{french}}
\@writefile{lot}{\select@language{french}}
\@writefile{toc}{\contentsline {section}{\numberline {1}Pourquoi tant de tapage autour des brevets logiciels ?}{1}{section.1}}
\newlabel{swpat}{{1}{1}{Pourquoi tant de tapage autour des brevets logiciels ?\relax }{section.1}{}}
\@writefile{toc}{\contentsline {section}{\numberline {2}Les programmes d'ordinateurs du point de vue du Syst\`{e}me de brevets}{2}{section.2}}
\newlabel{legal}{{2}{2}{Les programmes d'ordinateurs du point de vue du Syst\`{e}me de brevets\relax }{section.2}{}}
\@writefile{toc}{\contentsline {section}{\numberline {3}Tentative avort\'{e}e d'amender l'article 52 de la CBE}{3}{section.3}}
\newlabel{reskr}{{3}{3}{Tentative avort\'{e}e d'amender l'article 52 de la CBE\relax }{section.3}{}}
\@writefile{toc}{\contentsline {section}{\numberline {4}Tentative vaine de tromper le Parlement}{4}{section.4}}
\newlabel{europarl}{{4}{4}{Tentative vaine de tromper le Parlement\relax }{section.4}{}}
\@writefile{toc}{\contentsline {section}{\numberline {5}Le Conseil sous le contr\^{o}le chancelant de l'establishment des brevets}{4}{section.5}}
\newlabel{cons}{{5}{4}{Le Conseil sous le contr\^{o}le chancelant de l'establishment des brevets\relax }{section.5}{}}
\gdef\scr@tpo@lst{0}
