\select@language {spanish}
\contentsline {section}{\numberline {1}?`Por qu\'{e} tanta furia sobre las patentes de software?}{2}{section.1}
\contentsline {section}{\numberline {2}Los Programas de Ordenador desde la Perspectiva del Sistema de Patentes}{2}{section.2}
\contentsline {section}{\numberline {3}Intento Abortade de Enmendar el Art 52 EPC}{3}{section.3}
\contentsline {section}{\numberline {4}Intento Fallido de Ningunear el Parlamento}{4}{section.4}
\contentsline {section}{\numberline {5}El Consejo bajo el control fallido del Stablishment del Parlamento}{5}{section.5}
