\contentsline {section}{\numberline {1}Why all this fury about software patents?}{1}{section.1}
\contentsline {section}{\numberline {2}Computer Programs from the Patent System's Perspective}{2}{section.2}
\contentsline {section}{\numberline {3}Abortive Attempt to Amend Art 52 EPC}{3}{section.3}
\contentsline {section}{\numberline {4}Failed Attempt to Fool the Parliament}{4}{section.4}
\contentsline {section}{\numberline {5}The Council under Faltering Control of the Patent Establishment}{4}{section.5}
