\relax 
\ifx\hyper@anchor\@undefined
\global \let \oldcontentsline\contentsline
\gdef \contentsline#1#2#3#4{\oldcontentsline{#1}{#2}{#3}}
\global \let \oldnewlabel\newlabel
\gdef \newlabel#1#2{\newlabelxx{#1}#2}
\gdef \newlabelxx#1#2#3#4#5#6{\oldnewlabel{#1}{{#2}{#3}}}
\AtEndDocument{\let \contentsline\oldcontentsline
\let \newlabel\oldnewlabel}
\else
\global \let \hyper@last\relax 
\fi

\select@language{czech}
\@writefile{toc}{\select@language{czech}}
\@writefile{lof}{\select@language{czech}}
\@writefile{lot}{\select@language{czech}}
\@writefile{toc}{\contentsline {section}{\numberline {1}Pro\v {c} v\v {s}echen ten rozruch kv\r {u}li softwarov\'{y}m patent\r {u}m?}{2}{section.1}}
\newlabel{swpat}{{1}{2}{Pro\v {c} v\v {s}echen ten rozruch kv\r {u}li softwarov\'{y}m patent\r {u}m?\relax }{section.1}{}}
\@writefile{toc}{\contentsline {section}{\numberline {2}Po\v {c}\'{\i }ta\v {c}ov\'{e} programy z perspektivy patentov\'{e}ho syst\'{e}mu}{2}{section.2}}
\newlabel{legal}{{2}{2}{Po\v {c}\'{\i }ta\v {c}ov\'{e} programy z perspektivy patentov\'{e}ho syst\'{e}mu\relax }{section.2}{}}
\@writefile{toc}{\contentsline {section}{\numberline {3}Nezda\v {r}en\'{y} pokus zm\v {e}nit \v {c}l\'{a}nek 52 EPC}{3}{section.3}}
\newlabel{reskr}{{3}{3}{Nezda\v {r}en\'{y} pokus zm\v {e}nit \v {c}l\'{a}nek 52 EPC\relax }{section.3}{}}
\@writefile{toc}{\contentsline {section}{\numberline {4}Nezda\v {r}en\'{y} pokus o\v {s}\'{a}lit parlament}{4}{section.4}}
\newlabel{europarl}{{4}{4}{Nezda\v {r}en\'{y} pokus o\v {s}\'{a}lit parlament\relax }{section.4}{}}
\@writefile{toc}{\contentsline {section}{\numberline {5}Rada pod nejistou nadvl\'{a}dou patentov\'{e}ho establishmentu}{4}{section.5}}
\newlabel{cons}{{5}{4}{Rada pod nejistou nadvl\'{a}dou patentov\'{e}ho establishmentu\relax }{section.5}{}}
\gdef\scr@tpo@lst{0}
