\BOOKMARK [1][-]{section.1}{\277Por qu\351 tanta furia sobre las patentes de software?}{}
\BOOKMARK [1][-]{section.2}{Los Programas de Ordenador desde la Perspectiva del Sistema de Patentes}{}
\BOOKMARK [1][-]{section.3}{Intento Abortade de Enmendar el Art 52 EPC}{}
\BOOKMARK [1][-]{section.4}{Intento Fallido de Ningunear el Parlamento}{}
\BOOKMARK [1][-]{section.5}{El Consejo bajo el control fallido del Stablishment del Parlamento}{}
