\contentsline {chapter}{\numberline {1}Harmonisation}{4}{chapter.1}
\contentsline {chapter}{\numberline {2}Relation to Art 27 TRIPs: ``Technology'', ``Industry'' and ``Invention''}{5}{chapter.2}
\contentsline {chapter}{\numberline {3}Patents, Copyright and Freedom of Publication}{7}{chapter.3}
\contentsline {chapter}{\numberline {4}Freedom of Interoperation}{8}{chapter.4}
