\relax 
\ifx\hyper@anchor\@undefined
\global \let \oldcontentsline\contentsline
\gdef \contentsline#1#2#3#4{\oldcontentsline{#1}{#2}{#3}}
\global \let \oldnewlabel\newlabel
\gdef \newlabel#1#2{\newlabelxx{#1}#2}
\gdef \newlabelxx#1#2#3#4#5#6{\oldnewlabel{#1}{{#2}{#3}}}
\AtEndDocument{\let \contentsline\oldcontentsline
\let \newlabel\oldnewlabel}
\else
\global \let \hyper@last\relax 
\fi

\@writefile{toc}{\contentsline {chapter}{\numberline {1}Harmonisation}{4}{chapter.1}}
\@writefile{lof}{\addvspace {10\p@ }}
\@writefile{lot}{\addvspace {10\p@ }}
\newlabel{harmon}{{1}{4}{Harmonisation\relax }{chapter.1}{}}
\@writefile{toc}{\contentsline {chapter}{\numberline {2}Relation to Art 27 TRIPs: ``Technology'', ``Industry'' and ``Invention''}{5}{chapter.2}}
\@writefile{lof}{\addvspace {10\p@ }}
\@writefile{lot}{\addvspace {10\p@ }}
\newlabel{tech}{{2}{5}{Relation to Art 27 TRIPs: ``Technology'', ``Industry'' and ``Invention''\relax }{chapter.2}{}}
\@writefile{toc}{\contentsline {chapter}{\numberline {3}Patents, Copyright and Freedom of Publication}{7}{chapter.3}}
\@writefile{lof}{\addvspace {10\p@ }}
\@writefile{lot}{\addvspace {10\p@ }}
\newlabel{publig}{{3}{7}{Patents, Copyright and Freedom of Publication\relax }{chapter.3}{}}
\@writefile{toc}{\contentsline {chapter}{\numberline {4}Freedom of Interoperation}{8}{chapter.4}}
\@writefile{lof}{\addvspace {10\p@ }}
\@writefile{lot}{\addvspace {10\p@ }}
\newlabel{interop}{{4}{8}{Freedom of Interoperation\relax }{chapter.4}{}}
