\relax 
\ifx\hyper@anchor\@undefined
\global \let \oldcontentsline\contentsline
\gdef \contentsline#1#2#3#4{\oldcontentsline{#1}{#2}{#3}}
\global \let \oldnewlabel\newlabel
\gdef \newlabel#1#2{\newlabelxx{#1}#2}
\gdef \newlabelxx#1#2#3#4#5#6{\oldnewlabel{#1}{{#2}{#3}}}
\AtEndDocument{\let \contentsline\oldcontentsline
\let \newlabel\oldnewlabel}
\else
\global \let \hyper@last\relax 
\fi

\@writefile{toc}{\contentsline {chapter}{\numberline {1}A Critique of the Rapporteurâ^^80^^99s Explanatory Statement accompanying the JURI Report to the European Parliament on the proposed Directive on the Patentability of Computer-Implemented Inventions}{4}{chapter.1}}
\@writefile{lof}{\addvspace {10\p@ }}
\@writefile{lot}{\addvspace {10\p@ }}
\newlabel{text}{{1}{4}{A Critique of the Rapporteurâ^^80^^99s Explanatory Statement accompanying the JURI Report to the European Parliament on the proposed Directive on the Patentability of Computer-Implemented Inventions\relax }{chapter.1}{}}
\@writefile{toc}{\contentsline {section}{\numberline {1.1}Critique}{4}{section.1.1}}
\newlabel{kritik}{{1.1}{4}{Critique\relax }{section.1.1}{}}
\@writefile{toc}{\contentsline {section}{\numberline {1.2}Conclusions and discussion}{7}{section.1.2}}
\newlabel{konklud}{{1.2}{7}{Conclusions and discussion\relax }{section.1.2}{}}
\@writefile{toc}{\contentsline {chapter}{\numberline {2}Signatories}{9}{chapter.2}}
\@writefile{lof}{\addvspace {10\p@ }}
\@writefile{lot}{\addvspace {10\p@ }}
\newlabel{sign}{{2}{9}{Signatories\relax }{chapter.2}{}}
\@writefile{toc}{\contentsline {chapter}{\numberline {3}Annotated Links}{10}{chapter.3}}
\@writefile{lof}{\addvspace {10\p@ }}
\@writefile{lot}{\addvspace {10\p@ }}
\newlabel{links}{{3}{10}{Annotated Links\relax }{chapter.3}{}}
