\contentsline {chapter}{\numberline {1}A Critique of the Rapporteurâ^^80^^99s Explanatory Statement accompanying the JURI Report to the European Parliament on the proposed Directive on the Patentability of Computer-Implemented Inventions}{4}{chapter.1}
\contentsline {section}{\numberline {1.1}Critique}{4}{section.1.1}
\contentsline {section}{\numberline {1.2}Conclusions and discussion}{7}{section.1.2}
\contentsline {chapter}{\numberline {2}Signatories}{9}{chapter.2}
\contentsline {chapter}{\numberline {3}Annotated Links}{10}{chapter.3}
