\relax 
\ifx\hyper@anchor\@undefined
\global \let \oldcontentsline\contentsline
\gdef \contentsline#1#2#3#4{\oldcontentsline{#1}{#2}{#3}}
\global \let \oldnewlabel\newlabel
\gdef \newlabel#1#2{\newlabelxx{#1}#2}
\gdef \newlabelxx#1#2#3#4#5#6{\oldnewlabel{#1}{{#2}{#3}}}
\AtEndDocument{\let \contentsline\oldcontentsline
\let \newlabel\oldnewlabel}
\else
\global \let \hyper@last\relax 
\fi

\@writefile{toc}{\contentsline {section}{\numberline {1}Ausz\"{u}ge}{2}{section.1}}
\newlabel{text}{{1}{2}{Ausz\"{u}ge\relax }{section.1}{}}
\@writefile{toc}{\contentsline {subsection}{\numberline {1.1}Urheberrecht im wesentlichen ausreichend}{2}{subsection.1.1}}
\newlabel{kopie}{{1.1}{2}{Urheberrecht im wesentlichen ausreichend\relax }{subsection.1.1}{}}
\@writefile{toc}{\contentsline {subsection}{\numberline {1.2}Politische Interessenlage}{3}{subsection.1.2}}
\newlabel{lager}{{1.2}{3}{Politische Interessenlage\relax }{subsection.1.2}{}}
\@writefile{toc}{\contentsline {subsection}{\numberline {1.3}EPA-Rechtsprechung sprengt Grenzen der Auslegung des Art 52 EP\"{U} und f\"{u}hrt zu Rechtsunsicherheit}{4}{subsection.1.3}}
\newlabel{epue52}{{1.3}{4}{EPA-Rechtsprechung sprengt Grenzen der Auslegung des Art 52 EP\"{U} und f\"{u}hrt zu Rechtsunsicherheit\relax }{subsection.1.3}{}}
\@writefile{toc}{\contentsline {subsection}{\numberline {1.4}Schutzbegehren nicht f\"{u}r Technik sondern f\"{u}r Ideen und Aufgabenstellungen}{4}{subsection.1.4}}
\newlabel{funkt}{{1.4}{4}{Schutzbegehren nicht f\"{u}r Technik sondern f\"{u}r Ideen und Aufgabenstellungen\relax }{subsection.1.4}{}}
\@writefile{toc}{\contentsline {subsection}{\numberline {1.5}EU-Richtlinie bejaht Softwarepatente, verl\"{a}sst Boden des EP\"{U}, l\"{a}sst Interessenabw\"{a}gung vermissen}{5}{subsection.1.5}}
\newlabel{eudir}{{1.5}{5}{EU-Richtlinie bejaht Softwarepatente, verl\"{a}sst Boden des EP\"{U}, l\"{a}sst Interessenabw\"{a}gung vermissen\relax }{subsection.1.5}{}}
\@writefile{toc}{\contentsline {section}{\numberline {2}Kommentierte Verweise}{6}{section.2}}
\newlabel{links}{{2}{6}{Kommentierte Verweise\relax }{section.2}{}}
\gdef\scr@tpo@lst{0}
