\relax 
\ifx\hyper@anchor\@undefined
\global \let \oldcontentsline\contentsline
\gdef \contentsline#1#2#3#4{\oldcontentsline{#1}{#2}{#3}}
\global \let \oldnewlabel\newlabel
\gdef \newlabel#1#2{\newlabelxx{#1}#2}
\gdef \newlabelxx#1#2#3#4#5#6{\oldnewlabel{#1}{{#2}{#3}}}
\AtEndDocument{\let \contentsline\oldcontentsline
\let \newlabel\oldnewlabel}
\else
\global \let \hyper@last\relax 
\fi

\@writefile{toc}{\contentsline {chapter}{\numberline {1}Folgendes bereitet uns Sorge}{5}{chapter.1}}
\@writefile{lof}{\addvspace {10\p@ }}
\@writefile{lot}{\addvspace {10\p@ }}
\newlabel{prob}{{1}{5}{Folgendes bereitet uns Sorge\relax }{chapter.1}{}}
\@writefile{toc}{\contentsline {chapter}{\numberline {2}Daher empfehlen wir folgende Ma{\ss }nahmen}{6}{chapter.2}}
\@writefile{lof}{\addvspace {10\p@ }}
\@writefile{lot}{\addvspace {10\p@ }}
\newlabel{solv}{{2}{6}{Daher empfehlen wir folgende Ma{\ss }nahmen\relax }{chapter.2}{}}
\@writefile{toc}{\contentsline {chapter}{\numberline {3}Unterzeichner}{8}{chapter.3}}
\@writefile{lof}{\addvspace {10\p@ }}
\@writefile{lot}{\addvspace {10\p@ }}
\newlabel{sign}{{3}{8}{Unterzeichner\relax }{chapter.3}{}}
\@writefile{toc}{\contentsline {chapter}{\numberline {A}Europ\"{a}ische Softwarepatente: Einige Musterexemplare}{11}{appendix.A}}
\@writefile{lof}{\addvspace {10\p@ }}
\@writefile{lot}{\addvspace {10\p@ }}
\newlabel{swpikmupli}{{A}{11}{Europ\"{a}ische Softwarepatente: Einige Musterexemplare\relax }{appendix.A}{}}
\@writefile{toc}{\contentsline {chapter}{\numberline {B}Softwarepatente in Aktion}{18}{appendix.B}}
\@writefile{lof}{\addvspace {10\p@ }}
\@writefile{lot}{\addvspace {10\p@ }}
\newlabel{swpikxrani}{{B}{18}{Softwarepatente in Aktion\relax }{appendix.B}{}}
\@writefile{toc}{\contentsline {section}{\numberline {B.1}Einige gut dokumentierte F\"{a}lle}{18}{section.B.1}}
\newlabel{kazoj}{{B.1}{18}{Einige gut dokumentierte F\"{a}lle\relax }{section.B.1}{}}
\@writefile{toc}{\contentsline {section}{\numberline {B.2}Kommentierte Verweise}{25}{section.B.2}}
\newlabel{links}{{B.2}{25}{Kommentierte Verweise\relax }{section.B.2}{}}
\@writefile{toc}{\contentsline {chapter}{\numberline {C}Testsuite f\"{u}r die Gesetzgebung \"{u}ber die Grenzen der Patentierbarkeit}{26}{appendix.C}}
\@writefile{lof}{\addvspace {10\p@ }}
\@writefile{lot}{\addvspace {10\p@ }}
\newlabel{swpatmanri}{{C}{26}{Testsuite f\"{u}r die Gesetzgebung \"{u}ber die Grenzen der Patentierbarkeit\relax }{appendix.C}{}}
\@writefile{toc}{\contentsline {section}{\numberline {C.1}Einige Beispielpatente}{26}{section.C.1}}
\newlabel{comp}{{C.1}{26}{Einige Beispielpatente\relax }{section.C.1}{}}
\@writefile{toc}{\contentsline {section}{\numberline {C.2}Fragen, die f\"{u}r jedes Patent zu beantworten sind}{26}{section.C.2}}
\newlabel{kver}{{C.2}{26}{Fragen, die f\"{u}r jedes Patent zu beantworten sind\relax }{section.C.2}{}}
\@writefile{toc}{\contentsline {section}{\numberline {C.3}Vergleichstabelle}{27}{section.C.3}}
\newlabel{tab}{{C.3}{27}{Vergleichstabelle\relax }{section.C.3}{}}
\@writefile{toc}{\contentsline {section}{\numberline {C.4}Zu pr\"{u}fende Kandidaten: Gesetzesvorschl\"{a}ge von EUK/BSA, FFII/Eurolinux u.a.}{27}{section.C.4}}
\newlabel{test}{{C.4}{27}{Zu pr\"{u}fende Kandidaten: Gesetzesvorschl\"{a}ge von EUK/BSA, FFII/Eurolinux u.a}{section.C.4}{}}
\@writefile{toc}{\contentsline {chapter}{\numberline {D}Entw\"{u}rfe von BSA/EUK und EP\"{U}-basierter Gegenentwurf}{28}{appendix.D}}
\@writefile{lof}{\addvspace {10\p@ }}
\@writefile{lot}{\addvspace {10\p@ }}
\newlabel{eubsa-prop}{{D}{28}{Entw\"{u}rfe von BSA/EUK und EP\"{U}-basierter Gegenentwurf\relax }{appendix.D}{}}
\@writefile{toc}{\contentsline {section}{\numberline {D.1}Pr\"{a}ambel}{28}{section.D.1}}
\newlabel{pream}{{D.1}{28}{Pr\"{a}ambel\relax }{section.D.1}{}}
\@writefile{toc}{\contentsline {section}{\numberline {D.2}Die Artikel}{36}{section.D.2}}
\newlabel{arts}{{D.2}{36}{Die Artikel\relax }{section.D.2}{}}
\newlabel{prop1}{{D.2}{36}{Die Artikel\relax }{section.D.2}{}}
\newlabel{prop2}{{D.2}{36}{Die Artikel\relax }{section.D.2}{}}
\newlabel{prop3}{{D.2}{37}{Die Artikel\relax }{Item.25}{}}
\newlabel{prop4}{{D.2}{37}{Die Artikel\relax }{Item.25}{}}
\newlabel{prop5}{{D.2}{38}{Die Artikel\relax }{Hfootnote.143}{}}
\newlabel{prop6}{{D.2}{39}{Die Artikel\relax }{Item.40}{}}
\newlabel{prop7}{{D.2}{40}{Die Artikel\relax }{Item.42}{}}
\newlabel{prop8}{{D.2}{40}{Die Artikel\relax }{Item.42}{}}
\newlabel{prop9}{{D.2}{41}{Die Artikel\relax }{Item.48}{}}
\newlabel{prop10}{{D.2}{42}{Die Artikel\relax }{Item.48}{}}
\@writefile{toc}{\contentsline {chapter}{\numberline {E}MEP Arlene McCarthy 2002-06-19: Report on the CEC/BSA Directive Proposal}{43}{appendix.E}}
\@writefile{lof}{\addvspace {10\p@ }}
\@writefile{lot}{\addvspace {10\p@ }}
\newlabel{amccarthy0206}{{E}{43}{MEP Arlene McCarthy 2002-06-19: Report on the CEC/BSA Directive Proposal\relax }{appendix.E}{}}
\@writefile{toc}{\contentsline {section}{\numberline {E.1}Some Criticisms of McCarthy's Paper}{43}{section.E.1}}
\newlabel{krit}{{E.1}{43}{Some Criticisms of McCarthy's Paper\relax }{section.E.1}{}}
\@writefile{toc}{\contentsline {section}{\numberline {E.2}Responses to McCarthy's Questions}{47}{section.E.2}}
\newlabel{resp}{{E.2}{47}{Responses to McCarthy's Questions\relax }{section.E.2}{}}
\@writefile{toc}{\contentsline {subsection}{\numberline {E.2.1}Is such a directive necessary or can we just leave matters to the Boards of Appeal and the national patent courts?}{47}{subsection.E.2.1}}
\newlabel{amq1}{{E.2.1}{47}{Is such a directive necessary or can we just leave matters to the Boards of Appeal and the national patent courts?\relax }{subsection.E.2.1}{}}
\@writefile{toc}{\contentsline {subsubsection}{Can we just leave matters to the EPO's boards of a appeal and national patent courts?}{47}{section*.3}}
\newlabel{amq1a}{{E.2.1}{47}{Can we just leave matters to the EPO's boards of a appeal and national patent courts?\relax }{section*.3}{}}
\@writefile{toc}{\contentsline {subsubsection}{Is there a problem of divergent national rules which needs to be addressed by a directive, as CEC/BSA claim?}{48}{section*.4}}
\newlabel{amq1b}{{E.2.1}{48}{Is there a problem of divergent national rules which needs to be addressed by a directive, as CEC/BSA claim?\relax }{section*.4}{}}
\@writefile{toc}{\contentsline {subsubsection}{Are the other proclaimed goals of the directive proposal valid?}{48}{section*.5}}
\newlabel{amq1c}{{E.2.1}{48}{Are the other proclaimed goals of the directive proposal valid?\relax }{section*.5}{}}
\@writefile{toc}{\contentsline {subsubsection}{Are there any valid goals for which a directive might be necessary?}{49}{section*.6}}
\newlabel{amq1d}{{E.2.1}{49}{Are there any valid goals for which a directive might be necessary?\relax }{section*.6}{}}
\@writefile{toc}{\contentsline {subsection}{\numberline {E.2.2}Will the directive achieve its ends, in particular without unwanted side effects?}{49}{subsection.E.2.2}}
\newlabel{amq2}{{E.2.2}{49}{Will the directive achieve its ends, in particular without unwanted side effects?\relax }{subsection.E.2.2}{}}
\@writefile{toc}{\contentsline {subsection}{\numberline {E.2.3}Does Art. 5 run counter to TRIPs in imposing artificial restrictions on the type of claims permissible in this field? Is it intended to be retroactive? If so, with what effects?}{50}{subsection.E.2.3}}
\newlabel{amq3}{{E.2.3}{50}{Does Art. 5 run counter to TRIPs in imposing artificial restrictions on the type of claims permissible in this field? Is it intended to be retroactive? If so, with what effects?\relax }{subsection.E.2.3}{}}
\@writefile{toc}{\contentsline {subsection}{\numberline {E.2.4}Is the proposal legally watertight (legal certainty)?}{50}{subsection.E.2.4}}
\newlabel{amq4}{{E.2.4}{50}{Is the proposal legally watertight (legal certainty)?\relax }{subsection.E.2.4}{}}
\@writefile{toc}{\contentsline {subsection}{\numberline {E.2.5}Is there any merit in following in the footsteps of the USA (patentability of business methods) or should patentability of business methods be clearly and specifically precluded?}{50}{subsection.E.2.5}}
\newlabel{amq5}{{E.2.5}{50}{Is there any merit in following in the footsteps of the USA (patentability of business methods) or should patentability of business methods be clearly and specifically precluded?\relax }{subsection.E.2.5}{}}
\@writefile{toc}{\contentsline {subsection}{\numberline {E.2.6}Should the system of (compulsory) licences be reviewed to prevent abuse of the patent system?}{51}{subsection.E.2.6}}
\newlabel{amq6}{{E.2.6}{51}{Should the system of (compulsory) licences be reviewed to prevent abuse of the patent system?\relax }{subsection.E.2.6}{}}
\@writefile{toc}{\contentsline {subsection}{\numberline {E.2.7}Is the issue of trivial patents a problem? If so, how should it be addressed?}{51}{subsection.E.2.7}}
\newlabel{amq7}{{E.2.7}{51}{Is the issue of trivial patents a problem? If so, how should it be addressed?\relax }{subsection.E.2.7}{}}
\@writefile{toc}{\contentsline {subsection}{\numberline {E.2.8}What risk, if any, is posed to open-source software? If so, how is it that open-source and proprietary software seem to co-exist at present?}{51}{subsection.E.2.8}}
\newlabel{amq8}{{E.2.8}{51}{What risk, if any, is posed to open-source software? If so, how is it that open-source and proprietary software seem to co-exist at present?\relax }{subsection.E.2.8}{}}
\@writefile{toc}{\contentsline {subsection}{\numberline {E.2.9}Is it possible to argue that patents may stifle innovation, if so how?}{51}{subsection.E.2.9}}
\newlabel{amq9}{{E.2.9}{51}{Is it possible to argue that patents may stifle innovation, if so how?\relax }{subsection.E.2.9}{}}
\@writefile{toc}{\contentsline {subsection}{\numberline {E.2.10}Is it possible to quantify in economic terms/employment the benefits/disbenefits of software patentability?}{52}{subsection.E.2.10}}
\newlabel{amq10}{{E.2.10}{52}{Is it possible to quantify in economic terms/employment the benefits/disbenefits of software patentability?\relax }{subsection.E.2.10}{}}
\@writefile{toc}{\contentsline {subsection}{\numberline {E.2.11}What impact, if any, will action in this area, one way or another, have on SMEs?}{52}{subsection.E.2.11}}
\newlabel{amq11}{{E.2.11}{52}{What impact, if any, will action in this area, one way or another, have on SMEs?\relax }{subsection.E.2.11}{}}
\@writefile{toc}{\contentsline {subsection}{\numberline {E.2.12}What is the impact of TRIPs?}{52}{subsection.E.2.12}}
\newlabel{amq12}{{E.2.12}{52}{What is the impact of TRIPs?\relax }{subsection.E.2.12}{}}
\@writefile{toc}{\contentsline {subsection}{\numberline {E.2.13}The EPC is not limited to EU countries. What are the implications of this in the event that the directive is adopted?}{52}{subsection.E.2.13}}
\newlabel{amq13}{{E.2.13}{52}{The EPC is not limited to EU countries. What are the implications of this in the event that the directive is adopted?\relax }{subsection.E.2.13}{}}
\@writefile{toc}{\contentsline {subsection}{\numberline {E.2.14}Do recital 18 and Art. 6 of the proposal for a directive need to be reworded in order to allow decompilation of programs for the purposes of interoperability as is permitted under Directive 91/250?}{53}{subsection.E.2.14}}
\newlabel{amq14}{{E.2.14}{53}{Do recital 18 and Art. 6 of the proposal for a directive need to be reworded in order to allow decompilation of programs for the purposes of interoperability as is permitted under Directive 91/250?\relax }{subsection.E.2.14}{}}
\@writefile{toc}{\contentsline {section}{\numberline {E.3}Unasked Questions}{53}{section.E.3}}
\newlabel{rest}{{E.3}{53}{Unasked Questions\relax }{section.E.3}{}}
\@writefile{toc}{\contentsline {chapter}{\numberline {F}Zitate zur Frage der Patentierbarkeit von computer-implementierten Organisations- und Rechenregeln}{54}{appendix.F}}
\@writefile{lof}{\addvspace {10\p@ }}
\@writefile{lot}{\addvspace {10\p@ }}
\newlabel{swpatcusku}{{F}{54}{Zitate zur Frage der Patentierbarkeit von computer-implementierten Organisations- und Rechenregeln\relax }{appendix.F}{}}
\@writefile{toc}{\contentsline {section}{\numberline {F.1}Softwerker und Techniker}{54}{section.F.1}}
\newlabel{swpra}{{F.1}{54}{Softwerker und Techniker\relax }{section.F.1}{}}
\newlabel{reback0206}{{F.1}{55}{Softwerker und Techniker\relax }{Hfootnote.165}{}}
\newlabel{eubsa}{{F.1}{55}{Softwerker und Techniker\relax }{Hfootnote.166}{}}
\newlabel{uspto94-rms}{{F.1}{56}{Softwerker und Techniker\relax }{Hfootnote.167}{}}
\newlabel{haren01}{{F.1}{57}{Softwerker und Techniker\relax }{Hfootnote.169}{}}
\newlabel{ftc020228-cisco}{{F.1}{58}{Softwerker und Techniker\relax }{Hfootnote.170}{}}
\newlabel{cadence02}{{F.1}{58}{Softwerker und Techniker\relax }{Hfootnote.171}{}}
\newlabel{greenhall02}{{F.1}{59}{Softwerker und Techniker\relax }{Hfootnote.172}{}}
\newlabel{adobe94}{{F.1}{59}{Softwerker und Techniker\relax }{Hfootnote.173}{}}
\newlabel{kaplan02}{{F.1}{59}{Softwerker und Techniker\relax }{Hfootnote.174}{}}
\newlabel{oracle94}{{F.1}{60}{Softwerker und Techniker\relax }{Hfootnote.175}{}}
\newlabel{autodesk94}{{F.1}{61}{Softwerker und Techniker\relax }{Hfootnote.176}{}}
\newlabel{kapor94}{{F.1}{62}{Softwerker und Techniker\relax }{Hfootnote.177}{}}
\newlabel{bgates91}{{F.1}{62}{Softwerker und Techniker\relax }{Hfootnote.178}{}}
\newlabel{opera}{{F.1}{62}{Softwerker und Techniker\relax }{Hfootnote.178}{}}
\newlabel{linus02}{{F.1}{63}{Softwerker und Techniker\relax }{Hfootnote.178}{}}
\newlabel{advogato-asfpat}{{F.1}{63}{Softwerker und Techniker\relax }{Hfootnote.179}{}}
\@writefile{toc}{\contentsline {section}{\numberline {F.2}Rechtsgelehrte, Richter}{63}{section.F.2}}
\newlabel{iuris}{{F.2}{63}{Rechtsgelehrte, Richter\relax }{section.F.2}{}}
\newlabel{lamy98}{{F.2}{64}{Rechtsgelehrte, Richter\relax }{Hfootnote.180}{}}
\newlabel{dispo76}{{F.2}{65}{Rechtsgelehrte, Richter\relax }{Hfootnote.181}{}}
\newlabel{bgh-walzst80}{{F.2}{66}{Rechtsgelehrte, Richter\relax }{Hfootnote.186}{}}
\newlabel{kolle77}{{F.2}{69}{Rechtsgelehrte, Richter\relax }{Hfootnote.187}{}}
\newlabel{epo78}{{F.2}{69}{Rechtsgelehrte, Richter\relax }{Hfootnote.190}{}}
\newlabel{krasser86}{{F.2}{70}{Rechtsgelehrte, Richter\relax }{Hfootnote.191}{}}
\newlabel{lenz01}{{F.2}{71}{Rechtsgelehrte, Richter\relax }{Hfootnote.192}{}}
\newlabel{atlantic1882}{{F.2}{71}{Rechtsgelehrte, Richter\relax }{Hfootnote.192}{}}
\newlabel{stuber}{{F.2}{71}{Rechtsgelehrte, Richter\relax }{Hfootnote.192}{}}
\newlabel{kohler}{{F.2}{72}{Rechtsgelehrte, Richter\relax }{Hfootnote.193}{}}
\newlabel{folk}{{F.2}{72}{Rechtsgelehrte, Richter\relax }{Hfootnote.194}{}}
\newlabel{kinsella02}{{F.2}{72}{Rechtsgelehrte, Richter\relax }{Hfootnote.195}{}}
\@writefile{toc}{\contentsline {section}{\numberline {F.3}Wirtschaftswissenschaftler}{72}{section.F.3}}
\newlabel{ekon}{{F.3}{72}{Wirtschaftswissenschaftler\relax }{section.F.3}{}}
\newlabel{iprcommission0209}{{F.3}{73}{Wirtschaftswissenschaftler\relax }{Item.57}{}}
\newlabel{mopoko0207}{{F.3}{74}{Wirtschaftswissenschaftler\relax }{Hfootnote.199}{}}
\newlabel{shulman00}{{F.3}{74}{Wirtschaftswissenschaftler\relax }{Hfootnote.200}{}}
\newlabel{digidilem00}{{F.3}{75}{Wirtschaftswissenschaftler\relax }{Hfootnote.201}{}}
\newlabel{mandeville82}{{F.3}{75}{Wirtschaftswissenschaftler\relax }{Hfootnote.202}{}}
\newlabel{canada71}{{F.3}{76}{Wirtschaftswissenschaftler\relax }{Hfootnote.203}{}}
\newlabel{machlup58}{{F.3}{76}{Wirtschaftswissenschaftler\relax }{Hfootnote.204}{}}
\newlabel{penrose51}{{F.3}{76}{Wirtschaftswissenschaftler\relax }{Hfootnote.205}{}}
\newlabel{gran90}{{F.3}{76}{Wirtschaftswissenschaftler\relax }{Hfootnote.206}{}}
\newlabel{scotchmer90}{{F.3}{77}{Wirtschaftswissenschaftler\relax }{Hfootnote.207}{}}
\newlabel{wirth1866}{{F.3}{77}{Wirtschaftswissenschaftler\relax }{Hfootnote.208}{}}
\newlabel{polanyi44}{{F.3}{77}{Wirtschaftswissenschaftler\relax }{Hfootnote.209}{}}
\newlabel{mises49}{{F.3}{78}{Wirtschaftswissenschaftler\relax }{Hfootnote.210}{}}
\newlabel{hayek48}{{F.3}{78}{Wirtschaftswissenschaftler\relax }{Hfootnote.211}{}}
\newlabel{plant34}{{F.3}{78}{Wirtschaftswissenschaftler\relax }{Hfootnote.212}{}}
\@writefile{toc}{\contentsline {section}{\numberline {F.4}Mathematiker, Geisteswissenschaftler, Generalisten}{78}{section.F.4}}
\newlabel{filos}{{F.4}{78}{Mathematiker, Geisteswissenschaftler, Generalisten\relax }{section.F.4}{}}
\newlabel{newton}{{F.4}{78}{Mathematiker, Geisteswissenschaftler, Generalisten\relax }{section.F.4}{}}
\newlabel{jefferson}{{F.4}{79}{Mathematiker, Geisteswissenschaftler, Generalisten\relax }{Hfootnote.213}{}}
\newlabel{goethe}{{F.4}{79}{Mathematiker, Geisteswissenschaftler, Generalisten\relax }{Hfootnote.213}{}}
\@writefile{toc}{\contentsline {section}{\numberline {F.5}Politiker}{79}{section.F.5}}
\newlabel{polit}{{F.5}{79}{Politiker\relax }{section.F.5}{}}
\newlabel{esc0209}{{F.5}{80}{Politiker\relax }{section.F.5}{}}
\newlabel{cor}{{F.5}{80}{Politiker\relax }{Hfootnote.214}{}}
\newlabel{pstic}{{F.5}{81}{Politiker\relax }{Hfootnote.215}{}}
\newlabel{cheven}{{F.5}{81}{Politiker\relax }{Hfootnote.216}{}}
\newlabel{ledeaut}{{F.5}{83}{Politiker\relax }{Item.63}{}}
\newlabel{wolf}{{F.5}{84}{Politiker\relax }{Hfootnote.219}{}}
\newlabel{tauss}{{F.5}{84}{Politiker\relax }{Hfootnote.220}{}}
\newlabel{bruederle00}{{F.5}{85}{Politiker\relax }{Hfootnote.221}{}}
\newlabel{fdp01}{{F.5}{85}{Politiker\relax }{Hfootnote.222}{}}
\newlabel{mmayer}{{F.5}{86}{Politiker\relax }{Item.66}{}}
\newlabel{yepp}{{F.5}{87}{Politiker\relax }{Item.72}{}}
\newlabel{wodarg}{{F.5}{88}{Politiker\relax }{Item.72}{}}
\newlabel{dgmelin0010}{{F.5}{88}{Politiker\relax }{Item.72}{}}
\newlabel{dgmelin0103}{{F.5}{88}{Politiker\relax }{Hfootnote.228}{}}
\newlabel{hewitt01}{{F.5}{89}{Politiker\relax }{Hfootnote.228}{}}
\@writefile{toc}{\contentsline {section}{\numberline {F.6}Patentstrategen}{89}{section.F.6}}
\newlabel{patst}{{F.6}{89}{Patentstrategen\relax }{section.F.6}{}}
\newlabel{atnt00}{{F.6}{89}{Patentstrategen\relax }{Hfootnote.229}{}}
\newlabel{ibm90}{{F.6}{89}{Patentstrategen\relax }{Hfootnote.230}{}}
\newlabel{straus00}{{F.6}{90}{Patentstrategen\relax }{Hfootnote.231}{}}
\newlabel{the451-mundie010808}{{F.6}{90}{Patentstrategen\relax }{Hfootnote.232}{}}
\@writefile{toc}{\contentsline {section}{\numberline {F.7}Kommentierte Verweise}{90}{section.F.7}}
\newlabel{links}{{F.7}{90}{Kommentierte Verweise\relax }{section.F.7}{}}
\@writefile{toc}{\contentsline {section}{\numberline {F.8}Fragen, Aufgaben, Wie Sie helfen k\"{o}nnen}{90}{section.F.8}}
\newlabel{tasks}{{F.8}{90}{Fragen, Aufgaben, Wie Sie helfen k\"{o}nnen\relax }{section.F.8}{}}
