\relax 
\catcode`:\active
\catcode`;\active
\catcode`!\active
\catcode`?\active
\ifx\hyper@anchor\@undefined
\global \let \oldcontentsline\contentsline
\gdef \contentsline#1#2#3#4{\oldcontentsline{#1}{#2}{#3}}
\global \let \oldnewlabel\newlabel
\gdef \newlabel#1#2{\newlabelxx{#1}#2}
\gdef \newlabelxx#1#2#3#4#5#6{\oldnewlabel{#1}{{#2}{#3}}}
\AtEndDocument{\let \contentsline\oldcontentsline
\let \newlabel\oldnewlabel}
\else
\global \let \hyper@last\relax 
\fi

\select@language{french}
\@writefile{toc}{\select@language{french}}
\@writefile{lof}{\select@language{french}}
\@writefile{lot}{\select@language{french}}
\@writefile{toc}{\contentsline {chapter}{\numberline {1}Nous sommes pr\'{e}occup\'{e}s par les faits suivants}{5}{chapter.1}}
\@writefile{lof}{\addvspace {10\p@ }}
\@writefile{lot}{\addvspace {10\p@ }}
\newlabel{prob}{{1}{5}{Nous sommes pr\'{e}occup\'{e}s par les faits suivants\relax }{chapter.1}{}}
\@writefile{toc}{\contentsline {chapter}{\numberline {2}Pour rem\'{e}dier \`{a} cela, nous proposons les mesures suivantes}{6}{chapter.2}}
\@writefile{lof}{\addvspace {10\p@ }}
\@writefile{lot}{\addvspace {10\p@ }}
\newlabel{solv}{{2}{6}{Pour rem\'{e}dier \`{a} cela, nous proposons les mesures suivantes\relax }{chapter.2}{}}
\@writefile{toc}{\contentsline {chapter}{\numberline {3}Signataires}{8}{chapter.3}}
\@writefile{lof}{\addvspace {10\p@ }}
\@writefile{lot}{\addvspace {10\p@ }}
\newlabel{sign}{{3}{8}{Signataires\relax }{chapter.3}{}}
\@writefile{toc}{\contentsline {chapter}{\numberline {A}Brevets Logiciels Europ\'{e}ens: Quelques \'{E}chantillons}{11}{appendix.A}}
\@writefile{lof}{\addvspace {10\p@ }}
\@writefile{lot}{\addvspace {10\p@ }}
\newlabel{swpikmupli}{{A}{11}{Brevets Logiciels Europ\'{e}ens: Quelques \'{E}chantillons\relax }{appendix.A}{}}
\@writefile{toc}{\contentsline {chapter}{\numberline {B}Brevets Logiciels en Action}{16}{appendix.B}}
\@writefile{lof}{\addvspace {10\p@ }}
\@writefile{lot}{\addvspace {10\p@ }}
\newlabel{swpikxrani}{{B}{16}{Brevets Logiciels en Action\relax }{appendix.B}{}}
\@writefile{toc}{\contentsline {section}{\numberline {B.1}Quelques Cas bien document\'{e}s}{16}{section.B.1}}
\newlabel{kazoj}{{B.1}{16}{Quelques Cas bien document\'{e}s\relax }{section.B.1}{}}
\@writefile{toc}{\contentsline {section}{\numberline {B.2}Liens Annot\'{e}s}{21}{section.B.2}}
\newlabel{links}{{B.2}{21}{Liens Annot\'{e}s\relax }{section.B.2}{}}
\@writefile{toc}{\contentsline {chapter}{\numberline {C}Ensemble de tests pour la l\'{e}gislation sur les limites de la brevetabilit\'{e}}{22}{appendix.C}}
\@writefile{lof}{\addvspace {10\p@ }}
\@writefile{lot}{\addvspace {10\p@ }}
\newlabel{swpatmanri}{{C}{22}{Ensemble de tests pour la l\'{e}gislation sur les limites de la brevetabilit\'{e}\relax }{appendix.C}{}}
\@writefile{toc}{\contentsline {section}{\numberline {C.1}Quelques exemples de brevets}{22}{section.C.1}}
\newlabel{comp}{{C.1}{22}{Quelques exemples de brevets\relax }{section.C.1}{}}
\@writefile{toc}{\contentsline {section}{\numberline {C.2}Questions auxquelles chaque brevet doit r\'{e}pondre}{22}{section.C.2}}
\newlabel{kver}{{C.2}{22}{Questions auxquelles chaque brevet doit r\'{e}pondre\relax }{section.C.2}{}}
\@writefile{toc}{\contentsline {section}{\numberline {C.3}Tableau comparatif}{23}{section.C.3}}
\newlabel{tab}{{C.3}{23}{Tableau comparatif\relax }{section.C.3}{}}
\@writefile{toc}{\contentsline {section}{\numberline {C.4}Candidats \`{a} essayer: Propositions de loi de CEC/BSA, FFII/Eurolinux et d'autres}{23}{section.C.4}}
\newlabel{test}{{C.4}{23}{Candidats \`{a} essayer: Propositions de loi de CEC/BSA, FFII/Eurolinux et d'autres\relax }{section.C.4}{}}
\@writefile{toc}{\contentsline {chapter}{\numberline {D}Proposition(s) BSA/CCE et Contre-Proposition Bas\'{e}e sur la CBE}{24}{appendix.D}}
\@writefile{lof}{\addvspace {10\p@ }}
\@writefile{lot}{\addvspace {10\p@ }}
\newlabel{eubsa-prop}{{D}{24}{Proposition(s) BSA/CCE et Contre-Proposition Bas\'{e}e sur la CBE\relax }{appendix.D}{}}
\@writefile{toc}{\contentsline {section}{\numberline {D.1}Pr\'{e}ambule}{24}{section.D.1}}
\newlabel{pream}{{D.1}{24}{Pr\'{e}ambule\relax }{section.D.1}{}}
\@writefile{toc}{\contentsline {section}{\numberline {D.2}Les Articles}{31}{section.D.2}}
\newlabel{arts}{{D.2}{31}{Les Articles\relax }{section.D.2}{}}
\newlabel{prop1}{{D.2}{31}{Les Articles\relax }{section.D.2}{}}
\newlabel{prop2}{{D.2}{31}{Les Articles\relax }{section.D.2}{}}
\newlabel{prop3}{{D.2}{32}{Les Articles\relax }{Item.25}{}}
\newlabel{prop4}{{D.2}{33}{Les Articles\relax }{Item.25}{}}
\newlabel{prop5}{{D.2}{33}{Les Articles\relax }{Hfootnote.149}{}}
\newlabel{prop6}{{D.2}{35}{Les Articles\relax }{Item.40}{}}
\newlabel{prop7}{{D.2}{35}{Les Articles\relax }{Item.42}{}}
\newlabel{prop8}{{D.2}{36}{Les Articles\relax }{Item.42}{}}
\newlabel{prop9}{{D.2}{36}{Les Articles\relax }{Item.48}{}}
\newlabel{prop10}{{D.2}{37}{Les Articles\relax }{Item.48}{}}
\@writefile{toc}{\contentsline {chapter}{\numberline {E}MEP Arlene McCarthy 2002-06-19: Report on the CEC/BSA Directive Proposal}{38}{appendix.E}}
\@writefile{lof}{\addvspace {10\p@ }}
\@writefile{lot}{\addvspace {10\p@ }}
\newlabel{amccarthy0206}{{E}{38}{MEP Arlene McCarthy 2002-06-19: Report on the CEC/BSA Directive Proposal\relax }{appendix.E}{}}
\@writefile{toc}{\contentsline {section}{\numberline {E.1}Some Criticisms of McCarthy's Paper}{38}{section.E.1}}
\newlabel{krit}{{E.1}{38}{Some Criticisms of McCarthy's Paper\relax }{section.E.1}{}}
\@writefile{toc}{\contentsline {section}{\numberline {E.2}Responses to McCarthy's Questions}{42}{section.E.2}}
\newlabel{resp}{{E.2}{42}{Responses to McCarthy's Questions\relax }{section.E.2}{}}
\@writefile{toc}{\contentsline {subsection}{\numberline {E.2.1}Is such a directive necessary or can we just leave matters to the Boards of Appeal and the national patent courts?}{42}{subsection.E.2.1}}
\newlabel{amq1}{{E.2.1}{42}{Is such a directive necessary or can we just leave matters to the Boards of Appeal and the national patent courts?\relax }{subsection.E.2.1}{}}
\@writefile{toc}{\contentsline {subsubsection}{Can we just leave matters to the EPO's boards of a appeal and national patent courts?}{42}{section*.3}}
\newlabel{amq1a}{{E.2.1}{42}{Can we just leave matters to the EPO's boards of a appeal and national patent courts?\relax }{section*.3}{}}
\@writefile{toc}{\contentsline {subsubsection}{Is there a problem of divergent national rules which needs to be addressed by a directive, as CEC/BSA claim?}{43}{section*.4}}
\newlabel{amq1b}{{E.2.1}{43}{Is there a problem of divergent national rules which needs to be addressed by a directive, as CEC/BSA claim?\relax }{section*.4}{}}
\@writefile{toc}{\contentsline {subsubsection}{Are the other proclaimed goals of the directive proposal valid?}{43}{section*.5}}
\newlabel{amq1c}{{E.2.1}{43}{Are the other proclaimed goals of the directive proposal valid?\relax }{section*.5}{}}
\@writefile{toc}{\contentsline {subsubsection}{Are there any valid goals for which a directive might be necessary?}{44}{section*.6}}
\newlabel{amq1d}{{E.2.1}{44}{Are there any valid goals for which a directive might be necessary?\relax }{section*.6}{}}
\@writefile{toc}{\contentsline {subsection}{\numberline {E.2.2}Will the directive achieve its ends, in particular without unwanted side effects?}{44}{subsection.E.2.2}}
\newlabel{amq2}{{E.2.2}{44}{Will the directive achieve its ends, in particular without unwanted side effects?\relax }{subsection.E.2.2}{}}
\@writefile{toc}{\contentsline {subsection}{\numberline {E.2.3}Does Art. 5 run counter to TRIPs in imposing artificial restrictions on the type of claims permissible in this field? Is it intended to be retroactive? If so, with what effects?}{44}{subsection.E.2.3}}
\newlabel{amq3}{{E.2.3}{44}{Does Art. 5 run counter to TRIPs in imposing artificial restrictions on the type of claims permissible in this field? Is it intended to be retroactive? If so, with what effects?\relax }{subsection.E.2.3}{}}
\@writefile{toc}{\contentsline {subsection}{\numberline {E.2.4}Is the proposal legally watertight (legal certainty)?}{45}{subsection.E.2.4}}
\newlabel{amq4}{{E.2.4}{45}{Is the proposal legally watertight (legal certainty)?\relax }{subsection.E.2.4}{}}
\@writefile{toc}{\contentsline {subsection}{\numberline {E.2.5}Is there any merit in following in the footsteps of the USA (patentability of business methods) or should patentability of business methods be clearly and specifically precluded?}{45}{subsection.E.2.5}}
\newlabel{amq5}{{E.2.5}{45}{Is there any merit in following in the footsteps of the USA (patentability of business methods) or should patentability of business methods be clearly and specifically precluded?\relax }{subsection.E.2.5}{}}
\@writefile{toc}{\contentsline {subsection}{\numberline {E.2.6}Should the system of (compulsory) licences be reviewed to prevent abuse of the patent system?}{46}{subsection.E.2.6}}
\newlabel{amq6}{{E.2.6}{46}{Should the system of (compulsory) licences be reviewed to prevent abuse of the patent system?\relax }{subsection.E.2.6}{}}
\@writefile{toc}{\contentsline {subsection}{\numberline {E.2.7}Is the issue of trivial patents a problem? If so, how should it be addressed?}{46}{subsection.E.2.7}}
\newlabel{amq7}{{E.2.7}{46}{Is the issue of trivial patents a problem? If so, how should it be addressed?\relax }{subsection.E.2.7}{}}
\@writefile{toc}{\contentsline {subsection}{\numberline {E.2.8}What risk, if any, is posed to open-source software? If so, how is it that open-source and proprietary software seem to co-exist at present?}{46}{subsection.E.2.8}}
\newlabel{amq8}{{E.2.8}{46}{What risk, if any, is posed to open-source software? If so, how is it that open-source and proprietary software seem to co-exist at present?\relax }{subsection.E.2.8}{}}
\@writefile{toc}{\contentsline {subsection}{\numberline {E.2.9}Is it possible to argue that patents may stifle innovation, if so how?}{46}{subsection.E.2.9}}
\newlabel{amq9}{{E.2.9}{46}{Is it possible to argue that patents may stifle innovation, if so how?\relax }{subsection.E.2.9}{}}
\@writefile{toc}{\contentsline {subsection}{\numberline {E.2.10}Is it possible to quantify in economic terms/employment the benefits/disbenefits of software patentability?}{46}{subsection.E.2.10}}
\newlabel{amq10}{{E.2.10}{46}{Is it possible to quantify in economic terms/employment the benefits/disbenefits of software patentability?\relax }{subsection.E.2.10}{}}
\@writefile{toc}{\contentsline {subsection}{\numberline {E.2.11}What impact, if any, will action in this area, one way or another, have on SMEs?}{47}{subsection.E.2.11}}
\newlabel{amq11}{{E.2.11}{47}{What impact, if any, will action in this area, one way or another, have on SMEs?\relax }{subsection.E.2.11}{}}
\@writefile{toc}{\contentsline {subsection}{\numberline {E.2.12}What is the impact of TRIPs?}{47}{subsection.E.2.12}}
\newlabel{amq12}{{E.2.12}{47}{What is the impact of TRIPs?\relax }{subsection.E.2.12}{}}
\@writefile{toc}{\contentsline {subsection}{\numberline {E.2.13}The EPC is not limited to EU countries. What are the implications of this in the event that the directive is adopted?}{47}{subsection.E.2.13}}
\newlabel{amq13}{{E.2.13}{47}{The EPC is not limited to EU countries. What are the implications of this in the event that the directive is adopted?\relax }{subsection.E.2.13}{}}
\@writefile{toc}{\contentsline {subsection}{\numberline {E.2.14}Do recital 18 and Art. 6 of the proposal for a directive need to be reworded in order to allow decompilation of programs for the purposes of interoperability as is permitted under Directive 91/250?}{48}{subsection.E.2.14}}
\newlabel{amq14}{{E.2.14}{48}{Do recital 18 and Art. 6 of the proposal for a directive need to be reworded in order to allow decompilation of programs for the purposes of interoperability as is permitted under Directive 91/250?\relax }{subsection.E.2.14}{}}
\@writefile{toc}{\contentsline {section}{\numberline {E.3}Unasked Questions}{48}{section.E.3}}
\newlabel{rest}{{E.3}{48}{Unasked Questions\relax }{section.E.3}{}}
\@writefile{toc}{\contentsline {chapter}{\numberline {F}Citations sur la Question de la Brevetabilit\'{e} des R\`{e}gles d'Organisation et de Calcul}{49}{appendix.F}}
\@writefile{lof}{\addvspace {10\p@ }}
\@writefile{lot}{\addvspace {10\p@ }}
\newlabel{swpatcusku}{{F}{49}{Citations sur la Question de la Brevetabilit\'{e} des R\`{e}gles d'Organisation et de Calcul\relax }{appendix.F}{}}
\@writefile{toc}{\contentsline {section}{\numberline {F.1}Informaticiens et Techniciens}{49}{section.F.1}}
\newlabel{swpra}{{F.1}{49}{Informaticiens et Techniciens\relax }{section.F.1}{}}
\newlabel{reback0206}{{F.1}{50}{Informaticiens et Techniciens\relax }{Hfootnote.171}{}}
\newlabel{eubsa}{{F.1}{50}{Informaticiens et Techniciens\relax }{Hfootnote.172}{}}
\newlabel{uspto94-rms}{{F.1}{51}{Informaticiens et Techniciens\relax }{Hfootnote.173}{}}
\newlabel{haren01}{{F.1}{52}{Informaticiens et Techniciens\relax }{Hfootnote.175}{}}
\newlabel{ftc020228-cisco}{{F.1}{53}{Informaticiens et Techniciens\relax }{Hfootnote.176}{}}
\newlabel{cadence02}{{F.1}{53}{Informaticiens et Techniciens\relax }{Hfootnote.177}{}}
\newlabel{greenhall02}{{F.1}{53}{Informaticiens et Techniciens\relax }{Hfootnote.178}{}}
\newlabel{adobe94}{{F.1}{54}{Informaticiens et Techniciens\relax }{Hfootnote.179}{}}
\newlabel{kaplan02}{{F.1}{54}{Informaticiens et Techniciens\relax }{Hfootnote.180}{}}
\newlabel{oracle94}{{F.1}{55}{Informaticiens et Techniciens\relax }{Hfootnote.181}{}}
\newlabel{autodesk94}{{F.1}{56}{Informaticiens et Techniciens\relax }{Hfootnote.182}{}}
\newlabel{kapor94}{{F.1}{57}{Informaticiens et Techniciens\relax }{Hfootnote.183}{}}
\newlabel{bgates91}{{F.1}{57}{Informaticiens et Techniciens\relax }{Hfootnote.184}{}}
\newlabel{opera}{{F.1}{57}{Informaticiens et Techniciens\relax }{Hfootnote.184}{}}
\newlabel{linus02}{{F.1}{58}{Informaticiens et Techniciens\relax }{Hfootnote.184}{}}
\newlabel{advogato-asfpat}{{F.1}{58}{Informaticiens et Techniciens\relax }{Hfootnote.185}{}}
\@writefile{toc}{\contentsline {section}{\numberline {F.2}Experts en Droit, Juges}{58}{section.F.2}}
\newlabel{iuris}{{F.2}{58}{Experts en Droit, Juges\relax }{section.F.2}{}}
\newlabel{lamy98}{{F.2}{58}{Experts en Droit, Juges\relax }{Hfootnote.186}{}}
\newlabel{dispo76}{{F.2}{59}{Experts en Droit, Juges\relax }{Hfootnote.187}{}}
\newlabel{bgh-walzst80}{{F.2}{60}{Experts en Droit, Juges\relax }{Hfootnote.192}{}}
\newlabel{kolle77}{{F.2}{63}{Experts en Droit, Juges\relax }{Hfootnote.193}{}}
\newlabel{epo78}{{F.2}{64}{Experts en Droit, Juges\relax }{Hfootnote.196}{}}
\newlabel{krasser86}{{F.2}{65}{Experts en Droit, Juges\relax }{Hfootnote.197}{}}
\newlabel{lenz01}{{F.2}{65}{Experts en Droit, Juges\relax }{Hfootnote.198}{}}
\newlabel{atlantic1882}{{F.2}{66}{Experts en Droit, Juges\relax }{Hfootnote.198}{}}
\newlabel{stuber}{{F.2}{66}{Experts en Droit, Juges\relax }{Hfootnote.198}{}}
\newlabel{kohler}{{F.2}{66}{Experts en Droit, Juges\relax }{Hfootnote.199}{}}
\newlabel{folk}{{F.2}{66}{Experts en Droit, Juges\relax }{Hfootnote.200}{}}
\newlabel{kinsella02}{{F.2}{67}{Experts en Droit, Juges\relax }{Hfootnote.201}{}}
\@writefile{toc}{\contentsline {section}{\numberline {F.3}\'{E}conomistes}{67}{section.F.3}}
\newlabel{ekon}{{F.3}{67}{\'{E}conomistes\relax }{section.F.3}{}}
\newlabel{iprcommission0209}{{F.3}{68}{\'{E}conomistes\relax }{Item.57}{}}
\newlabel{mopoko0207}{{F.3}{69}{\'{E}conomistes\relax }{Hfootnote.205}{}}
\newlabel{shulman00}{{F.3}{69}{\'{E}conomistes\relax }{Hfootnote.206}{}}
\newlabel{digidilem00}{{F.3}{69}{\'{E}conomistes\relax }{Hfootnote.207}{}}
\newlabel{mandeville82}{{F.3}{70}{\'{E}conomistes\relax }{Hfootnote.208}{}}
\newlabel{canada71}{{F.3}{70}{\'{E}conomistes\relax }{Hfootnote.209}{}}
\newlabel{machlup58}{{F.3}{70}{\'{E}conomistes\relax }{Hfootnote.210}{}}
\newlabel{penrose51}{{F.3}{70}{\'{E}conomistes\relax }{Hfootnote.211}{}}
\newlabel{gran90}{{F.3}{71}{\'{E}conomistes\relax }{Hfootnote.212}{}}
\newlabel{scotchmer90}{{F.3}{71}{\'{E}conomistes\relax }{Hfootnote.213}{}}
\newlabel{wirth1866}{{F.3}{71}{\'{E}conomistes\relax }{Hfootnote.214}{}}
\newlabel{polanyi44}{{F.3}{72}{\'{E}conomistes\relax }{Hfootnote.215}{}}
\newlabel{mises49}{{F.3}{72}{\'{E}conomistes\relax }{Hfootnote.216}{}}
\newlabel{hayek48}{{F.3}{72}{\'{E}conomistes\relax }{Hfootnote.217}{}}
\newlabel{plant34}{{F.3}{72}{\'{E}conomistes\relax }{Hfootnote.218}{}}
\@writefile{toc}{\contentsline {section}{\numberline {F.4}Math\'{e}maticiens, Savants de la Pens\'{e}e, Intellectuels}{72}{section.F.4}}
\newlabel{filos}{{F.4}{72}{Math\'{e}maticiens, Savants de la Pens\'{e}e, Intellectuels\relax }{section.F.4}{}}
\newlabel{newton}{{F.4}{72}{Math\'{e}maticiens, Savants de la Pens\'{e}e, Intellectuels\relax }{section.F.4}{}}
\newlabel{jefferson}{{F.4}{73}{Math\'{e}maticiens, Savants de la Pens\'{e}e, Intellectuels\relax }{Hfootnote.219}{}}
\newlabel{goethe}{{F.4}{73}{Math\'{e}maticiens, Savants de la Pens\'{e}e, Intellectuels\relax }{Hfootnote.219}{}}
\@writefile{toc}{\contentsline {section}{\numberline {F.5}Politiciens}{73}{section.F.5}}
\newlabel{polit}{{F.5}{73}{Politiciens\relax }{section.F.5}{}}
\newlabel{esc0209}{{F.5}{74}{Politiciens\relax }{section.F.5}{}}
\newlabel{cor}{{F.5}{74}{Politiciens\relax }{Hfootnote.220}{}}
\newlabel{pstic}{{F.5}{75}{Politiciens\relax }{Hfootnote.221}{}}
\newlabel{cheven}{{F.5}{75}{Politiciens\relax }{Hfootnote.222}{}}
\newlabel{ledeaut}{{F.5}{76}{Politiciens\relax }{Item.62}{}}
\newlabel{wolf}{{F.5}{77}{Politiciens\relax }{Hfootnote.225}{}}
\newlabel{tauss}{{F.5}{78}{Politiciens\relax }{Hfootnote.226}{}}
\newlabel{bruederle00}{{F.5}{78}{Politiciens\relax }{Hfootnote.227}{}}
\newlabel{fdp01}{{F.5}{79}{Politiciens\relax }{Hfootnote.228}{}}
\newlabel{mmayer}{{F.5}{80}{Politiciens\relax }{Item.65}{}}
\newlabel{yepp}{{F.5}{80}{Politiciens\relax }{Item.71}{}}
\newlabel{wodarg}{{F.5}{81}{Politiciens\relax }{Item.71}{}}
\newlabel{dgmelin0010}{{F.5}{81}{Politiciens\relax }{Item.71}{}}
\newlabel{dgmelin0103}{{F.5}{82}{Politiciens\relax }{Hfootnote.234}{}}
\newlabel{hewitt01}{{F.5}{82}{Politiciens\relax }{Hfootnote.234}{}}
\@writefile{toc}{\contentsline {section}{\numberline {F.6}Strat\`{e}ges en Brevet}{82}{section.F.6}}
\newlabel{patst}{{F.6}{82}{Strat\`{e}ges en Brevet\relax }{section.F.6}{}}
\newlabel{atnt00}{{F.6}{82}{Strat\`{e}ges en Brevet\relax }{Hfootnote.235}{}}
\newlabel{ibm90}{{F.6}{83}{Strat\`{e}ges en Brevet\relax }{Hfootnote.236}{}}
\newlabel{straus00}{{F.6}{83}{Strat\`{e}ges en Brevet\relax }{Hfootnote.237}{}}
\newlabel{the451-mundie010808}{{F.6}{83}{Strat\`{e}ges en Brevet\relax }{Hfootnote.238}{}}
\@writefile{toc}{\contentsline {section}{\numberline {F.7}Liens Annot\'{e}s}{83}{section.F.7}}
\newlabel{links}{{F.7}{83}{Liens Annot\'{e}s\relax }{section.F.7}{}}
\@writefile{toc}{\contentsline {section}{\numberline {F.8}Questions, Choses a faires, Comment vous pouvez aider}{83}{section.F.8}}
\newlabel{tasks}{{F.8}{83}{Questions, Choses a faires, Comment vous pouvez aider\relax }{section.F.8}{}}
