\relax 
\ifx\hyper@anchor\@undefined
\global \let \oldcontentsline\contentsline
\gdef \contentsline#1#2#3#4{\oldcontentsline{#1}{#2}{#3}}
\global \let \oldnewlabel\newlabel
\gdef \newlabel#1#2{\newlabelxx{#1}#2}
\gdef \newlabelxx#1#2#3#4#5#6{\oldnewlabel{#1}{{#2}{#3}}}
\AtEndDocument{\let \contentsline\oldcontentsline
\let \newlabel\oldnewlabel}
\else
\global \let \hyper@last\relax 
\fi

\@writefile{toc}{\contentsline {chapter}{\numberline {1}We are concerned that}{5}{chapter.1}}
\@writefile{lof}{\addvspace {10\p@ }}
\@writefile{lot}{\addvspace {10\p@ }}
\newlabel{prob}{{1}{5}{We are concerned that\relax }{chapter.1}{}}
\@writefile{toc}{\contentsline {chapter}{\numberline {2}For these reasons we recommend the following:}{6}{chapter.2}}
\@writefile{lof}{\addvspace {10\p@ }}
\@writefile{lot}{\addvspace {10\p@ }}
\newlabel{solv}{{2}{6}{For these reasons we recommend the following:\relax }{chapter.2}{}}
\@writefile{toc}{\contentsline {chapter}{\numberline {3}Signatories}{8}{chapter.3}}
\@writefile{lof}{\addvspace {10\p@ }}
\@writefile{lot}{\addvspace {10\p@ }}
\newlabel{sign}{{3}{8}{Signatories\relax }{chapter.3}{}}
\@writefile{toc}{\contentsline {chapter}{\numberline {A}European Software Patents: Assorted Examples}{11}{appendix.A}}
\@writefile{lof}{\addvspace {10\p@ }}
\@writefile{lot}{\addvspace {10\p@ }}
\newlabel{swpikmupli}{{A}{11}{European Software Patents: Assorted Examples\relax }{appendix.A}{}}
\@writefile{toc}{\contentsline {chapter}{\numberline {B}Software Patents in Action}{17}{appendix.B}}
\@writefile{lof}{\addvspace {10\p@ }}
\@writefile{lot}{\addvspace {10\p@ }}
\newlabel{swpikxrani}{{B}{17}{Software Patents in Action\relax }{appendix.B}{}}
\@writefile{toc}{\contentsline {section}{\numberline {B.1}Some Well Documented Cases}{17}{section.B.1}}
\newlabel{kazoj}{{B.1}{17}{Some Well Documented Cases\relax }{section.B.1}{}}
\@writefile{toc}{\contentsline {section}{\numberline {B.2}Annotated Links}{23}{section.B.2}}
\newlabel{links}{{B.2}{23}{Annotated Links\relax }{section.B.2}{}}
\@writefile{toc}{\contentsline {chapter}{\numberline {C}Patentability Legislation Benchmarking Test Suite}{24}{appendix.C}}
\@writefile{lof}{\addvspace {10\p@ }}
\@writefile{lot}{\addvspace {10\p@ }}
\newlabel{swpatmanri}{{C}{24}{Patentability Legislation Benchmarking Test Suite\relax }{appendix.C}{}}
\@writefile{toc}{\contentsline {section}{\numberline {C.1}Some sample patents}{24}{section.C.1}}
\newlabel{comp}{{C.1}{24}{Some sample patents\relax }{section.C.1}{}}
\@writefile{toc}{\contentsline {section}{\numberline {C.2}Questions to be answered for each}{24}{section.C.2}}
\newlabel{kver}{{C.2}{24}{Questions to be answered for each\relax }{section.C.2}{}}
\@writefile{toc}{\contentsline {section}{\numberline {C.3}Comparison Table}{25}{section.C.3}}
\newlabel{tab}{{C.3}{25}{Comparison Table\relax }{section.C.3}{}}
\@writefile{toc}{\contentsline {section}{\numberline {C.4}Legislation candidates to be tested}{25}{section.C.4}}
\newlabel{test}{{C.4}{25}{Legislation candidates to be tested\relax }{section.C.4}{}}
\@writefile{toc}{\contentsline {chapter}{\numberline {D}The BSA/CEC Proposal(s) and EPC-based Counter-Proposal}{26}{appendix.D}}
\@writefile{lof}{\addvspace {10\p@ }}
\@writefile{lot}{\addvspace {10\p@ }}
\newlabel{eubsa-prop}{{D}{26}{The BSA/CEC Proposal(s) and EPC-based Counter-Proposal\relax }{appendix.D}{}}
\@writefile{toc}{\contentsline {section}{\numberline {D.1}Preamble}{26}{section.D.1}}
\newlabel{pream}{{D.1}{26}{Preamble\relax }{section.D.1}{}}
\@writefile{toc}{\contentsline {section}{\numberline {D.2}The Articles}{33}{section.D.2}}
\newlabel{arts}{{D.2}{33}{The Articles\relax }{section.D.2}{}}
\newlabel{prop1}{{D.2}{33}{The Articles\relax }{section.D.2}{}}
\newlabel{prop2}{{D.2}{33}{The Articles\relax }{section.D.2}{}}
\newlabel{prop3}{{D.2}{34}{The Articles\relax }{Item.25}{}}
\newlabel{prop4}{{D.2}{35}{The Articles\relax }{Item.25}{}}
\newlabel{prop5}{{D.2}{35}{The Articles\relax }{Hfootnote.145}{}}
\newlabel{prop6}{{D.2}{37}{The Articles\relax }{Item.40}{}}
\newlabel{prop7}{{D.2}{37}{The Articles\relax }{Item.42}{}}
\newlabel{prop8}{{D.2}{38}{The Articles\relax }{Item.42}{}}
\newlabel{prop9}{{D.2}{39}{The Articles\relax }{Hfootnote.147}{}}
\newlabel{prop10}{{D.2}{39}{The Articles\relax }{Hfootnote.147}{}}
\@writefile{toc}{\contentsline {chapter}{\numberline {E}MEP Arlene McCarthy 2002-06-19: Report on the CEC/BSA Directive Proposal}{40}{appendix.E}}
\@writefile{lof}{\addvspace {10\p@ }}
\@writefile{lot}{\addvspace {10\p@ }}
\newlabel{amccarthy0206}{{E}{40}{MEP Arlene McCarthy 2002-06-19: Report on the CEC/BSA Directive Proposal\relax }{appendix.E}{}}
\@writefile{toc}{\contentsline {section}{\numberline {E.1}Some Criticisms of McCarthy's Paper}{40}{section.E.1}}
\newlabel{krit}{{E.1}{40}{Some Criticisms of McCarthy's Paper\relax }{section.E.1}{}}
\@writefile{toc}{\contentsline {section}{\numberline {E.2}Responses to McCarthy's Questions}{44}{section.E.2}}
\newlabel{resp}{{E.2}{44}{Responses to McCarthy's Questions\relax }{section.E.2}{}}
\@writefile{toc}{\contentsline {subsection}{\numberline {E.2.1}Is such a directive necessary or can we just leave matters to the Boards of Appeal and the national patent courts?}{44}{subsection.E.2.1}}
\newlabel{amq1}{{E.2.1}{44}{Is such a directive necessary or can we just leave matters to the Boards of Appeal and the national patent courts?\relax }{subsection.E.2.1}{}}
\@writefile{toc}{\contentsline {subsubsection}{Can we just leave matters to the EPO's boards of a appeal and national patent courts?}{44}{section*.3}}
\newlabel{amq1a}{{E.2.1}{44}{Can we just leave matters to the EPO's boards of a appeal and national patent courts?\relax }{section*.3}{}}
\@writefile{toc}{\contentsline {subsubsection}{Is there a problem of divergent national rules which needs to be addressed by a directive, as CEC/BSA claim?}{45}{section*.4}}
\newlabel{amq1b}{{E.2.1}{45}{Is there a problem of divergent national rules which needs to be addressed by a directive, as CEC/BSA claim?\relax }{section*.4}{}}
\@writefile{toc}{\contentsline {subsubsection}{Are the other proclaimed goals of the directive proposal valid?}{45}{section*.5}}
\newlabel{amq1c}{{E.2.1}{45}{Are the other proclaimed goals of the directive proposal valid?\relax }{section*.5}{}}
\@writefile{toc}{\contentsline {subsubsection}{Are there any valid goals for which a directive might be necessary?}{46}{section*.6}}
\newlabel{amq1d}{{E.2.1}{46}{Are there any valid goals for which a directive might be necessary?\relax }{section*.6}{}}
\@writefile{toc}{\contentsline {subsection}{\numberline {E.2.2}Will the directive achieve its ends, in particular without unwanted side effects?}{46}{subsection.E.2.2}}
\newlabel{amq2}{{E.2.2}{46}{Will the directive achieve its ends, in particular without unwanted side effects?\relax }{subsection.E.2.2}{}}
\@writefile{toc}{\contentsline {subsection}{\numberline {E.2.3}Does Art. 5 run counter to TRIPs in imposing artificial restrictions on the type of claims permissible in this field? Is it intended to be retroactive? If so, with what effects?}{47}{subsection.E.2.3}}
\newlabel{amq3}{{E.2.3}{47}{Does Art. 5 run counter to TRIPs in imposing artificial restrictions on the type of claims permissible in this field? Is it intended to be retroactive? If so, with what effects?\relax }{subsection.E.2.3}{}}
\@writefile{toc}{\contentsline {subsection}{\numberline {E.2.4}Is the proposal legally watertight (legal certainty)?}{47}{subsection.E.2.4}}
\newlabel{amq4}{{E.2.4}{47}{Is the proposal legally watertight (legal certainty)?\relax }{subsection.E.2.4}{}}
\@writefile{toc}{\contentsline {subsection}{\numberline {E.2.5}Is there any merit in following in the footsteps of the USA (patentability of business methods) or should patentability of business methods be clearly and specifically precluded?}{47}{subsection.E.2.5}}
\newlabel{amq5}{{E.2.5}{47}{Is there any merit in following in the footsteps of the USA (patentability of business methods) or should patentability of business methods be clearly and specifically precluded?\relax }{subsection.E.2.5}{}}
\@writefile{toc}{\contentsline {subsection}{\numberline {E.2.6}Should the system of (compulsory) licences be reviewed to prevent abuse of the patent system?}{48}{subsection.E.2.6}}
\newlabel{amq6}{{E.2.6}{48}{Should the system of (compulsory) licences be reviewed to prevent abuse of the patent system?\relax }{subsection.E.2.6}{}}
\@writefile{toc}{\contentsline {subsection}{\numberline {E.2.7}Is the issue of trivial patents a problem? If so, how should it be addressed?}{48}{subsection.E.2.7}}
\newlabel{amq7}{{E.2.7}{48}{Is the issue of trivial patents a problem? If so, how should it be addressed?\relax }{subsection.E.2.7}{}}
\@writefile{toc}{\contentsline {subsection}{\numberline {E.2.8}What risk, if any, is posed to open-source software? If so, how is it that open-source and proprietary software seem to co-exist at present?}{48}{subsection.E.2.8}}
\newlabel{amq8}{{E.2.8}{48}{What risk, if any, is posed to open-source software? If so, how is it that open-source and proprietary software seem to co-exist at present?\relax }{subsection.E.2.8}{}}
\@writefile{toc}{\contentsline {subsection}{\numberline {E.2.9}Is it possible to argue that patents may stifle innovation, if so how?}{48}{subsection.E.2.9}}
\newlabel{amq9}{{E.2.9}{48}{Is it possible to argue that patents may stifle innovation, if so how?\relax }{subsection.E.2.9}{}}
\@writefile{toc}{\contentsline {subsection}{\numberline {E.2.10}Is it possible to quantify in economic terms/employment the benefits/disbenefits of software patentability?}{49}{subsection.E.2.10}}
\newlabel{amq10}{{E.2.10}{49}{Is it possible to quantify in economic terms/employment the benefits/disbenefits of software patentability?\relax }{subsection.E.2.10}{}}
\@writefile{toc}{\contentsline {subsection}{\numberline {E.2.11}What impact, if any, will action in this area, one way or another, have on SMEs?}{49}{subsection.E.2.11}}
\newlabel{amq11}{{E.2.11}{49}{What impact, if any, will action in this area, one way or another, have on SMEs?\relax }{subsection.E.2.11}{}}
\@writefile{toc}{\contentsline {subsection}{\numberline {E.2.12}What is the impact of TRIPs?}{49}{subsection.E.2.12}}
\newlabel{amq12}{{E.2.12}{49}{What is the impact of TRIPs?\relax }{subsection.E.2.12}{}}
\@writefile{toc}{\contentsline {subsection}{\numberline {E.2.13}The EPC is not limited to EU countries. What are the implications of this in the event that the directive is adopted?}{49}{subsection.E.2.13}}
\newlabel{amq13}{{E.2.13}{49}{The EPC is not limited to EU countries. What are the implications of this in the event that the directive is adopted?\relax }{subsection.E.2.13}{}}
\@writefile{toc}{\contentsline {subsection}{\numberline {E.2.14}Do recital 18 and Art. 6 of the proposal for a directive need to be reworded in order to allow decompilation of programs for the purposes of interoperability as is permitted under Directive 91/250?}{50}{subsection.E.2.14}}
\newlabel{amq14}{{E.2.14}{50}{Do recital 18 and Art. 6 of the proposal for a directive need to be reworded in order to allow decompilation of programs for the purposes of interoperability as is permitted under Directive 91/250?\relax }{subsection.E.2.14}{}}
\@writefile{toc}{\contentsline {section}{\numberline {E.3}Unasked Questions}{50}{section.E.3}}
\newlabel{rest}{{E.3}{50}{Unasked Questions\relax }{section.E.3}{}}
\@writefile{toc}{\contentsline {chapter}{\numberline {F}Quotations on the question of the patentability of rules of organisation and calculation}{51}{appendix.F}}
\@writefile{lof}{\addvspace {10\p@ }}
\@writefile{lot}{\addvspace {10\p@ }}
\newlabel{swpatcusku}{{F}{51}{Quotations on the question of the patentability of rules of organisation and calculation\relax }{appendix.F}{}}
\@writefile{toc}{\contentsline {section}{\numberline {F.1}Software \& Technology Practitioners}{51}{section.F.1}}
\newlabel{swpra}{{F.1}{51}{Software \& Technology Practitioners\relax }{section.F.1}{}}
\newlabel{reback0206}{{F.1}{52}{Software \& Technology Practitioners\relax }{Hfootnote.168}{}}
\newlabel{eubsa}{{F.1}{52}{Software \& Technology Practitioners\relax }{Hfootnote.169}{}}
\newlabel{uspto94-rms}{{F.1}{53}{Software \& Technology Practitioners\relax }{Hfootnote.170}{}}
\newlabel{haren01}{{F.1}{54}{Software \& Technology Practitioners\relax }{Hfootnote.172}{}}
\newlabel{ftc020228-cisco}{{F.1}{54}{Software \& Technology Practitioners\relax }{Hfootnote.173}{}}
\newlabel{cadence02}{{F.1}{55}{Software \& Technology Practitioners\relax }{Hfootnote.174}{}}
\newlabel{greenhall02}{{F.1}{55}{Software \& Technology Practitioners\relax }{Hfootnote.175}{}}
\newlabel{adobe94}{{F.1}{56}{Software \& Technology Practitioners\relax }{Hfootnote.176}{}}
\newlabel{kaplan02}{{F.1}{56}{Software \& Technology Practitioners\relax }{Hfootnote.177}{}}
\newlabel{oracle94}{{F.1}{57}{Software \& Technology Practitioners\relax }{Hfootnote.178}{}}
\newlabel{autodesk94}{{F.1}{58}{Software \& Technology Practitioners\relax }{Hfootnote.179}{}}
\newlabel{kapor94}{{F.1}{59}{Software \& Technology Practitioners\relax }{Hfootnote.180}{}}
\newlabel{bgates91}{{F.1}{59}{Software \& Technology Practitioners\relax }{Hfootnote.181}{}}
\newlabel{opera}{{F.1}{59}{Software \& Technology Practitioners\relax }{Hfootnote.181}{}}
\newlabel{linus02}{{F.1}{60}{Software \& Technology Practitioners\relax }{Hfootnote.181}{}}
\newlabel{advogato-asfpat}{{F.1}{60}{Software \& Technology Practitioners\relax }{Hfootnote.182}{}}
\@writefile{toc}{\contentsline {section}{\numberline {F.2}Law Scholars, Judges, Patent Practitioners}{60}{section.F.2}}
\newlabel{iuris}{{F.2}{60}{Law Scholars, Judges, Patent Practitioners\relax }{section.F.2}{}}
\newlabel{lamy98}{{F.2}{61}{Law Scholars, Judges, Patent Practitioners\relax }{Hfootnote.183}{}}
\newlabel{dispo76}{{F.2}{62}{Law Scholars, Judges, Patent Practitioners\relax }{Hfootnote.184}{}}
\newlabel{bgh-walzst80}{{F.2}{62}{Law Scholars, Judges, Patent Practitioners\relax }{Hfootnote.189}{}}
\newlabel{kolle77}{{F.2}{65}{Law Scholars, Judges, Patent Practitioners\relax }{Hfootnote.190}{}}
\newlabel{epo78}{{F.2}{66}{Law Scholars, Judges, Patent Practitioners\relax }{Hfootnote.193}{}}
\newlabel{krasser86}{{F.2}{67}{Law Scholars, Judges, Patent Practitioners\relax }{Hfootnote.194}{}}
\newlabel{lenz01}{{F.2}{68}{Law Scholars, Judges, Patent Practitioners\relax }{Hfootnote.195}{}}
\newlabel{atlantic1882}{{F.2}{68}{Law Scholars, Judges, Patent Practitioners\relax }{Hfootnote.195}{}}
\newlabel{stuber}{{F.2}{68}{Law Scholars, Judges, Patent Practitioners\relax }{Hfootnote.195}{}}
\newlabel{kohler}{{F.2}{68}{Law Scholars, Judges, Patent Practitioners\relax }{Hfootnote.196}{}}
\newlabel{folk}{{F.2}{69}{Law Scholars, Judges, Patent Practitioners\relax }{Hfootnote.197}{}}
\newlabel{kinsella02}{{F.2}{69}{Law Scholars, Judges, Patent Practitioners\relax }{Hfootnote.198}{}}
\@writefile{toc}{\contentsline {section}{\numberline {F.3}Economists}{69}{section.F.3}}
\newlabel{ekon}{{F.3}{69}{Economists\relax }{section.F.3}{}}
\newlabel{iprcommission0209}{{F.3}{70}{Economists\relax }{Item.57}{}}
\newlabel{mopoko0207}{{F.3}{71}{Economists\relax }{Hfootnote.203}{}}
\newlabel{shulman00}{{F.3}{72}{Economists\relax }{Hfootnote.204}{}}
\newlabel{digidilem00}{{F.3}{72}{Economists\relax }{Hfootnote.205}{}}
\newlabel{mandeville82}{{F.3}{72}{Economists\relax }{Hfootnote.206}{}}
\newlabel{canada71}{{F.3}{73}{Economists\relax }{Hfootnote.207}{}}
\newlabel{machlup58}{{F.3}{73}{Economists\relax }{Hfootnote.208}{}}
\newlabel{penrose51}{{F.3}{73}{Economists\relax }{Hfootnote.209}{}}
\newlabel{gran90}{{F.3}{74}{Economists\relax }{Hfootnote.210}{}}
\newlabel{scotchmer90}{{F.3}{74}{Economists\relax }{Hfootnote.211}{}}
\newlabel{wirth1866}{{F.3}{74}{Economists\relax }{Hfootnote.212}{}}
\newlabel{polanyi44}{{F.3}{74}{Economists\relax }{Hfootnote.213}{}}
\newlabel{mises49}{{F.3}{75}{Economists\relax }{Hfootnote.214}{}}
\newlabel{hayek48}{{F.3}{75}{Economists\relax }{Hfootnote.215}{}}
\newlabel{plant34}{{F.3}{75}{Economists\relax }{Hfootnote.216}{}}
\@writefile{toc}{\contentsline {section}{\numberline {F.4}Mathematicians, Philosophers, Generalists}{75}{section.F.4}}
\newlabel{filos}{{F.4}{75}{Mathematicians, Philosophers, Generalists\relax }{section.F.4}{}}
\newlabel{newton}{{F.4}{75}{Mathematicians, Philosophers, Generalists\relax }{section.F.4}{}}
\newlabel{jefferson}{{F.4}{76}{Mathematicians, Philosophers, Generalists\relax }{Hfootnote.217}{}}
\newlabel{goethe}{{F.4}{76}{Mathematicians, Philosophers, Generalists\relax }{Hfootnote.217}{}}
\@writefile{toc}{\contentsline {section}{\numberline {F.5}Politicians}{76}{section.F.5}}
\newlabel{polit}{{F.5}{76}{Politicians\relax }{section.F.5}{}}
\newlabel{esc0209}{{F.5}{76}{Politicians\relax }{section.F.5}{}}
\newlabel{cor}{{F.5}{77}{Politicians\relax }{Hfootnote.218}{}}
\newlabel{pstic}{{F.5}{78}{Politicians\relax }{Hfootnote.219}{}}
\newlabel{cheven}{{F.5}{78}{Politicians\relax }{Hfootnote.220}{}}
\newlabel{ledeaut}{{F.5}{79}{Politicians\relax }{Item.63}{}}
\newlabel{wolf}{{F.5}{80}{Politicians\relax }{Hfootnote.223}{}}
\newlabel{tauss}{{F.5}{81}{Politicians\relax }{Hfootnote.224}{}}
\newlabel{bruederle00}{{F.5}{81}{Politicians\relax }{Hfootnote.225}{}}
\newlabel{fdp01}{{F.5}{82}{Politicians\relax }{Hfootnote.226}{}}
\newlabel{mmayer}{{F.5}{83}{Politicians\relax }{Item.66}{}}
\newlabel{yepp}{{F.5}{84}{Politicians\relax }{Item.72}{}}
\newlabel{wodarg}{{F.5}{84}{Politicians\relax }{Item.72}{}}
\newlabel{dgmelin0010}{{F.5}{84}{Politicians\relax }{Item.72}{}}
\newlabel{dgmelin0103}{{F.5}{85}{Politicians\relax }{Hfootnote.232}{}}
\newlabel{hewitt01}{{F.5}{85}{Politicians\relax }{Hfootnote.232}{}}
\@writefile{toc}{\contentsline {section}{\numberline {F.6}Patent strategists}{85}{section.F.6}}
\newlabel{patst}{{F.6}{85}{Patent strategists\relax }{section.F.6}{}}
\newlabel{atnt00}{{F.6}{85}{Patent strategists\relax }{Hfootnote.233}{}}
\newlabel{ibm90}{{F.6}{86}{Patent strategists\relax }{Hfootnote.234}{}}
\newlabel{straus00}{{F.6}{86}{Patent strategists\relax }{Hfootnote.235}{}}
\newlabel{the451-mundie010808}{{F.6}{86}{Patent strategists\relax }{Hfootnote.236}{}}
\@writefile{toc}{\contentsline {section}{\numberline {F.7}Annotated Links}{86}{section.F.7}}
\newlabel{links}{{F.7}{86}{Annotated Links\relax }{section.F.7}{}}
\@writefile{toc}{\contentsline {section}{\numberline {F.8}Questions, Things To Do, How you can Help}{86}{section.F.8}}
\newlabel{tasks}{{F.8}{86}{Questions, Things To Do, How you can Help\relax }{section.F.8}{}}
