\relax 
\ifx\hyper@anchor\@undefined
\global \let \oldcontentsline\contentsline
\gdef \contentsline#1#2#3#4{\oldcontentsline{#1}{#2}{#3}}
\global \let \oldnewlabel\newlabel
\gdef \newlabel#1#2{\newlabelxx{#1}#2}
\gdef \newlabelxx#1#2#3#4#5#6{\oldnewlabel{#1}{{#2}{#3}}}
\AtEndDocument{\let \contentsline\oldcontentsline
\let \newlabel\oldnewlabel}
\else
\global \let \hyper@last\relax 
\fi

\@writefile{toc}{\contentsline {section}{\numberline {1}Wie ist das Verh\"{a}ltnis der Art. 9-11 und 27 TRIPS im Hinblick auf computer-implementierte Erfindungen zu werten?}{2}{section.1}}
\newlabel{trips}{{1}{2}{Wie ist das Verh\"{a}ltnis der Art. 9-11 und 27 TRIPS im Hinblick auf computer-implementierte Erfindungen zu werten?\relax }{section.1}{}}
\@writefile{toc}{\contentsline {section}{\numberline {2}Wie ist das Verh\"{a}ltnis zwischen Urheberrechts- und Patentschutz zu bewerten?}{3}{section.2}}
\newlabel{urhrpat}{{2}{3}{Wie ist das Verh\"{a}ltnis zwischen Urheberrechts- und Patentschutz zu bewerten?\relax }{section.2}{}}
\@writefile{toc}{\contentsline {section}{\numberline {3}Welche Auswirkungen h\"{a}tte der ``worst case'', sprich die Verabschiedung des Richtlinienentwurfs in der vom Rat im November 2002 vorgelegten Form (konkrete Beispiele)?}{4}{section.3}}
\newlabel{worst}{{3}{4}{Welche Auswirkungen h\"{a}tte der ``worst case'', sprich die Verabschiedung des Richtlinienentwurfs in der vom Rat im November 2002 vorgelegten Form (konkrete Beispiele)?\relax }{section.3}{}}
\@writefile{toc}{\contentsline {section}{\numberline {4}Welche Ver\"{a}nderungen sollten aus rechtstechnischer Sicht an dem vom EP vorgelegten Entwurf vorgenommen werden.}{4}{section.4}}
\newlabel{aendr}{{4}{4}{Welche Ver\"{a}nderungen sollten aus rechtstechnischer Sicht an dem vom EP vorgelegten Entwurf vorgenommen werden}{section.4}{}}
\@writefile{toc}{\contentsline {section}{\numberline {5}Was unterscheidet Software von allen \"{u}brigen der Patentierung zug\"{a}nglichen ``Techniken'', das eine andere Behandlung rechtfertigt?}{5}{section.5}}
\newlabel{swdif}{{5}{5}{Was unterscheidet Software von allen \"{u}brigen der Patentierung zug\"{a}nglichen ``Techniken'', das eine andere Behandlung rechtfertigt?\relax }{section.5}{}}
\@writefile{toc}{\contentsline {section}{\numberline {6}Ist eine Herausnahme von Software aus dem geltenden Patentrecht zu rechtfertigen - wenn ja, warum?}{6}{section.6}}
\newlabel{ausnm}{{6}{6}{Ist eine Herausnahme von Software aus dem geltenden Patentrecht zu rechtfertigen - wenn ja, warum?\relax }{section.6}{}}
\@writefile{toc}{\contentsline {section}{\numberline {7}Unterschiede zwischen (auch kommerzieller) OSS und Closed-Source-Software, die eine andere Behandlung rechtfertigt?}{6}{section.7}}
\newlabel{osscs}{{7}{6}{Unterschiede zwischen (auch kommerzieller) OSS und Closed-Source-Software, die eine andere Behandlung rechtfertigt?\relax }{section.7}{}}
\@writefile{toc}{\contentsline {section}{\numberline {8}EPA-Praxis: Unterstellt, es werden (rechtswidrige) Softwarepatente erteilt: Wie sieht die Einspruchsquote hiergegen aus? Sollte diese gering sein - warum? Gibt es M\"{o}glichkeit z.B. f\"{u}r Bundesregierung / Fachverb\"{a}nde o.\"{A}., hier Unterst\"{u}tzung zu leisten?}{7}{section.8}}
\newlabel{legal}{{8}{7}{EPA-Praxis: Unterstellt, es werden (rechtswidrige) Softwarepatente erteilt: Wie sieht die Einspruchsquote hiergegen aus? Sollte diese gering sein - warum? Gibt es M\"{o}glichkeit z.B. f\"{u}r Bundesregierung / Fachverb\"{a}nde o.\"{A}., hier Unterst\"{u}tzung zu leisten?\relax }{section.8}{}}
\@writefile{toc}{\contentsline {section}{\numberline {9}Welche Strategie verfolgt die OSS-Gemeinde?}{8}{section.9}}
\newlabel{ossstrat}{{9}{8}{Welche Strategie verfolgt die OSS-Gemeinde?\relax }{section.9}{}}
\@writefile{toc}{\contentsline {section}{\numberline {10}Welche Art von Entwicklungen im Softwarebereich sollten / m\"{u}ssen patentierbar sein?}{8}{section.10}}
\newlabel{swdev}{{10}{8}{Welche Art von Entwicklungen im Softwarebereich sollten / m\"{u}ssen patentierbar sein?\relax }{section.10}{}}
\@writefile{toc}{\contentsline {section}{\numberline {11}Welche Patente sind noch tragbar (konkrete Beispiele), so dass die Kreativit\"{a}t der OSS-Programmierer nicht eingeschr\"{a}nkt wird?}{9}{section.11}}
\newlabel{tragb}{{11}{9}{Welche Patente sind noch tragbar (konkrete Beispiele), so dass die Kreativit\"{a}t der OSS-Programmierer nicht eingeschr\"{a}nkt wird?\relax }{section.11}{}}
\@writefile{toc}{\contentsline {section}{\numberline {12}Kommentierte Verweise}{9}{section.12}}
\newlabel{links}{{12}{9}{Kommentierte Verweise\relax }{section.12}{}}
\gdef\scr@tpo@lst{0}
