\BOOKMARK [1][-]{section.1}{Creating Pro-Swpat Caselaw and Lobbying in Europe}{}
\BOOKMARK [1][-]{section.2}{Preventing Investigations in the US}{}
\BOOKMARK [1][-]{section.3}{License income from IBM patent portfolio}{}
\BOOKMARK [1][-]{section.4}{Recently a somewhat Cautious Policy in Europe?}{}
\BOOKMARK [1][-]{section.5}{IBM Patent Movement vs IBM}{}
\BOOKMARK [1][-]{section.6}{IBM afraid of working with GNU/Linux because of the risk of infringing a patent}{}
\BOOKMARK [1][-]{section.7}{IBM E-Patents at the European Patent Office \(EPO\)}{}
\BOOKMARK [1][-]{section.8}{Questions, Things To Do, How you can Help}{}
\BOOKMARK [1][-]{section.9}{Annotated Links}{}
