\relax 
\ifx\hyper@anchor\@undefined
\global \let \oldcontentsline\contentsline
\gdef \contentsline#1#2#3#4{\oldcontentsline{#1}{#2}{#3}}
\global \let \oldnewlabel\newlabel
\gdef \newlabel#1#2{\newlabelxx{#1}#2}
\gdef \newlabelxx#1#2#3#4#5#6{\oldnewlabel{#1}{{#2}{#3}}}
\AtEndDocument{\let \contentsline\oldcontentsline
\let \newlabel\oldnewlabel}
\else
\global \let \hyper@last\relax 
\fi

\@writefile{toc}{\contentsline {section}{\numberline {1}Creating Pro-Swpat Caselaw and Lobbying in Europe}{2}{section.1}}
\newlabel{bild}{{1}{2}{Creating Pro-Swpat Caselaw and Lobbying in Europe\relax }{section.1}{}}
\@writefile{toc}{\contentsline {section}{\numberline {2}Preventing Investigations in the US}{2}{section.2}}
\newlabel{spi}{{2}{2}{Preventing Investigations in the US\relax }{section.2}{}}
\@writefile{toc}{\contentsline {section}{\numberline {3}License income from IBM patent portfolio}{3}{section.3}}
\newlabel{gajn}{{3}{3}{License income from IBM patent portfolio\relax }{section.3}{}}
\@writefile{toc}{\contentsline {section}{\numberline {4}Recently a somewhat Cautious Policy in Europe?}{4}{section.4}}
\newlabel{eur}{{4}{4}{Recently a somewhat Cautious Policy in Europe?\relax }{section.4}{}}
\@writefile{toc}{\contentsline {section}{\numberline {5}IBM Patent Movement vs IBM}{5}{section.5}}
\newlabel{patmov}{{5}{5}{IBM Patent Movement vs IBM\relax }{section.5}{}}
\@writefile{toc}{\contentsline {section}{\numberline {6}IBM afraid of working with GNU/Linux because of the risk of infringing a patent}{5}{section.6}}
\newlabel{sslug0202}{{6}{5}{IBM afraid of working with GNU/Linux because of the risk of infringing a patent\relax }{section.6}{}}
\@writefile{toc}{\contentsline {section}{\numberline {7}IBM E-Patents at the European Patent Office (EPO)}{6}{section.7}}
\newlabel{epat}{{7}{6}{IBM E-Patents at the European Patent Office (EPO)\relax }{section.7}{}}
\@writefile{toc}{\contentsline {section}{\numberline {8}Questions, Things To Do, How you can Help}{6}{section.8}}
\newlabel{tasks}{{8}{6}{Questions, Things To Do, How you can Help\relax }{section.8}{}}
\@writefile{toc}{\contentsline {section}{\numberline {9}Annotated Links}{6}{section.9}}
\newlabel{ref}{{9}{6}{Annotated Links\relax }{section.9}{}}
