\BOOKMARK [1][-]{section.1}{Creating Pro-Swpat Caselaw and Lobbying in Europe}{}
\BOOKMARK [1][-]{section.2}{Preventing Investigations in the US}{}
\BOOKMARK [1][-]{section.3}{License income from IBM patent portfolio}{}
\BOOKMARK [1][-]{section.4}{Somewhat Cautious Policy in Europe}{}
\BOOKMARK [1][-]{section.5}{IBM Patent Movement vs IBM}{}
\BOOKMARK [1][-]{section.6}{Sbm-ibm02}{}
