\relax 
\ifx\hyper@anchor\@undefined
\global \let \oldcontentsline\contentsline
\gdef \contentsline#1#2#3#4{\oldcontentsline{#1}{#2}{#3}}
\global \let \oldnewlabel\newlabel
\gdef \newlabel#1#2{\newlabelxx{#1}#2}
\gdef \newlabelxx#1#2#3#4#5#6{\oldnewlabel{#1}{{#2}{#3}}}
\AtEndDocument{\let \contentsline\oldcontentsline
\let \newlabel\oldnewlabel}
\else
\global \let \hyper@last\relax 
\fi

\@writefile{toc}{\contentsline {section}{\numberline {1}Creating Pro-Swpat Caselaw and Lobbying in Europe}{1}{section.1}}
\newlabel{bild}{{1}{1}{Creating Pro-Swpat Caselaw and Lobbying in Europe\relax }{section.1}{}}
\@writefile{toc}{\contentsline {section}{\numberline {2}Preventing Investigations in the US}{2}{section.2}}
\newlabel{spi}{{2}{2}{Preventing Investigations in the US\relax }{section.2}{}}
\@writefile{toc}{\contentsline {section}{\numberline {3}License income from IBM patent portfolio}{2}{section.3}}
\newlabel{gajn}{{3}{2}{License income from IBM patent portfolio\relax }{section.3}{}}
\@writefile{toc}{\contentsline {section}{\numberline {4}Recently a somewhat Cautious Policy in Europe?}{4}{section.4}}
\newlabel{eur}{{4}{4}{Recently a somewhat Cautious Policy in Europe?\relax }{section.4}{}}
\@writefile{toc}{\contentsline {section}{\numberline {5}IBM Patent Movement vs IBM}{4}{section.5}}
\newlabel{patmov}{{5}{4}{IBM Patent Movement vs IBM\relax }{section.5}{}}
