\relax 
\ifx\hyper@anchor\@undefined
\global \let \oldcontentsline\contentsline
\gdef \contentsline#1#2#3#4{\oldcontentsline{#1}{#2}{#3}}
\global \let \oldnewlabel\newlabel
\gdef \newlabel#1#2{\newlabelxx{#1}#2}
\gdef \newlabelxx#1#2#3#4#5#6{\oldnewlabel{#1}{{#2}{#3}}}
\AtEndDocument{\let \contentsline\oldcontentsline
\let \newlabel\oldnewlabel}
\else
\global \let \hyper@last\relax 
\fi

\csname auxWARNINGii\endcsname {\typeout {-34- this file and other auxiliary files require to use the following}}
\csname auxWARNINGii\endcsname {\typeout {-34- LaTeX packages: french and babel!}}
\csname auxWARNINGii\endcsname {\typeout {-34- check \protect \usepackage \space or remove these files. Typesetting is aborted!} \stop }
\select@language{french}
\@writefile{toc}{\select@language{french}}
\@writefile{lof}{\select@language{french}}
\@writefile{lot}{\select@language{french}}
\select@language{french}
\@writefile{toc}{\select@language{french}}
\@writefile{lof}{\select@language{french}}
\@writefile{lot}{\select@language{french}}
\@writefile{toc}{\contentsline {section}{\numberline {1}Creating Pro-Swpat Caselaw and Lobbying in Europe}{1}{section.0.1}}
\newlabel{bild}{{1}{1}{Creating Pro-Swpat Caselaw and Lobbying in Europe\relax }{section.0.1}{}}
\@writefile{toc}{\contentsline {section}{\numberline {2}Preventing Investigations in the US}{2}{section.0.2}}
\newlabel{spi}{{2}{2}{Preventing Investigations in the US\relax }{section.0.2}{}}
\@writefile{toc}{\contentsline {section}{\numberline {3}License income from IBM patent portfolio}{2}{section.0.3}}
\newlabel{gajn}{{3}{2}{License income from IBM patent portfolio\relax }{section.0.3}{}}
\@writefile{toc}{\contentsline {section}{\numberline {4}Recently a somewhat Cautious Policy in Europe\@PI }{4}{section.0.4}}
\newlabel{eur}{{4}{4}{Recently a somewhat Cautious Policy in Europe?\relax }{section.0.4}{}}
\@writefile{toc}{\contentsline {section}{\numberline {5}IBM Patent Movement vs IBM}{4}{section.0.5}}
\newlabel{patmov}{{5}{4}{IBM Patent Movement vs IBM\relax }{section.0.5}{}}
