\relax 
\ifx\hyper@anchor\@undefined
\global \let \oldcontentsline\contentsline
\gdef \contentsline#1#2#3#4{\oldcontentsline{#1}{#2}{#3}}
\global \let \oldnewlabel\newlabel
\gdef \newlabel#1#2{\newlabelxx{#1}#2}
\gdef \newlabelxx#1#2#3#4#5#6{\oldnewlabel{#1}{{#2}{#3}}}
\AtEndDocument{\let \contentsline\oldcontentsline
\let \newlabel\oldnewlabel}
\else
\global \let \hyper@last\relax 
\fi

\@writefile{toc}{\contentsline {section}{\numberline {1}Time and Place}{1}{section.1}}
\newlabel{tmplok}{{1}{1}{Time and Place\relax }{section.1}{}}
\@writefile{toc}{\contentsline {section}{\numberline {2}introduction}{2}{section.2}}
\newlabel{intro}{{2}{2}{introduction\relax }{section.2}{}}
\@writefile{toc}{\contentsline {section}{\numberline {3}Program Proposal}{3}{section.3}}
\newlabel{prog}{{3}{3}{Program Proposal\relax }{section.3}{}}
\@writefile{toc}{\contentsline {section}{\numberline {4}Annotated Links}{5}{section.4}}
\newlabel{links}{{4}{5}{Annotated Links\relax }{section.4}{}}
\gdef\scr@tpo@lst{0}
