\contentsline {section}{\numberline {1}details}{2}{section.1}
\contentsline {section}{\numberline {2}Annotated Links}{3}{section.2}
\contentsline {section}{\numberline {3}Media contacts}{4}{section.3}
\contentsline {section}{\numberline {4}About the FFII -- www.ffii.org}{4}{section.4}
\contentsline {section}{\numberline {5}Permanent URL of this Press Release}{5}{section.5}
