\contentsline {section}{\numberline {1}detaily}{2}{section.1}
\contentsline {section}{\numberline {2}Annotated Links}{3}{section.2}
\contentsline {section}{\numberline {3}Pressekontakte}{5}{section.3}
\contentsline {section}{\numberline {4}\"{U}ber den FFII -- www.ffii.org}{5}{section.4}
\contentsline {section}{\numberline {5}Permanente URL dieser Pressemittelung}{5}{section.5}
