\contentsline {section}{\numberline {1}Der Wuermelingsche Standard-Diskurs}{2}{section.1}
\contentsline {section}{\numberline {2}Wuermeling's Activities in in connexion with the Software Patent Directive Proposal}{6}{section.2}
\contentsline {section}{\numberline {3}Accounts of failed attempts to get in touch Wuermeling}{8}{section.3}
\contentsline {section}{\numberline {4}Annotated Links}{9}{section.4}
