\relax 
\ifx\hyper@anchor\@undefined
\global \let \oldcontentsline\contentsline
\gdef \contentsline#1#2#3#4{\oldcontentsline{#1}{#2}{#3}}
\global \let \oldnewlabel\newlabel
\gdef \newlabel#1#2{\newlabelxx{#1}#2}
\gdef \newlabelxx#1#2#3#4#5#6{\oldnewlabel{#1}{{#2}{#3}}}
\AtEndDocument{\let \contentsline\oldcontentsline
\let \newlabel\oldnewlabel}
\else
\global \let \hyper@last\relax 
\fi

\@writefile{toc}{\contentsline {section}{\numberline {1}Der Wuermelingsche Standard-Diskurs}{2}{section.1}}
\newlabel{sermon}{{1}{2}{Der Wuermelingsche Standard-Diskurs\relax }{section.1}{}}
\@writefile{toc}{\contentsline {section}{\numberline {2}Wuermelings Aktivit\"{a}ten im Zusammenhang mit der Softwarepatent-Richtlinie}{6}{section.2}}
\newlabel{chron}{{2}{6}{Wuermelings Aktivit\"{a}ten im Zusammenhang mit der Softwarepatent-Richtlinie\relax }{section.2}{}}
\@writefile{toc}{\contentsline {section}{\numberline {3}Berichte von gescheiterten Kontaktversuchen}{8}{section.3}}
\newlabel{kontakt}{{3}{8}{Berichte von gescheiterten Kontaktversuchen\relax }{section.3}{}}
\@writefile{toc}{\contentsline {section}{\numberline {4}Kommentierte Verweise}{10}{section.4}}
\newlabel{links}{{4}{10}{Kommentierte Verweise\relax }{section.4}{}}
