\contentsline {section}{\numberline {1}Der Wuermelingsche Standard-Diskurs}{2}{section.1}
\contentsline {section}{\numberline {2}Wuermelings Aktivit\"{a}ten im Zusammenhang mit der Softwarepatent-Richtlinie}{6}{section.2}
\contentsline {section}{\numberline {3}Berichte von gescheiterten Kontaktversuchen}{8}{section.3}
\contentsline {section}{\numberline {4}Kommentierte Verweise}{10}{section.4}
