\contentsline {section}{\numberline {1}Vortragsank\"{u}ndigung von Hartmut Pilch}{1}{section.1}
\contentsline {section}{\numberline {2}Hartmut Pilch: zur Person}{2}{section.2}
\contentsline {section}{\numberline {3}Vorbereitende Lekt\"{u}re}{2}{section.3}
