This is pdfTeX, Version 3.14159-1.10b (Web2C 7.4.5) (format=pdflatex 2004.10.14)  6 JAN 2005 23:19
**swpguug023.de
(./swpguug023.de.tex{/usr/share/texmf/pdftex/config/pdftex.cfg}
LaTeX2e <2001/06/01>
Babel <v3.7h> and hyphenation patterns for american, nohyphenation, loaded.
(/usr/share/texmf/tex/latex/koma-script/scrartcl.cls
Document Class: scrartcl 2003/01/31 v2.9n LaTeX2e KOMA document class
(/usr/share/texmf/tex/latex/koma-script/scrlfile.sty
Package: scrlfile 2003/01/31 v2.9n LaTeX2e KOMA package

Package scrlfile, 2003/01/31 v2.9n LaTeX2e KOMA package
                  Copyright (C) Markus Kohm

) (/usr/share/texmf/tex/latex/base/size11.clo
File: size11.clo 2001/04/21 v1.4e Standard LaTeX file (size option)
)
(/usr/share/texmf/tex/latex/koma-script/typearea.sty
Package: typearea 2003/01/31 v2.9n LaTeX2e KOMA package

Package typearea, 2003/01/31 v2.9n LaTeX2e KOMA package
                  Copyright (C) Frank Neukam, 1992-1994
                  Copyright (C) Markus Kohm, 1994-2002

\ta@bcor=\skip41
\ta@div=\count79
\ta@hblk=\skip42
\ta@vblk=\skip43
\ta@temp=\skip44
Package typearea Info: These are the values describing the layout:
(typearea)             DIV  = 10
(typearea)             BCOR = 0.0pt
(typearea)             \paperwidth      = 597.50793pt
(typearea)              \textwidth      = 418.25555pt
(typearea)              DIV-departure   = -6/100
(typearea)              \evensidemargin = 17.3562pt
(typearea)              \oddsidemargin  = 17.3562pt
(typearea)             \paperheight     = 845.04694pt
(typearea)              \textheight     = 595.80026pt
(typearea)              \topmargin      = -25.16531pt
(typearea)              \headheight     = 17.0pt
(typearea)              \headsep        = 20.40001pt
(typearea)              \topskip        = 11.0pt
(typearea)              \footskip       = 47.60002pt
(typearea)              \baselineskip   = 13.6pt
(typearea)              on input line 625.
)
\c@part=\count80
\c@section=\count81
\c@subsection=\count82
\c@subsubsection=\count83
\c@paragraph=\count84
\c@subparagraph=\count85
\c@figure=\count86
\c@table=\count87
\abovecaptionskip=\skip45
\belowcaptionskip=\skip46
\c@pti@nb@sid@b@x=\box26
\bibindent=\dimen102
) (/usr/share/texmf/tex/generic/german/german.sty v2.5e 1998-07-08
Package: german 1998/07/08 v2.5e Support for writing german texts (br)
\grmnU@D=\dimen103

german -- \language number for German undefined, default 255 used,
german -- Please read "gerdoc.tex" how to install hyphenation patterns.
german -- \language number for Austrian undefined, default 255 used.
german -- \language number for French undefined, default 255 used.
)
(/usr/share/texmf/tex/latex/TXP/TXM/ansidate.sty)
(/usr/share/texmf/tex/latex/hyperref/hyperref.sty
Package: hyperref 2003/01/22 v6.73n Hypertext links for LaTeX

(/usr/share/texmf/tex/latex/graphics/keyval.sty
Package: keyval 1999/03/16 v1.13 key=value parser (DPC)
\KV@toks@=\toks14
)
\@linkdim=\dimen104
\Hy@linkcounter=\count88
\Hy@pagecounter=\count89

(/usr/share/texmf/tex/latex/hyperref/pd1enc.def
File: pd1enc.def 2003/01/22 v6.73n Hyperref: PDFDocEncoding definition (HO)
)
(/usr/share/texmf/tex/latex/config/hyperref.cfg
File: hyperref.cfg 2002/06/06 v1.2 hyperref configuration of TeXLive and teTeX
)
Package hyperref Info: Hyper figures OFF on input line 1792.
Package hyperref Info: Link nesting OFF on input line 1797.
Package hyperref Info: Hyper index ON on input line 1800.
Package hyperref Info: Plain pages ON on input line 1805.
Package hyperref Info: Backreferencing OFF on input line 1812.

Implicit mode ON; LaTeX internals redefined
Package hyperref Info: Bookmarks ON on input line 1916.
(/usr/share/texmf/tex/latex/misc/url.sty
\Urlmuskip=\muskip10
Package: url 1999/03/28  ver 1.5x  Verb mode for urls, etc.
)
LaTeX Info: Redefining \url on input line 2055.
\Fld@menulength=\count90
\Field@Width=\dimen105
\Fld@charsize=\dimen106
\Choice@toks=\toks15
\Field@toks=\toks16
Package hyperref Info: Hyper figures OFF on input line 2513.
Package hyperref Info: Link nesting OFF on input line 2518.
Package hyperref Info: Hyper index ON on input line 2521.
Package hyperref Info: backreferencing OFF on input line 2528.
Package hyperref Info: Link coloring OFF on input line 2533.
\c@Item=\count91
\c@Hfootnote=\count92
)
*hyperref using default driver hpdftex*
(/usr/share/texmf/tex/latex/hyperref/hpdftex.def
File: hpdftex.def 2003/01/22 v6.73n Hyperref driver for pdfTeX

(/usr/share/texmf/tex/latex/psnfss/pifont.sty
Package: pifont 2002/09/08 PSNFSS-v9.0a Pi font support (SPQR) 
LaTeX Font Info:    Try loading font information for U+pzd on input line 62.

(/usr/share/texmf/tex/latex/psnfss/upzd.fd
File: upzd.fd 2001/06/04 font definitions for U/pzd.
)
LaTeX Font Info:    Try loading font information for U+psy on input line 63.

(/usr/share/texmf/tex/latex/psnfss/upsy.fd
File: upsy.fd 2001/06/04 font definitions for U/psy.
))
\Fld@listcount=\count93
\@outlinefile=\write3
)
(/usr/share/texmf/tex/latex/graphics/graphicx.sty
Package: graphicx 1999/02/16 v1.0f Enhanced LaTeX Graphics (DPC,SPQR)

(/usr/share/texmf/tex/latex/graphics/graphics.sty
Package: graphics 2001/07/07 v1.0n Standard LaTeX Graphics (DPC,SPQR)

(/usr/share/texmf/tex/latex/graphics/trig.sty
Package: trig 1999/03/16 v1.09 sin cos tan (DPC)
)
(/usr/share/texmf/tex/latex/config/graphics.cfg
File: graphics.cfg 2001/08/31 v1.1 graphics configuration of teTeX/TeXLive
)
Package graphics Info: Driver file: pdftex.def on input line 80.

(/usr/share/texmf/tex/latex/graphics/pdftex.def
File: pdftex.def 2002/06/19 v0.03k graphics/color for pdftex
\Gread@gobject=\count94
))
\Gin@req@height=\dimen107
\Gin@req@width=\dimen108
)
(/usr/share/texmf/tex/latex/tools/array.sty
Package: array 1998/05/13 v2.3m Tabular extension package (FMi)
\col@sep=\dimen109
\extrarowheight=\dimen110
\NC@list=\toks17
\extratabsurround=\skip47
\backup@length=\skip48
)
(/usr/share/texmf/tex/latex/misc/wrapfig.sty
\wrapoverhang=\dimen111
\WF@size=\dimen112
\c@WF@wrappedlines=\count95
\WF@box=\box27
\WF@everypar=\toks18
Package: wrapfig 2003/01/31  v 3.6
)
(/usr/share/texmf/tex/latex/TXP/TXM/mlht/el2tex.tex
\sectlevel=\count96
\toplevel=\count97
)
(/usr/share/texmf/tex/latex/TXP/TXM/mlht/coldef.tex) (./swpguug023.de.aux)
\openout1 = `swpguug023.de.aux'.

LaTeX Font Info:    Checking defaults for OML/cmm/m/it on input line 12.
LaTeX Font Info:    ... okay on input line 12.
LaTeX Font Info:    Checking defaults for T1/cmr/m/n on input line 12.
LaTeX Font Info:    ... okay on input line 12.
LaTeX Font Info:    Checking defaults for OT1/cmr/m/n on input line 12.
LaTeX Font Info:    ... okay on input line 12.
LaTeX Font Info:    Checking defaults for OMS/cmsy/m/n on input line 12.
LaTeX Font Info:    ... okay on input line 12.
LaTeX Font Info:    Checking defaults for OMX/cmex/m/n on input line 12.
LaTeX Font Info:    ... okay on input line 12.
LaTeX Font Info:    Checking defaults for U/cmr/m/n on input line 12.
LaTeX Font Info:    ... okay on input line 12.
LaTeX Font Info:    Checking defaults for PD1/pdf/m/n on input line 12.
LaTeX Font Info:    ... okay on input line 12.
Package hyperref Info: Link coloring OFF on input line 12.

(/usr/share/texmf/tex/latex/hyperref/nameref.sty
Package: nameref 2001/01/27 v2.19 Cross-referencing by name of section
\c@section@level=\count98
)
LaTeX Info: Redefining \ref on input line 12.
LaTeX Info: Redefining \pageref on input line 12.
 (./swpguug023.de.out)
(./swpguug023.de.out)
\openout3 = `swpguug023.de.out'.

 (/usr/share/texmf/tex/context/base/supp-pdf.tex
(/usr/share/texmf/tex/context/base/supp-mis.tex
loading : Context Support Macros / Missing
\protectiondepth=\count99
\scratchcounter=\count100
\scratchtoks=\toks19
\scratchdimen=\dimen113
\scratchskip=\skip49
\scratchmuskip=\muskip11
\scratchbox=\box28
\scratchread=\read1
\scratchwrite=\write4
\zeropoint=\dimen114
\minusone=\count101
\thousandpoint=\dimen115
\emptytoks=\toks20
\nextbox=\box29
\nextdepth=\dimen116
\everyline=\toks21
\!!counta=\count102
\!!countb=\count103
\recursecounter=\count104
)
loading : Context Support Macros / PDF
\nofMPsegments=\count105
\nofMParguments=\count106
\everyMPtoPDFconversion=\toks22
) (/ul/sig/srv/res/www/ffii/swpat/penmi/2002/guugffg/swpguug023.de.sub
GUUG Fr^^c3^^bchjahrsfachgespr^^c3^^a4ch Bochum 2002-03-01 14:45-16:30
Missing character: There is no ^^c3 in font cmssbx10!
Missing character: There is no ^^bc in font cmssbx10!
Missing character: There is no ^^c3 in font cmssbx10!
Missing character: There is no ^^a4 in font cmssbx10!
LaTeX Font Info:    External font `cmex10' loaded for size
(Font)              <14.4> on input line 1.
LaTeX Font Info:    External font `cmex10' loaded for size
(Font)              <7> on input line 1.
LaTeX Font Info:    External font `cmex10' loaded for size
(Font)              <5> on input line 1.
LaTeX Font Info:    External font `cmex10' loaded for size
(Font)              <9> on input line 1.
LaTeX Font Info:    External font `cmex10' loaded for size
(Font)              <6> on input line 1.
(./swpguug023.de.toc)
\tf@toc=\write5
\openout5 = `swpguug023.de.toc'.

LaTeX Font Info:    External font `cmex10' loaded for size
(Font)              <10.95> on input line 3.
LaTeX Font Info:    External font `cmex10' loaded for size
(Font)              <8> on input line 3.
 [1


{/usr/share/texmf/dvips/config/pdftex.map}]
Underfull \hbox (badness 4096) in paragraph at lines 6--7
[]/cmti10@10.95pt/uber 100000 Unterschriften und offizielle Unterst[]utzung ein
iger 100
 []


Underfull \hbox (badness 5008) in paragraph at lines 8--9
/cmti10@10.95pt/erfordert die Diskussion allerhand relativ komplizierte Fragen[
][][] und
 []


Underfull \hbox (badness 5050) in paragraph at lines 8--9
/cmti10@10.95pt/Antworten, f[]ur die nicht unbedingt jeder Diskussionsteilnehme
r die
 []


Underfull \hbox (badness 1946) in paragraph at lines 17--19
/cmr10@10.95pt/Jahrgang 1963, MA Sinologie, seit 15 Jahren einerseits h[]aufig 
als Chinesisch-
 []


Underfull \hbox (badness 1292) in paragraph at lines 17--19
/cmr10@10.95pt/und Japanisch-Dolmetscher im Europ[]aischen Patentamt und Bundes
patentgericht
 []


Underfull \hbox (badness 1052) in paragraph at lines 17--19
/cmr10@10.95pt/besch[]aftigt, andererseits viel Freizeit und auch manche bezahl
te Arbeitszeit mit
 []

[2]
LaTeX Font Info:    Try loading font information for OMS+cmr on input line 23.
 (/usr/share/texmf/tex/latex/base/omscmr.fd
File: omscmr.fd 1999/05/25 v2.5h Standard LaTeX font definitions
)
LaTeX Font Info:    Font shape `OMS/cmr/m/n' in size <10.95> not available
(Font)              Font shape `OMS/cmsy/m/n' tried instead on input line 23.

Underfull \hbox (badness 1014) in paragraph at lines 31--32
/cmbx10@10.95pt/Stellungnahme der GI zur Frage der Patentierbarkeit Computer-
 []


Underfull \hbox (badness 10000) in paragraph at lines 34--35
[]/cmr10@10.95pt/Im Auftrag des Pr[]asidenten der Gesellschaft f[]ur Informatik

 []


Underfull \hbox (badness 2717) in paragraph at lines 34--35
/cmr10@10.95pt/setzt sich Patentanwalt Springorum in dieser Stellungnahme an
 []


Underfull \hbox (badness 10000) in paragraph at lines 34--35
/cmr10@10.95pt/die EU-Kommission f[]ur eine grenzenlose Patentierbarkeit von
 []


Underfull \hbox (badness 1430) in paragraph at lines 34--35
/cmr10@10.95pt/Computerprogrammen und Gesch[]aftsmethoden ein. Ausgangspunkt
 []


Underfull \hbox (badness 1997) in paragraph at lines 34--35
/cmr10@10.95pt/abschaffen. Auch die unmittelbare Patentierung von funktionalen
 []


Underfull \hbox (badness 1424) in paragraph at lines 34--35
/cmr10@10.95pt/Wie dies angesichts der postulierten Nicht-Unterscheidbarkeit vo
n
 []


Underfull \hbox (badness 1776) in paragraph at lines 34--35
/cmr10@10.95pt/die real existierende Flut trivialer Funktionalit[]atenpatente b
edarf
 []


Underfull \hbox (badness 1237) in paragraph at lines 34--35
/cmr10@10.95pt/offenbar keiner Erw[]ahnung. Eine Betrachtung der wirtschaftlich
en
 []


Underfull \hbox (badness 2189) in paragraph at lines 34--35
/cmr10@10.95pt/und gesellschaftlichen Auswirkungen dieser Realit[]at er[]ubrigt
 sich
 []


Underfull \hbox (badness 3000) in paragraph at lines 34--35
/cmr10@10.95pt/somit. Als einziges wirtschaftspolitisches Argument verbleibt ei
n
 []


Underfull \hbox (badness 1173) in paragraph at lines 34--35
/cmr10@10.95pt/Verweis auf die Bed[]urfnisse von Risikokapitalgebern nach leich
ter
 []


Underfull \hbox (badness 4328) in paragraph at lines 34--35
/cmr10@10.95pt/Einsch[]atzbarkeit der Ertragschancen eines Softwareunternehmens
.
 []


Underfull \hbox (badness 3579) in paragraph at lines 34--35
/cmr10@10.95pt/Das Papier wirft nicht n[]aher bezeichneten Patentkritikern eine

 []


Underfull \hbox (badness 5331) in paragraph at lines 34--35
/cmr10@10.95pt/in rechtsdogmatischen []Uberlegungen auf Grundlage eines nicht
 []


Underfull \hbox (badness 1577) in paragraph at lines 34--35
/cmr10@10.95pt/GI-Basis durch einen einsamen Pr[]asidiumsbeschluss verabschiede
t.
 []


Underfull \hbox (badness 1400) in paragraph at lines 34--35
/cmr10@10.95pt/Hieraus ergibt sich eine Fallstudie, die Licht auf das Geschehen

 []

[3] [4]
Missing character: There is no ^^c3 in font cmbx10!
Missing character: There is no ^^a4 in font cmbx10!
Missing character: There is no ^^c3 in font cmbx10!
Missing character: There is no ^^a4 in font cmbx10!

! Misplaced alignment tab character &.
l.55 {\bf {\bf EUK &
                     BSA 2002-02-20: Vorschlag, alle n^^c3^^bctzlichen Ideen...

? 
! Emergency stop.
l.55 {\bf {\bf EUK &
                     BSA 2002-02-20: Vorschlag, alle n^^c3^^bctzlichen Ideen...
End of file on the terminal!

 
Here is how much of TeX's memory you used:
 3338 strings out of 95460
 44373 string characters out of 1190703
 106262 words of memory out of 1000001
 6268 multiletter control sequences out of 10000+50000
 12368 words of font info for 44 fonts, out of 500000 for 1000
 14 hyphenation exceptions out of 1000
 36i,12n,38p,3460b,548s stack positions out of 1500i,500n,5000p,200000b,5000s
 109 PDF objects out of 300000
 18 named destinations out of 131072
 37 words of extra memory for PDF output out of 65536
!  ==> Fatal error occurred, the output PDF file is not finished!
