\relax 
\ifx\hyper@anchor\@undefined
\global \let \oldcontentsline\contentsline
\gdef \contentsline#1#2#3#4{\oldcontentsline{#1}{#2}{#3}}
\global \let \oldnewlabel\newlabel
\gdef \newlabel#1#2{\newlabelxx{#1}#2}
\gdef \newlabelxx#1#2#3#4#5#6{\oldnewlabel{#1}{{#2}{#3}}}
\AtEndDocument{\let \contentsline\oldcontentsline
\let \newlabel\oldnewlabel}
\else
\global \let \hyper@last\relax 
\fi

\@writefile{toc}{\contentsline {section}{\numberline {1}Vortragsank\"{u}ndigung von Hartmut Pilch}{2}{section.1}}
\newlabel{abs}{{1}{2}{Vortragsank\"{u}ndigung von Hartmut Pilch\relax }{section.1}{}}
\@writefile{toc}{\contentsline {section}{\numberline {2}Hartmut Pilch: zur Person}{2}{section.2}}
\newlabel{txt}{{2}{2}{Hartmut Pilch: zur Person\relax }{section.2}{}}
\@writefile{toc}{\contentsline {section}{\numberline {3}Vorbereitende Lekt\"{u}re}{3}{section.3}}
\newlabel{links}{{3}{3}{Vorbereitende Lekt\"{u}re\relax }{section.3}{}}
