1111111111111111111111111111111111111
2000 21
3COM 41
ABB 263
ABBOTT 131
ACCESS 21
ACE 56
ACER 22
ACTEL 36
ADAM 36
ADC 24
ADOBE 96
ADOLF 32
ADRIAN 21
ADVANCED 1109
ADVANTEST 62
AEG 65
AEROSPACE 321
AEROSPATIALE 134
AFFYMETRIX 34
AGENCE 23
AGENCY 60
AGFA 556
AGIP 23
AHLSTROEM 31
AIR 271
AIRBAG 21
AIRBUS 25
AIRCRAFT 714
AISIN 127
AIWA 25
AJINOMOTO 62
AKIRA 24
AKTIENGESELLSCH 52
AKTIENGESELLSCHAFT 25
AKZO 121
ALAIN 38
ALAN 67
ALBANY 22
ALBERT 148
ALBIS 36
ALCAN 32
ALCATEL 2215
ALESSANDRO 22
ALEXANDER 60
ALEXANDR 23
ALFA 52
ALFRED 89
ALLEN 81
ALLIED 94
ALLISON 30
ALPINE 67
ALPS 110
ALSTHOM 416
ALSTOM 29
ALTERA 50
ALUMINIUM 51
ALUMINUM 37
ALUMNI 24
ALUSUISSE 27
AMADA 21
AMAZONEN 43
AMDAHL 33
AMERICA 171
AMERICAN 1470
AMERSHAM 28
AMGEN 31
AMOCO 55
AMP 223
AMPEX 103
AMPHENOL 44
ANADRILL 37
ANALOG 60
AND 162
ANDERS 35
ANDERSSON 21
ANDO 29
ANDRE 65
ANDREAS 61
ANDREW 106
ANGELO 23
ANGEWANDTE 30
ANLAGEN 25
ANLAGENBAU 33
ANONYME 47
ANRITSU 60
ANT 187
ANTHONY 75
ANTON 43
ANTONIO 65
APP 28
APPARATEBAU 27
APPLE 105
APPLIC 54
APPLIED 169
APS 26
AQUITAINE 42
ARCH 26
ARCO 27
ARMATUREN 25
ARNOLD 27
ARTHUR 39
ARUZE 31
ASAHI 219
ASCOM 105
ASEA 176
ASS 236
ASSET 21
ASSOCIATED 25
ASSOCIATES 98
ASULAB 44
ATLANTA 79
ATLANTIC 39
ATLAS 107
ATMEL 36
ATOCHEM 83
ATOMIC 38
ATOMIQUE 304
ATR 29
AUDIO 48
AUGUST 41
AUSIMONT 30
AUSTRALIA 76
AUSTRIA 60
AUTHORITY 40
AUTO 145
AUTOMAT 42
AUTOMATED 28
AUTOMATIC 144
AUTOMATION 231
AUTOMOTIVE 276
AUTRONICA 42
AVE 51
AVERY 45
AVIATION 28
AVID 47
AVIONICS 21
AVIONIQUE 131
AVL 30
AXIS 21
BABCOCK 86
BACHMANN 36
BAKER 60
BALDWIN 43
BALL 23
BALLY 21
BANK 48
BARRY 22
BASF 494
BATTELLE 28
BATTERIE 37
BATTERY 42
BAUER 120
BAXTER 96
BAYER 436
BAYERISCHE 197
BBC 73
BECKER 56
BECKMAN 60
BECTON 241
BEECHAM 417
BEHEER 25
BEHR 23
BEHRINGWERKE 52
BEIERSDORF 31
BEKAERT 22
BELL 427
BELLSOUTH 33
BELOIT 73
BENDIX 38
BENNETT 33
BENZ 194
BERG 50
BERNARD 71
BERND 32
BERNHARD 50
BERTIN 33
BETRIEBS 36
BETTS 51
BHS 27
BICC 21
BIO 113
BIOCHEM 39
BIOLABS 32
BIOLOG 28
BIOMEDICAL 22
BIOSYSTEMS 43
BIOTECH 95
BIOTECHNOLOG 21
BIOTECHNOLOGY 29
BLACK 80
BLAUPUNKT 88
BLOHM 44
BOARD 22
BOC 96
BODENSEEWERK 57
BOEHRINGER 194
BOEING 218
BOELKOW 44
BORG 40
BOSAI 29
BOSCH 1077
BOSEKI 67
BOSTON 33
BOVERI 233
BOWES 357
BRADLEY 56
BRAKE 60
BRAND 29
BRANDT 446
BRAUN 80
BREMSE 36
BREWERY 30
BRIAN 59
BRIDGESTONE 148
BRISTOL 73
BRIT 55
BRITISH 898
BROADCAST 24
BROADCASTING 174
BROCADES 45
BROCKWAY 21
BROOKTREE 38
BROTHER 260
BROWN 287
BRUCE 23
BRUECKNER 23
BRUNO 41
BULL 521
BURROUGHS 52
BUSCH 29
BUSINESS 289
CABLE 74
CABLES 29
CABLETRON 49
CALIFORNIA 136
CAMBRIDGE 48
CAMCO 26
CAMERA 61
CAN 24
CANADA 126
CANADIAN 25
CANAL 53
CANCER 88
CANON 5102
CAR 26
CARBIDE 111
CARD 179
CARDIAC 21
CARDIOVASCULAR 31
CARE 34
CARL 181
CARLO 51
CARRIER 66
CASIO 326
CATALYTIC 54
CATERPILLAR 65
CAVI 108
CELANESE 97
CELL 37
CELLS 24
CEMENT 23
CENTER 181
CENTRAL 52
CENTRE 193
CENTRO 110
CERAMICS 32
CERBERUS 21
CETUS 34
CGA 29
CGE 294
CGR 38
CHANG 32
CHARLES 151
CHARM 32
CHEM 753
CHEMICAL 1325
CHEMICALS 307
CHEMIE 89
CHEMISCHE 59
CHEN 51
CHENG 23
CHILDRENS 21
CHIMIE 72
CHIRON 64
CHISSO 52
CHRISTIAN 103
CHRISTOPH 21
CHRISTOPHER 57
CHRYSLER 127
CHUGAI 50
CHUN 24
CHUNG 21
CHUO 36
CIBA 285
CIE 277
CINCINNATI 23
CIRRUS 105
CIT 665
CITIBANK 56
CITICORP 33
CITIZEN 108
CITROEN 167
CITY 37
CLAAS 32
CLARK 183
CLAUDE 82
CLINICAL 28
CLOROX 23
CODEX 47
COGEMA 27
COLGATE 59
COLIN 50
COLLEGE 73
COLOR 23
COLUMBIA 71
COM 75
COMM 205
COMMISSARIAT 303
COMMUNIC 39
COMMUNICAT 73
COMMUNICATION 175
COMMUNICATIONS 506
COMMW 48
COMP 124
COMPANY 554
COMPAQ 311
COMPONENTS 63
COMPOSANTS 74
COMPUTER 1096
COMPUTERS 314
CONCEPTS 22
CONLUX 61
CONNECTORS 67
CONS 72
CONST 28
CONSTRUCTION 86
CONSULT 22
CONSULTANTS 28
CONSULTING 24
CONSUMER 393
CONTAINER 28
CONTINENTAL 49
CONTRAVES 50
CONTROL 169
CONTROLS 116
CONVERSION 46
CONVERTING 37
COOP 31
COOPER 42
COPCO 27
CORDIS 28
CORNELIS 32
CORNELL 23
CORNING 329
CORP 25599
CORPORATE 51
COSTRUZIONI 23
COULTER 43
COUNCIL 63
CP8 35
CRAY 54
CREATIVE 23
CROSFIELD 94
CROSS 51
CSELT 92
CSF 615
CUMMINS 55
CUMPUTER 31
CYANAMID 99
CYRIX 22
DAE 151
DAICEL 68
DAIICHI 92
DAIKIN 118
DAIMLER 302
DAINIPPON 454
DAN 27
DANA 29
DANIEL 111
DANIELI 27
DASSAULT 62
DATA 347
DATACOMM 35
DATALOGIC 42
DAVID 401
DEARBORN 33
DECKER 70
DEERE 41
DEFENCE 76
DEGUSSA 72
DEL 23
DELCO 80
DELFT 27
DELPHI 58
DELTA 29
DENKEN 52
DENKI 93
DENKO 74
DENNIS 31
DENSHI 43
DENSHIN 63
DENSO 254
DENWA 63
DER 40
DES 38
DESIGN 133
DEUTSCHE 502
DEUTSCHLAND 154
DEUTZ 22
DEV 519
DEVELOPMENT 54
DEVICE 27
DEVICES 1069
DEVRIENT 79
DIAGNOSTIC 49
DIAGNOSTICS 164
DIAMOND 26
DICKINSON 246
DIDIER 30
DIEBOLD 26
DIEHL 68
DIESEL 54
DIETER 104
DIGITAL 856
DIPL 119
DISCOVERY 26
DISCOVISION 91
DISPLAY 23
DOLBY 32
DOMINIQUE 26
DONALD 50
DONNELLY 22
DORNIER 50
DOUGLAS 60
DOW 455
DREXLER 25
DREYER 43
DRILLING 24
DRIVES 24
DRUCKMASCH 287
DSC 55
DSM 40
DYNAMICS 49
DYNAMIT 21
EASTMAN 1773
EATON 317
EBARA 70
EBAUCHESFABRIK 22
EDICO 28
EDUARD 31
EDWARD 102
EDWIN 21
EISAI 29
ELA 31
ELEC 43
ELECT 66
ELECTR 173
ELECTRIC 15147
ELECTRICA 35
ELECTRICITE 49
ELECTRO 113
ELECTROLUX 57
ELECTRON 97
ELECTRONIC 934
ELECTRONICS 5009
ELECTRONIQUE 225
ELECTRONIQUES 32
ELEKTRIK 48
ELEKTRO 59
ELEKTRONIK 186
ELEKTROTECH 27
ELEMA 73
ELETTRODOMESTICI 43
ELETTRONICA 25
ELEVATOR 85
ELF 121
ELI 112
ELMER 107
ELONEX 21
ELPATRONIC 25
EMERSON 58
EMHART 69
EMI 71
EMV 240
ENDO 23
ENDRESS 29
ENERGIE 332
ENERGY 297
ENG 507
ENGELHARD 21
ENGINE 64
ENGINEERING 287
ENGLAND 49
ENICHEM 41
ENIRICERCHE 50
ENTERPRISES 223
ENTERTAINM 23
ENTERTAINMENT 89
ENTWICKLUNG 53
ENVIRONMENTAL 34
EPSON 818
EQUIP 129
EQUIPMENT 771
ERIC 65
ERICH 76
ERICSSON 1213
ERIK 44
ERNST 79
ERWIN 41
ESCHER 24
ESPACE 29
ESPANA 41
ESSELTE 84
ETA 29
ETAT 169
ETHICON 60
ETHYL 38
ETS 67
EURO 31
EUROP 412
EUROPA 45
EXXON 183
EZEL 49
FAB 61
FABIO 27
FAHRZEUG 21
FAIRCHILD 65
FANUC 588
FARBEN 29
FATS 21
FERAG 37
FERNSEH 26
FESTO 21
FIAT 138
FILM 1172
FILTER 33
FINA 21
FINANCE 61
FINANCIAL 21
FINISHING 39
FIRESTONE 39
FIRST 37
FISCHER 86
FISHER 65
FISONS 22
FLORIDA 21
FLUKE 70
FMC 34
FOCKE 51
FOOD 35
FOODS 57
FOR 72
FORD 734
FORE 23
FORMS 147
FORSCH 51
FORSCHUNG 185
FORSCHUNGSZENTRUM 33
FOUND 149
FOUNDATION 90
FOXBORO 25
FRAMATOME 88
FRANCAIS 185
FRANCE 1154
FRANCIS 45
FRANCO 22
FRANCOIS 83
FRANCOTYP 75
FRANK 103
FRANZ 87
FRAUNHOFER 148
FRED 22
FREDERICK 24
FRERES 33
FREUDENBERG 53
FRIEDRICH 55
FRITZ 69
FSE 181
FUEL 46
FUELS 23
FUER 137
FUJI 1491
FUJIKURA 35
FUJISAWA 36
FUJITSU 2760
FUR 37
FURUKAWA 99
GAMBLE 409
GAMES 55
GAO 51
GARCIA 36
GARY 32
GAS 195
GAZ 33
GEB 72
GEBR 21
GEC 220
GEIGY 252
GEMPLUS 138
GEN 1468
GENE 21
GENENTECH 41
GENERAL 103
GENETIC 30
GENETICS 104
GENOME 29
GEORG 84
GEORGE 100
GEORGES 25
GEORGIA 25
GERAETEBAU 28
GERAETETECH 42
GERALD 36
GERARD 54
GERBER 50
GERD 30
GERHARD 79
GERIN 80
GES 381
GESELLSCHAFT 66
GEVAERT 530
GIESECKE 78
GIKEN 27
GILLES 22
GIORGIO 26
GIORI 25
GIOVANNI 27
GIST 44
GIUSEPPE 34
GLASS 198
GLAXO 27
GLENN 21
GLOBAL 159
GLOBALSTAR 27
GMB 35
GMBH 7920
GOBAIN 85
GOLD 119
GOLDSCHMIDT 22
GOODRICH 99
GOODYEAR 66
GORDON 40
GORE 42
GOSEI 21
GOULD 22
GOVERNMENT 52
GRACE 118
GRAHAM 27
GRAPHA 40
GRAPHIC 83
GRAPHICS 94
GRASS 41
GREEN 48
GREGORY 23
GRETAG 56
GRIESHEIM 30
GROUP 513
GRUMMAN 75
GRUNDIG 298
GTE 104
GUENTER 54
GUENTHER 33
GUIDO 23
GUMMI 23
GUSTAV 22
GUY 56
GYR 126
HAAS 48
HABITACLE 30
HADEWE 30
HAGENUK 22
HAGER 23
HAKKO 81
HAL 28
HALLIBURTON 228
HAMAMATSU 105
HANDOTAI 57
HANNU 32
HANS 297
HARALD 33
HARIMA 41
HARNESS 28
HAROLD 34
HARRIS 112
HARRY 37
HARTMANN 56
HARVARD 24
HAUSER 33
HAUSGERAETE 113
HAYASHIBARA 38
HBS 29
HEALTH 101
HEAVY 338
HEIDELBERG 21
HEIDELBERGER 136
HEIDENHAIN 87
HEINRICH 81
HEINZ 112
HELL 26
HELLA 30
HELMUT 84
HENKEL 188
HENRI 36
HENRY 59
HERAEUS 43
HERBERT 36
HERCULES 48
HERMAN 38
HERMANN 58
HEWLETT 2574
HIGH 21
HILL 21
HIROSE 41
HIROSHI 26
HIRSCHMANN 23
HITACHI 2726
HOECHST 531
HOELSCHER 50
HOESCH 27
HOFFMANN 155
HOFMANN 29
HOLDING 250
HOLDINGS 246
HOLLAND 69
HOLLANDSE 34
HOME 56
HONDA 485
HONEYWELL 512
HONG 25
HOPE 27
HOPKINS 29
HORIBA 32
HORST 76
HOSPITAL 103
HOWARD 42
HOWELL 26
HOYA 36
HUANG 25
HUBERT 27
HUDSON 50
HUECK 32
HUELS 59
HUGHES 847
HUMAN 52
HUNTER 37
HUSKY 24
HUTCHINSON 43
HYDRO 43
HYUNDAI 55
IAN 41
IBM 7079
ICHI 22
ICI 191
ICL 76
ICO 77
IDEMITSU 127
III 31
IKEGAMI 24
ILLINOIS 114
IMAGE 37
IMAGING 149
IMATION 28
IMEC 66
INC 21447
INCO 22
INCYTE 32
IND 7626
INDUSTRIAL 398
INDUSTRIE 45
INDUSTRIES 917
INDUSTRY 86
INF 500
INFINEON 61
INFO 25
INFORMATICS 35
INFORMATION 401
ING 193
INGELHEIM 57
INK 90
INMOS 37
INNOVAT 56
INNOVATION 58
INNOVATIONS 32
INNOVATIVE 24
INST 1194
INSTITUT 79
INSTR 542
INSTRUMENT 174
INSTRUMENTS 1434
INSULATORS 118
INT 2785
INTEGRATED 78
INTEGRATION 21
INTEL 221
INTELLECTUAL 50
INTELLIGENT 41
INTER 80
INTERACTIVE 30
INTERDIGITAL 21
INTERFACE 59
INTERGRAPH 43
INTERNATIONAL 533
INVENTIO 44
INVEST 44
INVESTMENTS 29
IOMEGA 41
IRON 37
ISHIDA 39
ISHIKAWAJIMA 42
ISOVER 24
ISRAEL 59
ISUZU 62
ITALIA 123
ITALIANA 58
ITALTEL 75
ITT 234
IVECO 31
JACK 26
JACOB 22
JACOBS 29
JACQUES 101
JAEGER 42
JAGENBERG 22
JAMES 291
JAN 72
JAPAN 969
JARI 31
JEAN 277
JEFFREY 53
JENA 32
JEROME 23
JIM 50
JOACHIM 31
JOH 23
JOHAN 34
JOHANN 35
JOHANNES 162
JOHANSSON 22
JOHN 488
JOHNS 34
JOHNSON 312
JONATHAN 30
JONES 31
JOSE 65
JOSEF 100
JOSEPH 157
JUAN 28
JUELICH 32
JUERGEN 73
JUHA 27
JUKKA 24
JUN 26
JUNIOR 52
KABEL 54
KABUSHIKI 75
KAGAKU 235
KAIHATSU 42
KAISHA 125
KAKOKI 38
KANEBO 22
KANEGAFUCHI 91
KANSAI 30
KANZAKI 22
KAO 94
KARI 36
KARL 178
KARLSRUHE 32
KARTENSYSTEME 30
KASEI 31
KATO 36
KAWASAKI 147
KAYAKU 35
KAZUO 28
KEITH 31
KEN 23
KENDALL 32
KENKYUSHO 97
KENNETH 63
KENT 21
KENWOOD 64
KERNFORSCHUNGSANLAGE 32
KEVIN 41
KGAA 161
KIENZLE 56
KIKAI 22
KIKI 22
KIM 36
KIMBERLY 161
KING 70
KINGDOM 23
KIRIN 35
KLAUS 100
KLEIN 41
KLOECKNER 62
KNORR 36
KOBE 46
KODAK 1831
KOENIG 99
KOGAKU 183
KOGYO 476
KOKAN 72
KOKI 130
KOKUSAI 80
KOLLMORGEN 29
KOMATSU 126
KOMORI 53
KONAMI 157
KONE 25
KONINKL 1238
KONISHIROKU 634
KONSTANZ 24
KOREA 31
KOSAN 70
KOWA 32
KOYO 37
KPN 33
KRONE 99
KRUPP 73
KUBOTA 21
KUNSTSTOFF 47
KURARAY 66
KUREHA 59
KURT 68
KURZ 27
KYOCERA 33
KYODO 21
KYOTO 60
KYOWA 89
LAB 1011
LABORATORIES 232
LABS 33
LACKE 30
LAMBERT 96
LAMINAGE 26
LANDIS 141
LANXIDE 21
LARS 45
LASER 69
LAVAL 60
LAWRENCE 32
LEE 93
LEGRAND 63
LEICA 36
LEITZ 33
LELAND 52
LELY 33
LEO 21
LEON 24
LEONARD 22
LEONHARD 22
LESLIE 26
LEUZE 25
LEXMARK 90
LEYBOLD 38
LICENSING 139
LICENTIA 124
LICHT 23
LIFE 31
LIGHT 45
LIGHTING 29
LILLY 114
LIM 26
LIMITE 28
LIMITED 470
LIN 42
LINDE 61
LINK 23
LIQUIDE 105
LITEF 23
LITTON 53
LLC 115
LOCKHEED 46
LOGIC 288
LOH 28
LONDON 33
LONZA 35
LOOM 97
LORAL 83
LORD 22
LORENZ 53
LORRAINE 31
LOUIS 95
LSI 99
LTD 25354
LUCAS 198
LUCENT 1143
LUDWIG 54
LUFT 38
LUIGI 33
LUIS 22
MAASLAND 25
MACH 132
MACHINE 168
MACHINERY 354
MACHINES 67
MACRONIX 44
MAGNAVOX 22
MAGNETI 92
MAGNETIC 61
MAGNETICS 57
MAIER 25
MAN 208
MANAGEMENT 132
MANFRED 75
MANN 22
MANNESMANN 345
MANNHEIM 134
MANOR 57
MANUEL 29
MANUFACTURING 256
MARC 49
MARCEL 23
MARCO 34
MARCONI 175
MARELLI 136
MARIA 79
MARIE 43
MARIN 28
MARINE 40
MARIO 34
MARION 22
MARK 106
MARKETING 42
MARKING 30
MARKUS 27
MARQUIP 21
MARS 68
MARTIN 217
MASCH 100
MASCHBAU 35
MASCHF 361
MASCHINEN 42
MASCHINENBAU 103
MASSACHUSETTS 92
MASSARI 24
MATERIALS 157
MATRA 151
MATSUSHITA 3509
MAURICE 30
MAX 128
MAXELL 88
MAYER 22
MAZDA 82
MCI 57
MCNEIL 38
MEAD 35
MEASUREX 21
MECC 42
MED 176
MEDIA 62
MEDICAL 534
MEDICINE 40
MEDTRONIC 44
MEIDENSHA 30
MEIJI 34
MEMORIES 38
MEMORY 31
MERCK 217
MERIEUX 32
MERLIN 82
MERLONI 34
MERRELL 26
MERTEN 21
MESS 30
MESSER 33
MESSERSCHMITT 46
MESSTECHNIK 32
METAL 109
METALL 29
METALLGESELLSCHAFT 49
METALLWARENFAB 22
METALLWARENFABRIK 40
METALS 55
METO 57
MEYER 25
MFG 1763
MHS 21
MICHAEL 363
MICHEL 135
MICHELIN 23
MICHIGAN 21
MICRO 1184
MICROCHIP 59
MICROCOMPUTER 60
MICROELECTRON 81
MICROELECTRONIC 30
MICROELECTRONICS 1679
MICROELETTRONICA 82
MICRON 72
MICRONAS 27
MICROSOFT 270
MICROSYSTEMS 1097
MICROTECH 40
MIELE 24
MIGUEL 23
MILES 83
MILK 43
MILLER 63
MILLIKEN 30
MILLIPORE 38
MILLS 52
MINING 756
MINNESOTA 717
MINOLTA 63
MITA 385
MITSUBISHI 2111
MITSUI 294
MITSUMI 35
MITUTOYO 46
MOBAY 29
MOBIL 210
MOBILE 956
MOCHIDA 21
MOELLER 47
MOLDING 22
MOLECULAR 56
MOLEX 358
MONARCH 29
MONSANTO 73
MOORE 176
MORI 25
MORRIS 60
MORTON 46
MOTEUR 50
MOTOR 1546
MOTOREN 212
MOTOROLA 1553
MOTORS 330
MOULINEX 36
MUELLER 80
MULTIMEDIA 216
MURATA 265
MUSIC 21
MYCOGEN 26
MYERS 67
NACHRICHTENTECH 190
NACIONAL 34
NALCO 25
NAT 733
NATIONAL 41
NAVIGATION 30
NAZIONALE 23
NCR 706
NDS 46
NEDAP 59
NEDERLAND 376
NEIL 22
NELSON 38
NEOPOST 75
NEPHEW 22
NESTLE 51
NET 22
NETWORK 126
NETWORKS 490
NEW 202
NEWBRIDGE 45
NGK 167
NHK 32
NICHOLAS 40
NIDEK 35
NIELSEN 25
NIHON 65
NINTENDO 63
NIPPON 5653
NISSAN 159
NISSHIN 37
NISSHO 30
NISSIN 27
NITTO 82
NIXDORF 264
NOBEL 97
NOHMI 29
NOKIA 1265
NORBERT 35
NORDEN 125
NORDICA 34
NORDISK 25
NORDSON 37
NORITSU 93
NORMALZEIT 78
NORMAN 22
NORSK 22
NORTEL 228
NORTH 89
NORTHERN 450
NORTHROP 30
NORTON 26
NOVA 21
NOVARTIS 26
NOVELL 22
NOVO 28
NOVONORDISK 30
NSM 52
NTT 22
NUCLEAR 31
NULL 4586
NUTZFAHRZEUGE 36
NYCOMED 34
OCE 204
OESTERREICH 40
OFF 51
OHG 60
OHIO 40
OHMEDA 32
OHMI 34
OIL 317
OILS 21
OJI 43
OKI 440
OLIVER 25
OLIVETTI 105
OLYMPIA 23
OLYMPUS 137
OMRON 333
ONE 31
ONO 33
OPEL 24
OPERATIONS 29
OPTICAL 289
OPTICON 29
OPTICS 35
OPTIK 22
OPTISCHE 22
ORACLE 24
OREAL 87
ORG 102
ORGA 36
ORION 21
ORTHO 51
OSAKA 64
OSKAR 23
OTIS 73
OTSUKA 54
OTTO 70
OVERSEAS 93
OWENS 58
OXYGEN 26
PACESETTER 49
PACIFIC 59
PACKAGING 68
PACKARD 2580
PAINT 77
PAK 37
PALL 39
PALMOLIVE 59
PAOLO 23
PAPER 320
PAPIERMASCH 144
PAPIERTECH 93
PARCEL 54
PARIS 26
PARKER 33
PARTNERS 22
PARTNERSHIP 26
PASTEUR 91
PATENT 299
PATENTS 101
PATENTVERWALTUNG 309
PATRICK 92
PAUL 296
PECHINEY 24
PEKKA 35
PER 49
PERINI 37
PERIPHERALS 65
PERKIN 108
PERSONAL 35
PETER 432
PETRI 21
PETROCHEMICAL 243
PETROCHEMICALS 43
PETROL 253
PETROLEUM 167
PEUGEOT 175
PFEIFFER 44
PFIZER 89
PFU 29
PHARM 73
PHARMA 360
PHARMACEUTICAL 158
PHARMACEUTICALS 29
PHILIP 90
PHILIPPE 52
PHILIPS 4997
PHILLIPS 95
PHOENIX 24
PHONE 27
PHONES 632
PHOTO 1813
PHOTONICS 109
PHYSICAL 23
PHYSICS 30
PICKER 122
PIERRE 134
PILKINGTON 29
PIONEER 728
PIRELLI 154
PITNEY 357
PIXEL 22
PLANCK 71
PLANT 40
PLAST 25
PLASTIC 71
PLASTICS 45
PLC 1494
PLESSEY 295
PLUG 48
PLUS 80
POLAROID 161
POLYGRAM 22
POLYMER 38
POLYPLASTICS 29
PONT 550
PORSCHE 32
POSTALIA 78
POSTE 35
POULENC 127
POWER 166
PPC 33
PPG 75
PRAXAIR 42
PRECISION 96
PRESS 31
PRINTING 374
PRO 21
PROCESS 28
PROCESSING 33
PROCTER 407
PROD 447
PRODUCTION 30
PRODUCTS 324
PROF 82
PROFESSIONAL 22
PROSPECTION 39
PSC 27
PTT 208
PTY 195
PUBL 34
PUBLIC 25
PURE 29
QUALCOMM 167
QUANTEL 58
QUANTUM 94
QUEST 26
QUESTECH 21
RACAL 28
RAD 23
RADIO 106
RADIOTELEPHONE 38
RAINER 30
RALF 32
RAMTRON 41
RANK 31
RANPAK 33
RAUMFAHRT 35
RAY 38
RAYCHEM 58
RAYMOND 62
RAYON 60
RAYTHEON 99
RCA 146
READ 22
RECH 293
REFRIGERATION 24
REHAU 28
REICHLE 23
REINHARD 31
RELUCTANCE 22
RENAULT 159
RENE 43
RENISHAW 38
RES 1319
RESEARCH 856
RESOURCES 32
REYNOLDS 68
RHEON 21
RHONE 133
RIC 65
RICERCHE 42
RICHARD 264
RICHFIELD 29
RICHTER 23
RICOH 173
RICOS 22
RIETER 68
RIKA 36
RIKEN 26
RISO 94
RITE 24
RIVER 66
ROBERT 1349
ROBERTO 41
ROBIN 22
ROBINSON 21
ROCHE 190
ROCKWELL 227
ROCKWOOL 22
ROEHM 46
ROGER 64
ROHDE 42
ROHM 154
ROKE 57
ROLAND 201
ROLF 52
ROLLS 49
ROLM 82
RONALD 71
RORER 26
ROSE 24
ROSEMOUNT 39
ROSS 23
ROUSSEL 80
ROY 48
ROYCE 47
RUBBER 247
RUDOLF 79
RUE 85
RUNDFUNK 29
RUSSELL 36
SAFETY 47
SAGAMI 25
SAGEM 210
SAINT 95
SALOMON 22
SAMSUNG 728
SAMUEL 31
SANDEN 110
SANDOZ 81
SANGYO 30
SANKYO 51
SANOFI 32
SANTE 75
SANWA 23
SANYO 477
SARL 129
SARNOFF 107
SAS 23
SASIB 30
SATELLITE 37
SAVIO 25
SCALE 42
SCHAEFER 21
SCHEIDT 33
SCHENCK 32
SCHERING 96
SCHINDLING 59
SCHLAFHORST 22
SCHLOEMANN 37
SCHLUMBERGER 603
SCHMIDT 50
SCHNEIDER 148
SCHOELLER 22
SCHWARZ 52
SCHWEIZ 47
SCIENCE 142
SCIENCES 103
SCIENT 255
SCIENTIFIC 95
SCITEX 68
SCOTT 71
SCREEN 212
SEAGATE 63
SEB 25
SECR 67
SECURITE 33
SECURITY 74
SEGA 121
SEIKA 36
SEIKI 152
SEIKO 1173
SEISAKUSHO 146
SEIYAKU 98
SEL 200
SELENIA 27
SEMICONDUCTEURS 43
SEMICONDUCTOR 503
SEMICONDUCTORS 60
SENSORMATIC 29
SENSORS 51
SERV 90
SERVICE 206
SERVICES 395
SEXTANT 136
SGS 1126
SHARP 1650
SHEET 38
SHELL 242
SHIBAURA 2993
SHIKOKU 51
SHIMA 23
SHIMADZU 128
SHIMANO 28
SHIMIZU 23
SHIN 26
SHINETSU 183
SHINKO 64
SHIONOGI 39
SHOWA 85
SHUZO 43
SICK 27
SIEGFRIED 50
SIEMAG 42
SIEMENS 5949
SIGMA 33
SIGNAALAPPARATEN 32
SIGNAL 128
SILICON 88
SILICONE 66
SILICONIX 22
SIMON 58
SIP 24
SISTEMI 79
SITS 23
SKF 40
SMC 47
SMITH 101
SMITHKLINE 410
SMITHS 36
SNAP 23
SNC 56
SNECMA 39
SNOW 27
SOC 179
SOCIETE 72
SOEHNE 37
SOFT 50
SOFTWARE 209
SOKEN 21
SOLUTION 87
SOLUTIONS 48
SOLVAY 43
SOMAR 30
SOMFY 23
SON 27
SONS 60
SONY 4149
SOUND 21
SOURCING 23
SOUTH 21
SOUTHERN 23
SPA 1978
SPACE 101
SPACELABS 49
SPARK 47
SPATIALE 23
SPEC 23
SPECTRA 34
SPERRY 33
SPORT 26
SPORTS 29
SPRING 40
SQUARE 68
SQUIBB 80
SRL 908
STAHL 50
STAMICARBON 49
STANDARD 211
STANFORD 100
STANLEY 62
STAR 150
STARCH 31
STATE 73
STATES 36
STC 73
STEEL 330
STEFAN 64
STEIN 28
STEPHEN 121
STERLING 28
STEVEN 61
STEWART 24
STEYR 22
STICHTING 33
STIFTUNG 77
STMICROELECTRONICS 87
STORAGE 102
STORK 47
STUART 21
STUDI 107
SUISSE 40
SULZER 363
SUMITOMO 1155
SUN 1094
SUNDSTRAND 27
SUNTORY 50
SUPPORT 38
SURGICAL 50
SUZUKI 31
SVENSKA 25
SWITCHED 22
SYMBIOS 55
SYMBOL 123
SYNTHETIC 32
SYS 60
SYST 1037
SYSTEC 22
SYSTEM 208
SYSTEME 60
SYSTEMES 55
SYSTEMS 2691
SYSTEMTECHNIK 27
TADAHIRO 34
TAI 24
TAIYO 36
TAKARA 41
TAKATA 24
TAKEDA 173
TALIGENT 62
TANABE 40
TANDBERG 53
TANDEM 147
TATEISI 333
TAYLOR 30
TDK 96
TEAPE 25
TEC 65
TECH 1314
TECHN 163
TECHNICAL 35
TECHNIK 84
TECHNO 27
TECHNOLOGIE 33
TECHNOLOGIES 2142
TECHNOLOGY 1169
TEIJIN 138
TEKTRONIX 408
TELECOM 1149
TELECOMM 715
TELECOMMUNICATIONS 561
TELECTRONICS 25
TELEDIFFUSION 169
TELEFON 938
TELEFONBAU 81
TELEFONICA 29
TELEFUNKEN 152
TELEGRAPH 1833
TELEKOM 260
TELEMECANIQUE 44
TELEPHONE 1976
TELEPHONWERK 36
TELETTRA 21
TELEVERKET 33
TELEVISION 29
TELIA 145
TELSPACE 35
TEN 32
TERUMO 126
TETRA 93
TEVES 23
TEXACO 68
TEXAS 1399
TEXTILMASCH 29
TEXTRON 21
THE 48
THERAPEUTICS 21
THERMIQUE 27
THERMO 21
THOMAS 300
THOMSON 2911
THORN 68
THYSSEN 42
TIME 47
TIMO 23
TIMOTHY 67
TIRE 99
TNO 31
TOA 93
TOATSU 125
TOBACCO 149
TODA 31
TOHOKU 25
TOKAI 83
TOKYO 3326
TOLEDO 23
TONEN 29
TOOL 106
TOOLS 46
TOPCON 40
TOPPAN 48
TORAY 182
TOSHIBA 358
TOSOH 49
TOTAL 33
TOTO 23
TOYO 151
TOYODA 182
TOYOTA 393
TRADING 36
TRANSGENE 23
TRANSMISSION 31
TRANSPORT 62
TRAVENOL 21
TRT 56
TRUST 25
TRW 285
TSUSHIN 23
TSUSHINKI 23
TUBES 25
TUCHEL 29
UBE 38
ULRICH 52
UMWELT 27
UND 147
UNI 97
UNILEVER 440
UNION 201
UNIROYAL 30
UNISYS 156
UNITED 399
UNITIKA 24
UNIV 1256
UNIVERSAL 83
UNIVERSITY 38
UOP 57
UPJOHN 26
USA 98
USTER 26
UWE 35
VALEO 198
VALLEY 50
VALMET 239
VALVE 34
VAN 161
VARIAN 56
VARTA 29
VDO 171
VEB 24
VEHICLE 25
VENTURE 21
VENTURES 21
VER 45
VICKERS 28
VICTOR 434
VIDEO 148
VIESSMANN 24
VINCENT 23
VISA 24
VISION 127
VISUAL 24
VITRAGE 48
VLADIMIR 31
VLSI 133
VOEST 56
VOITH 344
VOLKSWAGENWERK 114
VON 46
WABCO 29
WACKER 44
WACOM 57
WAGNER 51
WAKO 21
WALKER 42
WALLACE 26
WALTER 130
WANG 183
WANZL 63
WARNER 163
WASHINGTON 61
WATCH 110
WATER 26
WAYNE 27
WEA 24
WEB 29
WEBER 65
WEIDMUELLER 48
WEISS 28
WELCH 21
WELLA 28
WELLCOME 22
WERK 69
WERKE 785
WERNER 114
WEST 46
WESTERN 70
WESTINGHOUSE 398
WESTON 23
WHIRLPOOL 57
WHITAKER 219
WHITE 35
WIFAG 23
WIGGINS 41
WILCOX 55
WILFRIED 27
WILHELM 74
WILLI 32
WILLIAM 250
WILLIAMS 53
WILSON 46
WINDMOELLER 43
WIRELESS 65
WIRING 391
WISCONSIN 29
WOLF 46
WOLFGANG 100
WOO 151
WORKS 403
WRIGHT 23
WYSS 23
XANAVI 32
XEROX 1375
XILINX 41
YALE 25
YAMAHA 260
YAMAICHI 26
YAMAMOTO 29
YAMATAKE 27
YANG 39
YASKAWA 29
YAZAKI 128
YEDA 53
YISSUM 21
YKK 29
YOKOGAWA 86
YORK 70
YOSHIDA 62
YOZAN 83
YUDEN 29
YVES 26
ZANUSSI 68
ZEISS 118
ZELLWEGER 46
ZEON 46
ZEXEL 63
 1390
3COM CORP  31
3D SYSTEMS INC  28
ABB MANAGEMENT AG  31
ABB PATENT GMBH  105
ABB RESEARCH LTD  45
ABBOTT LAB  128
ACE DENKEN KK  51
ACER INC  21
ACTEL CORP  29
ADC TELECOMMUNICATIONS INC  23
ADOBE SYSTEMS INC  96
ADVANCED CARDIOVASCULAR SYSTEM  24
ADVANCED MICRO DEVICES INC  866
ADVANCED TECH LAB  21
ADVANTEST CORP  60
AEROSPATIALE  127
AGFA CORP  24
AGFA GEVAERT AG  91
AGFA GEVAERT NV  423
AIR LIQUIDE  87
AIR PROD & CHEM  82
AISIN AW CO  71
AISIN SEIKI  21
AIWA CO  25
AJINOMOTO KK  46
AKZO NOBEL NV  40
AKZO NV  70
ALBANY INT CORP  22
ALCAN INT LTD  25
ALCATEL BELL NV  32
ALCATEL BUSINESS SYSTEMS  66
ALCATEL ESPACE  22
ALCATEL ITALIA  35
ALCATEL MOBILE COMM FRANCE  62
ALCATEL NV  320
ALCATEL NV ;   BELL TELEPHONE MFG  25
ALCATEL RADIOTELEPHONE  28
ALCATEL STANDARD ELECTRICA  29
ALCATEL TELSPACE  33
ALLEN BRADLEY CO  45
ALLIED CORP  35
ALLIED SIGNAL INC  45
ALPS ELECTRIC CO LTD  101
ALSTHOM CGE ALCATEL  289
ALTERA CORP  50
AMAZONEN WERKE DREYER H  43
AMDAHL CORP  33
AMERICAN CYANAMID CO  90
AMERICAN TELEPHONE & TELEGRAPH  1179
AMGEN INC  23
AMOCO CORP  54
AMP INC  216
AMPEX  84
AMPHENOL TUCHEL ELECT  28
ANALOG DEVICES INC  56
ANRITSU CORP  53
ANT NACHRICHTENTECH  179
APPLE COMPUTER  91
APPLIED MATERIALS INC  82
ARCO CHEM TECH  24
ARUZE CORP  29
ASAHI CHEMICAL IND  91
ASAHI GLASS CO LTD  46
ASAHI OPTICAL CO LTD  24
ASCOM TECH AG  21
ASEA BROWN BOVERI  157
ASULAB SA  44
AT & T BELL LAB  72
AT & T CORP  1481
AT & T GLOBAL INF SOLUTION  84
AT & T WIRELESS SERVICES INC  42
ATLANTIC RICHFIELD CO  23
ATMEL CORP  35
ATOCHEM ELF SA  50
ATOMIC ENERGY AUTHORITY UK  21
AUSIMONT SPA  25
AVID TECHNOLOGY INC  41
BABCOCK & WILCOX CO  38
BABCOCK TEXTILMASCH  21
BAKER HUGHES INC  48
BALL CORP  21
BASF AG  378
BASF CORP  47
BASF LACKE & FARBEN  25
BASF MAGNETICS GMBH  35
BAXTER INT  57
BAXTER TRAVENOL LAB  21
BAYER AG  404
BAYERISCHE MOTOREN WERKE AG  168
BBC BROWN BOVERI & CIE  68
BECKER GMBH  22
BECKMAN INSTRUMENTS INC  36
BECTON DICKINSON CO  232
BEECHAM GROUP PLC  22
BEHRINGWERKE AG  49
BEIERSDORF AG  31
BELL COMMUNICATIONS RES  95
BELL TELEPHONE MFG  45
BELL TELEPHONE MFG ;   ALCATEL NV  53
BELLSOUTH CORP  26
BELOIT CORP  49
BELOIT TECHNOLOGIES INC  22
BERTIN & CIE  29
BLACK & DECKER INC  69
BLAUPUNKT WERKE GMBH  87
BOC GROUP INC  44
BOC GROUP PLC  45
BODENSEEWERK GERAETETECH  40
BOEHRINGER INGELHEIM INT  21
BOEHRINGER MANNHEIM GMBH  113
BOEING CO  209
BORG WARNER AUTOMOTIVE  32
BOSCH GMBH ROBERT  963
BOSCH SIEMENS HAUSGERAETE  71
BP CHEM INT LTD  45
BRAUN AG  30
BRIDGESTONE CORP  108
BRIDGESTONE FIRESTONE INC  27
BRISTOL MYERS CO  21
BRITISH AEROSPACE  116
BRITISH BROADCASTING CORP  60
BRITISH GAS PLC  33
BRITISH PETROLEUM CO PLC  49
BRITISH TECH GROUP  22
BRITISH TELECOMM  440
BROOKTREE CORP  38
BROTHER IND LTD  248
BULL CP8  35
BULL HN INFORMATION SYST  145
BULL SA  258
BURROUGHS CORP  44
CABLETRON SYSTEMS INC  47
CANAL PLUS SA  53
CANON INFORMATION SYST INC  54
CANON INFORMATION SYST RES ;   CANON KK  32
CANON KK  4862
CARRIER CORP  62
CASIO COMPUTER CO LTD  277
CATERPILLAR INC  41
CENTRE NAT RECH SCIENT  57
CETUS CORP  27
CGA HBS  29
CHIRON CORP  39
CHISSO CORP  47
CHUGAI PHARMACEUTICAL CO LTD  29
CIBA CORNING DIAGNOSTICS CORP  21
CIBA GEIGY AG  186
CIBA GEIGY CORP  46
CIRRUS LOGIC INC  104
CIT ALCATEL  657
CITIBANK NA  48
CITICORP DEV CENTER INC  27
CITIZEN WATCH CO LTD  100
CLAAS OHG  24
CLOROX CO  23
CODEX CORP  44
COGEMA  21
COLGATE PALMOLIVE CO  59
COMMISSARIAT ENERGIE ATOMIQUE  284
COMPAQ COMPUTER CORP  310
COMPUTER GES KONSTANZ  21
CONS RIC MICROELETTRONICA  31
CONS RIC MICROELETTRONICA ;   SGS THOMSON MICROELECTRONICS  21
CONTINENTAL AG  26
CONTRAVES AG  36
COOPER IND INC  25
CORNING INC  73
CRAY RESEARCH INC  43
CROSFIELD ELECTRONICS LTD  91
CSELT CENTRO STUDI LAB TELECOM  90
CUMMINS ALLISON CORP  29
CYRIX CORP  22
DAE WOO ELECTRONICS CO LTD  148
DAICEL CHEM  57
DAIKIN IND LTD  110
DAIMLER BENZ AEROSPACE AG  26
DAIMLER BENZ AG  107
DAIMLER CHRYSLER AG  98
DAINIPPON INK & CHEMICALS  37
DAINIPPON PRINTING CO LTD  181
DAINIPPON SCREEN MFG  205
DANIELI OFF MECC  24
DASSAULT ELECTRONIQUE  42
DATA GENERAL CORP  49
DATALOGIC SPA  41
DE LA RUE GIORI SA  25
DEERE & CO  41
DEGUSSA  68
DELCO ELECTRONICS CORP  69
DELPHI TECH INC  41
DENSO CORP  63
DEUTSCHE AEROSPACE  30
DEUTSCHE FORSCH LUFT RAUMFAHRT  21
DEUTSCHE TELEKOM AG  187
DEUTSCHE TELEKOM MOBIL  44
DEUTSCHE TELEPHONWERK KABEL  36
DIEBOLD INC  25
DIEHL GMBH & CO  53
DIGITAL EQUIPMENT CORP  693
DISCOVERY COMMUNICAT INC  25
DISCOVISION ASS  89
DOLBY LAB LICENSING CORP  25
DORNIER GMBH  23
DOW CHEMICAL CO  199
DOW CORNING  141
DOW CORNING TORAY SILICONE  34
DREXLER TECH  23
DSC COMMUNICATIONS  28
DSM NV  23
DU PONT  439
EASTMAN KODAK CO  1661
EATON CORP  286
EBARA CORP  47
EBAUCHESFABRIK ETA AG  22
EDICO SRL  28
ELA MEDICAL SA  30
ELECTRICITE DE FRANCE  31
ELECTROLUX AB  27
ELECTRONIC DATA SYST CORP  22
ELF AQUITAINE  30
ELPATRONIC AG  25
EM MICROELECTRONIC MARIN SA  26
EMERSON ELECTRIC CO  53
EMHART INC  28
EMHART IND  24
EMI PLC THORN  42
ENERGY CONVERSION DEVICES INC  43
ENIRICERCHE SPA  29
ERICSSON GE MOBILE COMMUNICAT  35
ERICSSON GE MOBILE INC  150
ERICSSON INC  74
ERICSSON TELEFON AB L M  817
ESSELTE METO INT GMBH  36
ESSELTE NV  27
ETHICON INC  40
ETHYL CORP  26
EXXON CHEMICAL PATENTS INC  62
EXXON RESEARCH ENGINEERING CO  97
EZEL INC  39
FAIRCHILD SEMICONDUCTOR  37
FANUC LTD  582
FERAG AG  32
FIAT AUTO SPA  83
FISHER CONTROLS INT  23
FLUKE CORP  41
FLUKE MFG CO JOHN  25
FMC CORP  30
FOCKE & CO  51
FORD GLOBAL TECH INC  52
FORD MOTOR CO  105
FORD MOTOR CO ;   FORD FRANCE ;   FORD WERKE AG  35
FORD MOTOR CO ;   FORD WERKE AG ;   FORD FRANCE  30
FORD WERKE AG ;   FORD FRANCE ;   FORD MOTOR CO  48
FORE SYSTEMS INC  23
FOXBORO CO  22
FRAMATOME CONNECTORS INT  60
FRANCE ETAT  92
FRANCE ETAT ;   TELEDIFFUSION FSE  25
FRANCE TELECOM  288
FRANCOTYP POSTALIA AG  22
FRANCOTYP POSTALIA GMBH  51
FRAUNHOFER GES FORSCHUNG  115
FREUDENBERG CARL FA  52
FUJI ELECTRIC CO LTD  74
FUJI HEAVY IND LTD  37
FUJI PHOTO FILM CO LTD  1146
FUJI XEROX CO LTD  114
FUJISAWA PHARMACEUTICAL CO  31
FUJITSU LTD  2385
FUJITSU LTD ;   FUJITSU VLSI LTD  82
FURUKAWA ELECTRIC CO LTD  65
GAO GES AUTOMATION ORG  51
GAZ DE FRANCE  24
GD SPA  40
GEC ALSTHOM T & D SA  30
GEC ALSTHOM TRANSPORT SA  23
GEMPLUS CARD INT  128
GEN DATACOMM IND INC  27
GEN ELECTRIC  810
GEN ELECTRIC CGR  27
GEN ELECTRIC CO PLC  46
GEN HOSPITAL CORP  28
GEN INSTRUMENT CORP  159
GEN MOTORS CORP  203
GENENTECH INC  33
GENETICS INST  70
GERBER SCIENT PRODUCTS INC  29
GIESECKE & DEVRIENT GMBH  77
GIST BROCADES NV  33
GLOBALSTAR LP  25
GOLD STAR CO  114
GOODRICH CO B F  81
GOODYEAR TIRE & RUBBER  65
GRACE W R & CO  101
GRAPHA HOLDING AG  40
GRASS VALLEY GROUP  38
GREEN CROSS CORP  26
GRETAG AG  24
GRETAG IMAGING AG  24
GRUMMAN AEROSPACE CORP  46
GRUNDIG AG  59
GRUNDIG EMV  236
GTE LABORATORIES INC  55
GTE PROD CORP  25
HADEWE BV  30
HAGENUK TELECOM GMBH  22
HAL COMPUTER SYSTEMS INC  24
HALLIBURTON CO  146
HALLIBURTON ENERGY SERV INC  66
HAMAMATSU PHOTONICS KK  97
HARRIS CORP  92
HAYASHIBARA BIOCHEM LAB  26
HEIDELBERGER DRUCKMASCH AG  124
HEIDENHAIN GMBH DR JOHANNES  85
HELLA KG HUECK & CO  29
HENKEL KGAA  151
HERCULES INC  44
HEWLETT PACKARD CO  2465
HEWLETT PACKARD GMBH  45
HEWLETT PACKARD LTD  30
HIROSE ELECTRIC CO LTD  35
HITACHI CHEMICAL CO LTD  28
HITACHI CONSTRUCTION MACHINERY  50
HITACHI ELECTRONICS  27
HITACHI EUROP LTD  23
HITACHI LTD  1776
HITACHI MAXELL  61
HOECHST AG  308
HOECHST CELANESE CORP  79
HOECHST JAPAN  21
HOECHST ROUSSEL PHARMA  59
HOFFMANN LA ROCHE  141
HOLLANDSE SIGNAALAPPARATEN BV  31
HONDA MOTOR CO LTD  444
HONEYWELL BULL  50
HONEYWELL INC  343
HONEYWELL INF SYSTEMS  30
HORIBA LTD  25
HOYA CORP  32
HUDSON SOFT CO LTD  39
HUELS CHEMISCHE WERKE AG  54
HUGHES AIRCRAFT CO  695
HUGHES ELECTRONICS CORP  52
HUTCHINSON  27
HYUNDAI ELECTRONICS IND  26
IBM 59
IBM  6790
IBM ; SIEMENS AG  27
ICI PLC  139
ICL SYSTEMS AB  70
ICO SERVICES LTD  76
IDEMITSU KOSAN CO  62
IDEMITSU PETROCHEMICAL CO  55
ILLINOIS TOOL WORKS  70
IMATION CORP  24
IMEC INTER UNI MICRO ELECTR  35
INCYTE PHARMA INC  28
INFINEON TECHNOLOGIES AG  22
INMOS LTD  29
INST FRANCAIS DU PETROL  150
INST NAT SANTE RECH MED  25
INT COMPUTERS LTD  148
INT FUEL CELLS CORP  23
INT STANDARD ELECTRIC CORP  30
INTEL CORP  200
INTERDIGITAL TECH CORP  21
INTERGRAPH CORP  43
INVENTIO AG  44
IOMEGA CORP  37
ISHIKAWAJIMA HARIMA HEAVY IND  25
ISUZU MOTORS LTD  42
ITALTEL SPA  58
ITT  52
ITT IND GMBH DEUTSCHE  104
ITT MFG ENTERPRISES INC  44
JAEGER  23
JAMES RIVER CORP  45
JAPAN AVIATION ELECTRON  22
JAPAN BROADCASTING CORP  33
JAPAN TOBACCO INC  61
JOHNSON & JOHNSON VISION PROD  26
KANEGAFUCHI CHEMICAL IND  89
KAO CORP  84
KAWASAKI HEAVY IND LTD  24
KAWASAKI STEEL CO  86
KENWOOD CORP  60
KERNFORSCHUNGSANLAGE JUELICH  28
KIMBERLY CLARK CO  154
KING JIM CO LTD ;   SEIKO EPSON CORP  27
KIRIN BREWERY  26
KLOECKNER MOELLER GMBH  21
KNORR BREMSE AG  23
KOBE STEEL LTD  33
KODAK LTD ;   EASTMAN KODAK CO  36
KOENIG & BAUER AG  58
KOENIG & BAUER ALBERT AG  25
KOKUSAI DENSHIN DENWA CO LTD  47
KOLLMORGEN CORP  23
KOMATSU MFG CO LTD  98
KOMORI PRINTING MACH  47
KONAMI CO LTD  137
KONINKL KPN NV  25
KONINKL PHILIPS ELECTRONICS N  32
KONINKL PHILIPS ELECTRONICS NV  828
KONINKL PHILIPS ELECTRONICS NV ;   PHILIPS AB  63
KONISHIROKU PHOTO IND  624
KOWA CO  28
KOYO SEIKO CO  28
KRONE AG  94
KURARAY CO  54
KUREHA CHEMICAL IND CO LTD  53
KYOCERA CORP  27
KYOTO DAIICHI KAGAKU KK  43
KYOWA HAKKO KOGYO KK  64
LANDIS & GYR AG  24
LANDIS & GYR BETRIEBS AG  31
LANDIS & GYR BUSINESS SUPPORT  26
LANDIS & GYR TECH INNOVAT  26
LELY NV C VAN DER  28
LEXMARK INT INC  90
LEYBOLD AG  24
LG ELECTRONICS INC  75
LICENTIA GMBH  121
LILLY CO ELI  103
LINDE AG  54
LITTON SYSTEMS INC  44
LOCKHEED CORP  33
LORAL SPACE SYSTEMS INC  45
LORD CORP  22
LORRAINE LAMINAGE  26
LSI LOGIC CORP  91
LUCAS IND PLC  160
LUCENT TECHNOLOGIES INC  1114
MAASLAND NV  24
MACRONIX INT CO LTD  28
MAGNETI MARELLI SPA  65
MAGNETIC PERIPHERALS INC  24
MANNESMANN AG  188
MANNESMANN KIENZLE GMBH  46
MANNESMANN VDO AG  46
MANNESMANN VDO AKTIENGESELLSCH  50
MARCONI GEC LTD  75
MARCONI INSTRUMENTS LTD  21
MARELLI AUTRONICA  39
MARS INC  57
MASSACHUSETTS INST TECHNOLOGY  74
MATRA COMMUNICATION  69
MATSUSHITA ELECTRIC IND CO LTD  3118
MATSUSHITA ELECTRIC WORKS LTD  57
MATSUSHITA ELECTRONICS CORP  125
MATSUSHITA GRAPHIC COMMUNIC  31
MAX PLANCK GESELLSCHAFT  53
MAZDA MOTOR  67
MCI COMMUNICATIONS CORP  43
MCNEIL PPC INC  33
MEAD CORP  33
MEASUREX CORP  21
MEDTRONIC INC  42
MEIDENSHA ELECTRIC MFG CO LTD  27
MEIJI SEIKA KAISHA  21
MERCK & CO INC  117
MERCK PATENT GMBH  51
MERLIN GERIN  78
MERLONI ELETTRODOMESTICI SPA  28
MERRELL DOW PHARMA  23
MESSER GRIESHEIM GMBH  29
MESSERSCHMITT BOELKOW BLOHM  42
METALLGESELLSCHAFT AG  40
MICROCHIP TECH INC  49
MICRON TECHNOLOGY INC  53
MICROSOFT CORP  264
MIELE & CIE  23
MILES INC  59
MILLIKEN RES CORP  25
MILLIPORE CORP  24
MINNESOTA MINING & MFG  688
MINOLTA CAMERA KK  47
MITA INDUSTRIAL CO LTD  384
MITSUBISHI CHEM CORP  36
MITSUBISHI CHEM IND  77
MITSUBISHI ELECTRIC CORP  1293
MITSUBISHI GAS CHEMICAL CO  54
MITSUBISHI HEAVY IND LTD  151
MITSUBISHI MATERIALS CORP  38
MITSUBISHI MOTORS CORP  49
MITSUBISHI PETROCHEMICAL CO  47
MITSUBISHI RAYON CO  51
MITSUI PETROCHEMICAL IND  106
MITSUI TOATSU CHEMICALS  109
MITSUMI ELECTRIC CO  33
MITUTOYO CORP  32
MOBAY CORP  25
MOBIL OIL CORP  157
MOLEX INC  353
MONARCH MARKING SYSTEMS INC  28
MONSANTO CO  60
MOORE BUSINESS FORMS INC  143
MORTON INT INC  28
MOTOROLA INC  1451
MOTOROLA LTD  40
MOULINEX SA  35
MURATA MACHINERY LTD  54
MURATA MANUFACTURING CO  205
MYCOGEN CORP  26
NALCO CHEMICAL CO  25
NAT RES DEV  60
NAT SEMICONDUCTOR CORP  271
NCR CO  276
NCR INT INC  401
NDS LTD  39
NEDAP NV  58
NEDERLAND PTT  192
NEOPOST IND  30
NEOPOST LTD  39
NESTLE SA  50
NEW ENGLAND BIOLABS INC  31
NEWBRIDGE NETWORKS CORP  34
NGK INSULATORS LTD  108
NGK SPARK PLUG CO  44
NHK SPRING CO LTD  24
NIDEK KK  35
NINTENDO CO LTD  46
NIPPON CATALYTIC CHEM IND  49
NIPPON CONLUX CO LTD  55
NIPPON DENSO CO  130
NIPPON ELECTRIC CO  3733
NIPPON KAYAKU KK  26
NIPPON KOGAKU KK  178
NIPPON KOKAN KK  57
NIPPON PAINT CO LTD  49
NIPPON PETROCHEMICALS CO LTD  25
NIPPON SHEET GLASS CO LTD  34
NIPPON STEEL CORP  64
NIPPON TELEGRAPH & TELEPHONE  487
NIPPON ZEON CO  39
NISSAN MOTOR  107
NISSHO KK  22
NITTO DENKO CORP  36
NOHMI BOSAI LTD  25
NOKIA MOBILE PHONES LTD  585
NOKIA NETWORKS OY  51
NOKIA TECHNOLOGY GMBH  69
NOKIA TELECOMMUNICATIONS OY  186
NORDICA SPA  33
NORDSON CORP  36
NORITSU KOKI CO LTD  89
NORTEL NETWORKS CORP  196
NORTHERN TELECOM LTD  406
NORTHROP GRUMMAN CORP  24
NSM AG  46
NULL 4584
OCE NEDERLAND BV  130
OCE TECH BV  44
OHMEDA INC  27
OJI PAPER CO  25
OKI ELECTRIC IND CO LTD  411
OLIVETTI & CO SPA  68
OLYMPUS OPTICAL CO  130
OMRON TATEISI ELECTRONICS CO  326
ONO PHARMACEUTICAL CO  23
OPEL ADAM AG  23
OPTICON SENSORS EUROP  27
OREAL  87
ORGA KARTENSYSTEME GMBH  28
OTIS ELEVATOR CO  67
OTSUKA PHARMA CO LTD  41
PALL CORP  35
PAPER CONVERTING MACHINE CO  32
PASTEUR INSTITUT  25
PERKIN ELMER CORP  71
PEUGEOT ;   CITROEN SA  142
PFEIFFER ERICH GMBH & CO KG  34
PFIZER  39
PHILIP MORRIS  29
PHILIPS CORP  892
PHILIPS CORPORATE INTELLECTUAL ;   KONINKL PHILIPS ELECTRONICS NV  29
PHILIPS ELECTRONIC ASSOCIATED ;   PHILIPS NV  23
PHILIPS ELECTRONICS NA  54
PHILIPS ELECTRONICS NV  435
PHILIPS ELECTRONICS NV ;   PHILIPS NORDEN AB  83
PHILIPS ELECTRONICS UK LTD ;   KONINKL PHILIPS ELECTRONICS NV  43
PHILIPS ELECTRONICS UK LTD ;   PHILIPS ELECTRONICS NV  23
PHILIPS ELECTRONICS UK LTD ;   PHILIPS NV  142
PHILIPS ELECTRONIQUE LAB ;   KONINKL PHILIPS ELECTRONICS NV  26
PHILIPS NV  885
PHILIPS PATENTVERWALTUNG ;   KONINKL PHILIPS ELECTRONICS NV  55
PHILIPS PATENTVERWALTUNG ;   PHILIPS ELECTRONICS NV  74
PHILIPS PATENTVERWALTUNG ;   PHILIPS NV  109
PHILIPS PATENTVERWALTUNG ; KONINKL PHILIPS ELECTRONICS NV  40
PHILLIPS PETROLEUM CO  77
PHONE COM INC  24
PICKER INT INC  117
PIONEER CORP  49
PIONEER ELECTRONIC CORP  583
PIRELLI CAVI E SISTEMI SPA  61
PIRELLI CAVI SPA  44
PITNEY BOWES  344
PLESSEY OVERSEAS  76
PLESSEY SEMICONDUCTORS LTD  53
PLESSEY TELECOMM  127
POLAROID CORP  158
POLYPLASTICS CO  28
PORSCHE AG  29
PPG INDUSTRIES INC  70
PRAXAIR TECHNOLOGY INC  41
PROCTER & GAMBLE  386
PSC INC  21
QUALCOMM INC  158
QUANTEL LTD  56
QUANTUM CORP  70
RAMTRON INT CORP  22
RANPAK CORP  26
RAYCHEM CORP  44
RAYTHEON CO  90
RCA CORP  62
RCA LICENSING CORP  51
RCA THOMSON LICENSING CORP  27
REHAU AG & CO  22
REICHLE & DE MASSARI FA  23
RENAULT  113
RENISHAW PLC  34
REYNOLDS TOBACCO CO R  50
RHEON AUTOMATIC MACHINERY CO  21
RHONE POULENC CHIMIE  69
RICOH KK  145
RICOS KK  22
RIETER AG MASCHF  53
RISO KAGAKU CORP  87
ROCHE DIAGNOSTICS GMBH  34
ROCKWELL INTERNATIONAL CORP  202
ROEHM GMBH  41
ROHDE & SCHWARZ  36
ROHM & HAAS  45
ROHM CO LTD  102
ROKE MANOR RESEARCH  47
ROLAND MAN DRUCKMASCH  153
ROLLS ROYCE PLC  39
ROLM CO  22
ROLM SYSTEMS  51
ROSEMOUNT INC  25
SAGEM  205
SAINT GOBAIN ISOVER  24
SAINT GOBAIN VITRAGE  41
SAMSUNG ELECTRONICS CO LTD  663
SANDEN CORP  109
SANKYO SEIKI SEISAKUSHO KK  21
SANWA KAGAKU KENKYUSHO CO  21
SANYO ELECTRIC CO  417
SARNOFF CORP  68
SARNOFF DAVID RES CENTER  30
SASIB SPA  21
SAVIO SPA  23
SCHEIDT & BACHMANN GMBH  33
SCHERING AG  46
SCHLAFHORST & CO W  22
SCHLOEMANN SIEMAG AG  37
SCHLUMBERGER IND LTD  21
SCHLUMBERGER IND SA  105
SCHLUMBERGER LTD ;   SCHLUMBERGER SERVICES PETROL ;   SCHLUMBERGER TECHNOLOGY BV ;   SCHLUMBERGER HOLDINGS  21
SCHLUMBERGER TECHNOLOGIES INC  36
SCHLUMBERGER TECHNOLOGY CORP  26
SCHNEIDER ELECTRIC SA  58
SCIENTIFIC ATLANTA  77
SCITEX CORP LTD  55
SEAGATE TECHNOLOGY  61
SEB SA  25
SECR DEFENCE BRIT  37
SEGA ENTERPRISES KK  115
SEIKO EPSON CORP  752
SEIKO INSTR INC  180
SEL ALCATEL AG  134
SEL ALCATEL AG ;   ALCATEL NV  51
SEMICONDUCTOR ENERGY LAB  40
SENSORMATIC ELECTRONICS CORP  29
SEXTANT AVIONIQUE  130
SGS THOMSON MICROELECTRONICS  1060
SHARP KK  1529
SHELL INT RESEARCH  198
SHELL OIL CO  22
SHIKOKU KAKOKI CO LTD  37
SHIMADZU CORP  113
SHIMANO KK  25
SHINETSU CHEMICAL CO  108
SHINETSU HANDOTAI KK  52
SHINKO ELEC IND  31
SHINKO ELECTRIC CO LTD  23
SHIONOGI & CO  29
SHOWA ALUMINUM CORP  23
SHOWA DENKO KK  26
SIEMENS AG  4609
SIEMENS AG ; IBM  41
SIEMENS AG ALBIS  21
SIEMENS CORP RES INC  27
SIEMENS ELEMA AB  45
SIEMENS INF & COMM NETWORKS  61
SIEMENS MEDICAL SYSTEMS INC  33
SIEMENS NIXDORF INF SYST  213
SIEMENS SCHWEIZ AG  29
SIP  22
SITS SOC IT TELECOM SIEMENS  21
SMC CORP  24
SMITHKLINE BEECHAM CORP  109
SMITHKLINE BEECHAM CORP ; SMITHKLINE BEECHAM PLC  35
SMITHKLINE BEECHAM PLC  38
SMITHKLINE BEECHAM PLC ;   SMITHKLINE BEECHAM CORP  66
SMITHS INDUSTRIES PLC  31
SNECMA  36
SNOW BRAND MILK PROD CO LTD  26
SOLVAY  26
SOMAR CORP  27
SOMFY  23
SONY COMP ENTERTAINMENT INC  63
SONY CORP  3663
SONY ELECTRONICS INC  52
SONY INT EUROP GMBH  26
SONY INTERNATIONAL EUROP GMBH  27
SONY UK LTD  52
SPACELABS INC  29
SQUARE D CO  41
SQUIBB & SONS INC  31
SQUIBB BRISTOL MYERS CO  38
ST MICROELECTRONICS INC  31
ST MICROELECTRONICS LTD  47
ST MICROELECTRONICS SA  66
ST MICROELECTRONICS SRL  366
STAMICARBON  49
STANDARD ELEKTRIK LORENZ AG  24
STANDARD OIL CO OHIO  21
STANFORD TELECOMM INC  25
STANLEY ELECTRIC CO LTD  21
STAR MFG CO  23
STC PLC  66
STMICROELECTRONICS INC  30
STMICROELECTRONICS SA  35
STORAGE TECHNOLOGY CORP  37
SUISSE ELECTRONIQUE MICROTECH  32
SULZER AG  37
SUMITOMO CHEMICAL CO  123
SUMITOMO ELECTRIC INDUSTRIES  331
SUMITOMO RUBBER IND  67
SUMITOMO WIRING SYSTEMS  335
SUN MICROSYSTEMS INC  1027
SUNTORY LTD  37
SWITCHED RELUCTANCE DRIVES LTD  21
SYMBIOS LOGIC INC  48
SYMBOL TECHNOLOGIES INC  123
TAIYO YUDEN KK  24
TAKARA SHUZO CO  35
TAKEDA CHEMICAL INDUSTRIES LTD  151
TALIGENT INC  60
TANABE SEIYAKU CO  28
TANDBERG DATA  42
TANDEM COMPUTERS INC  144
TDK CORP  87
TEIJIN LTD  105
TEKTRONIX INC  400
TELECOMMUNICATIONS SA  51
TELECTRONICS NV  25
TELEDIFFUSION FSE  50
TELEDIFFUSION FSE ;   FRANCE TELECOM  28
TELEFONBAU & NORMALZEIT GMBH  78
TELEFONICA NACIONAL ESPANA CO  22
TELEFUNKEN ELECTRONIC GMBH  21
TELEFUNKEN FERNSEH & RUNDFUNK  26
TELEFUNKEN MICROELECTRON  67
TELEMECANIQUE  28
TELEVERKET  32
TELIA AB  86
TERUMO CORP  115
TETRA ALFA HOLDINGS  24
TETRA LAVAL HOLDINGS & FINANCE  35
TEXACO DEVELOPMENT CORP  51
TEXAS INSTRUMENTS DEUTSCHLAND  57
TEXAS INSTRUMENTS FRANCE ;   TEXAS INSTRUMENTS INC  35
TEXAS INSTRUMENTS INC  1051
THOMAS & BETTS CORP  33
THOMSON BRANDT GMBH  415
THOMSON CONSUMER ELECTRONICS  340
THOMSON CSF  567
THOMSON MULTIMEDIA SA  177
TNO  30
TOA MEDICAL ELECTRONICS  62
TODA KOGYO CORP  30
TOKAI RIKA CO LTD  34
TOKAI RUBBER IND LTD  24
TOKYO ELECTRIC CO LTD  171
TOKYO ELECTRON LTD  25
TOKYO SHIBAURA ELECTRIC CO  2620
TOKYO SHIBAURA ELECTRIC CO ;   TOSHIBA MICRO CUMPUTER ENG  31
TOKYO SHIBAURA ELECTRIC CO ;   TOSHIBA MICRO ELECTRONICS  51
TOPCON CORP  40
TOPPAN PRINTING CO LTD  41
TORAY INDUSTRIES  118
TORAY SILICONE CO  23
TOSHIBA AVE KK ;   TOKYO SHIBAURA ELECTRIC CO  34
TOSHIBA MICRO ELECTRONICS ;   TOKYO SHIBAURA ELECTRIC CO  73
TOSOH CORP  38
TOTO LTD  23
TOYO BOSEKI  32
TOYO INK MFG CO  25
TOYODA AUTOMATIC LOOM WORKS  84
TOYODA MACHINE WORKS LTD  40
TOYOTA MOTOR CO LTD  328
TRW INC  195
UBE INDUSTRIES  31
UNI CHARM CORP  27
UNILEVER NV ;   UNILEVER PLC  75
UNILEVER PLC ;   UNILEVER NV  104
UNION CARBIDE CHEM PLASTIC  30
UNION CARBIDE CORP  59
UNISYS CORP  153
UNITED KINGDOM GOVERNMENT  21
UNITED PARCEL SERVICE INC  52
UNITED STATES SURGICAL CORP  30
UNITED TECHNOLOGIES AUTOMOTIVE  46
UNITED TECHNOLOGIES CORP  146
UNIV CALIFORNIA  65
UNIV COLUMBIA  24
UNIV LELAND STANFORD JUNIOR  46
UNIV NEW YORK  30
UNIV TEXAS  29
UNIV WASHINGTON  38
UOP INC  53
VALEO ELECTRONIQUE  38
VALEO EQUIP ELECTR MOTEUR  29
VALMET CORP  70
VALMET PAPER MACHINERY INC  127
VARIAN ASSOCIATES  47
VARTA BATTERIE  26
VDO SCHINDLING  59
VICTOR COMPANY OF JAPAN  394
VLSI TECHNOLOGY INC  32
VOEST ALPINE AG  27
VOITH GMBH J M  56
VOITH SULZER FINISHING GMBH  37
VOITH SULZER PAPIERMASCH GMBH  143
VOITH SULZER PAPIERTECH PATENT  89
VOLKSWAGENWERK AG  111
WACKER CHEMIE GMBH  29
WACOM CO LTD  56
WANG LABORATORIES  139
WANZL METALLWARENFABRIK KG  39
WARNER LAMBERT CO  86
WEA MFG INC  24
WEBER SRL  28
WEIDMUELLER INTERFACE  27
WELLA AG  27
WESTERN ATLAS INT INC  41
WESTINGHOUSE AIR BRAKE CO  26
WESTINGHOUSE ELECTRIC CORP  318
WHIRLPOOL CO  33
WHITAKER CORP  213
WIFAG MASCHF  21
WIGGINS TEAPE GROUP LTD  25
WILLIAMS ELECTRONICS GAMES INC  26
WINDMOELLER & HOELSCHER  42
WISCONSIN ALUMNI RES FOUND  23
XANAVI INFORMATICS CORP  27
XEROX CORP  1233
XILINX INC  41
YAMAHA CORP  175
YAMAHA MOTOR CO LTD  79
YASKAWA DENKI SEISAKUSHO KK  27
YAZAKI CORP  113
YEDA RES & DEV  46
YKK CORP  27
YOKOGAWA ELECTRIC CORP  28
YOKOGAWA MEDICAL SYST  52
YOSHIDA KOGYO KK  49
YOZAN INC  54
ZEISS STIFTUNG  30
ZEXEL CORP  58
2222222222222222222222222222222222222

2000 : 21
ACCESS : 21
ADRIAN : 21
AIRBAG : 21
AMADA : 21
ANDERSSON : 21
ASSET : 21
AVIONICS : 21
AXIS : 21
BALLY : 21
BICC : 21
BIOTECHNOLOG : 21
BROCKWAY : 21
CARDIAC : 21
CERBERUS : 21
CHILDRENS : 21
CHRISTOPH : 21
CHUNG : 21
DYNAMIT : 21
EDWIN : 21
ELONEX : 21
ENGELHARD : 21
FAHRZEUG : 21
FATS : 21
FESTO : 21
FINA : 21
FINANCIAL : 21
FLORIDA : 21
GEBR : 21
GENE : 21
GLENN : 21
GOSEI : 21
HEIDELBERG : 21
HIGH : 21
HILL : 21
INTEGRATION : 21
INTERDIGITAL : 21
KENT : 21
KUBOTA : 21
KYODO : 21
LANXIDE : 21
LEO : 21
MARQUIP : 21
MEASUREX : 21
MERTEN : 21
MHS : 21
MICHIGAN : 21
MOCHIDA : 21
MUSIC : 21
NOVA : 21
OILS : 21
ORION : 21
PETRI : 21
PRO : 21
QUESTECH : 21
RHEON : 21
ROBINSON : 21
SCHAEFER : 21
SOKEN : 21
SOUND : 21
SOUTH : 21
STUART : 21
TELETTRA : 21
TEXTRON : 21
THERAPEUTICS : 21
THERMO : 21
TRAVENOL : 21
VENTURE : 21
VENTURES : 21
WAKO : 21
WELCH : 21
YISSUM : 21
ACER : 22
ALBANY : 22
ALESSANDRO : 22
BARRY : 22
BEKAERT : 22
BIOMEDICAL : 22
BOARD : 22
CONCEPTS : 22
CONSULT : 22
CYRIX : 22
DEUTZ : 22
DONNELLY : 22
EBAUCHESFABRIK : 22
FISONS : 22
FRANCO : 22
FRED : 22
GILLES : 22
GOLDSCHMIDT : 22
GOULD : 22
GUSTAV : 22
HAGENUK : 22
ICHI : 22
INCO : 22
JACOB : 22
JAGENBERG : 22
JOHANSSON : 22
KANEBO : 22
KANZAKI : 22
KIKAI : 22
KIKI : 22
LEONARD : 22
LEONHARD : 22
LORD : 22
LUIS : 22
MAGNAVOX : 22
MANN : 22
MARION : 22
MAYER : 22
METALLWARENFAB : 22
MOLDING : 22
NEIL : 22
NEPHEW : 22
NET : 22
NORMAN : 22
NORSK : 22
NOVELL : 22
NTT : 22
OPTIK : 22
OPTISCHE : 22
PARTNERS : 22
PIXEL : 22
POLYGRAM : 22
PROFESSIONAL : 22
READ : 22
RELUCTANCE : 22
RICOS : 22
ROBIN : 22
ROCKWOOL : 22
SALOMON : 22
SCHLAFHORST : 22
SCHOELLER : 22
SILICONIX : 22
STEYR : 22
SWITCHED : 22
SYSTEC : 22
WELLCOME : 22
AGENCE : 23
AGIP : 23
ALEXANDR : 23
ANGELO : 23
BALL : 23
BEHR : 23
BRUCE : 23
BRUECKNER : 23
CEMENT : 23
CHENG : 23
CINCINNATI : 23
CLOROX : 23
COLOR : 23
CORNELL : 23
COSTRUZIONI : 23
CREATIVE : 23
DEL : 23
DISPLAY : 23
ENDO : 23
ENTERTAINM : 23
FORE : 23
FUELS : 23
GREGORY : 23
GUIDO : 23
GUMMI : 23
HAGER : 23
HIRSCHMANN : 23
JEROME : 23
JOH : 23
KEN : 23
KINGDOM : 23
LICHT : 23
LINK : 23
LITEF : 23
MARCEL : 23
MICHELIN : 23
MIGUEL : 23
NAZIONALE : 23
OLYMPIA : 23
OSKAR : 23
PAOLO : 23
PHYSICAL : 23
RAD : 23
REICHLE : 23
RICHTER : 23
ROSS : 23
SANWA : 23
SAS : 23
SHIMA : 23
SHIMIZU : 23
SITS : 23
SNAP : 23
SOMFY : 23
SOURCING : 23
SOUTHERN : 23
SPATIALE : 23
SPEC : 23
TEVES : 23
TIMO : 23
TOLEDO : 23
TOTO : 23
TRANSGENE : 23
TSUSHIN : 23
TSUSHINKI : 23
VINCENT : 23
WESTON : 23
WIFAG : 23
WRIGHT : 23
WYSS : 23
ADC : 24
AKIRA : 24
ALUMNI : 24
BROADCAST : 24
CAN : 24
CELLS : 24
CHUN : 24
CONSULTING : 24
DRILLING : 24
DRIVES : 24
ESCHER : 24
FREDERICK : 24
HARVARD : 24
HUSKY : 24
IKEGAMI : 24
INNOVATIVE : 24
ISOVER : 24
JUKKA : 24
KONSTANZ : 24
LEON : 24
MASSARI : 24
MIELE : 24
OPEL : 24
ORACLE : 24
PECHINEY : 24
PHOENIX : 24
REFRIGERATION : 24
RITE : 24
ROSE : 24
SIP : 24
STEWART : 24
TAI : 24
TAKATA : 24
UNITIKA : 24
VEB : 24
VIESSMANN : 24
VISA : 24
VISUAL : 24
WEA : 24
AIRBUS : 25
AIWA : 25
AKTIENGESELLSCHAFT : 25
ANLAGEN : 25
ARMATUREN : 25
ASSOCIATED : 25
BEHEER : 25
CANADIAN : 25
DREXLER : 25
ELETTRONICA : 25
ELPATRONIC : 25
FOXBORO : 25
GEORGES : 25
GEORGIA : 25
GIORI : 25
HONG : 25
HUANG : 25
INFO : 25
KONE : 25
LEUZE : 25
MAASLAND : 25
MAIER : 25
MEYER : 25
MORI : 25
NALCO : 25
NIELSEN : 25
NORDISK : 25
OLIVER : 25
PLAST : 25
PUBLIC : 25
SAGAMI : 25
SAVIO : 25
SEB : 25
SVENSKA : 25
TEAPE : 25
TELECTRONICS : 25
TOHOKU : 25
TRUST : 25
TUBES : 25
VEHICLE : 25
YALE : 25
APS : 26
ARCH : 26
CAMCO : 26
CAR : 26
DIAMOND : 26
DIEBOLD : 26
DISCOVERY : 26
DOMINIQUE : 26
FERNSEH : 26
GIORGIO : 26
HELL : 26
HIROSHI : 26
HOWELL : 26
JACK : 26
JUN : 26
LAMINAGE : 26
LESLIE : 26
LIM : 26
MERRELL : 26
MYCOGEN : 26
NORTON : 26
NOVARTIS : 26
OXYGEN : 26
PARIS : 26
PARTNERSHIP : 26
QUEST : 26
RIKEN : 26
RORER : 26
SHIN : 26
SPORT : 26
UPJOHN : 26
USTER : 26
WALLACE : 26
WATER : 26
YAMAICHI : 26
YVES : 26
ALUSUISSE : 27
APPARATEBAU : 27
ARCO : 27
ARNOLD : 27
BHS : 27
COGEMA : 27
COPCO : 27
DAN : 27
DANIELI : 27
DELFT : 27
DEVICE : 27
ELEKTROTECH : 27
FABIO : 27
GIKEN : 27
GIOVANNI : 27
GLAXO : 27
GLOBALSTAR : 27
GRAHAM : 27
HOESCH : 27
HOPE : 27
HUBERT : 27
JUHA : 27
KURZ : 27
MARKUS : 27
MICRONAS : 27
NISSIN : 27
PHONE : 27
PSC : 27
SELENIA : 27
SICK : 27
SNOW : 27
SON : 27
SUNDSTRAND : 27
SYSTEMTECHNIK : 27
TECHNO : 27
THERMIQUE : 27
UMWELT : 27
WAYNE : 27
WILFRIED : 27
YAMATAKE : 27
AMERSHAM : 28
APP : 28
AUTOMATED : 28
AVIATION : 28
BATTELLE : 28
BIOLOG : 28
CLINICAL : 28
CONST : 28
CONSULTANTS : 28
CONTAINER : 28
CORDIS : 28
EDICO : 28
GERAETEBAU : 28
HAL : 28
HARNESS : 28
IMATION : 28
JUAN : 28
KAZUO : 28
LIMITE : 28
LOH : 28
MARIN : 28
NOVO : 28
PROCESS : 28
RACAL : 28
REHAU : 28
SHIMANO : 28
STEIN : 28
STERLING : 28
VICKERS : 28
WEISS : 28
WELLA : 28
ALSTOM : 29
ANDO : 29
ATR : 29
BIOTECHNOLOGY : 29
BOSAI : 29
BRAND : 29
BUSCH : 29
CABLES : 29
CGA : 29
DANA : 29
DELTA : 29
EISAI : 29
ENDRESS : 29
ESPACE : 29
ETA : 29
FARBEN : 29
GENOME : 29
HBS : 29
HOFMANN : 29
HOPKINS : 29
INVESTMENTS : 29
JACOBS : 29
KOLLMORGEN : 29
LIGHTING : 29
MANUEL : 29
METALL : 29
MOBAY : 29
MONARCH : 29
NOHMI : 29
OPERATIONS : 29
OPTICON : 29
PFU : 29
PHARMACEUTICALS : 29
PILKINGTON : 29
POLYPLASTICS : 29
PURE : 29
RICHFIELD : 29
RUNDFUNK : 29
SENSORMATIC : 29
SPORTS : 29
TELEFONICA : 29
TELEVISION : 29
TEXTILMASCH : 29
TONEN : 29
TUCHEL : 29
VARTA : 29
WABCO : 29
WEB : 29
WISCONSIN : 29
YAMAMOTO : 29
YASKAWA : 29
YKK : 29
YUDEN : 29
ALLISON : 30
ANGEWANDTE : 30
AUSIMONT : 30
AVL : 30
BREWERY : 30
DIDIER : 30
GENETIC : 30
GERD : 30
GRIESHEIM : 30
HABITACLE : 30
HADEWE : 30
HELLA : 30
INTERACTIVE : 30
JONATHAN : 30
KANSAI : 30
KARTENSYSTEME : 30
LACKE : 30
MARKING : 30
MAURICE : 30
MEIDENSHA : 30
MESS : 30
MICROELECTRONIC : 30
MILLIKEN : 30
NAVIGATION : 30
NISSHO : 30
NORTHROP : 30
NOVONORDISK : 30
PHYSICS : 30
PRODUCTION : 30
RAINER : 30
SANGYO : 30
SASIB : 30
SOMAR : 30
TAYLOR : 30
UNIROYAL : 30
AHLSTROEM : 31
AMGEN : 31
ARUZE : 31
BEIERSDORF : 31
CARDIOVASCULAR : 31
COOP : 31
CUMPUTER : 31
DENNIS : 31
EDUARD : 31
ELA : 31
EURO : 31
III : 31
IVECO : 31
JARI : 31
JOACHIM : 31
JONES : 31
KASEI : 31
KEITH : 31
KOREA : 31
LIFE : 31
LORRAINE : 31
MEMORY : 31
NUCLEAR : 31
ONE : 31
PRESS : 31
RANK : 31
REINHARD : 31
SAMUEL : 31
STARCH : 31
SUZUKI : 31
TNO : 31
TODA : 31
TRANSMISSION : 31
VLADIMIR : 31
ADOLF : 32
ALCAN : 32
BERND : 32
BIOLABS : 32
CERAMICS : 32
CHANG : 32
CHARM : 32
CLAAS : 32
CORNELIS : 32
DOLBY : 32
ELECTRONIQUES : 32
GARY : 32
HANNU : 32
HORIBA : 32
HUECK : 32
INCYTE : 32
INNOVATIONS : 32
JENA : 32
JUELICH : 32
KARLSRUHE : 32
KENDALL : 32
KERNFORSCHUNGSANLAGE : 32
KOWA : 32
LAWRENCE : 32
MERIEUX : 32
MESSTECHNIK : 32
NHK : 32
OHMEDA : 32
PORSCHE : 32
RALF : 32
RESOURCES : 32
SANOFI : 32
SCHENCK : 32
SIGNAALAPPARATEN : 32
SYNTHETIC : 32
TEN : 32
WILLI : 32
XANAVI : 32
AMDAHL : 33
ANLAGENBAU : 33
BELLSOUTH : 33
BENNETT : 33
BERTIN : 33
BOSTON : 33
CITICORP : 33
DEARBORN : 33
FILTER : 33
FORSCHUNGSZENTRUM : 33
FRERES : 33
GAZ : 33
GUENTHER : 33
HARALD : 33
HAUSER : 33
KPN : 33
KYOCERA : 33
LABS : 33
LEITZ : 33
LELY : 33
LONDON : 33
LUIGI : 33
MESSER : 33
ONO : 33
PARKER : 33
PPC : 33
PROCESSING : 33
RANPAK : 33
SCHEIDT : 33
SECURITE : 33
SIGMA : 33
SPERRY : 33
STICHTING : 33
TECHNOLOGIE : 33
TELEVERKET : 33
TOTAL : 33
AFFYMETRIX : 34
CARE : 34
CETUS : 34
ENVIRONMENTAL : 34
FMC : 34
GIUSEPPE : 34
HAROLD : 34
HOLLANDSE : 34
JOHAN : 34
JOHNS : 34
MARCO : 34
MARIO : 34
MEIJI : 34
MERLONI : 34
NACIONAL : 34
NORDICA : 34
NYCOMED : 34
OHMI : 34
PUBL : 34
SPECTRA : 34
TADAHIRO : 34
VALVE : 34
ANDERS : 35
CP8 : 35
DATACOMM : 35
ELECTRICA : 35
FOOD : 35
FUJIKURA : 35
GMB : 35
INFORMATICS : 35
JOHANN : 35
KAYAKU : 35
KIRIN : 35
LONZA : 35
MASCHBAU : 35
MEAD : 35
MITSUMI : 35
NIDEK : 35
NORBERT : 35
OPTICS : 35
PEKKA : 35
PERSONAL : 35
POSTE : 35
RAUMFAHRT : 35
TECHNICAL : 35
TELSPACE : 35
UWE : 35
WHITE : 35
ACTEL : 36
ADAM : 36
ALBIS : 36
ATMEL : 36
BACHMANN : 36
BETRIEBS : 36
BREMSE : 36
CHUO : 36
FUJISAWA : 36
GARCIA : 36
GERALD : 36
HENRI : 36
HERBERT : 36
HOYA : 36
KARI : 36
KATO : 36
KIM : 36
KNORR : 36
LEICA : 36
MOULINEX : 36
NUTZFAHRZEUGE : 36
ORGA : 36
RIKA : 36
RUSSELL : 36
SEIKA : 36
SMITHS : 36
STATES : 36
TAIYO : 36
TELEPHONWERK : 36
TRADING : 36
ALUMINUM : 37
ANADRILL : 37
BATTERIE : 37
CELL : 37
CITY : 37
CONVERTING : 37
FERAG : 37
FIRST : 37
FUR : 37
HARRY : 37
HUNTER : 37
IMAGE : 37
INMOS : 37
IRON : 37
KOYO : 37
NISSHIN : 37
NORDSON : 37
PAK : 37
PERINI : 37
SATELLITE : 37
SCHLOEMANN : 37
SOEHNE : 37
ALAIN : 38
ATOMIC : 38
BENDIX : 38
BROOKTREE : 38
CGR : 38
DES : 38
ETHYL : 38
HAYASHIBARA : 38
HERMAN : 38
KAKOKI : 38
LEYBOLD : 38
LUFT : 38
MCNEIL : 38
MEMORIES : 38
MILLIPORE : 38
NELSON : 38
POLYMER : 38
RADIOTELEPHONE : 38
RAY : 38
RENISHAW : 38
SHEET : 38
SUPPORT : 38
UBE : 38
UNIVERSITY : 38
ARTHUR : 39
ATLANTIC : 39
BIOCHEM : 39
COMMUNIC : 39
FINISHING : 39
FIRESTONE : 39
ISHIDA : 39
PALL : 39
PROSPECTION : 39
ROSEMOUNT : 39
SHIONOGI : 39
SNECMA : 39
YANG : 39
AUTHORITY : 40
BORG : 40
DER : 40
DSM : 40
GORDON : 40
GRAPHA : 40
MARINE : 40
MEDICINE : 40
METALLWARENFABRIK : 40
MICROTECH : 40
NICHOLAS : 40
OESTERREICH : 40
OHIO : 40
PLANT : 40
SKF : 40
SPRING : 40
SUISSE : 40
TANABE : 40
TOPCON : 40
3COM : 41
AUGUST : 41
BRUNO : 41
DEERE : 41
ENICHEM : 41
ERWIN : 41
ESPANA : 41
GENENTECH : 41
GRASS : 41
HARIMA : 41
HIROSE : 41
IAN : 41
INTELLIGENT : 41
IOMEGA : 41
KEVIN : 41
KLEIN : 41
NATIONAL : 41
RAMTRON : 41
ROBERTO : 41
TAKARA : 41
WIGGINS : 41
XILINX : 41
AQUITAINE : 42
AUTOMAT : 42
AUTRONICA : 42
BATTERY : 42
COOPER : 42
DATALOGIC : 42
GERAETETECH : 42
GORE : 42
HOWARD : 42
ISHIKAWAJIMA : 42
JAEGER : 42
KAIHATSU : 42
LIN : 42
MARKETING : 42
MASCHINEN : 42
MECC : 42
PRAXAIR : 42
RICERCHE : 42
ROHDE : 42
SCALE : 42
SIEMAG : 42
THYSSEN : 42
WALKER : 42
AMAZONEN : 43
ANTON : 43
BALDWIN : 43
BIOSYSTEMS : 43
COULTER : 43
DENSHI : 43
DREYER : 43
ELEC : 43
ELETTRODOMESTICI : 43
HERAEUS : 43
HUTCHINSON : 43
HYDRO : 43
INTERGRAPH : 43
MARIE : 43
MILK : 43
OJI : 43
PETROCHEMICALS : 43
RENE : 43
SEMICONDUCTEURS : 43
SHUZO : 43
SOLVAY : 43
WINDMOELLER : 43
AMPHENOL : 44
ASULAB : 44
BLOHM : 44
BOELKOW : 44
ERIK : 44
GIST : 44
INVENTIO : 44
INVEST : 44
MACRONIX : 44
MEDTRONIC : 44
PFEIFFER : 44
TELEMECANIQUE : 44
WACKER : 44
AVERY : 45
BROCADES : 45
EUROPA : 45
FRANCIS : 45
INDUSTRIE : 45
LARS : 45
LIGHT : 45
NEWBRIDGE : 45
PLASTICS : 45
VER : 45
CONVERSION : 46
FUEL : 46
KOBE : 46
LOCKHEED : 46
MESSERSCHMITT : 46
MITUTOYO : 46
MORTON : 46
NDS : 46
ROEHM : 46
TOOLS : 46
VON : 46
WEST : 46
WILSON : 46
WOLF : 46
ZELLWEGER : 46
ZEON : 46
ANONYME : 47
AVID : 47
CODEX : 47
KUNSTSTOFF : 47
MOELLER : 47
ROYCE : 47
SAFETY : 47
SCHWEIZ : 47
SMC : 47
SPARK : 47
STORK : 47
TIME : 47
AUDIO : 48
BANK : 48
CAMBRIDGE : 48
COMMW : 48
ELEKTRIK : 48
GREEN : 48
HAAS : 48
HERCULES : 48
PLUG : 48
ROY : 48
SOLUTIONS : 48
THE : 48
TOPPAN : 48
VITRAGE : 48
WEIDMUELLER : 48
CABLETRON : 49
CONTINENTAL : 49
DIAGNOSTIC : 49
DYNAMICS : 49
ELECTRICITE : 49
ENGLAND : 49
EZEL : 49
MARC : 49
METALLGESELLSCHAFT : 49
PACESETTER : 49
PER : 49
ROLLS : 49
SPACELABS : 49
STAMICARBON : 49
TOSOH : 49
ALTERA : 50
BERG : 50
BERNHARD : 50
CHUGAI : 50
COLIN : 50
CONTRAVES : 50
DONALD : 50
DORNIER : 50
ENIRICERCHE : 50
GERBER : 50
HOELSCHER : 50
HUDSON : 50
INTELLECTUAL : 50
JIM : 50
MOTEUR : 50
SCHMIDT : 50
SIEGFRIED : 50
SOFT : 50
STAHL : 50
SUNTORY : 50
SURGICAL : 50
VALLEY : 50
ALUMINIUM : 51
AVE : 51
BETTS : 51
CARLO : 51
CHEN : 51
CORPORATE : 51
CROSS : 51
FOCKE : 51
FORSCH : 51
GAO : 51
NESTLE : 51
OFF : 51
ORTHO : 51
SANKYO : 51
SENSORS : 51
SHIKOKU : 51
WAGNER : 51
AKTIENGESELLSCH : 52
ALFA : 52
BEHRINGWERKE : 52
BURROUGHS : 52
CENTRAL : 52
CHISSO : 52
DENKEN : 52
GOVERNMENT : 52
HUMAN : 52
JUNIOR : 52
LELAND : 52
MILLS : 52
NSM : 52
PHILIPPE : 52
ROLF : 52
SCHWARZ : 52
ULRICH : 52
CANAL : 53
ENTWICKLUNG : 53
FREUDENBERG : 53
JEFFREY : 53
KOMORI : 53
LITTON : 53
LORENZ : 53
TANDBERG : 53
WILLIAMS : 53
YEDA : 53
APPLIC : 54
CATALYTIC : 54
CRAY : 54
DEVELOPMENT : 54
DIESEL : 54
GERARD : 54
GUENTER : 54
KABEL : 54
LUDWIG : 54
OTSUKA : 54
PARCEL : 54
AMOCO : 55
BRIT : 55
CUMMINS : 55
DSC : 55
FRIEDRICH : 55
GAMES : 55
HYUNDAI : 55
METALS : 55
SYMBIOS : 55
SYSTEMES : 55
WILCOX : 55
ACE : 56
BECKER : 56
BRADLEY : 56
CITIBANK : 56
GRETAG : 56
GUY : 56
HARTMANN : 56
HOME : 56
INNOVAT : 56
KIENZLE : 56
MOLECULAR : 56
SNC : 56
TRT : 56
VARIAN : 56
VOEST : 56
BODENSEEWERK : 57
CHRISTOPHER : 57
ELECTROLUX : 57
FOODS : 57
HANDOTAI : 57
INGELHEIM : 57
MAGNETICS : 57
MANOR : 57
MCI : 57
METO : 57
ROKE : 57
UOP : 57
WACOM : 57
WHIRLPOOL : 57
DELPHI : 58
EMERSON : 58
HERMANN : 58
INNOVATION : 58
ITALIANA : 58
OWENS : 58
QUANTEL : 58
RAYCHEM : 58
SIMON : 58
BRIAN : 59
CHEMISCHE : 59
COLGATE : 59
ELEKTRO : 59
HENRY : 59
HUELS : 59
INTERFACE : 59
ISRAEL : 59
KUREHA : 59
MICROCHIP : 59
NEDAP : 59
PACIFIC : 59
PALMOLIVE : 59
SCHINDLING : 59
AGENCY : 60
ALEXANDER : 60
ANALOG : 60
ANRITSU : 60
AUSTRIA : 60
BAKER : 60
BECKMAN : 60
BRAKE : 60
DOUGLAS : 60
ETHICON : 60
KYOTO : 60
LAVAL : 60
MICROCOMPUTER : 60
MORRIS : 60
OHG : 60
RAYON : 60
SEMICONDUCTORS : 60
SONS : 60
SYS : 60
SYSTEME : 60
ANDREAS : 61
CAMERA : 61
CONLUX : 61
FAB : 61
FINANCE : 61
INFINEON : 61
LINDE : 61
MAGNETIC : 61
STEVEN : 61
WASHINGTON : 61
ADVANTEST : 62
AJINOMOTO : 62
DASSAULT : 62
ISUZU : 62
KLOECKNER : 62
MEDIA : 62
RAYMOND : 62
STANLEY : 62
TALIGENT : 62
TRANSPORT : 62
YOSHIDA : 62
COMPONENTS : 63
COUNCIL : 63
DENSHIN : 63
DENWA : 63
KENNETH : 63
LEGRAND : 63
MILLER : 63
MINOLTA : 63
NINTENDO : 63
SEAGATE : 63
WANZL : 63
ZEXEL : 63
CHIRON : 64
ENGINE : 64
KENWOOD : 64
OSAKA : 64
ROGER : 64
SHINKO : 64
STEFAN : 64
AEG : 65
ANDRE : 65
ANTONIO : 65
CATERPILLAR : 65
ERIC : 65
FAIRCHILD : 65
FISHER : 65
JOSE : 65
NIHON : 65
PERIPHERALS : 65
RIC : 65
TEC : 65
WEBER : 65
WIRELESS : 65
CARRIER : 66
ELECT : 66
GESELLSCHAFT : 66
GOODYEAR : 66
IMEC : 66
KURARAY : 66
RIVER : 66
SILICONE : 66
ALAN : 67
ALPINE : 67
BOSEKI : 67
CONNECTORS : 67
ETS : 67
MACHINES : 67
MYERS : 67
SECR : 67
TIMOTHY : 67
DAICEL : 68
DIEHL : 68
KURT : 68
MARS : 68
PACKAGING : 68
REYNOLDS : 68
RIETER : 68
SCITEX : 68
SQUARE : 68
TEXACO : 68
THORN : 68
ZANUSSI : 68
EMHART : 69
FRITZ : 69
HOLLAND : 69
LASER : 69
WERK : 69
DECKER : 70
EBARA : 70
FLUKE : 70
KING : 70
KOSAN : 70
OTTO : 70
WESTERN : 70
YORK : 70
BERNARD : 71
COLUMBIA : 71
EMI : 71
PLANCK : 71
PLASTIC : 71
RONALD : 71
SCOTT : 71
CHIMIE : 72
CONS : 72
DEGUSSA : 72
FOR : 72
GEB : 72
JAN : 72
KOKAN : 72
MICRON : 72
SOCIETE : 72
BBC : 73
BELOIT : 73
BRISTOL : 73
COLLEGE : 73
COMMUNICAT : 73
ELEMA : 73
JUERGEN : 73
KRUPP : 73
MONSANTO : 73
OTIS : 73
PHARM : 73
STATE : 73
STC : 73
CABLE : 74
COMPOSANTS : 74
DENKO : 74
SECURITY : 74
WILHELM : 74
ANTHONY : 75
COM : 75
FRANCOTYP : 75
GRUMMAN : 75
ITALTEL : 75
KABUSHIKI : 75
MANFRED : 75
NEOPOST : 75
PPG : 75
SANTE : 75
AUSTRALIA : 76
DEFENCE : 76
ERICH : 76
HORST : 76
ICL : 76
ICO : 77
PAINT : 77
STIFTUNG : 77
GIESECKE : 78
INTEGRATED : 78
NORMALZEIT : 78
POSTALIA : 78
ATLANTA : 79
DEVRIENT : 79
ERNST : 79
GERHARD : 79
INSTITUT : 79
MARIA : 79
RUDOLF : 79
SISTEMI : 79
BLACK : 80
BRAUN : 80
DELCO : 80
GERIN : 80
INTER : 80
KOKUSAI : 80
MUELLER : 80
PLUS : 80
ROUSSEL : 80
SQUIBB : 80
ALLEN : 81
HAKKO : 81
HEINRICH : 81
MICROELECTRON : 81
SANDOZ : 81
TELEFONBAU : 81
CLAUDE : 82
MAZDA : 82
MERLIN : 82
MICROELETTRONICA : 82
NITTO : 82
PROF : 82
ROLM : 82
ATOCHEM : 83
FRANCOIS : 83
GRAPHIC : 83
LORAL : 83
MILES : 83
TOKAI : 83
UNIVERSAL : 83
YOZAN : 83
ESSELTE : 84
GEORG : 84
HELMUT : 84
TECHNIK : 84
ELEVATOR : 85
GOBAIN : 85
RUE : 85
SHOWA : 85
BABCOCK : 86
CONSTRUCTION : 86
FISCHER : 86
INDUSTRY : 86
YOKOGAWA : 86
FRANZ : 87
HEIDENHAIN : 87
OREAL : 87
SOLUTION : 87
STMICROELECTRONICS : 87
BLAUPUNKT : 88
CANCER : 88
FRAMATOME : 88
MAXELL : 88
SILICON : 88
ALFRED : 89
CHEMIE : 89
ENTERTAINMENT : 89
KYOWA : 89
NORTH : 89
PFIZER : 89
FOUNDATION : 90
INK : 90
LEXMARK : 90
PHILIP : 90
SERV : 90
DISCOVISION : 91
KANEGAFUCHI : 91
PASTEUR : 91
CSELT : 92
DAIICHI : 92
MAGNETI : 92
MASSACHUSETTS : 92
PATRICK : 92
DENKI : 93
LEE : 93
NORITSU : 93
OVERSEAS : 93
PAPIERTECH : 93
TETRA : 93
TOA : 93
ALLIED : 94
CROSFIELD : 94
GRAPHICS : 94
KAO : 94
QUANTUM : 94
RISO : 94
BIOTECH : 95
LOUIS : 95
PHILLIPS : 95
SAINT : 95
SCIENTIFIC : 95
ADOBE : 96
BAXTER : 96
BOC : 96
LAMBERT : 96
PRECISION : 96
SCHERING : 96
TDK : 96
CELANESE : 97
ELECTRON : 97
KENKYUSHO : 97
LOOM : 97
NOBEL : 97
UNI : 97
ASSOCIATES : 98
SEIYAKU : 98
USA : 98
CYANAMID : 99
FURUKAWA : 99
GOODRICH : 99
KOENIG : 99
KRONE : 99
LSI : 99
RAYTHEON : 99
TIRE : 99
GEORGE : 100
JOSEF : 100
KLAUS : 100
MASCH : 100
STANFORD : 100
WOLFGANG : 100
HEALTH : 101
JACQUES : 101
PATENTS : 101
SMITH : 101
SPACE : 101
EDWARD : 102
ORG : 102
STORAGE : 102
AMPEX : 103
CHRISTIAN : 103
FRANK : 103
GENERAL : 103
HOSPITAL : 103
MASCHINENBAU : 103
SCIENCES : 103
DIETER : 104
GENETICS : 104
GTE : 104
APPLE : 105
ASCOM : 105
CIRRUS : 105
HAMAMATSU : 105
LIQUIDE : 105
OLIVETTI : 105
ANDREW : 106
MARK : 106
RADIO : 106
TOOL : 106
ATLAS : 107
ELMER : 107
SARNOFF : 107
STUDI : 107
CAVI : 108
CITIZEN : 108
PERKIN : 108
METAL : 109
PHOTONICS : 109
ALPS : 110
CENTRO : 110
SANDEN : 110
WATCH : 110
CARBIDE : 111
DANIEL : 111
ELI : 112
HARRIS : 112
HEINZ : 112
BIO : 113
ELECTRO : 113
HAUSGERAETE : 113
ILLINOIS : 114
LILLY : 114
VOLKSWAGENWERK : 114
WERNER : 114
LLC : 115
CONTROLS : 116
DAIKIN : 118
GRACE : 118
INSULATORS : 118
ZEISS : 118
DIPL : 119
GOLD : 119
BAUER : 120
AKZO : 121
ELF : 121
SEGA : 121
STEPHEN : 121
PICKER : 122
ITALIA : 123
SYMBOL : 123
COMP : 124
LICENTIA : 124
KAISHA : 125
NORDEN : 125
TOATSU : 125
CANADA : 126
GYR : 126
KOMATSU : 126
NETWORK : 126
TERUMO : 126
AISIN : 127
CHRYSLER : 127
IDEMITSU : 127
POULENC : 127
VISION : 127
MAX : 128
SHIMADZU : 128
SIGNAL : 128
YAZAKI : 128
EQUIP : 129
SARL : 129
KOKI : 130
WALTER : 130
ABBOTT : 131
AVIONIQUE : 131
MACH : 132
MANAGEMENT : 132
DESIGN : 133
RHONE : 133
VLSI : 133
AEROSPATIALE : 134
MANNHEIM : 134
PIERRE : 134
MICHEL : 135
CALIFORNIA : 136
HEIDELBERGER : 136
MARELLI : 136
SEXTANT : 136
FUER : 137
OLYMPUS : 137
FIAT : 138
GEMPLUS : 138
TEIJIN : 138
LICENSING : 139
LANDIS : 141
SCIENCE : 142
AUTOMATIC : 144
PAPIERMASCH : 144
AUTO : 145
TELIA : 145
RCA : 146
SEISAKUSHO : 146
FORMS : 147
KAWASAKI : 147
TANDEM : 147
UND : 147
ALBERT : 148
BRIDGESTONE : 148
FRAUNHOFER : 148
SCHNEIDER : 148
VIDEO : 148
FOUND : 149
IMAGING : 149
TOBACCO : 149
STAR : 150
CHARLES : 151
DAE : 151
MATRA : 151
TOYO : 151
WOO : 151
SEIKI : 152
TELEFUNKEN : 152
DEUTSCHLAND : 154
PIRELLI : 154
ROHM : 154
HOFFMANN : 155
UNISYS : 156
JOSEPH : 157
KONAMI : 157
MATERIALS : 157
PHARMACEUTICAL : 158
GLOBAL : 159
NISSAN : 159
RENAULT : 159
KGAA : 161
KIMBERLY : 161
POLAROID : 161
VAN : 161
AND : 162
JOHANNES : 162
TECHN : 163
WARNER : 163
DIAGNOSTICS : 164
POWER : 166
CITROEN : 167
NGK : 167
PETROLEUM : 167
QUALCOMM : 167
MACHINE : 168
APPLIED : 169
CONTROL : 169
ETAT : 169
TELEDIFFUSION : 169
AMERICA : 171
VDO : 171
ELECTR : 173
RICOH : 173
TAKEDA : 173
BROADCASTING : 174
INSTRUMENT : 174
COMMUNICATION : 175
MARCONI : 175
PEUGEOT : 175
ASEA : 176
MED : 176
MOORE : 176
KARL : 178
CARD : 179
SOC : 179
CARL : 181
CENTER : 181
FSE : 181
TORAY : 182
TOYODA : 182
CLARK : 183
EXXON : 183
KOGAKU : 183
SHINETSU : 183
WANG : 183
FORSCHUNG : 185
FRANCAIS : 185
ELEKTRONIK : 186
ANT : 187
HENKEL : 188
NACHRICHTENTECH : 190
ROCHE : 190
ICI : 191
CENTRE : 193
ING : 193
BENZ : 194
BOEHRINGER : 194
GAS : 195
PTY : 195
BAYERISCHE : 197
GLASS : 198
LUCAS : 198
VALEO : 198
SEL : 200
ROLAND : 201
UNION : 201
NEW : 202
OCE : 204
COMM : 205
SERVICE : 206
MAN : 208
PTT : 208
SYSTEM : 208
SOFTWARE : 209
MOBIL : 210
SAGEM : 210
STANDARD : 211
MOTOREN : 212
SCREEN : 212
MULTIMEDIA : 216
MARTIN : 217
MERCK : 217
BOEING : 218
ASAHI : 219
WHITAKER : 219
GEC : 220
INTEL : 221
AMP : 223
ENTERPRISES : 223
ELECTRONIQUE : 225
ROCKWELL : 227
HALLIBURTON : 228
NORTEL : 228
AUTOMATION : 231
LABORATORIES : 232
BOVERI : 233
ITT : 234
KAGAKU : 235
ASS : 236
VALMET : 239
EMV : 240
BECTON : 241
SHELL : 242
PETROCHEMICAL : 243
DICKINSON : 246
HOLDINGS : 246
RUBBER : 247
HOLDING : 250
WILLIAM : 250
GEIGY : 252
PETROL : 253
DENSO : 254
SCIENT : 255
MANUFACTURING : 256
BROTHER : 260
TELEKOM : 260
YAMAHA : 260
ABB : 263
NIXDORF : 264
RICHARD : 264
MURATA : 265
MICROSOFT : 270
AIR : 271
AUTOMOTIVE : 276
CIE : 277
JEAN : 277
CIBA : 285
TRW : 285
BROWN : 287
DRUCKMASCH : 287
ENGINEERING : 287
LOGIC : 288
BUSINESS : 289
OPTICAL : 289
JAMES : 291
RECH : 293
CGE : 294
MITSUI : 294
PLESSEY : 295
PAUL : 296
ENERGY : 297
HANS : 297
GRUNDIG : 298
PATENT : 299
THOMAS : 300
DAIMLER : 302
COMMISSARIAT : 303
ATOMIQUE : 304
CHEMICALS : 307
PATENTVERWALTUNG : 309
COMPAQ : 311
JOHNSON : 312
COMPUTERS : 314
EATON : 317
OIL : 317
PAPER : 320
AEROSPACE : 321
PRODUCTS : 324
CASIO : 326
CORNING : 329
MOTORS : 330
STEEL : 330
ENERGIE : 332
OMRON : 333
TATEISI : 333
HEAVY : 338
VOITH : 344
MANNESMANN : 345
DATA : 347
MACHINERY : 354
BOWES : 357
PITNEY : 357
MOLEX : 358
TOSHIBA : 358
PHARMA : 360
MASCHF : 361
MICHAEL : 363
SULZER : 363
PRINTING : 374
NEDERLAND : 376
GES : 381
MITA : 385
WIRING : 391
CONSUMER : 393
TOYOTA : 393
SERVICES : 395
INDUSTRIAL : 398
WESTINGHOUSE : 398
UNITED : 399
DAVID : 401
INFORMATION : 401
WORKS : 403
PROCTER : 407
TEKTRONIX : 408
GAMBLE : 409
SMITHKLINE : 410
EUROP : 412
ALSTHOM : 416
BEECHAM : 417
BELL : 427
PETER : 432
VICTOR : 434
BAYER : 436
OKI : 440
UNILEVER : 440
BRANDT : 446
PROD : 447
NORTHERN : 450
DAINIPPON : 454
DOW : 455
LIMITED : 470
KOGYO : 476
SANYO : 477
HONDA : 485
JOHN : 488
NETWORKS : 490
BASF : 494
INF : 500
DEUTSCHE : 502
SEMICONDUCTOR : 503
COMMUNICATIONS : 506
ENG : 507
HONEYWELL : 512
GROUP : 513
DEV : 519
BULL : 521
GEVAERT : 530
HOECHST : 531
INTERNATIONAL : 533
MEDICAL : 534
INSTR : 542
PONT : 550
COMPANY : 554
AGFA : 556
TELECOMMUNICATIONS : 561
FANUC : 588
SCHLUMBERGER : 603
CSF : 615
PHONES : 632
KONISHIROKU : 634
CIT : 665
NCR : 706
AIRCRAFT : 714
TELECOMM : 715
MINNESOTA : 717
PIONEER : 728
SAMSUNG : 728
NAT : 733
FORD : 734
CHEM : 753
MINING : 756
EQUIPMENT : 771
WERKE : 785
EPSON : 818
HUGHES : 847
DIGITAL : 856
RESEARCH : 856
BRITISH : 898
SRL : 908
INDUSTRIES : 917
ELECTRONIC : 934
TELEFON : 938
MOBILE : 956
JAPAN : 969
LAB : 1011
SYST : 1037
DEVICES : 1069
BOSCH : 1077
SUN : 1094
COMPUTER : 1096
MICROSYSTEMS : 1097
ADVANCED : 1109
SGS : 1126
LUCENT : 1143
TELECOM : 1149
FRANCE : 1154
SUMITOMO : 1155
TECHNOLOGY : 1169
FILM : 1172
SEIKO : 1173
MICRO : 1184
INST : 1194
ERICSSON : 1213
KONINKL : 1238
UNIV : 1256
NOKIA : 1265
TECH : 1314
RES : 1319
CHEMICAL : 1325
ROBERT : 1349
XEROX : 1375
TEXAS : 1399
INSTRUMENTS : 1434
GEN : 1468
AMERICAN : 1470
FUJI : 1491
PLC : 1494
MOTOR : 1546
MOTOROLA : 1553
SHARP : 1650
MICROELECTRONICS : 1679
MFG : 1763
EASTMAN : 1773
PHOTO : 1813
KODAK : 1831
TELEGRAPH : 1833
TELEPHONE : 1976
SPA : 1978
MITSUBISHI : 2111
TECHNOLOGIES : 2142
ALCATEL : 2215
HEWLETT : 2574
PACKARD : 2580
SYSTEMS : 2691
HITACHI : 2726
FUJITSU : 2760
INT : 2785
THOMSON : 2911
SHIBAURA : 2993
TOKYO : 3326
MATSUSHITA : 3509
SONY : 4149
NULL : 4586
PHILIPS : 4997
ELECTRONICS : 5009
CANON : 5102
NIPPON : 5653
SIEMENS : 5949
IBM : 7079
IND : 7626
GMBH : 7920
ELECTRIC : 15147
INC : 21447
LTD : 25354
CORP : 25599
33333333333333333333333333333333333333333

ACER INC  : 21
ADVANCED TECH LAB  : 21
AISIN SEIKI  : 21
ASCOM TECH AG  : 21
ATOMIC ENERGY AUTHORITY UK  : 21
BABCOCK TEXTILMASCH  : 21
BALL CORP  : 21
BAXTER TRAVENOL LAB  : 21
BOEHRINGER INGELHEIM INT  : 21
BRISTOL MYERS CO  : 21
CIBA CORNING DIAGNOSTICS CORP  : 21
COGEMA  : 21
COMPUTER GES KONSTANZ  : 21
CONS RIC MICROELETTRONICA ;   SGS THOMSON MICROELECTRONICS  : 21
DEUTSCHE FORSCH LUFT RAUMFAHRT  : 21
HOECHST JAPAN  : 21
INTERDIGITAL TECH CORP  : 21
KLOECKNER MOELLER GMBH  : 21
MARCONI INSTRUMENTS LTD  : 21
MEASUREX CORP  : 21
MEIJI SEIKA KAISHA  : 21
PSC INC  : 21
RHEON AUTOMATIC MACHINERY CO  : 21
SANKYO SEIKI SEISAKUSHO KK  : 21
SANWA KAGAKU KENKYUSHO CO  : 21
SASIB SPA  : 21
SCHLUMBERGER IND LTD  : 21
SCHLUMBERGER LTD ;   SCHLUMBERGER SERVICES PETROL ;   SCHLUMBERGER TECHNOLOGY BV ;   SCHLUMBERGER HOLDINGS  : 21
SIEMENS AG ALBIS  : 21
SITS SOC IT TELECOM SIEMENS  : 21
STANDARD OIL CO OHIO  : 21
STANLEY ELECTRIC CO LTD  : 21
SWITCHED RELUCTANCE DRIVES LTD  : 21
TELEFUNKEN ELECTRONIC GMBH  : 21
UNITED KINGDOM GOVERNMENT  : 21
WIFAG MASCHF  : 21
ALBANY INT CORP  : 22
ALCATEL ESPACE  : 22
BECKER GMBH  : 22
BEECHAM GROUP PLC  : 22
BELOIT TECHNOLOGIES INC  : 22
BRITISH TECH GROUP  : 22
CYRIX CORP  : 22
EBAUCHESFABRIK ETA AG  : 22
ELECTRONIC DATA SYST CORP  : 22
FOXBORO CO  : 22
FRANCOTYP POSTALIA AG  : 22
HAGENUK TELECOM GMBH  : 22
INFINEON TECHNOLOGIES AG  : 22
JAPAN AVIATION ELECTRON  : 22
LORD CORP  : 22
NISSHO KK  : 22
RAMTRON INT CORP  : 22
REHAU AG & CO  : 22
RICOS KK  : 22
ROLM CO  : 22
SCHLAFHORST & CO W  : 22
SHELL OIL CO  : 22
SIP  : 22
TELEFONICA NACIONAL ESPANA CO  : 22
ADC TELECOMMUNICATIONS INC  : 23
AMGEN INC  : 23
ATLANTIC RICHFIELD CO  : 23
CLOROX CO  : 23
DORNIER GMBH  : 23
DREXLER TECH  : 23
DSM NV  : 23
FISHER CONTROLS INT  : 23
FORE SYSTEMS INC  : 23
GEC ALSTHOM TRANSPORT SA  : 23
HITACHI EUROP LTD  : 23
INT FUEL CELLS CORP  : 23
JAEGER  : 23
KNORR BREMSE AG  : 23
KOLLMORGEN CORP  : 23
MERRELL DOW PHARMA  : 23
MIELE & CIE  : 23
ONO PHARMACEUTICAL CO  : 23
OPEL ADAM AG  : 23
PHILIPS ELECTRONIC ASSOCIATED ;   PHILIPS NV  : 23
PHILIPS ELECTRONICS UK LTD ;   PHILIPS ELECTRONICS NV  : 23
REICHLE & DE MASSARI FA  : 23
SAVIO SPA  : 23
SHINKO ELECTRIC CO LTD  : 23
SHOWA ALUMINUM CORP  : 23
SOMFY  : 23
STAR MFG CO  : 23
TORAY SILICONE CO  : 23
TOTO LTD  : 23
WISCONSIN ALUMNI RES FOUND  : 23
ADVANCED CARDIOVASCULAR SYSTEM  : 24
AGFA CORP  : 24
ARCO CHEM TECH  : 24
ASAHI OPTICAL CO LTD  : 24
CLAAS OHG  : 24
DANIELI OFF MECC  : 24
EMHART IND  : 24
GAZ DE FRANCE  : 24
GRETAG AG  : 24
GRETAG IMAGING AG  : 24
HAL COMPUTER SYSTEMS INC  : 24
IMATION CORP  : 24
KAWASAKI HEAVY IND LTD  : 24
LANDIS & GYR AG  : 24
LEYBOLD AG  : 24
MAASLAND NV  : 24
MAGNETIC PERIPHERALS INC  : 24
MILLIPORE CORP  : 24
NHK SPRING CO LTD  : 24
NORTHROP GRUMMAN CORP  : 24
PHONE COM INC  : 24
SAINT GOBAIN ISOVER  : 24
SMC CORP  : 24
STANDARD ELEKTRIK LORENZ AG  : 24
TAIYO YUDEN KK  : 24
TETRA ALFA HOLDINGS  : 24
TOKAI RUBBER IND LTD  : 24
UNIV COLUMBIA  : 24
WEA MFG INC  : 24
AIWA CO  : 25
ALCAN INT LTD  : 25
ALCATEL NV ;   BELL TELEPHONE MFG  : 25
AUSIMONT SPA  : 25
BASF LACKE & FARBEN  : 25
COOPER IND INC  : 25
DE LA RUE GIORI SA  : 25
DIEBOLD INC  : 25
DISCOVERY COMMUNICAT INC  : 25
DOLBY LAB LICENSING CORP  : 25
ELPATRONIC AG  : 25
FLUKE MFG CO JOHN  : 25
FRANCE ETAT ;   TELEDIFFUSION FSE  : 25
GLOBALSTAR LP  : 25
GTE PROD CORP  : 25
HORIBA LTD  : 25
INST NAT SANTE RECH MED  : 25
ISHIKAWAJIMA HARIMA HEAVY IND  : 25
KOENIG & BAUER ALBERT AG  : 25
KONINKL KPN NV  : 25
MILLIKEN RES CORP  : 25
MOBAY CORP  : 25
NALCO CHEMICAL CO  : 25
NIPPON PETROCHEMICALS CO LTD  : 25
NOHMI BOSAI LTD  : 25
OJI PAPER CO  : 25
PASTEUR INSTITUT  : 25
ROSEMOUNT INC  : 25
SEB SA  : 25
SHIMANO KK  : 25
STANFORD TELECOMM INC  : 25
TELECTRONICS NV  : 25
TOKYO ELECTRON LTD  : 25
TOYO INK MFG CO  : 25
WIGGINS TEAPE GROUP LTD  : 25
BELLSOUTH CORP  : 26
CONTINENTAL AG  : 26
DAIMLER BENZ AEROSPACE AG  : 26
EM MICROELECTRONIC MARIN SA  : 26
ETHYL CORP  : 26
GREEN CROSS CORP  : 26
HAYASHIBARA BIOCHEM LAB  : 26
HYUNDAI ELECTRONICS IND  : 26
JOHNSON & JOHNSON VISION PROD  : 26
KIRIN BREWERY  : 26
LANDIS & GYR BUSINESS SUPPORT  : 26
LANDIS & GYR TECH INNOVAT  : 26
LORRAINE LAMINAGE  : 26
MYCOGEN CORP  : 26
NIPPON KAYAKU KK  : 26
PHILIPS ELECTRONIQUE LAB ;   KONINKL PHILIPS ELECTRONICS NV  : 26
RANPAK CORP  : 26
SCHLUMBERGER TECHNOLOGY CORP  : 26
SHOWA DENKO KK  : 26
SNOW BRAND MILK PROD CO LTD  : 26
SOLVAY  : 26
SONY INT EUROP GMBH  : 26
TELEFUNKEN FERNSEH & RUNDFUNK  : 26
VARTA BATTERIE  : 26
WESTINGHOUSE AIR BRAKE CO  : 26
WILLIAMS ELECTRONICS GAMES INC  : 26
BRIDGESTONE FIRESTONE INC  : 27
CETUS CORP  : 27
CITICORP DEV CENTER INC  : 27
ELECTROLUX AB  : 27
ESSELTE NV  : 27
GEN DATACOMM IND INC  : 27
GEN ELECTRIC CGR  : 27
HITACHI ELECTRONICS  : 27
HUTCHINSON  : 27
IBM ; SIEMENS AG  : 27
KING JIM CO LTD ;   SEIKO EPSON CORP  : 27
KYOCERA CORP  : 27
MEIDENSHA ELECTRIC MFG CO LTD  : 27
OHMEDA INC  : 27
OPTICON SENSORS EUROP  : 27
RCA THOMSON LICENSING CORP  : 27
SIEMENS CORP RES INC  : 27
SOMAR CORP  : 27
SONY INTERNATIONAL EUROP GMBH  : 27
UNI CHARM CORP  : 27
VOEST ALPINE AG  : 27
WEIDMUELLER INTERFACE  : 27
WELLA AG  : 27
XANAVI INFORMATICS CORP  : 27
YASKAWA DENKI SEISAKUSHO KK  : 27
YKK CORP  : 27
3D SYSTEMS INC  : 28
ALCATEL RADIOTELEPHONE  : 28
AMPHENOL TUCHEL ELECT  : 28
DSC COMMUNICATIONS  : 28
EDICO SRL  : 28
EMHART INC  : 28
GEN HOSPITAL CORP  : 28
HITACHI CHEMICAL CO LTD  : 28
INCYTE PHARMA INC  : 28
KERNFORSCHUNGSANLAGE JUELICH  : 28
KOWA CO  : 28
KOYO SEIKO CO  : 28
LELY NV C VAN DER  : 28
MACRONIX INT CO LTD  : 28
MERLONI ELETTRODOMESTICI SPA  : 28
MONARCH MARKING SYSTEMS INC  : 28
MORTON INT INC  : 28
ORGA KARTENSYSTEME GMBH  : 28
POLYPLASTICS CO  : 28
TANABE SEIYAKU CO  : 28
TELEDIFFUSION FSE ;   FRANCE TELECOM  : 28
TELEMECANIQUE  : 28
WEBER SRL  : 28
YOKOGAWA ELECTRIC CORP  : 28
ACTEL CORP  : 29
ALCATEL STANDARD ELECTRICA  : 29
ARUZE CORP  : 29
BERTIN & CIE  : 29
CGA HBS  : 29
CHUGAI PHARMACEUTICAL CO LTD  : 29
CUMMINS ALLISON CORP  : 29
ENIRICERCHE SPA  : 29
GERBER SCIENT PRODUCTS INC  : 29
HELLA KG HUECK & CO  : 29
INMOS LTD  : 29
MESSER GRIESHEIM GMBH  : 29
PHILIP MORRIS  : 29
PHILIPS CORPORATE INTELLECTUAL ;   KONINKL PHILIPS ELECTRONICS NV  : 29
PORSCHE AG  : 29
SENSORMATIC ELECTRONICS CORP  : 29
SHIONOGI & CO  : 29
SIEMENS SCHWEIZ AG  : 29
SPACELABS INC  : 29
UNIV TEXAS  : 29
VALEO EQUIP ELECTR MOTEUR  : 29
WACKER CHEMIE GMBH  : 29
BRAUN AG  : 30
DEUTSCHE AEROSPACE  : 30
ELA MEDICAL SA  : 30
ELF AQUITAINE  : 30
FMC CORP  : 30
FORD MOTOR CO ;   FORD WERKE AG ;   FORD FRANCE  : 30
GEC ALSTHOM T & D SA  : 30
HADEWE BV  : 30
HEWLETT PACKARD LTD  : 30
HONEYWELL INF SYSTEMS  : 30
INT STANDARD ELECTRIC CORP  : 30
NEOPOST IND  : 30
SARNOFF DAVID RES CENTER  : 30
STMICROELECTRONICS INC  : 30
TNO  : 30
TODA KOGYO CORP  : 30
UNION CARBIDE CHEM PLASTIC  : 30
UNITED STATES SURGICAL CORP  : 30
UNIV NEW YORK  : 30
ZEISS STIFTUNG  : 30
3COM CORP  : 31
ABB MANAGEMENT AG  : 31
BEIERSDORF AG  : 31
CONS RIC MICROELETTRONICA  : 31
ELECTRICITE DE FRANCE  : 31
FUJISAWA PHARMACEUTICAL CO  : 31
HOLLANDSE SIGNAALAPPARATEN BV  : 31
LANDIS & GYR BETRIEBS AG  : 31
MATSUSHITA GRAPHIC COMMUNIC  : 31
NEW ENGLAND BIOLABS INC  : 31
SHINKO ELEC IND  : 31
SMITHS INDUSTRIES PLC  : 31
SQUIBB & SONS INC  : 31
ST MICROELECTRONICS INC  : 31
TOKYO SHIBAURA ELECTRIC CO ;   TOSHIBA MICRO CUMPUTER ENG  : 31
UBE INDUSTRIES  : 31
ALCATEL BELL NV  : 32
BORG WARNER AUTOMOTIVE  : 32
CANON INFORMATION SYST RES ;   CANON KK  : 32
FERAG AG  : 32
HOYA CORP  : 32
KONINKL PHILIPS ELECTRONICS N  : 32
MITUTOYO CORP  : 32
PAPER CONVERTING MACHINE CO  : 32
SUISSE ELECTRONIQUE MICROTECH  : 32
TELEVERKET  : 32
TOYO BOSEKI  : 32
VLSI TECHNOLOGY INC  : 32
ALCATEL TELSPACE  : 33
AMDAHL CORP  : 33
BRITISH GAS PLC  : 33
GENENTECH INC  : 33
GIST BROCADES NV  : 33
JAPAN BROADCASTING CORP  : 33
KOBE STEEL LTD  : 33
LOCKHEED CORP  : 33
MCNEIL PPC INC  : 33
MEAD CORP  : 33
MITSUMI ELECTRIC CO  : 33
NORDICA SPA  : 33
SCHEIDT & BACHMANN GMBH  : 33
SIEMENS MEDICAL SYSTEMS INC  : 33
THOMAS & BETTS CORP  : 33
WHIRLPOOL CO  : 33
DOW CORNING TORAY SILICONE  : 34
NEWBRIDGE NETWORKS CORP  : 34
NIPPON SHEET GLASS CO LTD  : 34
PFEIFFER ERICH GMBH & CO KG  : 34
RENISHAW PLC  : 34
ROCHE DIAGNOSTICS GMBH  : 34
TOKAI RIKA CO LTD  : 34
TOSHIBA AVE KK ;   TOKYO SHIBAURA ELECTRIC CO  : 34
ALCATEL ITALIA  : 35
ALLIED CORP  : 35
ATMEL CORP  : 35
BASF MAGNETICS GMBH  : 35
BULL CP8  : 35
ERICSSON GE MOBILE COMMUNICAT  : 35
FORD MOTOR CO ;   FORD FRANCE ;   FORD WERKE AG  : 35
HIROSE ELECTRIC CO LTD  : 35
IMEC INTER UNI MICRO ELECTR  : 35
MOULINEX SA  : 35
NIDEK KK  : 35
PALL CORP  : 35
SMITHKLINE BEECHAM CORP ; SMITHKLINE BEECHAM PLC  : 35
STMICROELECTRONICS SA  : 35
TAKARA SHUZO CO  : 35
TETRA LAVAL HOLDINGS & FINANCE  : 35
TEXAS INSTRUMENTS FRANCE ;   TEXAS INSTRUMENTS INC  : 35
BECKMAN INSTRUMENTS INC  : 36
CONTRAVES AG  : 36
DEUTSCHE TELEPHONWERK KABEL  : 36
ESSELTE METO INT GMBH  : 36
KODAK LTD ;   EASTMAN KODAK CO  : 36
MITSUBISHI CHEM CORP  : 36
NITTO DENKO CORP  : 36
NORDSON CORP  : 36
ROHDE & SCHWARZ  : 36
SCHLUMBERGER TECHNOLOGIES INC  : 36
SNECMA  : 36
DAINIPPON INK & CHEMICALS  : 37
FAIRCHILD SEMICONDUCTOR  : 37
FUJI HEAVY IND LTD  : 37
IOMEGA CORP  : 37
SCHLOEMANN SIEMAG AG  : 37
SECR DEFENCE BRIT  : 37
SHIKOKU KAKOKI CO LTD  : 37
STORAGE TECHNOLOGY CORP  : 37
SULZER AG  : 37
SUNTORY LTD  : 37
VOITH SULZER FINISHING GMBH  : 37
BABCOCK & WILCOX CO  : 38
BROOKTREE CORP  : 38
GRASS VALLEY GROUP  : 38
MITSUBISHI MATERIALS CORP  : 38
SMITHKLINE BEECHAM PLC  : 38
SQUIBB BRISTOL MYERS CO  : 38
TOSOH CORP  : 38
UNIV WASHINGTON  : 38
VALEO ELECTRONIQUE  : 38
CHIRON CORP  : 39
EZEL INC  : 39
HUDSON SOFT CO LTD  : 39
MARELLI AUTRONICA  : 39
NDS LTD  : 39
NEOPOST LTD  : 39
NIPPON ZEON CO  : 39
PFIZER  : 39
ROLLS ROYCE PLC  : 39
WANZL METALLWARENFABRIK KG  : 39
AKZO NOBEL NV  : 40
BODENSEEWERK GERAETETECH  : 40
ETHICON INC  : 40
GD SPA  : 40
GRAPHA HOLDING AG  : 40
METALLGESELLSCHAFT AG  : 40
MOTOROLA LTD  : 40
PHILIPS PATENTVERWALTUNG ; KONINKL PHILIPS ELECTRONICS NV  : 40
SEMICONDUCTOR ENERGY LAB  : 40
TOPCON CORP  : 40
TOYODA MACHINE WORKS LTD  : 40
AVID TECHNOLOGY INC  : 41
CATERPILLAR INC  : 41
DATALOGIC SPA  : 41
DEERE & CO  : 41
DELPHI TECH INC  : 41
FLUKE CORP  : 41
OTSUKA PHARMA CO LTD  : 41
PRAXAIR TECHNOLOGY INC  : 41
ROEHM GMBH  : 41
SAINT GOBAIN VITRAGE  : 41
SIEMENS AG ; IBM  : 41
SQUARE D CO  : 41
TOPPAN PRINTING CO LTD  : 41
WESTERN ATLAS INT INC  : 41
XILINX INC  : 41
AT & T WIRELESS SERVICES INC  : 42
DASSAULT ELECTRONIQUE  : 42
EMI PLC THORN  : 42
ISUZU MOTORS LTD  : 42
MEDTRONIC INC  : 42
MESSERSCHMITT BOELKOW BLOHM  : 42
TANDBERG DATA  : 42
WINDMOELLER & HOELSCHER  : 42
AMAZONEN WERKE DREYER H  : 43
CRAY RESEARCH INC  : 43
ENERGY CONVERSION DEVICES INC  : 43
INTERGRAPH CORP  : 43
KYOTO DAIICHI KAGAKU KK  : 43
MCI COMMUNICATIONS CORP  : 43
PHILIPS ELECTRONICS UK LTD ;   KONINKL PHILIPS ELECTRONICS NV  : 43
ASULAB SA  : 44
BOC GROUP INC  : 44
BURROUGHS CORP  : 44
CODEX CORP  : 44
DEUTSCHE TELEKOM MOBIL  : 44
HERCULES INC  : 44
INVENTIO AG  : 44
ITT MFG ENTERPRISES INC  : 44
LITTON SYSTEMS INC  : 44
NGK SPARK PLUG CO  : 44
OCE TECH BV  : 44
PIRELLI CAVI SPA  : 44
RAYCHEM CORP  : 44
ABB RESEARCH LTD  : 45
ALLEN BRADLEY CO  : 45
ALLIED SIGNAL INC  : 45
BELL TELEPHONE MFG  : 45
BOC GROUP PLC  : 45
BP CHEM INT LTD  : 45
HEWLETT PACKARD GMBH  : 45
JAMES RIVER CORP  : 45
LORAL SPACE SYSTEMS INC  : 45
ROHM & HAAS  : 45
SIEMENS ELEMA AB  : 45
AJINOMOTO KK  : 46
ASAHI GLASS CO LTD  : 46
CIBA GEIGY CORP  : 46
GEN ELECTRIC CO PLC  : 46
GRUMMAN AEROSPACE CORP  : 46
MANNESMANN KIENZLE GMBH  : 46
MANNESMANN VDO AG  : 46
NINTENDO CO LTD  : 46
NSM AG  : 46
SCHERING AG  : 46
UNITED TECHNOLOGIES AUTOMOTIVE  : 46
UNIV LELAND STANFORD JUNIOR  : 46
YEDA RES & DEV  : 46
BASF CORP  : 47
CABLETRON SYSTEMS INC  : 47
CHISSO CORP  : 47
EBARA CORP  : 47
KOKUSAI DENSHIN DENWA CO LTD  : 47
KOMORI PRINTING MACH  : 47
MINOLTA CAMERA KK  : 47
MITSUBISHI PETROCHEMICAL CO  : 47
ROKE MANOR RESEARCH  : 47
ST MICROELECTRONICS LTD  : 47
VARIAN ASSOCIATES  : 47
BAKER HUGHES INC  : 48
CITIBANK NA  : 48
FORD WERKE AG ;   FORD FRANCE ;   FORD MOTOR CO  : 48
SYMBIOS LOGIC INC  : 48
BEHRINGWERKE AG  : 49
BELOIT CORP  : 49
BRITISH PETROLEUM CO PLC  : 49
DATA GENERAL CORP  : 49
MICROCHIP TECH INC  : 49
MITSUBISHI MOTORS CORP  : 49
NIPPON CATALYTIC CHEM IND  : 49
NIPPON PAINT CO LTD  : 49
PIONEER CORP  : 49
STAMICARBON  : 49
YOSHIDA KOGYO KK  : 49
ALTERA CORP  : 50
ATOCHEM ELF SA  : 50
HITACHI CONSTRUCTION MACHINERY  : 50
HONEYWELL BULL  : 50
MANNESMANN VDO AKTIENGESELLSCH  : 50
NESTLE SA  : 50
REYNOLDS TOBACCO CO R  : 50
TELEDIFFUSION FSE  : 50
ACE DENKEN KK  : 51
FOCKE & CO  : 51
FRANCOTYP POSTALIA GMBH  : 51
GAO GES AUTOMATION ORG  : 51
MERCK PATENT GMBH  : 51
MITSUBISHI RAYON CO  : 51
NOKIA NETWORKS OY  : 51
RCA LICENSING CORP  : 51
ROLM SYSTEMS  : 51
SEL ALCATEL AG ;   ALCATEL NV  : 51
TELECOMMUNICATIONS SA  : 51
TEXACO DEVELOPMENT CORP  : 51
TOKYO SHIBAURA ELECTRIC CO ;   TOSHIBA MICRO ELECTRONICS  : 51
FORD GLOBAL TECH INC  : 52
FREUDENBERG CARL FA  : 52
HUGHES ELECTRONICS CORP  : 52
ITT  : 52
SHINETSU HANDOTAI KK  : 52
SONY ELECTRONICS INC  : 52
SONY UK LTD  : 52
UNITED PARCEL SERVICE INC  : 52
YOKOGAWA MEDICAL SYST  : 52
ANRITSU CORP  : 53
BELL TELEPHONE MFG ;   ALCATEL NV  : 53
CANAL PLUS SA  : 53
DIEHL GMBH & CO  : 53
EMERSON ELECTRIC CO  : 53
KUREHA CHEMICAL IND CO LTD  : 53
MAX PLANCK GESELLSCHAFT  : 53
MICRON TECHNOLOGY INC  : 53
PLESSEY SEMICONDUCTORS LTD  : 53
RIETER AG MASCHF  : 53
UOP INC  : 53
AMOCO CORP  : 54
CANON INFORMATION SYST INC  : 54
HUELS CHEMISCHE WERKE AG  : 54
KURARAY CO  : 54
LINDE AG  : 54
MITSUBISHI GAS CHEMICAL CO  : 54
MURATA MACHINERY LTD  : 54
PHILIPS ELECTRONICS NA  : 54
YOZAN INC  : 54
GTE LABORATORIES INC  : 55
IDEMITSU PETROCHEMICAL CO  : 55
NIPPON CONLUX CO LTD  : 55
PHILIPS PATENTVERWALTUNG ;   KONINKL PHILIPS ELECTRONICS NV  : 55
SCITEX CORP LTD  : 55
ANALOG DEVICES INC  : 56
QUANTEL LTD  : 56
VOITH GMBH J M  : 56
WACOM CO LTD  : 56
BAXTER INT  : 57
CENTRE NAT RECH SCIENT  : 57
DAICEL CHEM  : 57
MARS INC  : 57
MATSUSHITA ELECTRIC WORKS LTD  : 57
NIPPON KOKAN KK  : 57
TEXAS INSTRUMENTS DEUTSCHLAND  : 57
ITALTEL SPA  : 58
KOENIG & BAUER AG  : 58
NEDAP NV  : 58
SCHNEIDER ELECTRIC SA  : 58
ZEXEL CORP  : 58
COLGATE PALMOLIVE CO  : 59
GRUNDIG AG  : 59
HOECHST ROUSSEL PHARMA  : 59
IBM : 59
MILES INC  : 59
UNION CARBIDE CORP  : 59
VDO SCHINDLING  : 59
ADVANTEST CORP  : 60
BRITISH BROADCASTING CORP  : 60
FRAMATOME CONNECTORS INT  : 60
KENWOOD CORP  : 60
MONSANTO CO  : 60
NAT RES DEV  : 60
TALIGENT INC  : 60
HITACHI MAXELL  : 61
JAPAN TOBACCO INC  : 61
PIRELLI CAVI E SISTEMI SPA  : 61
SEAGATE TECHNOLOGY  : 61
SIEMENS INF & COMM NETWORKS  : 61
ALCATEL MOBILE COMM FRANCE  : 62
CARRIER CORP  : 62
EXXON CHEMICAL PATENTS INC  : 62
IDEMITSU KOSAN CO  : 62
RCA CORP  : 62
TOA MEDICAL ELECTRONICS  : 62
DENSO CORP  : 63
KONINKL PHILIPS ELECTRONICS NV ;   PHILIPS AB  : 63
SONY COMP ENTERTAINMENT INC  : 63
KYOWA HAKKO KOGYO KK  : 64
NIPPON STEEL CORP  : 64
FURUKAWA ELECTRIC CO LTD  : 65
GOODYEAR TIRE & RUBBER  : 65
MAGNETI MARELLI SPA  : 65
UNIV CALIFORNIA  : 65
ALCATEL BUSINESS SYSTEMS  : 66
HALLIBURTON ENERGY SERV INC  : 66
SMITHKLINE BEECHAM PLC ;   SMITHKLINE BEECHAM CORP  : 66
ST MICROELECTRONICS SA  : 66
STC PLC  : 66
MAZDA MOTOR  : 67
OTIS ELEVATOR CO  : 67
SUMITOMO RUBBER IND  : 67
TELEFUNKEN MICROELECTRON  : 67
BBC BROWN BOVERI & CIE  : 68
DEGUSSA  : 68
OLIVETTI & CO SPA  : 68
SARNOFF CORP  : 68
BLACK & DECKER INC  : 69
DELCO ELECTRONICS CORP  : 69
MATRA COMMUNICATION  : 69
NOKIA TECHNOLOGY GMBH  : 69
RHONE POULENC CHIMIE  : 69
AKZO NV  : 70
GENETICS INST  : 70
ICL SYSTEMS AB  : 70
ILLINOIS TOOL WORKS  : 70
PPG INDUSTRIES INC  : 70
QUANTUM CORP  : 70
VALMET CORP  : 70
AISIN AW CO  : 71
BOSCH SIEMENS HAUSGERAETE  : 71
PERKIN ELMER CORP  : 71
AT & T BELL LAB  : 72
CORNING INC  : 73
TOSHIBA MICRO ELECTRONICS ;   TOKYO SHIBAURA ELECTRIC CO  : 73
ERICSSON INC  : 74
FUJI ELECTRIC CO LTD  : 74
MASSACHUSETTS INST TECHNOLOGY  : 74
PHILIPS PATENTVERWALTUNG ;   PHILIPS ELECTRONICS NV  : 74
LG ELECTRONICS INC  : 75
MARCONI GEC LTD  : 75
UNILEVER NV ;   UNILEVER PLC  : 75
ICO SERVICES LTD  : 76
PLESSEY OVERSEAS  : 76
GIESECKE & DEVRIENT GMBH  : 77
MITSUBISHI CHEM IND  : 77
PHILLIPS PETROLEUM CO  : 77
SCIENTIFIC ATLANTA  : 77
MERLIN GERIN  : 78
TELEFONBAU & NORMALZEIT GMBH  : 78
HOECHST CELANESE CORP  : 79
YAMAHA MOTOR CO LTD  : 79
GOODRICH CO B F  : 81
AIR PROD & CHEM  : 82
APPLIED MATERIALS INC  : 82
FUJITSU LTD ;   FUJITSU VLSI LTD  : 82
FIAT AUTO SPA  : 83
PHILIPS ELECTRONICS NV ;   PHILIPS NORDEN AB  : 83
AMPEX  : 84
AT & T GLOBAL INF SOLUTION  : 84
KAO CORP  : 84
TOYODA AUTOMATIC LOOM WORKS  : 84
HEIDENHAIN GMBH DR JOHANNES  : 85
KAWASAKI STEEL CO  : 86
TELIA AB  : 86
WARNER LAMBERT CO  : 86
AIR LIQUIDE  : 87
BLAUPUNKT WERKE GMBH  : 87
OREAL  : 87
RISO KAGAKU CORP  : 87
TDK CORP  : 87
DISCOVISION ASS  : 89
KANEGAFUCHI CHEMICAL IND  : 89
NORITSU KOKI CO LTD  : 89
VOITH SULZER PAPIERTECH PATENT  : 89
AMERICAN CYANAMID CO  : 90
CSELT CENTRO STUDI LAB TELECOM  : 90
LEXMARK INT INC  : 90
RAYTHEON CO  : 90
AGFA GEVAERT AG  : 91
APPLE COMPUTER  : 91
ASAHI CHEMICAL IND  : 91
CROSFIELD ELECTRONICS LTD  : 91
LSI LOGIC CORP  : 91
FRANCE ETAT  : 92
HARRIS CORP  : 92
KRONE AG  : 94
BELL COMMUNICATIONS RES  : 95
ADOBE SYSTEMS INC  : 96
EXXON RESEARCH ENGINEERING CO  : 97
HAMAMATSU PHOTONICS KK  : 97
DAIMLER CHRYSLER AG  : 98
KOMATSU MFG CO LTD  : 98
CITIZEN WATCH CO LTD  : 100
ALPS ELECTRIC CO LTD  : 101
GRACE W R & CO  : 101
ROHM CO LTD  : 102
LILLY CO ELI  : 103
CIRRUS LOGIC INC  : 104
ITT IND GMBH DEUTSCHE  : 104
UNILEVER PLC ;   UNILEVER NV  : 104
ABB PATENT GMBH  : 105
FORD MOTOR CO  : 105
SCHLUMBERGER IND SA  : 105
TEIJIN LTD  : 105
MITSUI PETROCHEMICAL IND  : 106
DAIMLER BENZ AG  : 107
NISSAN MOTOR  : 107
BRIDGESTONE CORP  : 108
NGK INSULATORS LTD  : 108
SHINETSU CHEMICAL CO  : 108
MITSUI TOATSU CHEMICALS  : 109
PHILIPS PATENTVERWALTUNG ;   PHILIPS NV  : 109
SANDEN CORP  : 109
SMITHKLINE BEECHAM CORP  : 109
DAIKIN IND LTD  : 110
VOLKSWAGENWERK AG  : 111
BOEHRINGER MANNHEIM GMBH  : 113
RENAULT  : 113
SHIMADZU CORP  : 113
YAZAKI CORP  : 113
FUJI XEROX CO LTD  : 114
GOLD STAR CO  : 114
FRAUNHOFER GES FORSCHUNG  : 115
SEGA ENTERPRISES KK  : 115
TERUMO CORP  : 115
BRITISH AEROSPACE  : 116
MERCK & CO INC  : 117
PICKER INT INC  : 117
TORAY INDUSTRIES  : 118
LICENTIA GMBH  : 121
SUMITOMO CHEMICAL CO  : 123
SYMBOL TECHNOLOGIES INC  : 123
HEIDELBERGER DRUCKMASCH AG  : 124
MATSUSHITA ELECTRONICS CORP  : 125
AEROSPATIALE  : 127
PLESSEY TELECOMM  : 127
VALMET PAPER MACHINERY INC  : 127
ABBOTT LAB  : 128
GEMPLUS CARD INT  : 128
NIPPON DENSO CO  : 130
OCE NEDERLAND BV  : 130
OLYMPUS OPTICAL CO  : 130
SEXTANT AVIONIQUE  : 130
SEL ALCATEL AG  : 134
KONAMI CO LTD  : 137
ICI PLC  : 139
WANG LABORATORIES  : 139
DOW CORNING  : 141
HOFFMANN LA ROCHE  : 141
PEUGEOT ;   CITROEN SA  : 142
PHILIPS ELECTRONICS UK LTD ;   PHILIPS NV  : 142
MOORE BUSINESS FORMS INC  : 143
VOITH SULZER PAPIERMASCH GMBH  : 143
TANDEM COMPUTERS INC  : 144
BULL HN INFORMATION SYST  : 145
RICOH KK  : 145
HALLIBURTON CO  : 146
UNITED TECHNOLOGIES CORP  : 146
DAE WOO ELECTRONICS CO LTD  : 148
INT COMPUTERS LTD  : 148
ERICSSON GE MOBILE INC  : 150
INST FRANCAIS DU PETROL  : 150
HENKEL KGAA  : 151
MITSUBISHI HEAVY IND LTD  : 151
TAKEDA CHEMICAL INDUSTRIES LTD  : 151
ROLAND MAN DRUCKMASCH  : 153
UNISYS CORP  : 153
KIMBERLY CLARK CO  : 154
ASEA BROWN BOVERI  : 157
MOBIL OIL CORP  : 157
POLAROID CORP  : 158
QUALCOMM INC  : 158
GEN INSTRUMENT CORP  : 159
LUCAS IND PLC  : 160
BAYERISCHE MOTOREN WERKE AG  : 168
TOKYO ELECTRIC CO LTD  : 171
YAMAHA CORP  : 175
THOMSON MULTIMEDIA SA  : 177
NIPPON KOGAKU KK  : 178
ANT NACHRICHTENTECH  : 179
SEIKO INSTR INC  : 180
DAINIPPON PRINTING CO LTD  : 181
CIBA GEIGY AG  : 186
NOKIA TELECOMMUNICATIONS OY  : 186
DEUTSCHE TELEKOM AG  : 187
MANNESMANN AG  : 188
NEDERLAND PTT  : 192
TRW INC  : 195
NORTEL NETWORKS CORP  : 196
SHELL INT RESEARCH  : 198
DOW CHEMICAL CO  : 199
INTEL CORP  : 200
ROCKWELL INTERNATIONAL CORP  : 202
GEN MOTORS CORP  : 203
DAINIPPON SCREEN MFG  : 205
MURATA MANUFACTURING CO  : 205
SAGEM  : 205
BOEING CO  : 209
SIEMENS NIXDORF INF SYST  : 213
WHITAKER CORP  : 213
AMP INC  : 216
BECTON DICKINSON CO  : 232
GRUNDIG EMV  : 236
BROTHER IND LTD  : 248
BULL SA  : 258
MICROSOFT CORP  : 264
NAT SEMICONDUCTOR CORP  : 271
NCR CO  : 276
CASIO COMPUTER CO LTD  : 277
COMMISSARIAT ENERGIE ATOMIQUE  : 284
EATON CORP  : 286
FRANCE TELECOM  : 288
ALSTHOM CGE ALCATEL  : 289
HOECHST AG  : 308
COMPAQ COMPUTER CORP  : 310
WESTINGHOUSE ELECTRIC CORP  : 318
ALCATEL NV  : 320
OMRON TATEISI ELECTRONICS CO  : 326
TOYOTA MOTOR CO LTD  : 328
SUMITOMO ELECTRIC INDUSTRIES  : 331
SUMITOMO WIRING SYSTEMS  : 335
THOMSON CONSUMER ELECTRONICS  : 340
HONEYWELL INC  : 343
PITNEY BOWES  : 344
MOLEX INC  : 353
ST MICROELECTRONICS SRL  : 366
BASF AG  : 378
MITA INDUSTRIAL CO LTD  : 384
PROCTER & GAMBLE  : 386
VICTOR COMPANY OF JAPAN  : 394
TEKTRONIX INC  : 400
NCR INT INC  : 401
BAYER AG  : 404
NORTHERN TELECOM LTD  : 406
OKI ELECTRIC IND CO LTD  : 411
THOMSON BRANDT GMBH  : 415
SANYO ELECTRIC CO  : 417
AGFA GEVAERT NV  : 423
PHILIPS ELECTRONICS NV  : 435
DU PONT  : 439
BRITISH TELECOMM  : 440
HONDA MOTOR CO LTD  : 444
NIPPON TELEGRAPH & TELEPHONE  : 487
THOMSON CSF  : 567
FANUC LTD  : 582
PIONEER ELECTRONIC CORP  : 583
NOKIA MOBILE PHONES LTD  : 585
KONISHIROKU PHOTO IND  : 624
CIT ALCATEL  : 657
SAMSUNG ELECTRONICS CO LTD  : 663
MINNESOTA MINING & MFG  : 688
DIGITAL EQUIPMENT CORP  : 693
HUGHES AIRCRAFT CO  : 695
SEIKO EPSON CORP  : 752
GEN ELECTRIC  : 810
ERICSSON TELEFON AB L M  : 817
KONINKL PHILIPS ELECTRONICS NV  : 828
ADVANCED MICRO DEVICES INC  : 866
PHILIPS NV  : 885
PHILIPS CORP  : 892
BOSCH GMBH ROBERT  : 963
SUN MICROSYSTEMS INC  : 1027
TEXAS INSTRUMENTS INC  : 1051
SGS THOMSON MICROELECTRONICS  : 1060
LUCENT TECHNOLOGIES INC  : 1114
FUJI PHOTO FILM CO LTD  : 1146
AMERICAN TELEPHONE & TELEGRAPH  : 1179
XEROX CORP  : 1233
MITSUBISHI ELECTRIC CORP  : 1293
MOTOROLA INC  : 1451
AT & T CORP  : 1481
SHARP KK  : 1529
EASTMAN KODAK CO  : 1661
HITACHI LTD  : 1776
FUJITSU LTD  : 2385
HEWLETT PACKARD CO  : 2465
TOKYO SHIBAURA ELECTRIC CO  : 2620
MATSUSHITA ELECTRIC IND CO LTD  : 3118
SONY CORP  : 3663
NIPPON ELECTRIC CO  : 3733
NULL : 4584
SIEMENS AG  : 4609
CANON KK  : 4862
IBM  : 6790
totalword: 498530 - diffword: 39790 sum_top_100: 409732
totalline: 198841 - diffline: 40654 sum_top_100: 127364
