\BOOKMARK [1][-]{section.1}{introduction}{}
\BOOKMARK [1][-]{section.2}{Sustained presence in Brussels/Strasbourg}{}
\BOOKMARK [1][-]{section.3}{Conference in Brussels in February 2004}{}
\BOOKMARK [1][-]{section.4}{National Lobbying}{}
\BOOKMARK [1][-]{section.5}{Coordination Work, Process Rationalisation}{}
\BOOKMARK [1][-]{section.6}{Patent Database Maintenance and Applications}{}
\BOOKMARK [1][-]{section.7}{Plans for Shanghai June 2004}{}
\BOOKMARK [1][-]{section.8}{Annotated Links}{}
