\contentsline {section}{\numberline {1}introduction}{2}{section.1}
\contentsline {section}{\numberline {2}Sustained presence in Brussels/Strasbourg}{2}{section.2}
\contentsline {section}{\numberline {3}Conference in Brussels in February 2004}{2}{section.3}
\contentsline {section}{\numberline {4}National Lobbying}{3}{section.4}
\contentsline {section}{\numberline {5}Coordination Work, Process Rationalisation}{3}{section.5}
\contentsline {section}{\numberline {6}Patent Database Maintenance and Applications}{3}{section.6}
\contentsline {section}{\numberline {7}Plans for Shanghai June 2004}{4}{section.7}
\contentsline {section}{\numberline {8}Annotated Links}{4}{section.8}
