\relax 
\ifx\hyper@anchor\@undefined
\global \let \oldcontentsline\contentsline
\gdef \contentsline#1#2#3#4{\oldcontentsline{#1}{#2}{#3}}
\global \let \oldnewlabel\newlabel
\gdef \newlabel#1#2{\newlabelxx{#1}#2}
\gdef \newlabelxx#1#2#3#4#5#6{\oldnewlabel{#1}{{#2}{#3}}}
\AtEndDocument{\let \contentsline\oldcontentsline
\let \newlabel\oldnewlabel}
\else
\global \let \hyper@last\relax 
\fi

\@writefile{toc}{\contentsline {section}{\numberline {1}introduction}{2}{section.1}}
\newlabel{intro}{{1}{2}{introduction\relax }{section.1}{}}
\@writefile{toc}{\contentsline {section}{\numberline {2}Sustained presence in Brussels/Strasbourg}{2}{section.2}}
\newlabel{bxl}{{2}{2}{Sustained presence in Brussels/Strasbourg\relax }{section.2}{}}
\@writefile{toc}{\contentsline {section}{\numberline {3}Conference in Brussels in February 2004}{2}{section.3}}
\newlabel{konf}{{3}{2}{Conference in Brussels in February 2004\relax }{section.3}{}}
\@writefile{toc}{\contentsline {section}{\numberline {4}National Lobbying}{3}{section.4}}
\newlabel{nac}{{4}{3}{National Lobbying\relax }{section.4}{}}
\@writefile{toc}{\contentsline {section}{\numberline {5}Coordination Work, Process Rationalisation}{3}{section.5}}
\newlabel{infra}{{5}{3}{Coordination Work, Process Rationalisation\relax }{section.5}{}}
\@writefile{toc}{\contentsline {section}{\numberline {6}Patent Database Maintenance and Applications}{3}{section.6}}
\newlabel{data}{{6}{3}{Patent Database Maintenance and Applications\relax }{section.6}{}}
\@writefile{toc}{\contentsline {section}{\numberline {7}Plans for Shanghai June 2004}{4}{section.7}}
\newlabel{chin}{{7}{4}{Plans for Shanghai June 2004\relax }{section.7}{}}
\@writefile{toc}{\contentsline {section}{\numberline {8}Annotated Links}{4}{section.8}}
\newlabel{links}{{8}{4}{Annotated Links\relax }{section.8}{}}
\gdef\scr@tpo@lst{0}
