\BOOKMARK [1][-]{section.1}{Preocupa-nos que}{}
\BOOKMARK [1][-]{section.2}{Por estas raz\365es recomendamos o seguinte:}{}
\BOOKMARK [1][-]{section.3}{Subscritores}{}
\BOOKMARK [1][-]{section.4}{Links Anotados}{}
\BOOKMARK [1][-]{section.5}{Perguntas, Coisas a Fazer, Como pode Ajudar}{}
