\relax 
\catcode`"\active
\ifx\hyper@anchor\@undefined
\global \let \oldcontentsline\contentsline
\gdef \contentsline#1#2#3#4{\oldcontentsline{#1}{#2}{#3}}
\global \let \oldnewlabel\newlabel
\gdef \newlabel#1#2{\newlabelxx{#1}#2}
\gdef \newlabelxx#1#2#3#4#5#6{\oldnewlabel{#1}{{#2}{#3}}}
\AtEndDocument{\let \contentsline\oldcontentsline
\let \newlabel\oldnewlabel}
\else
\global \let \hyper@last\relax 
\fi

\select@language{portuguese}
\@writefile{toc}{\select@language{portuguese}}
\@writefile{lof}{\select@language{portuguese}}
\@writefile{lot}{\select@language{portuguese}}
\@writefile{toc}{\contentsline {section}{\numberline {1}Preocupa-nos que}{2}{section.1}}
\newlabel{prob}{{1}{2}{Preocupa-nos que\relax }{section.1}{}}
\@writefile{toc}{\contentsline {section}{\numberline {2}Por estas raz\~{o}es recomendamos o seguinte:}{2}{section.2}}
\newlabel{solv}{{2}{2}{Por estas raz\~{o}es recomendamos o seguinte:\relax }{section.2}{}}
\@writefile{toc}{\contentsline {section}{\numberline {3}Subscritores}{3}{section.3}}
\newlabel{sign}{{3}{3}{Subscritores\relax }{section.3}{}}
\@writefile{toc}{\contentsline {section}{\numberline {4}Links Anotados}{8}{section.4}}
\newlabel{links}{{4}{8}{Links Anotados\relax }{section.4}{}}
\@writefile{toc}{\contentsline {section}{\numberline {5}Perguntas, Coisas a Fazer, Como pode Ajudar}{10}{section.5}}
\newlabel{tasks}{{5}{10}{Perguntas, Coisas a Fazer, Como pode Ajudar\relax }{section.5}{}}
\gdef\scr@tpo@lst{0}
