\contentsline {section}{\numberline {1}Vi \"{a}r oroade \"{o}ver att}{2}{section.1}
\contentsline {section}{\numberline {2}D\"{a}rf\"{o}r rekommenderar vi f\"{o}ljande \r a{}tg\"{a}rder}{2}{section.2}
\contentsline {section}{\numberline {3}Undertecknare}{3}{section.3}
\contentsline {section}{\numberline {4}Annotated Links}{8}{section.4}
\contentsline {section}{\numberline {5}Questions, Things To Do, How you can Help}{10}{section.5}
