\select@language {french}
\contentsline {section}{\numberline {1}Nous sommes pr\'{e}occup\'{e}s du fait que :}{1}{section.1}
\contentsline {section}{\numberline {2}C'est pourquoi nous recommandons les mesures suivantes :}{2}{section.2}
\contentsline {section}{\numberline {3}Signatures}{2}{section.3}
\contentsline {section}{\numberline {4}Liens annot\'{e}s}{7}{section.4}
\contentsline {section}{\numberline {5}Questions, choses \`{a} faire, comment vous pouvez aider}{10}{section.5}
