\select@language {portuguese}
\contentsline {section}{\numberline {1}Preocupa-nos que}{2}{section.1}
\contentsline {section}{\numberline {2}Por estas raz\~{o}es recomendamos o seguinte:}{2}{section.2}
\contentsline {section}{\numberline {3}Subscritores}{3}{section.3}
\contentsline {section}{\numberline {4}Links Anotados}{8}{section.4}
\contentsline {section}{\numberline {5}Perguntas, Coisas a Fazer, Como pode Ajudar}{10}{section.5}
