\relax 
\ifx\hyper@anchor\@undefined
\global \let \oldcontentsline\contentsline
\gdef \contentsline#1#2#3#4{\oldcontentsline{#1}{#2}{#3}}
\global \let \oldnewlabel\newlabel
\gdef \newlabel#1#2{\newlabelxx{#1}#2}
\gdef \newlabelxx#1#2#3#4#5#6{\oldnewlabel{#1}{{#2}{#3}}}
\AtEndDocument{\let \contentsline\oldcontentsline
\let \newlabel\oldnewlabel}
\else
\global \let \hyper@last\relax 
\fi

\@writefile{toc}{\contentsline {section}{\numberline {1}Vi \"{a}r oroade \"{o}ver att}{2}{section.1}}
\newlabel{prob}{{1}{2}{Vi \"{a}r oroade \"{o}ver att\relax }{section.1}{}}
\@writefile{toc}{\contentsline {section}{\numberline {2}D\"{a}rf\"{o}r rekommenderar vi f\"{o}ljande \r a{}tg\"{a}rder}{2}{section.2}}
\newlabel{solv}{{2}{2}{D\"{a}rf\"{o}r rekommenderar vi f\"{o}ljande \aa {}tg\"{a}rder\relax }{section.2}{}}
\@writefile{toc}{\contentsline {section}{\numberline {3}Undertecknare}{3}{section.3}}
\newlabel{sign}{{3}{3}{Undertecknare\relax }{section.3}{}}
\@writefile{toc}{\contentsline {section}{\numberline {4}Annotated Links}{8}{section.4}}
\newlabel{links}{{4}{8}{Annotated Links\relax }{section.4}{}}
\@writefile{toc}{\contentsline {section}{\numberline {5}Questions, Things To Do, How you can Help}{10}{section.5}}
\newlabel{tasks}{{5}{10}{Questions, Things To Do, How you can Help\relax }{section.5}{}}
\gdef\scr@tpo@lst{0}
