\contentsline {section}{\numberline {1}We zijn bezorgd omdat}{2}{section.1}
\contentsline {section}{\numberline {2}Om deze redenen bevelen wij het volgende aan}{2}{section.2}
\contentsline {section}{\numberline {3}Ondertekenaars}{3}{section.3}
\contentsline {section}{\numberline {4}koppelingen met voetnoten}{8}{section.4}
\contentsline {section}{\numberline {5}Vragen, Wat moet er nog gebeuren, Hoe kun je helpen}{10}{section.5}
