\relax 
\ifx\hyper@anchor\@undefined
\global \let \oldcontentsline\contentsline
\gdef \contentsline#1#2#3#4{\oldcontentsline{#1}{#2}{#3}}
\global \let \oldnewlabel\newlabel
\gdef \newlabel#1#2{\newlabelxx{#1}#2}
\gdef \newlabelxx#1#2#3#4#5#6{\oldnewlabel{#1}{{#2}{#3}}}
\AtEndDocument{\let \contentsline\oldcontentsline
\let \newlabel\oldnewlabel}
\else
\global \let \hyper@last\relax 
\fi

\@writefile{toc}{\contentsline {section}{\numberline {1}Folgendes bereitet uns Sorge}{2}{section.1}}
\newlabel{prob}{{1}{2}{Folgendes bereitet uns Sorge\relax }{section.1}{}}
\@writefile{toc}{\contentsline {section}{\numberline {2}Aus diesen Gr\"{u}nden empfehlen wir folgende Ma{\ss }nahmen}{2}{section.2}}
\newlabel{solv}{{2}{2}{Aus diesen Gr\"{u}nden empfehlen wir folgende Ma{\ss }nahmen\relax }{section.2}{}}
\@writefile{toc}{\contentsline {section}{\numberline {3}Unterschriften}{3}{section.3}}
\newlabel{sign}{{3}{3}{Unterschriften\relax }{section.3}{}}
\@writefile{toc}{\contentsline {section}{\numberline {4}Kommentierte Verweise}{8}{section.4}}
\newlabel{links}{{4}{8}{Kommentierte Verweise\relax }{section.4}{}}
\@writefile{toc}{\contentsline {section}{\numberline {5}Fragen, Aufgaben, Wie Sie helfen k\"{o}nnen}{11}{section.5}}
\newlabel{tasks}{{5}{11}{Fragen, Aufgaben, Wie Sie helfen k\"{o}nnen\relax }{section.5}{}}
\gdef\scr@tpo@lst{0}
