\contentsline {section}{\numberline {1}Folgendes bereitet uns Sorge}{2}{section.1}
\contentsline {section}{\numberline {2}Aus diesen Gr\"{u}nden empfehlen wir folgende Ma{\ss }nahmen}{2}{section.2}
\contentsline {section}{\numberline {3}Unterschriften}{3}{section.3}
\contentsline {section}{\numberline {4}Kommentierte Verweise}{8}{section.4}
\contentsline {section}{\numberline {5}Fragen, Aufgaben, Wie Sie helfen k\"{o}nnen}{11}{section.5}
