\BOOKMARK [1][-]{section.1}{Hva vi er bekymret for}{}
\BOOKMARK [1][-]{section.2}{Derfor anbefaler vi f\370lgende}{}
\BOOKMARK [1][-]{section.3}{Underskrivere}{}
\BOOKMARK [1][-]{section.4}{Annotated Links}{}
\BOOKMARK [1][-]{section.5}{Questions, Things To Do, How you can Help}{}
