\select@language {catalan}
\contentsline {section}{\numberline {1}Ens preocupa que}{2}{section.1}
\contentsline {section}{\numberline {2}Per aquestes raons recomanem el seg\@umlaut {u}ent:}{2}{section.2}
\contentsline {section}{\numberline {3}Signatures}{3}{section.3}
\contentsline {section}{\numberline {4}Enlla\c {c}os anotats}{8}{section.4}
\contentsline {section}{\numberline {5}Preguntes, Coses a fer, Com podeu ajudar}{10}{section.5}
