\select@language {italian}
\contentsline {section}{\numberline {1}Siamo preoccupati che:}{2}{section.1}
\contentsline {section}{\numberline {2}Per queste ragioni noi chiediamo:}{2}{section.2}
\contentsline {section}{\numberline {3}Firme}{3}{section.3}
\contentsline {section}{\numberline {4}Annotated Links}{8}{section.4}
\contentsline {section}{\numberline {5}Questions, Things To Do, How you can Help}{10}{section.5}
