\contentsline {section}{\numberline {1}Softwarepatente zunehmend wettbewerbsentscheidend}{2}{section.1}
\contentsline {section}{\numberline {2}Der Weg zu Softwarepatenten hinterl\"{a}sst rechtsdogmatische R\"{a}tsel}{3}{section.2}
\contentsline {section}{\numberline {3}Auch programmierte Gesch\"{a}ftsmethoden sind patentierbar}{4}{section.3}
\contentsline {section}{\numberline {4}Patente k\"{o}nnen Publikation im Netz verhindern}{6}{section.4}
\contentsline {section}{\numberline {5}Kostenlose Software: ein monopolf\"{o}rderndes Marketinginstrument}{9}{section.5}
\contentsline {section}{\numberline {6}Wie die Gesetzesregeln ausgehebelt wurden}{13}{section.6}
\contentsline {section}{\numberline {7}Kommentierte Verweise}{15}{section.7}
