\relax 
\ifx\hyper@anchor\@undefined
\global \let \oldcontentsline\contentsline
\gdef \contentsline#1#2#3#4{\oldcontentsline{#1}{#2}{#3}}
\global \let \oldnewlabel\newlabel
\gdef \newlabel#1#2{\newlabelxx{#1}#2}
\gdef \newlabelxx#1#2#3#4#5#6{\oldnewlabel{#1}{{#2}{#3}}}
\AtEndDocument{\let \contentsline\oldcontentsline
\let \newlabel\oldnewlabel}
\else
\global \let \hyper@last\relax 
\fi

\@writefile{toc}{\contentsline {section}{\numberline {1}Softwarepatente zunehmend wettbewerbsentscheidend}{2}{section.1}}
\newlabel{einl}{{1}{2}{Softwarepatente zunehmend wettbewerbsentscheidend\relax }{section.1}{}}
\@writefile{toc}{\contentsline {section}{\numberline {2}Der Weg zu Softwarepatenten hinterl\"{a}sst rechtsdogmatische R\"{a}tsel}{3}{section.2}}
\newlabel{kieltiel}{{2}{3}{Der Weg zu Softwarepatenten hinterl\"{a}sst rechtsdogmatische R\"{a}tsel\relax }{section.2}{}}
\@writefile{toc}{\contentsline {section}{\numberline {3}Auch programmierte Gesch\"{a}ftsmethoden sind patentierbar}{4}{section.3}}
\newlabel{senlim}{{3}{4}{Auch programmierte Gesch\"{a}ftsmethoden sind patentierbar\relax }{section.3}{}}
\@writefile{toc}{\contentsline {section}{\numberline {4}Patente k\"{o}nnen Publikation im Netz verhindern}{6}{section.4}}
\newlabel{efik}{{4}{6}{Patente k\"{o}nnen Publikation im Netz verhindern\relax }{section.4}{}}
\@writefile{toc}{\contentsline {section}{\numberline {5}Kostenlose Software: ein monopolf\"{o}rderndes Marketinginstrument}{9}{section.5}}
\newlabel{opensrc}{{5}{9}{Kostenlose Software: ein monopolf\"{o}rderndes Marketinginstrument\relax }{section.5}{}}
\@writefile{toc}{\contentsline {section}{\numberline {6}Wie die Gesetzesregeln ausgehebelt wurden}{13}{section.6}}
\newlabel{fehl}{{6}{13}{Wie die Gesetzesregeln ausgehebelt wurden\relax }{section.6}{}}
\@writefile{toc}{\contentsline {section}{\numberline {7}Kommentierte Verweise}{15}{section.7}}
\newlabel{links}{{7}{15}{Kommentierte Verweise\relax }{section.7}{}}
\gdef\scr@tpo@lst{0}
