\contentsline {section}{\numberline {1}Einf\"{u}hrung}{1}{section.1}
\contentsline {section}{\numberline {2}Questions to be answered by the Conference}{2}{section.2}
\contentsline {section}{\numberline {3}Fragen, Aufgaben, Wie Sie helfen k\"{o}nnen}{2}{section.3}
\contentsline {section}{\numberline {4}Kommentierte Verweise}{3}{section.4}
