\select@language {french}
\select@language {french}
\contentsline {section}{\numberline {1}introduction}{1}{section.0.1}
\contentsline {section}{\numberline {2}Questions to be answered by the Conference}{2}{section.0.2}
\contentsline {section}{\numberline {3}Questions, choses \`{a} faire, comment vous pouvez aider}{2}{section.0.3}
\contentsline {section}{\numberline {4}Liens annot\'{e}s}{3}{section.0.4}
