\relax 
\ifx\hyper@anchor\@undefined
\global \let \oldcontentsline\contentsline
\gdef \contentsline#1#2#3#4{\oldcontentsline{#1}{#2}{#3}}
\global \let \oldnewlabel\newlabel
\gdef \newlabel#1#2{\newlabelxx{#1}#2}
\gdef \newlabelxx#1#2#3#4#5#6{\oldnewlabel{#1}{{#2}{#3}}}
\AtEndDocument{\let \contentsline\oldcontentsline
\let \newlabel\oldnewlabel}
\else
\global \let \hyper@last\relax 
\fi

\@writefile{toc}{\contentsline {section}{\numberline {1}Sehr geehrter Herr van Miert!}{1}{section.1}}
\newlabel{alv}{{1}{1}{Sehr geehrter Herr van Miert!\relax }{section.1}{}}
\@writefile{toc}{\contentsline {section}{\numberline {2}Mit freundlichen Gr\"{u}{\ss }en}{4}{section.2}}
\newlabel{mfg}{{2}{4}{Mit freundlichen Gr\"{u}{\ss }en\relax }{section.2}{}}
\gdef\scr@tpo@lst{0}
