\contentsline {section}{\numberline {1}Vorbemerkungen}{1}{section.1}
\contentsline {section}{\numberline {2}Bisherige Unterzeichner}{1}{section.2}
\contentsline {section}{\numberline {3}Neuunterzeichner}{2}{section.3}
