\select@language {french}
\select@language {french}
\contentsline {section}{\numberline {1}Avant-Propos}{1}{section.0.1}
\contentsline {section}{\numberline {2}signataires jusqu'au pr\'{e}sent}{1}{section.0.2}
\contentsline {section}{\numberline {3}Nouveaux Signataires}{2}{section.0.3}
