\relax 
\catcode`"\active
\ifx\hyper@anchor\@undefined
\global \let \oldcontentsline\contentsline
\gdef \contentsline#1#2#3#4{\oldcontentsline{#1}{#2}{#3}}
\global \let \oldnewlabel\newlabel
\gdef \newlabel#1#2{\newlabelxx{#1}#2}
\gdef \newlabelxx#1#2#3#4#5#6{\oldnewlabel{#1}{{#2}{#3}}}
\AtEndDocument{\let \contentsline\oldcontentsline
\let \newlabel\oldnewlabel}
\else
\global \let \hyper@last\relax 
\fi

\select@language{italian}
\@writefile{toc}{\select@language{italian}}
\@writefile{lof}{\select@language{italian}}
\@writefile{lot}{\select@language{italian}}
\@writefile{toc}{\contentsline {section}{\numberline {1}Egregio Signore,}{1}{section.1}}
\newlabel{alv}{{1}{1}{Egregio Signore,\relax }{section.1}{}}
\@writefile{toc}{\contentsline {section}{\numberline {2}Distinti saluti}{4}{section.2}}
\newlabel{mfg}{{2}{4}{Distinti saluti\relax }{section.2}{}}
\gdef\scr@tpo@lst{0}
