\contentsline {section}{\numberline {1}Preparatory Remarks}{1}{section.1}
\contentsline {section}{\numberline {2}Signatories so far}{1}{section.2}
\contentsline {section}{\numberline {3}New Signatories}{2}{section.3}
