This is pdfTeX, Version 3.14159-13d (Web2C 7.3.1) (format=pdflatex 2001.5.15)  6 OCT 2002 20:24
**miert.fr
(miert.fr.tex[/usr/share/texmf/pdftex/config/pdftex.cfg]
LaTeX2e <1999/12/01> patch level 1
Babel <v3.6Z> and hyphenation patterns for american, french, german, ngerman, n
ohyphenation, loaded.
(/usr/share/texmf/tex/latex/koma-script/scrartcl.cls
Document Class: scrartcl 1999/12/29 v2.5h LaTeX2e KOMA document class
(/usr/share/texmf/tex/latex/base/size11.clo
File: size11.clo 1999/09/10 v1.4a Standard LaTeX file (size option)
)
(/usr/share/texmf/tex/latex/koma-script/typearea.sty
Package: typearea 1999/12/29 v2.5h LaTeX2e KOMA package

Package: typearea, Copyright (C) Frank Neukam, 1992-1994 
                   Copyright (C) Markus Kohm, 1994-1999
\ta@bcor=\dimen102
\ta@div=\count79
\ta@hblk=\dimen103
\ta@vblk=\dimen104
\ta@temp=\dimen105
Package typearea Info: These are the values describing the layout:
(typearea)             DIV  = 10
(typearea)             BCOR = 0.0pt
(typearea)             \paperwidth      = 597.50793pt
(typearea)              \textwidth      = 418.25555pt
(typearea)              DIV-departure   = -6/100
(typearea)              \evensidemargin = 17.3562pt
(typearea)              \oddsidemargin  = 17.3562pt
(typearea)             \paperheight     = 845.04694pt
(typearea)              \textheight     = 595.80026pt
(typearea)              \topmargin      = -25.16531pt
(typearea)              \headheight     = 17.0pt
(typearea)              \headsep        = 20.40001pt
(typearea)              \topskip        = 11.0pt
(typearea)              \footskip       = 47.60002pt
(typearea)              \baselineskip   = 13.6pt
(typearea)              on input line 502.
)
\c@part=\count80
\c@section=\count81
\c@subsection=\count82
\c@subsubsection=\count83
\c@paragraph=\count84
\c@subparagraph=\count85
\c@figure=\count86
\c@table=\count87
\abovecaptionskip=\skip41
\belowcaptionskip=\skip42
\bibindent=\dimen106
) (/usr/share/texmf/tex/generic/babel/babel.sty
Package: babel 1999/09/09 v3.6Z The Babel package

(/usr/share/texmf/tex/french/base/french.ldf
File: french.ldf 1997/08/26 v1.5 french option of babel loading the French pack
age

(/usr/share/texmf/tex/french/base/french.sty
Package: french 1999/04/09  The French package /V4,05c/

(/usr/share/texmf/tex/generic/babel/babel.def
File: babel.def 1999/09/09 v3.6Z Babel common definitions
\babel@savecnt=\count88
\U@D=\dimen107
)

 -23- Extension : style french V4,05c -- 9 avril 1999 -- (B.Gaulle)
 -24- french.sty utilise dans ce document le codage de fonte OT1.
 -25- french.sty affiche ici ses messages en 7-bits << \`a la TeX >>.

(/usr/share/texmf/tex/latex/base/latexsym.sty
Package: latexsym 1998/08/17 v2.2e Standard LaTeX package (lasy symbols)
\symlasy=\mathgroup4
LaTeX Font Info:    Overwriting symbol font `lasy' in version `bold'
(Font)                  U/lasy/m/n --> U/lasy/b/n on input line 42.
)
(/usr/share/texmf/tex/latex/base/ulasy.fd
File: ulasy.fd 1998/08/17 v2.2e LaTeX symbol font definitions
)
(/usr/share/texmf/tex/french/base/fenglish.sty)
\@FrDimen=\dimen108
Package french Info: Initialisation de l'option french{} pour Babel on input li
ne 2102.
\c@chapter=\count89
\@FrCount=\count90
)))
(/usr/share/texmf/tex/latex/TXP/TXM/ansidate.sty)
(/usr/share/texmf/tex/latex/hyperref/hyperref.sty
Package: hyperref 2000/01/22 v6.69c Hypertext links for LaTeX

(/usr/share/texmf/tex/latex/graphics/keyval.sty
Package: keyval 1999/03/16 v1.13 key=value parser (DPC)
\KV@toks@=\toks14
)
\@linkdim=\dimen109
\Hy@linkcounter=\count91
\Hy@pagecounter=\count92

(/usr/share/texmf/tex/latex/hyperref/pd1enc.def
File: pd1enc.def 1999/10/05 v0.6 PDFDocEncoding (Heiko Oberdiek)
)
Package hyperref Info: Bookmarks ON on input line 1459.
Package hyperref Info: Hyper figures OFF on input line 1478.
Package hyperref Info: Link nesting OFF on input line 1483.
Package hyperref Info: Hyper index ON on input line 1486.
Package hyperref Info: Plain pages ON on input line 1491.
Package hyperref Info: Backreferencing OFF on input line 1498.

Implicit mode ON; LaTeX internals redefined
(/usr/share/texmf/tex/latex/html/url.sty
Package: url 1999/03/02  ver 1.4  Verb mode for urls, email addresses, and file
 names
)
\Fld@menulength=\count93
\Field@Width=\dimen110
\Fld@charsize=\dimen111
\Choice@toks=\toks15
\Field@toks=\toks16
Package hyperref Info: Hyper figures OFF on input line 2108.
Package hyperref Info: Link nesting OFF on input line 2113.
Package hyperref Info: Hyper index ON on input line 2116.
Package hyperref Info: backreferencing OFF on input line 2123.
Package hyperref Info: Link coloring OFF on input line 2128.
\c@Item=\count94
\c@Hfootnote=\count95
)
*hyperref using default driver hpdftex*
(/usr/share/texmf/tex/latex/hyperref/hpdftex.def
(/usr/share/texmf/tex/latex/psnfss/pifont.sty
Package: pifont 1999/03/29 PSNFSS v.7.2 Pi font support : S Rahtz
LaTeX Font Info:    Try loading font information for U+pzd on input line 63.

(/usr/share/texmf/tex/latex/psnfss/upzd.fd
File: upzd.fd 1998/07/06 font definitions for U/pzd.
)
LaTeX Font Info:    Try loading font information for U+psy on input line 64.

(/usr/share/texmf/tex/latex/psnfss/upsy.fd
File: upsy.fd 1998/07/06 font definitions for U/psy.
))
\Fld@listcount=\count96
\@outlinefile=\write3
)
(/usr/share/texmf/tex/latex/TXP/TXK/tools/array.sty
Package: array 1994/06/01 v2.2e Tabular extension package (FMi)
\col@sep=\dimen112
\extrarowheight=\dimen113
\NC@list=\toks17
)
(/usr/share/texmf/tex/latex/misc/wrapfig.sty
\wrapoverhang=\dimen114
\WF@size=\dimen115
\c@WF@wrappedlines=\count97
\WF@box=\box26
\WF@everypar=\toks18
Package: wrapfig 1999/03/11  v 3.2
)
(/usr/share/texmf/tex/latex/TXP/TXM/mlht/el2tex.tex
\sectlevel=\count98
\toplevel=\count99
\IncludeFile=\read1
)
(/usr/share/texmf/tex/latex/TXP/TXM/mlht/coldef.tex)
No file miert.fr.aux.
\openout1 = `miert.fr.aux'.

LaTeX Font Info:    Checking defaults for OML/cmm/m/it on input line 11.
LaTeX Font Info:    ... okay on input line 11.
LaTeX Font Info:    Checking defaults for T1/cmr/m/n on input line 11.
LaTeX Font Info:    ... okay on input line 11.
LaTeX Font Info:    Checking defaults for OT1/cmr/m/n on input line 11.
LaTeX Font Info:    ... okay on input line 11.
LaTeX Font Info:    Checking defaults for OMS/cmsy/m/n on input line 11.
LaTeX Font Info:    ... okay on input line 11.
LaTeX Font Info:    Checking defaults for OMX/cmex/m/n on input line 11.
LaTeX Font Info:    ... okay on input line 11.
LaTeX Font Info:    Checking defaults for U/cmr/m/n on input line 11.
LaTeX Font Info:    ... okay on input line 11.
LaTeX Font Info:    Checking defaults for PD1/pdf/m/n on input line 11.
LaTeX Font Info:    ... okay on input line 11.
Package hyperref Info: Link coloring OFF on input line 11.
(/usr/share/texmf/tex/latex/hyperref/nameref.sty
Package: nameref 2000/01/19 v2.17 Cross-referencing by name of section
\c@section@level=\count100
) (miert.fr.out) (miert.fr.out)
\openout3 = `miert.fr.out'.

LaTeX Info: Redefining \ref on input line 11.
LaTeX Info: Redefining \pageref on input line 11.
(/ul/sig/srv/res/www/ffii/swpat/lettres/miert/miert.fr.sub
Lettre au Commissaire de la Comp\'{e}tition
LaTeX Font Info:    External font `cmex10' loaded for size
(Font)              <14.4> on input line 1.
LaTeX Font Info:    External font `cmex10' loaded for size
(Font)              <7> on input line 1.
LaTeX Font Info:    External font `cmex10' loaded for size
(Font)              <5> on input line 1.
LaTeX Font Info:    External font `cmex10' loaded for size
(Font)              <9> on input line 1.
LaTeX Font Info:    External font `cmex10' loaded for size
(Font)              <6> on input line 1.

Package hyperref Warning: old toc file detected, not used; run LaTeX again.

\tf@toc=\write4
\openout4 = `miert.fr.toc'.


Overfull \hbox (0.60864pt too wide) in paragraph at lines 5--6
[]\OT1/cmr/m/n/10.95 H^^Selas, il semble qu`au sein de l`UE cer-tains coll^^Reg
ues ne par-tagent pas votre conscience
 []

[1


[/usr/share/texmf/dvips/config/pdftex.map]]
LaTeX Font Info:    External font `cmex10' loaded for size
(Font)              <10.95> on input line 24.
LaTeX Font Info:    External font `cmex10' loaded for size
(Font)              <8> on input line 24.
 [2]
Overfull \hbox (1.55278pt too wide) in paragraph at lines 42--43
[]\OT1/cmr/m/n/10.95 Les bre-vets de lo-gi-ciel font aussi l`objet de fortes co
ntro-verses aux []Etats-Unis. Contrai-
 []


Overfull \hbox (9.67416pt too wide) in paragraph at lines 60--61
[]\OT1/cmr/m/n/10.95 Ces per-tur-ba-tions r^^Segionales de comp^^Setitivit^^Se 
sont b^^Senignes com-par^^Sees aux d^^Sevastations
 []

[3]) [4] (miert.fr.aux)

LaTeX Warning: Label(s) may have changed. Rerun to get cross-references right.

 ) 
Here is how much of TeX's memory you used:
 2934 strings out of 25631
 34552 string characters out of 193573
 94323 words of memory out of 384000
 5861 multiletter control sequences out of 10000+15000
 12218 words of font info for 48 fonts, out of 400000 for 1000
 14 hyphenation exceptions out of 1000
 34i,11n,38p,937b,421s stack positions out of 300i,100n,500p,50000b,4000s
<cmti10.pfb><cmr8.pfb><cmr9.pfb><cmsy9.pfb><cmr10.pfb><cmsy10.pfb><cmr12.pfb>
<cmtt10.pfb><cmssbx10.pfb>
Output written on miert.fr.pdf (4 pages, 88028 bytes).
