\relax 
\ifx\hyper@anchor\@undefined
\global \let \oldcontentsline\contentsline
\gdef \contentsline#1#2#3#4{\oldcontentsline{#1}{#2}{#3}}
\global \let \oldnewlabel\newlabel
\gdef \newlabel#1#2{\newlabelxx{#1}#2}
\gdef \newlabelxx#1#2#3#4#5#6{\oldnewlabel{#1}{{#2}{#3}}}
\AtEndDocument{\let \contentsline\oldcontentsline
\let \newlabel\oldnewlabel}
\else
\global \let \hyper@last\relax 
\fi

\@writefile{toc}{\contentsline {section}{\numberline {1}Preparatory Remarks}{1}{section.1}}
\newlabel{pref}{{1}{1}{Preparatory Remarks\relax }{section.1}{}}
\@writefile{toc}{\contentsline {section}{\numberline {2}Signatories so far}{1}{section.2}}
\newlabel{lst}{{2}{1}{Signatories so far\relax }{section.2}{}}
\@writefile{toc}{\contentsline {section}{\numberline {3}New Signatories}{2}{section.3}}
\newlabel{nov}{{3}{2}{New Signatories\relax }{section.3}{}}
