\relax 
\ifx\hyper@anchor\@undefined
\global \let \oldcontentsline\contentsline
\gdef \contentsline#1#2#3#4{\oldcontentsline{#1}{#2}{#3}}
\global \let \oldnewlabel\newlabel
\gdef \newlabel#1#2{\newlabelxx{#1}#2}
\gdef \newlabelxx#1#2#3#4#5#6{\oldnewlabel{#1}{{#2}{#3}}}
\AtEndDocument{\let \contentsline\oldcontentsline
\let \newlabel\oldnewlabel}
\else
\global \let \hyper@last\relax 
\fi

\@writefile{toc}{\contentsline {section}{\numberline {1}Anta\'{y}aj Rimarkoj}{1}{section.1}}
\newlabel{pref}{{1}{1}{Anta\'{y}aj Rimarkoj\relax }{section.1}{}}
\@writefile{toc}{\contentsline {section}{\numberline {2}^^c4^^9disnunaj subskribantoj}{1}{section.2}}
\newlabel{lst}{{2}{1}{^^c4^^9disnunaj subskribantoj\relax }{section.2}{}}
\@writefile{toc}{\contentsline {section}{\numberline {3}novaj subskribantoj}{2}{section.3}}
\newlabel{nov}{{3}{2}{novaj subskribantoj\relax }{section.3}{}}
