\contentsline {section}{\numberline {1}Anta\'{y}aj Rimarkoj}{1}{section.1}
\contentsline {section}{\numberline {2}^^c4^^9disnunaj subskribantoj}{1}{section.2}
\contentsline {section}{\numberline {3}novaj subskribantoj}{2}{section.3}
