\contentsline {section}{\numberline {1}Software entrepreneur's view}{2}{section.1}
\contentsline {section}{\numberline {2}Accounting games with immaterial goods}{2}{section.2}
\contentsline {section}{\numberline {3}Patents and Venture Capital}{3}{section.3}
\contentsline {subsection}{\numberline {3.1}Was f\"{u}r Erfahrungen haben Sie mit Kapitalgebern gemacht?}{3}{subsection.3.1}
\contentsline {subsection}{\numberline {3.2}Sind die VC-Leute besonders auf Patente versessen?}{3}{subsection.3.2}
\contentsline {subsection}{\numberline {3.3}In wieweit taugen Patente tats\"{a}chlich zur Absicherung?}{4}{subsection.3.3}
\contentsline {subsection}{\numberline {3.4}G\"{a}be es ohne Patentsystem im Sw-Bereich weniger Risikokapital?}{4}{subsection.3.4}
\contentsline {section}{\numberline {4}Annotated Links}{5}{section.4}
\contentsline {section}{\numberline {5}Questions, Things To Do, How you can Help}{5}{section.5}
