\relax 
\ifx\hyper@anchor\@undefined
\global \let \oldcontentsline\contentsline
\gdef \contentsline#1#2#3#4{\oldcontentsline{#1}{#2}{#3}}
\global \let \oldnewlabel\newlabel
\gdef \newlabel#1#2{\newlabelxx{#1}#2}
\gdef \newlabelxx#1#2#3#4#5#6{\oldnewlabel{#1}{{#2}{#3}}}
\AtEndDocument{\let \contentsline\oldcontentsline
\let \newlabel\oldnewlabel}
\else
\global \let \hyper@last\relax 
\fi

\@writefile{toc}{\contentsline {section}{\numberline {1}Software entrepreneur's view}{2}{section.1}}
\newlabel{kestr}{{1}{2}{Software entrepreneur's view\relax }{section.1}{}}
\@writefile{toc}{\contentsline {section}{\numberline {2}Accounting games with immaterial goods}{2}{section.2}}
\newlabel{pligr}{{2}{2}{Accounting games with immaterial goods\relax }{section.2}{}}
\@writefile{toc}{\contentsline {section}{\numberline {3}Patents and Venture Capital}{3}{section.3}}
\newlabel{vecap}{{3}{3}{Patents and Venture Capital\relax }{section.3}{}}
\@writefile{toc}{\contentsline {subsection}{\numberline {3.1}Was f\"{u}r Erfahrungen haben Sie mit Kapitalgebern gemacht?}{3}{subsection.3.1}}
\newlabel{kiuspert}{{3.1}{3}{Was f\"{u}r Erfahrungen haben Sie mit Kapitalgebern gemacht?\relax }{subsection.3.1}{}}
\@writefile{toc}{\contentsline {subsection}{\numberline {3.2}Sind die VC-Leute besonders auf Patente versessen?}{3}{subsection.3.2}}
\newlabel{vcpatem}{{3.2}{3}{Sind die VC-Leute besonders auf Patente versessen?\relax }{subsection.3.2}{}}
\@writefile{toc}{\contentsline {subsection}{\numberline {3.3}In wieweit taugen Patente tats\"{a}chlich zur Absicherung?}{4}{subsection.3.3}}
\newlabel{vcpatuz}{{3.3}{4}{In wieweit taugen Patente tats\"{a}chlich zur Absicherung?\relax }{subsection.3.3}{}}
\@writefile{toc}{\contentsline {subsection}{\numberline {3.4}G\"{a}be es ohne Patentsystem im Sw-Bereich weniger Risikokapital?}{4}{subsection.3.4}}
\newlabel{vcpatplu}{{3.4}{4}{G\"{a}be es ohne Patentsystem im Sw-Bereich weniger Risikokapital?\relax }{subsection.3.4}{}}
\@writefile{toc}{\contentsline {section}{\numberline {4}Annotated Links}{5}{section.4}}
\newlabel{links}{{4}{5}{Annotated Links\relax }{section.4}{}}
\@writefile{toc}{\contentsline {section}{\numberline {5}Questions, Things To Do, How you can Help}{5}{section.5}}
\newlabel{tasks}{{5}{5}{Questions, Things To Do, How you can Help\relax }{section.5}{}}
\gdef\scr@tpo@lst{0}
