\relax 
\ifx\hyper@anchor\@undefined
\global \let \oldcontentsline\contentsline
\gdef \contentsline#1#2#3#4{\oldcontentsline{#1}{#2}{#3}}
\global \let \oldnewlabel\newlabel
\gdef \newlabel#1#2{\newlabelxx{#1}#2}
\gdef \newlabelxx#1#2#3#4#5#6{\oldnewlabel{#1}{{#2}{#3}}}
\AtEndDocument{\let \contentsline\oldcontentsline
\let \newlabel\oldnewlabel}
\else
\global \let \hyper@last\relax 
\fi

\@writefile{toc}{\contentsline {section}{\numberline {1}IP system needs redefinition for information age}{1}{section.1}}
\newlabel{wpost}{{1}{1}{IP system needs redefinition for information age\relax }{section.1}{}}
\@writefile{toc}{\contentsline {section}{\numberline {2}US ICT decline due to neglected infrastructures + patent inflation}{2}{section.2}}
\newlabel{pres}{{2}{2}{US ICT decline due to neglected infrastructures + patent inflation\relax }{section.2}{}}
\@writefile{toc}{\contentsline {section}{\numberline {3}Annotated Links}{2}{section.3}}
\newlabel{links}{{3}{2}{Annotated Links\relax }{section.3}{}}
\gdef\scr@tpo@lst{0}
