\contentsline {section}{\numberline {1}IP system needs redefinition for information age}{1}{section.1}
\contentsline {section}{\numberline {2}US ICT decline due to neglected infrastructures + patent inflation}{2}{section.2}
\contentsline {section}{\numberline {3}Annotated Links}{2}{section.3}
