10syllis@gmx.de
1gus@gofree.indigo.ie
2marc.schuster@gmx.de
592497@zdnetonebox.com
9833854@student.ul.ie
a.ds@ireland.com
acous@esatclear.ie
acucos@yahoo.com
adam@iewebs.com
adamcarlos@hotmail.com
adameterno@hotmail.com
admin@tech-mad.org
adonlon@netsoc.ucd.ie
adrian.oconnor@start.de
agustin@cast-info.es
aidan.delaney@minds.cs.may.ie
aidan.delaney@seprobilling.com
aidan.delnaey@minds.cs.may.ie
aidanharrington@hotmail.com
airlied@skynet.ie
akawaka@csn.ul.ie
akleff@gmx.de
al4000@hotmail.com
alain.culos@bigfoot.com
alan.coleman@macalla.com
alanbuckeridge@yahoo.com
alanoleary@eircom.net
albiondave@hotmail.com
alex.bradley@dit.ie
alfonsoarmenta@hotmail.com
alis@purplepages.ie
allsop@csn.ul.ie
amarsh.ca4@compapp.dcu.ie
amcd10@hotmail.com
amilueur@netcourrier.com
amongtheruins@eircom.net
anargratos@yahoo.com
andrea.bacchetta@mail.eng.it.nospam
andrea.rus@mobileaware.com
andreas_stahn@hotmail.com
andrew.kemmy@bicsystems.com
andrew@funferal.org
andrew_mc_carthy@yahoo.com
angeladullaghan@hotmail.com
annother@ireland.com
anthony.staines@ucd.ie
aod.butler@oceanfree.net
aonghus.haiceid@ireland.com
ards@csn.ul.ie
aregan@usa.net
argathin@gmx.net
argp@cs.tcd.ie
artrax@bellsouth.net
asc@eircom.net
asd@asd.com.df
ataltane@oceanfree.net
ath@star.arm.ac.uk
athclare@hotmail.com
auelio@iol.ie
aussie@redbrick.dcu.ie
auto15764@hushmail.com
azoldi@yahoo.com
b.haddow@scotland.com
b.hunt@emuse-tech.ie
b.hunt@emuse.ie
bachery@sorna.net
baggins@esatclear.ie
barak.pearlmutter@alumni.cs.cmu.edu
barrycahill@hotmail.com
barrymcc@engineer.com
bat@ireland.com
bbolger@iel.ie
bcahill@informix.com
ben.burgess@creganna.com
ben.klaasen@cp.net
benfoley@rcn.com
berti.filippo@euro.apple.com
bfeeney@esatclear.ie
bitchnigga@eircom.net
bloody_idiot@excite.co.uk
bmrg@gofree.indigo.ie
bmurphy@sdlintl.com
bobyrne@iol.ie
bofh@spellbound.gothic.ie
bokanas@skynet.csn.ul.ie
bonnerc2@mail.dcu.ie
bor@gofree.indigo.ie
bowie@iol.ie
bpu@iol.ie
braz@skynet.csn.ul.ie
breatpro@dublin.ml.com
bren2me@eircom.net
bren@interactsi.com
brendan.kelly@peoplesoft.com
brendan@w3s.ie
brendan@zebedeewebdesign.com
brendan@zen.org
brennandermot@hotmail.com
brian-f@excite.com
brian.hickey@avatar.ie
brian.kiernan@transwareplc.com
brian.scanlan@dol.ie
brian.sinnott@tradesignals.com
brian@drunkenbastards.com
brian@samhail.com
brian_caff@esatclear.ie
brian_mcgrath@ireland.com
brian_murray35@hotmail.com
brianrey@hotmail.com
brianu@ireland.com
britsout@hotmail.com
brittojr@tcd.ie
bromn@porgio.net
bryan.murphy@medtronic.com
burgio@maths.tcd.ie
bushdrinking@yahoo.com
buterlyg@indigo.ie
bwalsh@indigo.ie
c.gebel@gmx.de
c0ldfyr3@eliteprodigy.com
c_dinneen@hotmail.com
cactusdesign@eircom.net
cantona@skynet.ie
caoimhin.ua.buachalla@saorstat.com
careilly@thecia.ie
carol_crotty@dell.com
cathal@vccomputers.ie
cathalibm@hotmail.com
cathalts@hotmail.com
ccarbe.ca4@compapp.dcu.ie
cdaly@compapp.dcu.ie
cduffy@iol.ie
chi@skynet.ie
chopper@esatclear.ie
chris.higgins@hts.horizon.ie
chris@alternoc.com
chris@blackdavey.com
chrislambe@eircom.net
christopher@trados.ie
chrmur@firenet.uk.com
cianof@excite.com
ciarakavanagh@hotmail.com
ciaran.coyne@usa.net
ciaran.johnston@eei.ericsson.se
ciaran@keynet.ie
cillianderoiste@yahoo.com
cjb@linux.ie
clafou@ifrance.com
claire_langan@hotmail.com
clancyian@cel.ie
clernong@eircom.net
cliph@chicks-dig-unix.cx
cmccaig@rocketmail.com
cmcclean@ait.ie
cmcgloin@gofree.indigo.ie
cmulloy@esatclear.ie
coleb@esatclear.ie
colin.grealy@start.de
collinsrj@hotmail.com
colm@ireland.3b2.com
colmk@eircom.net
colmmacc@redbrick.dcu.ie
colmreilly@eircom.net
colonist@web.de
comicmuse@ireland.com
con.hennessy@mail.com
confussd@hotmail.com
conor.daly@met.ie
conor@iol.ie
conorlennon@eircom.net
conornash@eircom.net
conrad@iol.ie
contact@carroll.ie
contactaengus@hotmail.com
copernicus@eircom.net
cormacm@netscape.net
cosmo@skynet.ie
crankie@ireland.com
crepido@hotmail.com
cromemic@ifrance.com
csb@scg.nuigalway.ie
cshannon@indigo.ie
cshryane@hotmail.com
ct_roy@yahoo.com
cu@work.tc
cumminsd@indigo.ie
cybot55@eircom.net
d_shanaghy@yahoo.com
dac@skynet.ie
dach_@hotmail.com
daire.mckenna@redbrick.dcu.ie
daire_osullivan@agilent.com
daithi@cuc.ucc.ie
dalyf@oceanfree.net
damien.dougan@btinternet.com
damien.farrell@ntlworld.ie
damien.joyce@trintech.com
damien@mc-kenna.com
dan.robinson@ireland.com
dangerfi@tcd.ie
daniel@yaloopy.co.uk
danielbrady@tinet.ie
danielmc@netscape.com
danny@csn.ul.ie
dara_gallagher@hotmail.com
daragh.moriarty@hushmail.com
daren@playak.zzn.com
daren@skynet.ie
darragh.oflanagan@eei.ericsson.se
darragh@darraghmurphy.com
darrend@teamsoft.ie
darth_pernicious@hotmail.com
dave.anderton@netscape.net
dave.hickey@oceanfree.net
dave@elive.ie
dave@iname.com
davemartin_ie@yahoo.co.uk
david.dorgan@eircom.net
david.mulqueen@us.pwcglobal.com
david.tipple@ucd.ie
david.vender@dcu.ie
david@linuxpunks.net
david_hennessy@o2.ie
david_patent_petition@grahams.net
davidahern@hotmail.com
davidmceleney@hotmail.com
davie_macaulay@hotmail.com
davisc@csn.ul.ie
daz@oceanfree.net
dbane@gofree.indigo.ie
dduffy@socc.ie
decado@esatclear.ie
decco_baby@hotmail.com
declan.malone@tecnomen.ie
defaoitg@tcd.ie
demassaig@exsite.com
denis.imaev@trintech.com
dermot.beirne@exel.com
dermot.flynn@oceanfree.net
dermot.williams@ntl.com
dermot@mcdonnell.ie
dettmer_strutz@ngi.de
devans@shannonmro.ie
dgavin@shore.net
dglynn@4c.ucc.ie
diamond@skynet.ie
diarmuidreidy@hotmail.com
dingliaj@tcd.ie
djkoshea@eircom.net
djordan@netsoc.ucd.ie
dksw@eircom.net
dm@anything-irish.com
dmac@csn.ul.ie
dmchugh@esatclear.ie
doc+crap@redbrick.dcu.ie
dollar@skynet.ie
domliveshere@yahoo.co.uk
donal@m-ops.ie
donnchadh@computer.org
doriordan@hotmail.com
dos@piercom.ie
draed@gm
druss73@yahoo.co.uk
dstanley@mastertexts.com
dtcf@eircom.net
dumpling@iol.ie
dvseire@hotmail.com
dylan.walsh@kadius.com
eamonn.newman@ucd.ie
eckardahlers@freenet.de
edgar-petition@frogbrothers.net
edoloughlin@ireland.com
edufelipe@eresmas.com
edward.benn@start.de
edward@netcheck.ie
edwardhumphrey@eircom.net
eeieol@eei.ericsson.se
elana@zen.org
email@guentermostert.de
email@ivanmaguire.com
emcman.mect1@compapp.dcu.ie
emcn@hotmail.com
emgaron@gmx.net
emil@gentoo.se
emmanuel.clarke@ireland.com
emmet@netrogen.com
eoghan@donegal.net
eoin@anglefire.com
eoin@seahound.com
eoinoc@iname.com
eric.vanh@ireland.com
eurolinux@lyranthe.org
evin.levey@havok.com
evin.levey@telekinesys.com
ewallace@europe.com
ewan@conflab.com
eyreland@today.com.au
fade@deepsky.com
feargal@thecia.ie
fergal.somers@xelector.com
fergal@esatclear.ie
ferren.macintre@ucg.ie
ferren.macintyre@ucg.ie
fgod@student.ucc.ie
fintan.hynes@start.de
fitzrik@yahoo.com
fkysela@unreal.cz
flynng@iol.ie
fmuniz@hotmail.com
fowler@indigo.ie
fpeelo@eircom.net
francis+eurolinux@project-bob.org
frederic.lebouc@mail.com
frendel@ngi.de
frerk.meyer@framfab.de
furlongm@tcd.ie
fwhiteley@absolutequality.co.uk
fwtoomey@yahoo.co.uk
gabrielfarrell@hotmail.com
gael.bost@compaq.com
ganja2000@mail.com
garethsmith@esatclear.ie
garion@aloria.net
gary@netsoc.tcd.ie
gav@compsoc.com
gavinmcc@netsoc.ucd.ie
gazza@ureach.com
gbegley@iol.ie
gbyrne@experience.ie
gdo@eircom.net
gdocall@eircom.net
gebruers_cuan@oceanfree.net
georg_jordan@yahoo.de
gerard@guminski.com
gerdono@eircom.net
geremy@teacher.com
geronimo@skynet.ie
gerryhodgers@eircom.net
gi7omy@ntlworld.com
gideon@gofree.indigo.ie
glenn.strong@cs.tcd.ie
gmc@indigo.ie
gnardlz@eircom.net
goldens@iol.ie
gom@maths.tcd.ie
gombean@skynet.ie
gpigott@bigfoot.com
graham.duke@eei.ericsson.se
greengranny@mailcity.com
gregryan@hotmail.com
gremlin@indigo.ie
grimnar@redbrick.dcu.ie
grms@oceanfree.net
gstock@newfocuc.com
gtmo@eircom.net
gtrant@heidi.ie
guinness@irelandmail.com
h@novocorp.com
hadiv@gmx.net
hairybastard@eircom.net
hannes@skynet.ie
harlequin@eircom.net
harley@tinet.ie
harted@csn.ul.ie
hcp@indigo.ie
healyp@student.cs.ucc.ie
heathclf@csn.ul.ie
heiko.eissfeld@telekom.de
hellbunnie@irelands-web.ie
herbsrup@indigo.ie
hetch@oxygen.ie
hew@dublin.com
hjw@csn.ul.ie
holger.jacob@web.de
hollowsoul_carlow@yahoo.co.uk
hoss@technologist.com
hugh.dowling@ul.ie
humphred@indigo.ie
i053@stio1.fh-wuerzburg.de
iain@aep.ie
ian@cyrona.com
ian@freenetproject.org
ian@locut.us
icl051@mac.com
igotfuct@hotmail.com
ihanney@iegateway.net
info@blacknight-solutions.com
j.ploetz@s-a-d.de
j0n@tssg.wit.ie
j_sheehy@htomail.com
jackh@iol.ie
jacob.muelehns@post.rwth-aachen.de
james.obrien@gmx.net
jamesoc@oceanfree.net
jamiel@mle.media.mit.edu
jason.doran@may.ie
jbolger@socc.ie
jcav@esatclear.ie
jelkink@cantr.net
jellyroll@eircom.net
jens_e@worldonline.dk
jerome.kelleher@intl.pepsi.com
jfinnan@operamail.com
jhunt@indigo.ie
jimoc@esatclear.ie
jimregan@dol.ie
jjreen@iol.ie
jkobrien@rcsi.ie
jlohan_@hotmail.com
jmagee@metallica.com
jmaguire@clubi.ie
jmcc@hackwatch.com
jmz@qad.com
jng@renre-europe.com
joe@galway.net
joe@online.ie
john.flanagan@akad.ie
john.fuller@telekinesys.com
john.molohan@gcd.ie
john.osullivan@cresta.net
john.reilly@xelector.com
john.reynolds@asitatech.ie
john@rte.ie
johnf@vistatec.ie
johng@arandasys.com
johnhurley@bigfoot.com
johnlunney@thenavy.com
johnm@rte.ie
johnmadden@eircom.net
johnmc@termisoc.org
johnmcclave@yahoo.com
johnmolohan@hotmail.com
johno@cruithne.org
johnome@yahoo.com
johnsonholdingslimited@eircom.net
jonathan.campbell@lyit.ie
jonathan.deane@ul.ie
jonhiggins@rocketmail.com
jos@eircom.net
jos@freesoftwaresolutions.com
jquigley@gofree.indigo.ie
jschwender@weltherrschaft.de
jscrane@maths.tcd.ie
juanjopani@hotmail.com
judeb@gofree.indigo.ie
justin.armstrong@acm.org
justrob@esatclear.ie
k.oriordan@oceanfree.net
kakh_killers@yahoo.com
kamobe@eircom.net
kane@redbrick.dcu.ie
kantorr@tcd.ie
kaptiongod@bigfoot.com
kasc@iagora.com
kaz@tworf.com
kbrowne@esatclear.ie
kc7@gofree.indigo.ie
kdor@eircom.net
keith.critchley2@mail.dcu.ie
keith@iol.ie
keith@media-solutions.ie
keith_foran@hotmail.com
keithconroy@hotmail.com
kellyc@tcd.ie
kellyswd@iol.ie
kemmya@indigo.ie
ken.power@start.de
ken@lindero.com
ken@linux.ie
kenoby@iol.ie
kevin@suberic.net
kevinmobrien@eircom.net
kevinp@sleeping-giant.ie
keyyo@hotmail.com
kfarrell@iol.ie
kieran.colfer@ireland.sun.com
kieranjwhite@netscape.net
kieranm@globalnet.co.uk
kirill_chernyuk@oceanfree.net
kmgaughan@eircom.net
koriordan@compsoc.com
kosullivan_xlib@my-deja.com
kumo@gofree.indigo.ie
kxbeasle@comdisco.com
labhaoisenibhriain@eircom.net
lachmann@lamediaservice.de
laffo@mindless.com
laughlin.moore@ireland.com
laurentc@vistatec.ie
lawrencd@gofree.indigo.ie
leeroybrown@frink.nuigalway.ie
len_doyle@hotmail.com
leo@maths.tcd.ie
leo_hoju@yahoo.ie
letosar@tcd.ie
liam.power@snapon.ie
liam@cheerful.com
liam@iname.com
liamer@eircom.net
lily@thevision.ws
linderoo@yahoo.co.uk
livi@iol.ie
lizzykavanagh@hotmail.com
lmcorky@eircom.net
lodris@mailcity.com
loolaa@altavista.net
lordsheridan@web.de
louise@tech-mad.org
lovelace@minds.cs.may.ie
luckner@op-online.de
m.hennessy@4c.ucc.ie
m_mcguinesss@pira.org
ma_moreno@telepolis.com
mac_lochlainn@hotmail.com
maccarrain@netscape.net
macker33@hotmail.com
mailto@bneugebauer.de
malcoh0l@yahoo.ie
manning@cs.ucc.ie
marcuslamb@yahoo.com
mark.hennessy@gradient.ie
mark.hodnett@hammerauction.com
mark.mccormick@xelector.com
mark@mckillen.com
mark@metaconcepts.com
mark@skynet.ie
mark_mccormick@yahoo.com
markb@esatclear.ie
markoh@eircom.net
markrgriffin@hotmail.com
markus.linden@oceanfree.net
markus.meitner@mmeitner.de
markus@alphyra.ie
markus@rieder.ie
martin.boyle@customhousegroup.com
martin.burns2@mail.dcu.ie
martsbradley@hotmail.com
matt@mle.ie
matthew.gaylard@ward.ie
matthias@it-aid.de
mausib@gofree.indigo.ie
mbentot@email.com
mby@broadcom.ie
mcass@connect.ie
mcauleyt@tcd.ie
mcdermc@tcd.ie
mckinstry@computer.org
mdebets@indigo.ie
me@niallwalsh.net
medss@yahoo.com
mel@skynet.ie
melaffs@eircom.net
mfagan@bull.co.uk
mfoley.gnome@dna.ie
mhici@eircom.net
miccio@hotmail.com
michael.meyer@de.trumpf.com
michael.twomey@sun.com
michael@familie-holderried.de
michael_armbrecht@hp.com
michael_moriarty@millipore.com
michaelsharpe@quios.com
mick@donegal.net
micktooher@yahoo.com
mierow@arcormail.de
mike.mcelligott@tecnomen.ie
mike@phprealm.com
mike@trailmarks.com
miket@esatclear.ie
minkymanky@excite.com
missym@eircom.net
mjplatt@eircom.net
mkerrin@maths.tcd.ie
mlane-case3@computing.dcu.ie
mmccabe@genieweb.com
mmcweeney@oceanfree.net
mmd@iol.ie
mns9900@yahoo.com
mo@lionet.ie
mofoghlu@tssg.org
moooooo99@hotmail.com
morgandonohoe@hotmail.com
mpeb66@hotmail.com
mrbungle@skynet.csn.ul.ie
mriordan@nmrc.ucc.ie
msparko@yahoo.com
mstuddert@yahoo.com
mtoneill@bu.edu
murtaghn@tcd.ie
myles@post.com
mystik@africamail.com
nader.fares@primelearning.com
nazgul@not.goingtotellyou.ie
neidhart@dnse.de
neil.simon@compaq.com
neil@iol.ie
neilwalsh@hotmail.com
newfoundwealth@hotmail.com
ngilsenan@ireland.com
niall@magicgoeshere.com
niall@pobox.com
niallm-web@enigma.ie
niallsos@eircom.net
niambhscullion@beaumont.ie
nickm@bigfoot.com
nickm@wbtsystems.com
nils@cartoonsaloon.ie
nils@eircom.net
no1_777@yahoo.com
noepatents@robertelliott.org
noims@altavista.net
noone@nowhere.com
nopatent@slashnull.org
nopatents@daimonic.org
norman.beamish@hotmail.com
nparkes@iol.ie
nugent@skynet.ie
nuts@eircom.net
oasis@csn.ul.ie
obyrne@iol.ie
ocalladw@tcd.ie
ocorrain@esatclear.ie
offlerthecrocgod@hotmail.com
ojc@networkarchitects.ie
olaf.heins@seatec.de
olas.ltd@usa.net
oldrope@gofree.indigo.ie
olhhc@indigo.ie
oliverm@oddpost.com
ompaul@eircom.net
oneilldavid@iol.ie
onesecond@oceanfree.net
orgy42@gofree.indigo.ie
orla.neylon@nuigalway.ie
osiris-@mailexcite.com
osullivanj@piercom.ie
p_the-almighty@hotmail.com
pablo8itall@yahoo.ie
pacogdv@hotmail.com
paddy_dempster@hotmail.com
padhraig@dna.ie
padraig.misc@brady001.iol.ie
padraig@brady001.iol.ie
pamoshea@skynet.ie
pandabat@yahoo.co.uk
patrickm@redbrick.dcu.ie
paul+peteuro@dishone.st
paul+reg@clubi.ie
paul.askins@analog.com
paul@clubi.ie
paul@csn.ul.ie
paul@omara.org
paulc@skynet.ie
paulconroy18@eircom.net
paulcunnane@email.com
paulcurran@eircom.net
pavel_simsa@email.cz
pbo@physics.dcu.ie
pbrowne@tssg.wit.ie
pcassidy@ildana.com
pd@mdimedia.com
peadar41@hotmail.com
pepe@hotmail.com
peter@knowleshome.com
peter@linux.ie
peter@loster.com
peter@silmaril.ie
petition@idiotfarm.org
petition@johnmc.org
petition@messing.cx
petition@pincky.com
petition@posphos.com
petsen@gofree.indigo.ie
pflynn@btl.ie
pgmcglew@iee.org.uk
phaxx@csd.dot-ie.com
phil@eircom.net
phil@techworks.ie
philh@mbox.roynet.co.th
philipq@connect.ie
phily@oceanfree.net
phourigan@network365.com
pierre_troel@mail.com
pike@iol.ie
pincky@altavista.net
pit.001@gmx.de
pjhunt@esatclear.ie
plchan@hkpc.org
plignon@scisys.com
pmccourt@hotmail.com
pmurphy@chien-noir.com
pofla@frink.nuigalway.ie
pooka@redbrick.dcu.ie
porterj@iol.ie
ppb@cutehoor.com
pracz@apr.fta-berlin.de
prmccormack@eircom.net
proinnsias@ireland.com
proinsias@hotmail.com
proscript@eircom.net
ptrainor33@hotmail.com
pvalentin@amadeus.net
qa4685@cork.cig.mot.com
r_luka@gmx.de
rachid.benahmed@telelogic.com
raf@contractit.com
randgobrien@netscape.net
ray.kinsella@gmx.net
ray@itc.nuigalway.ie
raymondshanley@eircom.net
rb@dna.ie
rcregan@operamail.com
rde@ireland.com
reece@therobinsons.gen.nz
reiner.dojen@ul.ie
relyod@indigo.ie
rev_karol@yahoo.ie
rfitzsimons@elandtech.com
rfitzsimons@ionet.ie
rhm@mds.ie
richard.houlihan@assetintegrity.com
richard@globalireland.com
richard@jostraca.org
richard@medmedia.ie
richphoto@unison.ie
rjosulli@hotmail.com
rmartin@wit.ie
rmocius@auste.elnet.lt
rmurphy@custom-cgi.com
rmurray@csn.ul.ie
rntt@iol.ie
robertorourke@yahoo.com
robfarren@eircom.net
robin@frentech.ie
roboconnell@yahoo.com
robro@compsoc.nuigalway.ie
rof@maths.tcd.ie
rok2@eircom.net
romainpi@attachmate.com
romara@iol.ie
ron@kerry.com
ronan.oceallaigh2@mail.dcu.ie
ronanbuggy@eircom.net
ronanpob@eircom.net
ronie@esatclear.ie
rory.hession@sap.com
ross@skynet.ie
rothar16v@yahoo.com
rove@thinkwindmill.com
ruairi_hann@hotmail.com
ruben_mg@eresmas.com
rupert@mediaport.org
russelltm@eircom.net
rwgb@dol.ie
s99bf1e6@student.ucd.ie
samuelshirley@yahoo.com
satelle@oceanfree.net
sbell@maths.kst.dit.ie
sburton@iol.ie
schildt@gofree.indigo.ie
schipi@topmail.de
scooby@skynet.ie
screwdriver@oceanfree.net
sdempsey@iol.ie
seamus.clarke@teles.ie
sean.oriordain@swiftcall.com
sean@cyrona.com
sean@necl.ie
sean@tcob1.net
sean_hanly@bigfoot.com
seank@iseeman.com
seanmac@hotmail.com
seanone@eircom.net
seanreilly2@eircom.net
seaoflinux@phreaker.net
seckoboldo@t-online.de
seipse@libero.it
ser@gofree.indigo.ie
sergey.oudaltsov@clients.ie
shane-corcoran@hushmail.com
shane.oconchuir@cs.tcd.ie
sheehan@student.cs.ucc.ie
shinnere@gofree.indigo.ie
sinafei@yahoo.de
siobhan.bordan@trintech.com
sisob@eircom.net
sithlord@skynet.ie
sjbutler@bigfoot.com
slavan@skynet.ie
slpslpslp@hotmail.com
smarmy@skynet.ie
smcgarr@tuppenceworth.ie
smoughan@ntlworld.ie
smul@maths.tcd.ie
sneakums@eircom.net
snowbat@esatclear.ie
snulty@celticlinks.com
soerenlp@lakemoon.com
soinbhe@iol.ie
soulfly_sdh@hotmail.com
spa-74@wanadoo.fr
spam@eustace.net
spam@fuckinkybugger.net
sparapilla@libero.it
sparks@skynet.ie
spmcinerney@hotmail.com
squidgeyc@yahoo.com
starman01@eircom.net
steffen.ille@freenet.de
stephanie.avesque@ireland.com
stephen.bourke@ireland.com
stephen.butler@europe.com
stephen.duffy@icl.com
stephen.kennedy@telekinesys.com
stephen.lynch@dretec.com
stephen.mulcahy@compaq.com
stephen.ryan@iol.ie
stephen@theaccess.net
stephenmcnally@esatclear.ie
steve__brooks@hotmail.com
stevemoss@hotmail.com
steven.satelle@aer-rianta.ie
stevenbrennan@eircom.net
stevenogorman@dol.ie
stuartmcbride@eircom.net
stuff@amdsoft.com
sully@csn.ul.ie
superant@skynet.ie
tairean@hotmail.com
tamarack@skynet.ie
tarlach.eurolinux@odyssey.ie
taylorwood@eircom.net
technoid@e-merge.ie
teddy@storm.ie
tesar@mee.tcd.ie
th.oberhofer@phil.uni-erlangen.de
thehappyidiot@yahoo.com
thomas@staffeurs.org
tim@netsoc.ucd.ie
tmonahan@usa.net
to_veract@yahoo.com
toast@eircom.net
todd@heebie.com
toddmc@core.com
tom@skynet.ie
tommy.lindberg@acm.org
tomveil@hotmail.com
tony.murphy@oceanfree.net
tooals@graffiti.net
tor_bendiksen@ireland.com
trekkypj@gofree.indigo.ie
tritons_doom@yahoo.com
troy_donohue@hotmail.com
tuama@usa.net
tya@gofree.indigo.ie
tyrrelmr@cs.tcd.ie
una@adnet.ie
unholyundertakings@email.com
vampforlife369@hotmail.com
vdm@tranetics.com
vincent@altavista.net
vincent@cunniffe.net
vishal.vatsa@may.ie
vonkampa@eeng.dcu.ie
wassacraic@hotmail.com
wayne@elive.ie
wayne@elive.net
wbyeats@ireland.com
webbist@cyberalex.com
webmaster@birdweb.net
webmaster@ennis.ie
webmaster@lotas-smartman.net
webmaster@lotas.cx
webmaster@micksharpe.net
webmaster@radiocards.net
wex_socialistparty@yahoo.com
whitelancer@cluas.com
whiz@skynet.ie
willsg@rte.ie
wilsonc@tcd.ie
winholz@hotmail.com
wjester@bigfoot.com
wmcn@ireland.com
wolfkaspar@web.de
xeer@hotmail.com
xentor_99@yahoo.ie
yagayoga@hotmail.com
yakkook@yahoo.co.uk
yserge@hotmail.com
zerikai@hotmail.com
zerosum@dol.ie
zerosum@eimail.com
zettween@gmx.de
zeus@iol.ie
zoltan_ie@yahoo.com
