\relax 
\ifx\hyper@anchor\@undefined
\global \let \oldcontentsline\contentsline
\gdef \contentsline#1#2#3#4{\oldcontentsline{#1}{#2}{#3}}
\global \let \oldnewlabel\newlabel
\gdef \newlabel#1#2{\newlabelxx{#1}#2}
\gdef \newlabelxx#1#2#3#4#5#6{\oldnewlabel{#1}{{#2}{#3}}}
\AtEndDocument{\let \contentsline\oldcontentsline
\let \newlabel\oldnewlabel}
\else
\global \let \hyper@last\relax 
\fi

\csname auxWARNINGii\endcsname {\typeout {-34- this file and other auxiliary files require to use the following}}
\csname auxWARNINGii\endcsname {\typeout {-34- LaTeX packages: french and babel!}}
\csname auxWARNINGii\endcsname {\typeout {-34- check \protect \usepackage \space or remove these files. Typesetting is aborted!} \stop }
\select@language{french}
\@writefile{toc}{\select@language{french}}
\@writefile{lof}{\select@language{french}}
\@writefile{lot}{\select@language{french}}
\select@language{french}
\@writefile{toc}{\select@language{french}}
\@writefile{lof}{\select@language{french}}
\@writefile{lot}{\select@language{french}}
\@writefile{toc}{\contentsline {chapter}{\numberline {1}``EXPOS\'{E} DES MOTIFS''}{4}{chapter.1}}
\@writefile{lof}{\addvspace {10\p@ }}
\@writefile{lot}{\addvspace {10\p@ }}
\newlabel{exme}{{1}{4}{``EXPOS\'{E} DES MOTIFS''\relax }{chapter.1}{}}
\@writefile{toc}{\contentsline {chapter}{\numberline {2}FONDEMENT DE L'INITIATIVE\@DP  LA CONSULTATION DE LA COMMISSION}{7}{chapter.2}}
\@writefile{lof}{\addvspace {10\p@ }}
\@writefile{lot}{\addvspace {10\p@ }}
\newlabel{bakg}{{2}{7}{FONDEMENT DE L'INITIATIVE: LA CONSULTATION DE LA COMMISSION\relax }{chapter.2}{}}
\@writefile{toc}{\contentsline {chapter}{\numberline {3}``CONCURRENCE INTERNATIONALE\@DP  LA SITUATION JURIDIQUE AUX \'{E}TATS-UNIS ET AU JAPON''}{13}{chapter.3}}
\@writefile{lof}{\addvspace {10\p@ }}
\@writefile{lot}{\addvspace {10\p@ }}
\newlabel{kpet}{{3}{13}{``CONCURRENCE INTERNATIONALE: LA SITUATION JURIDIQUE AUX \'{E}TATS-UNIS ET AU JAPON''\relax }{chapter.3}{}}
\@writefile{toc}{\contentsline {chapter}{\numberline {4}``LA SITUATION JURIDIQUE ACTUELLE CONCERNANT L'ARTICLE 52, PARAGRAPHES 1 ET 2 DE LA CONVENTION SUR LE BREVET EUROP\'{E}EN''}{17}{chapter.4}}
\@writefile{lof}{\addvspace {10\p@ }}
\@writefile{lot}{\addvspace {10\p@ }}
\newlabel{legs}{{4}{17}{``LA SITUATION JURIDIQUE ACTUELLE CONCERNANT L'ARTICLE 52, PARAGRAPHES 1 ET 2 DE LA CONVENTION SUR LE BREVET EUROP\'{E}EN''\relax }{chapter.4}{}}
\@writefile{toc}{\contentsline {chapter}{\numberline {5}``Le r\^{o}le de l'algorithme''}{20}{chapter.5}}
\@writefile{lof}{\addvspace {10\p@ }}
\@writefile{lot}{\addvspace {10\p@ }}
\newlabel{algo}{{5}{20}{``Le r\^{o}le de l'algorithme''\relax }{chapter.5}{}}
\@writefile{toc}{\contentsline {chapter}{\numberline {6}``La protection par brevet et la protection par droit d'auteur sont compl\'{e}mentaires''}{22}{chapter.6}}
\@writefile{lof}{\addvspace {10\p@ }}
\@writefile{lot}{\addvspace {10\p@ }}
\newlabel{pako}{{6}{22}{``La protection par brevet et la protection par droit d'auteur sont compl\'{e}mentaires''\relax }{chapter.6}{}}
\@writefile{toc}{\contentsline {chapter}{\numberline {7}``N\'{E}CESSIT\'{E} D'UNE MESURE COMMUNAUTAIRE HARMONISANT LES DROITS INTERNES ET FONDEMENT JURIDIQUE D'UNE TELLE MESURE''}{25}{chapter.7}}
\@writefile{lof}{\addvspace {10\p@ }}
\@writefile{lot}{\addvspace {10\p@ }}
\newlabel{natl}{{7}{25}{``N\'{E}CESSIT\'{E} D'UNE MESURE COMMUNAUTAIRE HARMONISANT LES DROITS INTERNES ET FONDEMENT JURIDIQUE D'UNE TELLE MESURE''\relax }{chapter.7}{}}
\@writefile{toc}{\contentsline {chapter}{\numberline {8}``LA D\'{E}MARCHE ADOPT\'{E}E''}{29}{chapter.8}}
\@writefile{lof}{\addvspace {10\p@ }}
\@writefile{lot}{\addvspace {10\p@ }}
\newlabel{adop}{{8}{29}{``LA D\'{E}MARCHE ADOPT\'{E}E''\relax }{chapter.8}{}}
\newlabel{consultation submission}{{8}{31}{``LA D\'{E}MARCHE ADOPT\'{E}E''\relax }{Hfootnote.34}{}}
\@writefile{toc}{\contentsline {chapter}{\numberline {9}``BASE JURIDIQUE DE L'HARMONISATION''}{33}{chapter.9}}
\@writefile{lof}{\addvspace {10\p@ }}
\@writefile{lot}{\addvspace {10\p@ }}
\newlabel{harm}{{9}{33}{``BASE JURIDIQUE DE L'HARMONISATION''\relax }{chapter.9}{}}
\@writefile{toc}{\contentsline {chapter}{\numberline {10}``EXPLICATION DE LA DIRECTIVE ARTICLE PAR ARTICLE''}{34}{chapter.10}}
\@writefile{lof}{\addvspace {10\p@ }}
\@writefile{lot}{\addvspace {10\p@ }}
\newlabel{expl}{{10}{34}{``EXPLICATION DE LA DIRECTIVE ARTICLE PAR ARTICLE''\relax }{chapter.10}{}}
\@writefile{toc}{\contentsline {section}{\numberline {10.1}Article 1}{34}{section.10.1}}
\newlabel{xpl1}{{10.1}{34}{Article 1\relax }{section.10.1}{}}
\@writefile{toc}{\contentsline {section}{\numberline {10.2}Article 2}{34}{section.10.2}}
\newlabel{xpl2}{{10.2}{34}{Article 2\relax }{section.10.2}{}}
\@writefile{toc}{\contentsline {section}{\numberline {10.3}Article 3}{35}{section.10.3}}
\newlabel{xpl3}{{10.3}{35}{Article 3\relax }{section.10.3}{}}
\@writefile{toc}{\contentsline {section}{\numberline {10.4}Article 4}{35}{section.10.4}}
\newlabel{xpl4}{{10.4}{35}{Article 4\relax }{section.10.4}{}}
\@writefile{toc}{\contentsline {section}{\numberline {10.5}Article 5}{37}{section.10.5}}
\newlabel{xpl5}{{10.5}{37}{Article 5\relax }{section.10.5}{}}
\@writefile{toc}{\contentsline {section}{\numberline {10.6}Article 6}{38}{section.10.6}}
\newlabel{xpl6}{{10.6}{38}{Article 6\relax }{section.10.6}{}}
\@writefile{toc}{\contentsline {section}{\numberline {10.7}Article 7}{39}{section.10.7}}
\newlabel{xpl7}{{10.7}{39}{Article 7\relax }{section.10.7}{}}
\@writefile{toc}{\contentsline {section}{\numberline {10.8}Article 8}{39}{section.10.8}}
\newlabel{xpl8}{{10.8}{39}{Article 8\relax }{section.10.8}{}}
\@writefile{toc}{\contentsline {section}{\numberline {10.9}Articles 9, 10 et 11}{39}{section.10.9}}
\newlabel{xpl9}{{10.9}{39}{Articles 9, 10 et 11\relax }{section.10.9}{}}
