\relax 
\catcode`"\active
\ifx\hyper@anchor\@undefined
\global \let \oldcontentsline\contentsline
\gdef \contentsline#1#2#3#4{\oldcontentsline{#1}{#2}{#3}}
\global \let \oldnewlabel\newlabel
\gdef \newlabel#1#2{\newlabelxx{#1}#2}
\gdef \newlabelxx#1#2#3#4#5#6{\oldnewlabel{#1}{{#2}{#3}}}
\AtEndDocument{\let \contentsline\oldcontentsline
\let \newlabel\oldnewlabel}
\else
\global \let \hyper@last\relax 
\fi

\select@language{catalan}
\@writefile{toc}{\select@language{catalan}}
\@writefile{lof}{\select@language{catalan}}
\@writefile{lot}{\select@language{catalan}}
\@writefile{toc}{\contentsline {chapter}{\numberline {1}``EXPLANATORY MEMORANDUM''}{4}{chapter.1}}
\@writefile{lof}{\addvspace {10\p@ }}
\@writefile{lot}{\addvspace {10\p@ }}
\newlabel{exme}{{1}{4}{``EXPLANATORY MEMORANDUM''\relax }{chapter.1}{}}
\@writefile{toc}{\contentsline {chapter}{\numberline {2}The background to the initiative: Commission's consultations}{7}{chapter.2}}
\@writefile{lof}{\addvspace {10\p@ }}
\@writefile{lot}{\addvspace {10\p@ }}
\newlabel{bakg}{{2}{7}{The background to the initiative: Commission's consultations\relax }{chapter.2}{}}
\@writefile{toc}{\contentsline {chapter}{\numberline {3}``International competition: The legal situation in the U.S. and Japan''}{13}{chapter.3}}
\@writefile{lof}{\addvspace {10\p@ }}
\@writefile{lot}{\addvspace {10\p@ }}
\newlabel{kpet}{{3}{13}{``International competition: The legal situation in the U.S. and Japan''\relax }{chapter.3}{}}
\@writefile{toc}{\contentsline {chapter}{\numberline {4}``The current legal situation regarding art. 52(1) and (2) of the epc.''}{17}{chapter.4}}
\@writefile{lof}{\addvspace {10\p@ }}
\@writefile{lot}{\addvspace {10\p@ }}
\newlabel{legs}{{4}{17}{``The current legal situation regarding art. 52(1) and (2) of the epc.''\relax }{chapter.4}{}}
\@writefile{toc}{\contentsline {chapter}{\numberline {5}``The role of algorithms''}{20}{chapter.5}}
\@writefile{lof}{\addvspace {10\p@ }}
\@writefile{lot}{\addvspace {10\p@ }}
\newlabel{algo}{{5}{20}{``The role of algorithms''\relax }{chapter.5}{}}
\@writefile{toc}{\contentsline {chapter}{\numberline {6}``Patent and copyright protection are complementary''}{22}{chapter.6}}
\@writefile{lof}{\addvspace {10\p@ }}
\@writefile{lot}{\addvspace {10\p@ }}
\newlabel{pako}{{6}{22}{``Patent and copyright protection are complementary''\relax }{chapter.6}{}}
\@writefile{toc}{\contentsline {chapter}{\numberline {7}``The necessity of a Community action harmonising national laws and its legal basis''}{25}{chapter.7}}
\@writefile{lof}{\addvspace {10\p@ }}
\@writefile{lot}{\addvspace {10\p@ }}
\newlabel{natl}{{7}{25}{``The necessity of a Community action harmonising national laws and its legal basis''\relax }{chapter.7}{}}
\@writefile{toc}{\contentsline {chapter}{\numberline {8}``The approach adopted''}{28}{chapter.8}}
\@writefile{lof}{\addvspace {10\p@ }}
\@writefile{lot}{\addvspace {10\p@ }}
\newlabel{adop}{{8}{28}{``The approach adopted''\relax }{chapter.8}{}}
\newlabel{consultation submission}{{8}{30}{``The approach adopted''\relax }{Hfootnote.36}{}}
\@writefile{toc}{\contentsline {chapter}{\numberline {9}``The legal basis for harmonisation''}{32}{chapter.9}}
\@writefile{lof}{\addvspace {10\p@ }}
\@writefile{lot}{\addvspace {10\p@ }}
\newlabel{harm}{{9}{32}{``The legal basis for harmonisation''\relax }{chapter.9}{}}
\@writefile{toc}{\contentsline {chapter}{\numberline {10}``Explanation of the Directive article by article''}{33}{chapter.10}}
\@writefile{lof}{\addvspace {10\p@ }}
\@writefile{lot}{\addvspace {10\p@ }}
\newlabel{expl}{{10}{33}{``Explanation of the Directive article by article''\relax }{chapter.10}{}}
\@writefile{toc}{\contentsline {section}{\numberline {10.1}Article 1}{33}{section.10.1}}
\newlabel{xpl1}{{10.1}{33}{Article 1\relax }{section.10.1}{}}
\@writefile{toc}{\contentsline {section}{\numberline {10.2}Article 2}{33}{section.10.2}}
\newlabel{xpl2}{{10.2}{33}{Article 2\relax }{section.10.2}{}}
\@writefile{toc}{\contentsline {section}{\numberline {10.3}Article 3}{34}{section.10.3}}
\newlabel{xpl3}{{10.3}{34}{Article 3\relax }{section.10.3}{}}
\@writefile{toc}{\contentsline {section}{\numberline {10.4}Article 4}{34}{section.10.4}}
\newlabel{xpl4}{{10.4}{34}{Article 4\relax }{section.10.4}{}}
\@writefile{toc}{\contentsline {section}{\numberline {10.5}Article 5}{37}{section.10.5}}
\newlabel{xpl5}{{10.5}{37}{Article 5\relax }{section.10.5}{}}
\@writefile{toc}{\contentsline {section}{\numberline {10.6}Article 6}{38}{section.10.6}}
\newlabel{xpl6}{{10.6}{38}{Article 6\relax }{section.10.6}{}}
\@writefile{toc}{\contentsline {section}{\numberline {10.7}Article 7}{38}{section.10.7}}
\newlabel{xpl7}{{10.7}{38}{Article 7\relax }{section.10.7}{}}
\@writefile{toc}{\contentsline {section}{\numberline {10.8}Article 8}{38}{section.10.8}}
\newlabel{xpl8}{{10.8}{38}{Article 8\relax }{section.10.8}{}}
\@writefile{toc}{\contentsline {section}{\numberline {10.9}Articles 9,10 i 11}{39}{section.10.9}}
\newlabel{xpl9}{{10.9}{39}{Articles 9,10 i 11\relax }{section.10.9}{}}
