\relax 
\ifx\hyper@anchor\@undefined
\global \let \oldcontentsline\contentsline
\gdef \contentsline#1#2#3#4{\oldcontentsline{#1}{#2}{#3}}
\global \let \oldnewlabel\newlabel
\gdef \newlabel#1#2{\newlabelxx{#1}#2}
\gdef \newlabelxx#1#2#3#4#5#6{\oldnewlabel{#1}{{#2}{#3}}}
\AtEndDocument{\let \contentsline\oldcontentsline
\let \newlabel\oldnewlabel}
\else
\global \let \hyper@last\relax 
\fi

\@writefile{toc}{\contentsline {chapter}{\numberline {1}``BEGR\"{U}NDUNG''}{4}{chapter.1}}
\@writefile{lof}{\addvspace {10\p@ }}
\@writefile{lot}{\addvspace {10\p@ }}
\newlabel{exme}{{1}{4}{``BEGR\"{U}NDUNG''\relax }{chapter.1}{}}
\@writefile{toc}{\contentsline {chapter}{\numberline {2}VORGESCHICHTE: SONDIERUNGEN DURCH DIE KOMMISSION}{7}{chapter.2}}
\@writefile{lof}{\addvspace {10\p@ }}
\@writefile{lot}{\addvspace {10\p@ }}
\newlabel{bakg}{{2}{7}{VORGESCHICHTE: SONDIERUNGEN DURCH DIE KOMMISSION\relax }{chapter.2}{}}
\@writefile{toc}{\contentsline {chapter}{\numberline {3}``INTERNATIONALER WETTBEWERB: DIE RECHTSLAGE IN DEN USA UND IN JAPAN''}{13}{chapter.3}}
\@writefile{lof}{\addvspace {10\p@ }}
\@writefile{lot}{\addvspace {10\p@ }}
\newlabel{kpet}{{3}{13}{``INTERNATIONALER WETTBEWERB: DIE RECHTSLAGE IN DEN USA UND IN JAPAN''\relax }{chapter.3}{}}
\@writefile{toc}{\contentsline {chapter}{\numberline {4}``DERZEITIGE RECHTSLAGE IM ZUSAMMENHANG MIT ARTIKEL 52 ABSATZ 1 UND 2 EP\"{U}''}{17}{chapter.4}}
\@writefile{lof}{\addvspace {10\p@ }}
\@writefile{lot}{\addvspace {10\p@ }}
\newlabel{legs}{{4}{17}{``DERZEITIGE RECHTSLAGE IM ZUSAMMENHANG MIT ARTIKEL 52 ABSATZ 1 UND 2 EP\"{U}''\relax }{chapter.4}{}}
\@writefile{toc}{\contentsline {chapter}{\numberline {5}``Funktion von Algorithmen''}{20}{chapter.5}}
\@writefile{lof}{\addvspace {10\p@ }}
\@writefile{lot}{\addvspace {10\p@ }}
\newlabel{algo}{{5}{20}{``Funktion von Algorithmen''\relax }{chapter.5}{}}
\@writefile{toc}{\contentsline {chapter}{\numberline {6}``Patent- und Urheberrechtschutz erg\"{a}nzen sich''}{22}{chapter.6}}
\@writefile{lof}{\addvspace {10\p@ }}
\@writefile{lot}{\addvspace {10\p@ }}
\newlabel{pako}{{6}{22}{``Patent- und Urheberrechtschutz erg\"{a}nzen sich''\relax }{chapter.6}{}}
\@writefile{toc}{\contentsline {chapter}{\numberline {7}``NOTWENDIGKEIT EINER GEMEINSCHAFTSMA{\ss }NAHME ZUR HARMONISIERUNG DER NATIONALEN RECHTSVORSCHRIFTEN UND RECHTSGRUNDLAGE DIESER MA{\ss }NAHME''}{25}{chapter.7}}
\@writefile{lof}{\addvspace {10\p@ }}
\@writefile{lot}{\addvspace {10\p@ }}
\newlabel{natl}{{7}{25}{``NOTWENDIGKEIT EINER GEMEINSCHAFTSMA{\ss }NAHME ZUR HARMONISIERUNG DER NATIONALEN RECHTSVORSCHRIFTEN UND RECHTSGRUNDLAGE DIESER MA{\ss }NAHME''\relax }{chapter.7}{}}
\@writefile{toc}{\contentsline {chapter}{\numberline {8}``GEW\"{A}HLTER ANSATZ''}{29}{chapter.8}}
\@writefile{lof}{\addvspace {10\p@ }}
\@writefile{lot}{\addvspace {10\p@ }}
\newlabel{adop}{{8}{29}{``GEW\"{A}HLTER ANSATZ''\relax }{chapter.8}{}}
\newlabel{consultation submission}{{8}{32}{``GEW\"{A}HLTER ANSATZ''\relax }{Hfootnote.34}{}}
\@writefile{toc}{\contentsline {chapter}{\numberline {9}``RECHTSGRUNDLAGE F\"{U}R DIE HARMONISIERUNG''}{33}{chapter.9}}
\@writefile{lof}{\addvspace {10\p@ }}
\@writefile{lot}{\addvspace {10\p@ }}
\newlabel{harm}{{9}{33}{``RECHTSGRUNDLAGE F\"{U}R DIE HARMONISIERUNG''\relax }{chapter.9}{}}
\@writefile{toc}{\contentsline {chapter}{\numberline {10}``Erl\"{a}uterung der einzelnen Artikeln (sic!) der Richtlinie''}{34}{chapter.10}}
\@writefile{lof}{\addvspace {10\p@ }}
\@writefile{lot}{\addvspace {10\p@ }}
\newlabel{expl}{{10}{34}{``Erl\"{a}uterung der einzelnen Artikeln (sic!) der Richtlinie''\relax }{chapter.10}{}}
\@writefile{toc}{\contentsline {section}{\numberline {10.1}Artikel 1}{34}{section.10.1}}
\newlabel{xpl1}{{10.1}{34}{Artikel 1\relax }{section.10.1}{}}
\@writefile{toc}{\contentsline {section}{\numberline {10.2}Artikel 2}{34}{section.10.2}}
\newlabel{xpl2}{{10.2}{34}{Artikel 2\relax }{section.10.2}{}}
\@writefile{toc}{\contentsline {section}{\numberline {10.3}Artikel 3}{35}{section.10.3}}
\newlabel{xpl3}{{10.3}{35}{Artikel 3\relax }{section.10.3}{}}
\@writefile{toc}{\contentsline {section}{\numberline {10.4}Artikel 4}{35}{section.10.4}}
\newlabel{xpl4}{{10.4}{35}{Artikel 4\relax }{section.10.4}{}}
\@writefile{toc}{\contentsline {section}{\numberline {10.5}Artikel 5}{38}{section.10.5}}
\newlabel{xpl5}{{10.5}{38}{Artikel 5\relax }{section.10.5}{}}
\@writefile{toc}{\contentsline {section}{\numberline {10.6}Artikel 6}{39}{section.10.6}}
\newlabel{xpl6}{{10.6}{39}{Artikel 6\relax }{section.10.6}{}}
\@writefile{toc}{\contentsline {section}{\numberline {10.7}Artikel 7}{39}{section.10.7}}
\newlabel{xpl7}{{10.7}{39}{Artikel 7\relax }{section.10.7}{}}
\@writefile{toc}{\contentsline {section}{\numberline {10.8}Artikel 8}{40}{section.10.8}}
\newlabel{xpl8}{{10.8}{40}{Artikel 8\relax }{section.10.8}{}}
\@writefile{toc}{\contentsline {section}{\numberline {10.9}Artikel 9, 10 und 11}{40}{section.10.9}}
\newlabel{xpl9}{{10.9}{40}{Artikel 9, 10 und 11\relax }{section.10.9}{}}
