\BOOKMARK [0][-]{chapter.1}{``BEGR\334NDUNG''}{}
\BOOKMARK [0][-]{chapter.2}{VORGESCHICHTE: SONDIERUNGEN DURCH DIE KOMMISSION}{}
\BOOKMARK [0][-]{chapter.3}{``INTERNATIONALER WETTBEWERB: DIE RECHTSLAGE IN DEN USA UND IN JAPAN''}{}
\BOOKMARK [0][-]{chapter.4}{``DERZEITIGE RECHTSLAGE IM ZUSAMMENHANG MIT ARTIKEL 52 ABSATZ 1 UND 2 EP\334''}{}
\BOOKMARK [0][-]{chapter.5}{``Funktion von Algorithmen''}{}
\BOOKMARK [0][-]{chapter.6}{``Patent- und Urheberrechtschutz erg\344nzen sich''}{}
\BOOKMARK [0][-]{chapter.7}{``NOTWENDIGKEIT EINER GEMEINSCHAFTSMA\337NAHME ZUR HARMONISIERUNG DER NATIONALEN RECHTSVORSCHRIFTEN UND RECHTSGRUNDLAGE DIESER MA\337NAHME''}{}
\BOOKMARK [0][-]{chapter.8}{``GEW\304HLTER ANSATZ''}{}
\BOOKMARK [0][-]{chapter.9}{``RECHTSGRUNDLAGE F\334R DIE HARMONISIERUNG''}{}
\BOOKMARK [0][-]{chapter.10}{``Erl\344uterung der einzelnen Artikeln \(sic!\) der Richtlinie''}{}
\BOOKMARK [1][-]{section.10.1}{Artikel 1}{chapter.10}
\BOOKMARK [1][-]{section.10.2}{Artikel 2}{chapter.10}
\BOOKMARK [1][-]{section.10.3}{Artikel 3}{chapter.10}
\BOOKMARK [1][-]{section.10.4}{Artikel 4}{chapter.10}
\BOOKMARK [1][-]{section.10.5}{Artikel 5}{chapter.10}
\BOOKMARK [1][-]{section.10.6}{Artikel 6}{chapter.10}
\BOOKMARK [1][-]{section.10.7}{Artikel 7}{chapter.10}
\BOOKMARK [1][-]{section.10.8}{Artikel 8}{chapter.10}
\BOOKMARK [1][-]{section.10.9}{Artikel 9, 10 und 11}{chapter.10}
