\relax 
\ifx\hyper@anchor\@undefined
\global \let \oldcontentsline\contentsline
\gdef \contentsline#1#2#3#4{\oldcontentsline{#1}{#2}{#3}}
\global \let \oldnewlabel\newlabel
\gdef \newlabel#1#2{\newlabelxx{#1}#2}
\gdef \newlabelxx#1#2#3#4#5#6{\oldnewlabel{#1}{{#2}{#3}}}
\AtEndDocument{\let \contentsline\oldcontentsline
\let \newlabel\oldnewlabel}
\else
\global \let \hyper@last\relax 
\fi

\@writefile{toc}{\contentsline {section}{\numberline {1}Reynald Fl\'{e}chaux of IDG and Le Monde Informatique: Excellent research}{1}{section.1}}
\newlabel{rflechaux}{{1}{1}{Reynald Fl\'{e}chaux of IDG and Le Monde Informatique: Excellent research\relax }{section.1}{}}
\@writefile{toc}{\contentsline {section}{\numberline {2}Paul Meller of IDG: repeated extreme misinformation}{2}{section.2}}
\newlabel{pmeller}{{2}{2}{Paul Meller of IDG: repeated extreme misinformation\relax }{section.2}{}}
