\contentsline {chapter}{\numberline {1}Header Text}{4}{chapter.1}
\contentsline {chapter}{\numberline {2}Tabular Comparison: CEC/BSA vs CEU/DKPTO}{5}{chapter.2}
\contentsline {chapter}{\numberline {3}Annotated Links}{10}{chapter.3}
