\contentsline {chapter}{\numberline {1}Titeltext}{4}{chapter.1}
\contentsline {chapter}{\numberline {2}Tabellarische Gegen\"{u}berstellung: EUK/BSA vs REU/DKPMA}{5}{chapter.2}
\contentsline {chapter}{\numberline {3}Kommentierte Verweise}{10}{chapter.3}
