\relax 
\ifx\hyper@anchor\@undefined
\global \let \oldcontentsline\contentsline
\gdef \contentsline#1#2#3#4{\oldcontentsline{#1}{#2}{#3}}
\global \let \oldnewlabel\newlabel
\gdef \newlabel#1#2{\newlabelxx{#1}#2}
\gdef \newlabelxx#1#2#3#4#5#6{\oldnewlabel{#1}{{#2}{#3}}}
\AtEndDocument{\let \contentsline\oldcontentsline
\let \newlabel\oldnewlabel}
\else
\global \let \hyper@last\relax 
\fi

\@writefile{toc}{\contentsline {chapter}{\numberline {1}Header Text}{4}{chapter.1}}
\@writefile{lof}{\addvspace {10\p@ }}
\@writefile{lot}{\addvspace {10\p@ }}
\newlabel{kap}{{1}{4}{Header Text\relax }{chapter.1}{}}
\@writefile{toc}{\contentsline {chapter}{\numberline {2}Tabular Comparison: CEC/BSA vs CEU/DKPTO}{5}{chapter.2}}
\@writefile{lof}{\addvspace {10\p@ }}
\@writefile{lot}{\addvspace {10\p@ }}
\newlabel{prop}{{2}{5}{Tabular Comparison: CEC/BSA vs CEU/DKPTO\relax }{chapter.2}{}}
\newlabel{prop2}{{2.1}{6}{Tabular Comparison: CEC/BSA vs CEU/DKPTO\relax }{Hfootnote.3}{}}
\newlabel{prop3}{{2.1}{6}{Tabular Comparison: CEC/BSA vs CEU/DKPTO\relax }{Hfootnote.5}{}}
\newlabel{prop4}{{2.1}{6}{Tabular Comparison: CEC/BSA vs CEU/DKPTO\relax }{Hfootnote.5}{}}
\newlabel{prop5}{{2.1}{7}{Tabular Comparison: CEC/BSA vs CEU/DKPTO\relax }{Hfootnote.8}{}}
\gdef \LT@i{\omit \kern 203.86249pt&\omit \kern 203.4625pt}
\newlabel{prop6}{{2.1}{8}{Tabular Comparison: CEC/BSA vs CEU/DKPTO\relax }{Hfootnote.9}{}}
\newlabel{prop7}{{2.1}{8}{Tabular Comparison: CEC/BSA vs CEU/DKPTO\relax }{Hfootnote.11}{}}
\@writefile{toc}{\contentsline {chapter}{\numberline {3}Annotated Links}{10}{chapter.3}}
\@writefile{lof}{\addvspace {10\p@ }}
\@writefile{lot}{\addvspace {10\p@ }}
\newlabel{links}{{3}{10}{Annotated Links\relax }{chapter.3}{}}
