\relax 
\ifx\hyper@anchor\@undefined
\global \let \oldcontentsline\contentsline
\gdef \contentsline#1#2#3#4{\oldcontentsline{#1}{#2}{#3}}
\global \let \oldnewlabel\newlabel
\gdef \newlabel#1#2{\newlabelxx{#1}#2}
\gdef \newlabelxx#1#2#3#4#5#6{\oldnewlabel{#1}{{#2}{#3}}}
\AtEndDocument{\let \contentsline\oldcontentsline
\let \newlabel\oldnewlabel}
\else
\global \let \hyper@last\relax 
\fi

\@writefile{toc}{\contentsline {chapter}{\numberline {1}Titeltext}{4}{chapter.1}}
\@writefile{lof}{\addvspace {10\p@ }}
\@writefile{lot}{\addvspace {10\p@ }}
\newlabel{kap}{{1}{4}{Titeltext\relax }{chapter.1}{}}
\@writefile{toc}{\contentsline {chapter}{\numberline {2}Tabellarische Gegen\"{u}berstellung: EUK/BSA vs REU/DKPMA}{5}{chapter.2}}
\@writefile{lof}{\addvspace {10\p@ }}
\@writefile{lot}{\addvspace {10\p@ }}
\newlabel{prop}{{2}{5}{Tabellarische Gegen\"{u}berstellung: EUK/BSA vs REU/DKPMA\relax }{chapter.2}{}}
\newlabel{prop2}{{2.1}{6}{Tabellarische Gegen\"{u}berstellung: EUK/BSA vs REU/DKPMA\relax }{Hfootnote.5}{}}
\newlabel{prop3}{{2.1}{6}{Tabellarische Gegen\"{u}berstellung: EUK/BSA vs REU/DKPMA\relax }{Hfootnote.7}{}}
\newlabel{prop4}{{2.1}{6}{Tabellarische Gegen\"{u}berstellung: EUK/BSA vs REU/DKPMA\relax }{Hfootnote.7}{}}
\newlabel{prop5}{{2.1}{7}{Tabellarische Gegen\"{u}berstellung: EUK/BSA vs REU/DKPMA\relax }{Hfootnote.10}{}}
\gdef \LT@i{\omit \kern 203.86249pt&\omit \kern 203.4625pt}
\newlabel{prop6}{{2.1}{8}{Tabellarische Gegen\"{u}berstellung: EUK/BSA vs REU/DKPMA\relax }{Hfootnote.11}{}}
\newlabel{prop7}{{2.1}{8}{Tabellarische Gegen\"{u}berstellung: EUK/BSA vs REU/DKPMA\relax }{Hfootnote.13}{}}
\@writefile{toc}{\contentsline {chapter}{\numberline {3}Kommentierte Verweise}{10}{chapter.3}}
\@writefile{lof}{\addvspace {10\p@ }}
\@writefile{lot}{\addvspace {10\p@ }}
\newlabel{links}{{3}{10}{Kommentierte Verweise\relax }{chapter.3}{}}
