\relax 
\ifx\hyper@anchor\@undefined
\global \let \oldcontentsline\contentsline
\gdef \contentsline#1#2#3#4{\oldcontentsline{#1}{#2}{#3}}
\global \let \oldnewlabel\newlabel
\gdef \newlabel#1#2{\newlabelxx{#1}#2}
\gdef \newlabelxx#1#2#3#4#5#6{\oldnewlabel{#1}{{#2}{#3}}}
\AtEndDocument{\let \contentsline\oldcontentsline
\let \newlabel\oldnewlabel}
\else
\global \let \hyper@last\relax 
\fi

\@writefile{toc}{\contentsline {section}{\numberline {1}Media Contacts}{1}{section.1}}
\newlabel{media}{{1}{1}{Media Contacts\relax }{section.1}{}}
\@writefile{toc}{\contentsline {section}{\numberline {2}About the FFII -- www.ffii.org}{2}{section.2}}
\newlabel{ffii}{{2}{2}{About the FFII -- www.ffii.org\relax }{section.2}{}}
\@writefile{toc}{\contentsline {section}{\numberline {3}About the Eurolinux Alliance -- www.eurolinux.org}{2}{section.3}}
\newlabel{eurolinux}{{3}{2}{About the Eurolinux Alliance -- www.eurolinux.org\relax }{section.3}{}}
\@writefile{toc}{\contentsline {section}{\numberline {4}Permanent URL of this Press Release}{2}{section.4}}
\newlabel{url}{{4}{2}{Permanent URL of this Press Release\relax }{section.4}{}}
