\select@language {french}
\select@language {french}
\contentsline {section}{\numberline {1}details}{2}{section.0.1}
\contentsline {section}{\numberline {2}Contact Media}{3}{section.0.2}
\contentsline {section}{\numberline {3}URL permanente de cette publication}{3}{section.0.3}
\contentsline {section}{\numberline {4}Liens Annot\'{e}s}{3}{section.0.4}
