\contentsline {section}{\numberline {1}Media Contacts}{1}{section.1}
\contentsline {section}{\numberline {2}About the FFII -- www.ffii.org}{2}{section.2}
\contentsline {section}{\numberline {3}About the Eurolinux Alliance -- www.eurolinux.org}{2}{section.3}
\contentsline {section}{\numberline {4}Permanent URL of this Press Release}{2}{section.4}
