\BOOKMARK [1][-]{section.0.1}{details}{}
\BOOKMARK [1][-]{section.0.2}{Contact Media}{}
\BOOKMARK [1][-]{section.0.3}{URL permanente de cette publication}{}
\BOOKMARK [1][-]{section.0.4}{Liens Annot\351s}{}
