\contentsline {section}{\numberline {1}Titus Article}{2}{section.1}
\contentsline {section}{\numberline {2}Zachary Statement}{5}{section.2}
\contentsline {section}{\numberline {3}Annotated Links}{6}{section.3}
