\relax 
\ifx\hyper@anchor\@undefined
\global \let \oldcontentsline\contentsline
\gdef \contentsline#1#2#3#4{\oldcontentsline{#1}{#2}{#3}}
\global \let \oldnewlabel\newlabel
\gdef \newlabel#1#2{\newlabelxx{#1}#2}
\gdef \newlabelxx#1#2#3#4#5#6{\oldnewlabel{#1}{{#2}{#3}}}
\AtEndDocument{\let \contentsline\oldcontentsline
\let \newlabel\oldnewlabel}
\else
\global \let \hyper@last\relax 
\fi

\@writefile{toc}{\contentsline {section}{\numberline {1}Titus Article}{2}{section.1}}
\newlabel{titus}{{1}{2}{Titus Article\relax }{section.1}{}}
\@writefile{toc}{\contentsline {section}{\numberline {2}Zachary Statement}{5}{section.2}}
\newlabel{zach}{{2}{5}{Zachary Statement\relax }{section.2}{}}
\@writefile{toc}{\contentsline {section}{\numberline {3}Annotated Links}{6}{section.3}}
\newlabel{links}{{3}{6}{Annotated Links\relax }{section.3}{}}
\gdef\scr@tpo@lst{0}
