\relax 
\ifx\hyper@anchor\@undefined
\global \let \oldcontentsline\contentsline
\gdef \contentsline#1#2#3#4{\oldcontentsline{#1}{#2}{#3}}
\global \let \oldnewlabel\newlabel
\gdef \newlabel#1#2{\newlabelxx{#1}#2}
\gdef \newlabelxx#1#2#3#4#5#6{\oldnewlabel{#1}{{#2}{#3}}}
\AtEndDocument{\let \contentsline\oldcontentsline
\let \newlabel\oldnewlabel}
\else
\global \let \hyper@last\relax 
\fi

\@writefile{toc}{\contentsline {section}{\numberline {1}Current situation}{1}{section.1}}
\newlabel{situ}{{1}{1}{Current situation\relax }{section.1}{}}
\@writefile{toc}{\contentsline {section}{\numberline {2}Sequence of Steps}{2}{section.2}}
\newlabel{steps}{{2}{2}{Sequence of Steps\relax }{section.2}{}}
\gdef\scr@tpo@lst{0}
