\relax 
\ifx\hyper@anchor\@undefined
\global \let \oldcontentsline\contentsline
\gdef \contentsline#1#2#3#4{\oldcontentsline{#1}{#2}{#3}}
\global \let \oldnewlabel\newlabel
\gdef \newlabel#1#2{\newlabelxx{#1}#2}
\gdef \newlabelxx#1#2#3#4#5#6{\oldnewlabel{#1}{{#2}{#3}}}
\AtEndDocument{\let \contentsline\oldcontentsline
\let \newlabel\oldnewlabel}
\else
\global \let \hyper@last\relax 
\fi

\@writefile{toc}{\contentsline {section}{\numberline {1}Annotated Links}{1}{section.1}}
\newlabel{links}{{1}{1}{Annotated Links\relax }{section.1}{}}
\@writefile{toc}{\contentsline {section}{\numberline {2}Comments}{2}{section.2}}
\newlabel{koments}{{2}{2}{Comments\relax }{section.2}{}}
\@writefile{toc}{\contentsline {subsection}{\numberline {2.1}Hartmut Pilch}{2}{subsection.2.1}}
\newlabel{phm}{{2.1}{2}{Hartmut Pilch\relax }{subsection.2.1}{}}
\@writefile{toc}{\contentsline {subsection}{\numberline {2.2}Jonas Maebe}{2}{subsection.2.2}}
\newlabel{jmaebe}{{2.2}{2}{Jonas Maebe\relax }{subsection.2.2}{}}
\gdef\scr@tpo@lst{0}
