\contentsline {section}{\numberline {1}Kommentierte Verweise}{1}{section.1}
\contentsline {section}{\numberline {2}Kommentare}{2}{section.2}
\contentsline {subsection}{\numberline {2.1}Hartmut Pilch}{2}{subsection.2.1}
\contentsline {subsection}{\numberline {2.2}Jonas Maebe}{2}{subsection.2.2}
