\contentsline {section}{\numberline {1}Was Sie tun k\"{o}nnen}{2}{section.1}
\contentsline {subsection}{\numberline {1.1}An der Konferenz teilnehmen}{2}{subsection.1.1}
\contentsline {subsection}{\numberline {1.2}Weitere Teilnehmer werben}{2}{subsection.1.2}
\contentsline {subsection}{\numberline {1.3}Dokumentations-CD zusammenstellen helfen}{2}{subsection.1.3}
\contentsline {section}{\numberline {2}Hintergrund der Konferenz}{2}{section.2}
\contentsline {section}{\numberline {3}Unterzeichner}{3}{section.3}
\contentsline {section}{\numberline {4}Konferenzprogramm}{3}{section.4}
\contentsline {section}{\numberline {5}Unser besonderer Gast}{4}{section.5}
