\contentsline {section}{\numberline {1}What you can do}{2}{section.1}
\contentsline {subsection}{\numberline {1.1}[ in Germany only: ] Attend the conference}{2}{subsection.1.1}
\contentsline {subsection}{\numberline {1.2}[ in Germany only: ] Get others to participate}{2}{subsection.1.2}
\contentsline {subsection}{\numberline {1.3}[ everywhere: ] Help put together a Documentation CD}{2}{subsection.1.3}
\contentsline {section}{\numberline {2}Background of the Conference}{2}{section.2}
\contentsline {section}{\numberline {3}signed by}{3}{section.3}
\contentsline {section}{\numberline {4}Conference Programme}{3}{section.4}
\contentsline {section}{\numberline {5}Our Special Guest}{4}{section.5}
