\relax 
\ifx\hyper@anchor\@undefined
\global \let \oldcontentsline\contentsline
\gdef \contentsline#1#2#3#4{\oldcontentsline{#1}{#2}{#3}}
\global \let \oldnewlabel\newlabel
\gdef \newlabel#1#2{\newlabelxx{#1}#2}
\gdef \newlabelxx#1#2#3#4#5#6{\oldnewlabel{#1}{{#2}{#3}}}
\AtEndDocument{\let \contentsline\oldcontentsline
\let \newlabel\oldnewlabel}
\else
\global \let \hyper@last\relax 
\fi

\@writefile{toc}{\contentsline {section}{\numberline {1}Was Sie tun k\"{o}nnen}{2}{section.1}}
\newlabel{act}{{1}{2}{Was Sie tun k\"{o}nnen\relax }{section.1}{}}
\@writefile{toc}{\contentsline {subsection}{\numberline {1.1}An der Konferenz teilnehmen}{2}{subsection.1.1}}
\newlabel{partop}{{1.1}{2}{An der Konferenz teilnehmen\relax }{subsection.1.1}{}}
\@writefile{toc}{\contentsline {subsection}{\numberline {1.2}Weitere Teilnehmer werben}{2}{subsection.1.2}}
\newlabel{varb}{{1.2}{2}{Weitere Teilnehmer werben\relax }{subsection.1.2}{}}
\@writefile{toc}{\contentsline {subsection}{\numberline {1.3}Dokumentations-CD zusammenstellen helfen}{2}{subsection.1.3}}
\newlabel{doku}{{1.3}{2}{Dokumentations-CD zusammenstellen helfen\relax }{subsection.1.3}{}}
\@writefile{toc}{\contentsline {section}{\numberline {2}Hintergrund der Konferenz}{2}{section.2}}
\newlabel{konf}{{2}{2}{Hintergrund der Konferenz\relax }{section.2}{}}
\@writefile{toc}{\contentsline {section}{\numberline {3}Unterzeichner}{3}{section.3}}
\newlabel{sign}{{3}{3}{Unterzeichner\relax }{section.3}{}}
\@writefile{toc}{\contentsline {section}{\numberline {4}Konferenzprogramm}{3}{section.4}}
\newlabel{prog}{{4}{3}{Konferenzprogramm\relax }{section.4}{}}
\@writefile{toc}{\contentsline {section}{\numberline {5}Unser besonderer Gast}{4}{section.5}}
\newlabel{l}{{5}{4}{Unser besonderer Gast\relax }{section.5}{}}
