\relax 
\ifx\hyper@anchor\@undefined
\global \let \oldcontentsline\contentsline
\gdef \contentsline#1#2#3#4{\oldcontentsline{#1}{#2}{#3}}
\global \let \oldnewlabel\newlabel
\gdef \newlabel#1#2{\newlabelxx{#1}#2}
\gdef \newlabelxx#1#2#3#4#5#6{\oldnewlabel{#1}{{#2}{#3}}}
\AtEndDocument{\let \contentsline\oldcontentsline
\let \newlabel\oldnewlabel}
\else
\global \let \hyper@last\relax 
\fi

\@writefile{toc}{\contentsline {section}{\numberline {1}What you can do}{2}{section.1}}
\newlabel{act}{{1}{2}{What you can do\relax }{section.1}{}}
\@writefile{toc}{\contentsline {subsection}{\numberline {1.1}[ in Germany only: ] Attend the conference}{2}{subsection.1.1}}
\newlabel{partop}{{1.1}{2}{[ in Germany only: ] Attend the conference\relax }{subsection.1.1}{}}
\@writefile{toc}{\contentsline {subsection}{\numberline {1.2}[ in Germany only: ] Get others to participate}{2}{subsection.1.2}}
\newlabel{varb}{{1.2}{2}{[ in Germany only: ] Get others to participate\relax }{subsection.1.2}{}}
\@writefile{toc}{\contentsline {subsection}{\numberline {1.3}[ everywhere: ] Help put together a Documentation CD}{2}{subsection.1.3}}
\newlabel{doku}{{1.3}{2}{[ everywhere: ] Help put together a Documentation CD\relax }{subsection.1.3}{}}
\@writefile{toc}{\contentsline {section}{\numberline {2}Background of the Conference}{2}{section.2}}
\newlabel{konf}{{2}{2}{Background of the Conference\relax }{section.2}{}}
\@writefile{toc}{\contentsline {section}{\numberline {3}signed by}{3}{section.3}}
\newlabel{sign}{{3}{3}{signed by\relax }{section.3}{}}
\@writefile{toc}{\contentsline {section}{\numberline {4}Conference Programme}{3}{section.4}}
\newlabel{prog}{{4}{3}{Conference Programme\relax }{section.4}{}}
\@writefile{toc}{\contentsline {section}{\numberline {5}Our Special Guest}{4}{section.5}}
\newlabel{l}{{5}{4}{Our Special Guest\relax }{section.5}{}}
