\relax 
\ifx\hyper@anchor\@undefined
\global \let \oldcontentsline\contentsline
\gdef \contentsline#1#2#3#4{\oldcontentsline{#1}{#2}{#3}}
\global \let \oldnewlabel\newlabel
\gdef \newlabel#1#2{\newlabelxx{#1}#2}
\gdef \newlabelxx#1#2#3#4#5#6{\oldnewlabel{#1}{{#2}{#3}}}
\AtEndDocument{\let \contentsline\oldcontentsline
\let \newlabel\oldnewlabel}
\else
\global \let \hyper@last\relax 
\fi

\@writefile{toc}{\contentsline {section}{\numberline {1}Hintergr\"{u}nde}{2}{section.1}}
\newlabel{detal}{{1}{2}{Hintergr\"{u}nde\relax }{section.1}{}}
\@writefile{toc}{\contentsline {section}{\numberline {2}Ansprechpartner f\"{u}r Medien}{3}{section.2}}
\newlabel{media}{{2}{3}{Ansprechpartner f\"{u}r Medien\relax }{section.2}{}}
\@writefile{toc}{\contentsline {section}{\numberline {3}Permanente Netzadresse dieser Mitteilung}{3}{section.3}}
\newlabel{url}{{3}{3}{Permanente Netzadresse dieser Mitteilung\relax }{section.3}{}}
\@writefile{toc}{\contentsline {section}{\numberline {4}Kommentierte Verweise}{3}{section.4}}
\newlabel{links}{{4}{3}{Kommentierte Verweise\relax }{section.4}{}}
