\BOOKMARK [1][-]{section.1}{achtergrondinformatie}{}
\BOOKMARK [1][-]{section.2}{Mediacontacten}{}
\BOOKMARK [1][-]{section.3}{Permanente link naar deze persmededeling}{}
\BOOKMARK [1][-]{section.4}{koppelingen met voetnoten}{}
