\select@language {portuguese}
\contentsline {section}{\numberline {1}backgrounds}{2}{section.1}
\contentsline {section}{\numberline {2}Contactos para os Media}{3}{section.2}
\contentsline {section}{\numberline {3}URL Permanente deste Press Release}{3}{section.3}
\contentsline {section}{\numberline {4}Links Anotados}{3}{section.4}
