\select@language {italian}
\contentsline {section}{\numberline {1}backgrounds}{2}{section.1}
\contentsline {section}{\numberline {2}Media Contacts}{3}{section.2}
\contentsline {section}{\numberline {3}Informazioni sull'FFII -- www.ffii.org}{3}{section.3}
\contentsline {section}{\numberline {4}L'alleanza Eurolinux -- www.eurolinux.org}{3}{section.4}
\contentsline {section}{\numberline {5}URL permanente di questo comunicato stampa.}{4}{section.5}
\contentsline {section}{\numberline {6}Annotated Links}{4}{section.6}
