\relax 
\catcode`"\active
\ifx\hyper@anchor\@undefined
\global \let \oldcontentsline\contentsline
\gdef \contentsline#1#2#3#4{\oldcontentsline{#1}{#2}{#3}}
\global \let \oldnewlabel\newlabel
\gdef \newlabel#1#2{\newlabelxx{#1}#2}
\gdef \newlabelxx#1#2#3#4#5#6{\oldnewlabel{#1}{{#2}{#3}}}
\AtEndDocument{\let \contentsline\oldcontentsline
\let \newlabel\oldnewlabel}
\else
\global \let \hyper@last\relax 
\fi

\select@language{italian}
\@writefile{toc}{\select@language{italian}}
\@writefile{lof}{\select@language{italian}}
\@writefile{lot}{\select@language{italian}}
\@writefile{toc}{\contentsline {section}{\numberline {1}backgrounds}{2}{section.1}}
\newlabel{detal}{{1}{2}{backgrounds\relax }{section.1}{}}
\@writefile{toc}{\contentsline {section}{\numberline {2}Media Contacts}{3}{section.2}}
\newlabel{media}{{2}{3}{Media Contacts\relax }{section.2}{}}
\@writefile{toc}{\contentsline {section}{\numberline {3}Informazioni sull'FFII -- www.ffii.org}{3}{section.3}}
\newlabel{ffii}{{3}{3}{Informazioni sull'FFII -- www.ffii.org\relax }{section.3}{}}
\@writefile{toc}{\contentsline {section}{\numberline {4}L'alleanza Eurolinux -- www.eurolinux.org}{3}{section.4}}
\newlabel{eurolinux}{{4}{3}{L'alleanza Eurolinux -- www.eurolinux.org\relax }{section.4}{}}
\@writefile{toc}{\contentsline {section}{\numberline {5}URL permanente di questo comunicato stampa.}{4}{section.5}}
\newlabel{url}{{5}{4}{URL permanente di questo comunicato stampa}{section.5}{}}
\@writefile{toc}{\contentsline {section}{\numberline {6}Annotated Links}{4}{section.6}}
\newlabel{links}{{6}{4}{Annotated Links\relax }{section.6}{}}
