\contentsline {section}{\numberline {1}achtergrondinformatie}{2}{section.1}
\contentsline {section}{\numberline {2}Mediacontacten}{3}{section.2}
\contentsline {section}{\numberline {3}Permanente link naar deze persmededeling}{3}{section.3}
\contentsline {section}{\numberline {4}koppelingen met voetnoten}{3}{section.4}
