\BOOKMARK [1][-]{section.1}{Consultation Fraud for the Benefit of the Patent Law Community}{}
\BOOKMARK [1][-]{section.2}{UKPO Doublespeak}{}
\BOOKMARK [1][-]{section.3}{Lack of Invention Concept in the UK Patents Act}{}
\BOOKMARK [1][-]{section.4}{The Business Method debate in the UK}{}
\BOOKMARK [1][-]{section.5}{Enlla\347os anotats}{}
\BOOKMARK [1][-]{section.6}{Q\374estions, Coses Per Fer, Com pots Ajudar}{}
