\relax 
\ifx\hyper@anchor\@undefined
\global \let \oldcontentsline\contentsline
\gdef \contentsline#1#2#3#4{\oldcontentsline{#1}{#2}{#3}}
\global \let \oldnewlabel\newlabel
\gdef \newlabel#1#2{\newlabelxx{#1}#2}
\gdef \newlabelxx#1#2#3#4#5#6{\oldnewlabel{#1}{{#2}{#3}}}
\AtEndDocument{\let \contentsline\oldcontentsline
\let \newlabel\oldnewlabel}
\else
\global \let \hyper@last\relax 
\fi

\csname auxWARNINGii\endcsname {\typeout {-34- this file and other auxiliary files require to use the following}}
\csname auxWARNINGii\endcsname {\typeout {-34- LaTeX packages: french and babel!}}
\csname auxWARNINGii\endcsname {\typeout {-34- check \protect \usepackage \space or remove these files. Typesetting is aborted!} \stop }
\select@language{french}
\@writefile{toc}{\select@language{french}}
\@writefile{lof}{\select@language{french}}
\@writefile{lot}{\select@language{french}}
\select@language{french}
\@writefile{toc}{\select@language{french}}
\@writefile{lof}{\select@language{french}}
\@writefile{lot}{\select@language{french}}
\@writefile{toc}{\contentsline {section}{\numberline {1}Consultation Fraud for the Benefit of the Patent Law Community}{2}{section.0.1}}
\newlabel{intro}{{1}{2}{Consultation Fraud for the Benefit of the Patent Law Community\relax }{section.0.1}{}}
\@writefile{toc}{\contentsline {section}{\numberline {2}UKPO Doublespeak}{3}{section.0.2}}
\newlabel{duobl}{{2}{3}{UKPO Doublespeak\relax }{section.0.2}{}}
\@writefile{toc}{\contentsline {section}{\numberline {3}Lack of Invention Concept in the UK Patents Act}{5}{section.0.3}}
\newlabel{tinv}{{3}{5}{Lack of Invention Concept in the UK Patents Act\relax }{section.0.3}{}}
\@writefile{toc}{\contentsline {section}{\numberline {4}The Business Method debate in the UK}{5}{section.0.4}}
\newlabel{busm}{{4}{5}{The Business Method debate in the UK\relax }{section.0.4}{}}
\@writefile{toc}{\contentsline {section}{\numberline {5}Liens Annot\'{e}s}{6}{section.0.5}}
\newlabel{links}{{5}{6}{Liens Annot\'{e}s\relax }{section.0.5}{}}
\@writefile{toc}{\contentsline {section}{\numberline {6}Questions, Choses a faires, Comment vous pouvez aider}{6}{section.0.6}}
\newlabel{tasks}{{6}{6}{Questions, Choses a faires, Comment vous pouvez aider\relax }{section.0.6}{}}
