\relax 
\catcode`"\active
\ifx\hyper@anchor\@undefined
\global \let \oldcontentsline\contentsline
\gdef \contentsline#1#2#3#4{\oldcontentsline{#1}{#2}{#3}}
\global \let \oldnewlabel\newlabel
\gdef \newlabel#1#2{\newlabelxx{#1}#2}
\gdef \newlabelxx#1#2#3#4#5#6{\oldnewlabel{#1}{{#2}{#3}}}
\AtEndDocument{\let \contentsline\oldcontentsline
\let \newlabel\oldnewlabel}
\else
\global \let \hyper@last\relax 
\fi

\select@language{catalan}
\@writefile{toc}{\select@language{catalan}}
\@writefile{lof}{\select@language{catalan}}
\@writefile{lot}{\select@language{catalan}}
\@writefile{toc}{\contentsline {section}{\numberline {1}Consultation Fraud for the Benefit of the Patent Law Community}{2}{section.1}}
\newlabel{intro}{{1}{2}{Consultation Fraud for the Benefit of the Patent Law Community\relax }{section.1}{}}
\@writefile{toc}{\contentsline {section}{\numberline {2}UKPO Doublespeak}{3}{section.2}}
\newlabel{duobl}{{2}{3}{UKPO Doublespeak\relax }{section.2}{}}
\@writefile{toc}{\contentsline {section}{\numberline {3}Lack of Invention Concept in the UK Patents Act}{5}{section.3}}
\newlabel{tinv}{{3}{5}{Lack of Invention Concept in the UK Patents Act\relax }{section.3}{}}
\@writefile{toc}{\contentsline {section}{\numberline {4}The Business Method debate in the UK}{5}{section.4}}
\newlabel{busm}{{4}{5}{The Business Method debate in the UK\relax }{section.4}{}}
\@writefile{toc}{\contentsline {section}{\numberline {5}Enlla\c {c}os anotats}{6}{section.5}}
\newlabel{links}{{5}{6}{Enlla\c {c}os anotats\relax }{section.5}{}}
\@writefile{toc}{\contentsline {section}{\numberline {6}Q\@umlaut {u}estions, Coses Per Fer, Com pots Ajudar}{6}{section.6}}
\newlabel{tasks}{{6}{6}{Q\"{u}estions, Coses Per Fer, Com pots Ajudar\relax }{section.6}{}}
