\relax 
\ifx\hyper@anchor\@undefined
\global \let \oldcontentsline\contentsline
\gdef \contentsline#1#2#3#4{\oldcontentsline{#1}{#2}{#3}}
\global \let \oldnewlabel\newlabel
\gdef \newlabel#1#2{\newlabelxx{#1}#2}
\gdef \newlabelxx#1#2#3#4#5#6{\oldnewlabel{#1}{{#2}{#3}}}
\AtEndDocument{\let \contentsline\oldcontentsline
\let \newlabel\oldnewlabel}
\else
\global \let \hyper@last\relax 
\fi

\gdef \LT@i{\omit \kern 196.83345pt&\omit \kern 196.43346pt}
\@writefile{toc}{\contentsline {section}{\numberline {1}Consultation Fraud for the Benefit of the Patent Law Community}{2}{section.1}}
\newlabel{intro}{{1}{2}{Consultation Fraud for the Benefit of the Patent Law Community\relax }{section.1}{}}
\gdef \LT@ii{\omit \kern 88.08292pt&\omit \kern 125.33078pt&\omit \kern 200.61371pt}
\@writefile{toc}{\contentsline {section}{\numberline {2}UKPO Doublespeak}{3}{section.2}}
\newlabel{duobl}{{2}{3}{UKPO Doublespeak\relax }{section.2}{}}
\@writefile{toc}{\contentsline {section}{\numberline {3}Lack of Invention Concept in the UK Patents Act}{4}{section.3}}
\newlabel{tinv}{{3}{4}{Lack of Invention Concept in the UK Patents Act\relax }{section.3}{}}
\@writefile{toc}{\contentsline {section}{\numberline {4}The Business Method debate in the UK}{5}{section.4}}
\newlabel{busm}{{4}{5}{The Business Method debate in the UK\relax }{section.4}{}}
\@writefile{toc}{\contentsline {section}{\numberline {5}Annotated Links}{6}{section.5}}
\newlabel{links}{{5}{6}{Annotated Links\relax }{section.5}{}}
\@writefile{toc}{\contentsline {section}{\numberline {6}Questions, Things To Do, How you can Help}{6}{section.6}}
\newlabel{tasks}{{6}{6}{Questions, Things To Do, How you can Help\relax }{section.6}{}}
