\BOOKMARK [1][-]{section.1}{Situation im Allgemeinen}{}
\BOOKMARK [1][-]{section.2}{Kurznachrichten}{}
\BOOKMARK [2][-]{subsection.2.1}{Gemeinschaftspatent-Bekenntnis in Laeken}{section.2}
\BOOKMARK [2][-]{subsection.2.2}{Patentinflation konterkariert EU-Deregulierungs-Initiativen}{section.2}
\BOOKMARK [2][-]{subsection.2.3}{Frz Informatiker-Gewerkschaft: Softwarepatente machen Europa zur Vierten Welt der Informatik}{section.2}
\BOOKMARK [2][-]{subsection.2.4}{Liikanen: Commission to Propose Legalisation of Software Patents}{section.2}
\BOOKMARK [2][-]{subsection.2.5}{BGH: programs not patentable but program claims may be acceptable}{section.2}
\BOOKMARK [2][-]{subsection.2.6}{Turkish software professionals alarmed over Patent Dangers}{section.2}
\BOOKMARK [2][-]{subsection.2.7}{Eurolinux Position on the Community Patent }{section.2}
\BOOKMARK [2][-]{subsection.2.8}{CEC Consensus on Software Patentability Directive}{section.2}
\BOOKMARK [2][-]{subsection.2.9}{Kober's Directive: EPO President authorises patents on computer programs and business methods}{section.2}
\BOOKMARK [2][-]{subsection.2.10}{W3C to allow royalty-burdened standards}{section.2}
\BOOKMARK [2][-]{subsection.2.11}{CDU-Papier schl\344gt Patent-Sonderregelung f\374r Software vor}{section.2}
\BOOKMARK [2][-]{subsection.2.12}{German Informatics Corporatists worried about Systematics of Patent Law: GI Position Paper on Patentability of Computer Implementable Rules of Organisation and Calculation}{section.2}
\BOOKMARK [2][-]{subsection.2.13}{Fraunhofer/MPI 2001: Economic/Legal Study about Software Patents}{section.2}
\BOOKMARK [2][-]{subsection.2.14}{Seminar Linuxtag Stuttgart 2001-07-05: 15 years of software patenting at the European Patent Office: the concept of ``technical invention'' in 1986, today and in the future}{section.2}
\BOOKMARK [2][-]{subsection.2.15}{Berlin 2001-06-21: Software Patents Hearing in the Federal Parliament}{section.2}
\BOOKMARK [2][-]{subsection.2.16}{Dangers from Extension of Hague Convention}{section.2}
\BOOKMARK [2][-]{subsection.2.17}{EU Governments against codification of EPO practise -- studies and consultations to open freedom of action}{section.2}
\BOOKMARK [2][-]{subsection.2.18}{German Law to turn universities into patent factories}{section.2}
\BOOKMARK [2][-]{subsection.2.19}{WIPO to codify unlimited patentability and strict limitation of patent quality}{section.2}
