\relax 
\ifx\hyper@anchor\@undefined
\global \let \oldcontentsline\contentsline
\gdef \contentsline#1#2#3#4{\oldcontentsline{#1}{#2}{#3}}
\global \let \oldnewlabel\newlabel
\gdef \newlabel#1#2{\newlabelxx{#1}#2}
\gdef \newlabelxx#1#2#3#4#5#6{\oldnewlabel{#1}{{#2}{#3}}}
\AtEndDocument{\let \contentsline\oldcontentsline
\let \newlabel\oldnewlabel}
\else
\global \let \hyper@last\relax 
\fi

\@writefile{toc}{\contentsline {section}{\numberline {1}Situation im Allgemeinen}{2}{section.1}}
\newlabel{situ}{{1}{2}{Situation im Allgemeinen\relax }{section.1}{}}
\@writefile{toc}{\contentsline {section}{\numberline {2}Kurznachrichten}{3}{section.2}}
\newlabel{news}{{2}{3}{Kurznachrichten\relax }{section.2}{}}
\@writefile{toc}{\contentsline {subsection}{\numberline {2.1}Gemeinschaftspatent-Bekenntnis in Laeken}{3}{subsection.2.1}}
\newlabel{swncpat01C}{{5}{3}{Gemeinschaftspatent-Bekenntnis in Laeken\relax }{Hfootnote.5}{}}
\@writefile{toc}{\contentsline {subsection}{\numberline {2.2}Patentinflation konterkariert EU-Deregulierungs-Initiativen}{3}{subsection.2.2}}
\newlabel{c01CI}{{7}{4}{Patentinflation konterkariert EU-Deregulierungs-Initiativen\relax }{Hfootnote.7}{}}
\@writefile{toc}{\contentsline {subsection}{\numberline {2.3}Frz Informatiker-Gewerkschaft: Softwarepatente machen Europa zur Vierten Welt der Informatik}{4}{subsection.2.3}}
\newlabel{s01CE}{{2.3}{4}{Frz Informatiker-Gewerkschaft: Softwarepatente machen Europa zur Vierten Welt der Informatik\relax }{Hfootnote.8}{}}
\@writefile{toc}{\contentsline {subsection}{\numberline {2.4}Liikanen: Commission to Propose Legalisation of Software Patents}{4}{subsection.2.4}}
\newlabel{l01CE}{{2.4}{4}{Liikanen: Commission to Propose Legalisation of Software Patents\relax }{Hfootnote.9}{}}
\@writefile{toc}{\contentsline {subsection}{\numberline {2.5}BGH: programs not patentable but program claims may be acceptable}{4}{subsection.2.5}}
\newlabel{bgh-suche01}{{2.5}{4}{BGH: programs not patentable but program claims may be acceptable\relax }{Hfootnote.10}{}}
\@writefile{toc}{\contentsline {subsection}{\numberline {2.6}Turkish software professionals alarmed over Patent Dangers}{5}{subsection.2.6}}
\newlabel{b01C9}{{14}{5}{Turkish software professionals alarmed over Patent Dangers\relax }{Hfootnote.14}{}}
\@writefile{toc}{\contentsline {subsection}{\numberline {2.7}Eurolinux Position on the Community Patent }{5}{subsection.2.7}}
\newlabel{cpat01B}{{2.7}{5}{Eurolinux Position on the Community Patent \relax }{Hfootnote.15}{}}
\@writefile{toc}{\contentsline {subsection}{\numberline {2.8}CEC Consensus on Software Patentability Directive}{5}{subsection.2.8}}
\newlabel{swneuip01A}{{2.8}{5}{CEC Consensus on Software Patentability Directive\relax }{Hfootnote.16}{}}
\@writefile{toc}{\contentsline {subsection}{\numberline {2.9}Kober's Directive: EPO President authorises patents on computer programs and business methods}{5}{subsection.2.9}}
\newlabel{swnepgl01A}{{2.9}{6}{Kober's Directive: EPO President authorises patents on computer programs and business methods\relax }{Hfootnote.17}{}}
\@writefile{toc}{\contentsline {subsection}{\numberline {2.10}W3C to allow royalty-burdened standards}{6}{subsection.2.10}}
\newlabel{swnrand01A}{{2.10}{6}{W3C to allow royalty-burdened standards\relax }{Hfootnote.18}{}}
\@writefile{toc}{\contentsline {subsection}{\numberline {2.11}CDU-Papier schl\"{a}gt Patent-Sonderregelung f\"{u}r Software vor}{6}{subsection.2.11}}
\newlabel{c018}{{2.11}{6}{CDU-Papier schl\"{a}gt Patent-Sonderregelung f\"{u}r Software vor\relax }{Hfootnote.19}{}}
\@writefile{toc}{\contentsline {subsection}{\numberline {2.12}German Informatics Corporatists worried about Systematics of Patent Law: GI Position Paper on Patentability of Computer Implementable Rules of Organisation and Calculation}{6}{subsection.2.12}}
\newlabel{eukonsult00-mayr}{{2.12}{7}{German Informatics Corporatists worried about Systematics of Patent Law: GI Position Paper on Patentability of Computer Implementable Rules of Organisation and Calculation\relax }{Hfootnote.20}{}}
\@writefile{toc}{\contentsline {subsection}{\numberline {2.13}Fraunhofer/MPI 2001: Economic/Legal Study about Software Patents}{7}{subsection.2.13}}
\newlabel{bmwi-fhgmpi01}{{2.13}{7}{Fraunhofer/MPI 2001: Economic/Legal Study about Software Patents\relax }{Hfootnote.21}{}}
\@writefile{toc}{\contentsline {subsection}{\numberline {2.14}Seminar Linuxtag Stuttgart 2001-07-05: 15 years of software patenting at the European Patent Office: the concept of ``technical invention'' in 1986, today and in the future}{8}{subsection.2.14}}
\newlabel{swplxtg017}{{2.14}{8}{Seminar Linuxtag Stuttgart 2001-07-05: 15 years of software patenting at the European Patent Office: the concept of ``technical invention'' in 1986, today and in the future\relax }{Hfootnote.22}{}}
\@writefile{toc}{\contentsline {subsection}{\numberline {2.15}Berlin 2001-06-21: Software Patents Hearing in the Federal Parliament}{8}{subsection.2.15}}
\newlabel{swpbtag016}{{2.15}{8}{Berlin 2001-06-21: Software Patents Hearing in the Federal Parliament\relax }{Hfootnote.23}{}}
\@writefile{toc}{\contentsline {subsection}{\numberline {2.16}Dangers from Extension of Hague Convention}{9}{subsection.2.16}}
\newlabel{swnhaag016}{{2.16}{9}{Dangers from Extension of Hague Convention\relax }{Hfootnote.24}{}}
\@writefile{toc}{\contentsline {subsection}{\numberline {2.17}EU Governments against codification of EPO practise -- studies and consultations to open freedom of action}{9}{subsection.2.17}}
\newlabel{b015}{{2.17}{9}{EU Governments against codification of EPO practise -- studies and consultations to open freedom of action\relax }{Hfootnote.25}{}}
\@writefile{toc}{\contentsline {subsection}{\numberline {2.18}German Law to turn universities into patent factories}{9}{subsection.2.18}}
\newlabel{swnbmbf014}{{2.18}{10}{German Law to turn universities into patent factories\relax }{Hfootnote.26}{}}
\@writefile{toc}{\contentsline {subsection}{\numberline {2.19}WIPO to codify unlimited patentability and strict limitation of patent quality}{10}{subsection.2.19}}
\newlabel{swnwipo014}{{2.19}{10}{WIPO to codify unlimited patentability and strict limitation of patent quality\relax }{Hfootnote.27}{}}
