\relax 
\ifx\hyper@anchor\@undefined
\global \let \oldcontentsline\contentsline
\gdef \contentsline#1#2#3#4{\oldcontentsline{#1}{#2}{#3}}
\global \let \oldnewlabel\newlabel
\gdef \newlabel#1#2{\newlabelxx{#1}#2}
\gdef \newlabelxx#1#2#3#4#5#6{\oldnewlabel{#1}{{#2}{#3}}}
\AtEndDocument{\let \contentsline\oldcontentsline
\let \newlabel\oldnewlabel}
\else
\global \let \hyper@last\relax 
\fi

\@writefile{toc}{\contentsline {section}{\numberline {1}Situation im Allgemeinen}{2}{section.1}}
\newlabel{situ}{{1}{2}{Situation im Allgemeinen\relax }{section.1}{}}
\@writefile{toc}{\contentsline {section}{\numberline {2}Kurznachrichten}{4}{section.2}}
\newlabel{news}{{2}{4}{Kurznachrichten\relax }{section.2}{}}
\@writefile{toc}{\contentsline {subsection}{\numberline {2.1}Gemeinschaftspatent-Bekenntnis in Laeken}{4}{subsection.2.1}}
\newlabel{swncpat01C}{{8}{4}{Gemeinschaftspatent-Bekenntnis in Laeken\relax }{Hfootnote.8}{}}
\@writefile{toc}{\contentsline {subsection}{\numberline {2.2}Patentinflation konterkariert EU-Deregulierungs-Initiativen}{4}{subsection.2.2}}
\newlabel{c01CI}{{10}{4}{Patentinflation konterkariert EU-Deregulierungs-Initiativen\relax }{Hfootnote.10}{}}
\@writefile{toc}{\contentsline {subsection}{\numberline {2.3}Frz Informatiker-Gewerkschaft: Softwarepatente machen Europa zur Vierten Welt der Informatik}{4}{subsection.2.3}}
\newlabel{s01CE}{{2.3}{5}{Frz Informatiker-Gewerkschaft: Softwarepatente machen Europa zur Vierten Welt der Informatik\relax }{Hfootnote.11}{}}
\@writefile{toc}{\contentsline {subsection}{\numberline {2.4}Liikanen: Kommission wird Legalisierung von Softwarepatenten vorschlagen}{5}{subsection.2.4}}
\newlabel{l01CE}{{2.4}{5}{Liikanen: Kommission wird Legalisierung von Softwarepatenten vorschlagen\relax }{Hfootnote.12}{}}
\@writefile{toc}{\contentsline {subsection}{\numberline {2.5}BGH: Programme nicht patentierbar aber Programmanspr\"{u}che vielleicht akzeptierbar}{5}{subsection.2.5}}
\newlabel{bgh-suche01}{{2.5}{5}{BGH: Programme nicht patentierbar aber Programmanspr\"{u}che vielleicht akzeptierbar\relax }{Hfootnote.13}{}}
\@writefile{toc}{\contentsline {subsection}{\numberline {2.6}T\"{u}rkische IuK-Branche \"{u}ber Swpat-Gefahren alarmiert}{5}{subsection.2.6}}
\newlabel{b01C9}{{17}{6}{T\"{u}rkische IuK-Branche \"{u}ber Swpat-Gefahren alarmiert\relax }{Hfootnote.17}{}}
\@writefile{toc}{\contentsline {subsection}{\numberline {2.7}Eurolinux-Position zum Gemeinschaftspatent}{6}{subsection.2.7}}
\newlabel{cpat01B}{{2.7}{6}{Eurolinux-Position zum Gemeinschaftspatent\relax }{Hfootnote.18}{}}
\@writefile{toc}{\contentsline {subsection}{\numberline {2.8}Einigung der Eur Kommission \"{u}ber Softwarepatentrichtlinie?}{6}{subsection.2.8}}
\newlabel{swneuip01A}{{2.8}{6}{Einigung der Eur Kommission \"{u}ber Softwarepatentrichtlinie?\relax }{Hfootnote.19}{}}
\@writefile{toc}{\contentsline {subsection}{\numberline {2.9}Kobers Richtlinie: EPA-Pr\"{a}sident autorisiert Patente auf Computerprogramme und Gesch\"{a}ftsverfahren}{6}{subsection.2.9}}
\newlabel{swnepgl01A}{{2.9}{7}{Kobers Richtlinie: EPA-Pr\"{a}sident autorisiert Patente auf Computerprogramme und Gesch\"{a}ftsverfahren\relax }{Hfootnote.20}{}}
\@writefile{toc}{\contentsline {subsection}{\numberline {2.10}W3C will geb\"{u}hrenpflichtige WWW-Standards erlauben}{7}{subsection.2.10}}
\newlabel{swnrand01A}{{2.10}{7}{W3C will geb\"{u}hrenpflichtige WWW-Standards erlauben\relax }{Hfootnote.21}{}}
\@writefile{toc}{\contentsline {subsection}{\numberline {2.11}CDU-Papier schl\"{a}gt Patent-Sonderregelung f\"{u}r Software vor}{7}{subsection.2.11}}
\newlabel{c018}{{2.11}{7}{CDU-Papier schl\"{a}gt Patent-Sonderregelung f\"{u}r Software vor\relax }{Hfootnote.22}{}}
\@writefile{toc}{\contentsline {subsection}{\numberline {2.12}Informatik-Honoratioren sorgen sich um Systematik des Patentrechts: Stellungnahme der GI zur Frage der Patentierbarkeit Computer-Implementierbarer Organisations- und Rechenregeln}{8}{subsection.2.12}}
\newlabel{eukonsult00-mayr}{{2.12}{8}{Informatik-Honoratioren sorgen sich um Systematik des Patentrechts: Stellungnahme der GI zur Frage der Patentierbarkeit Computer-Implementierbarer Organisations- und Rechenregeln\relax }{Hfootnote.23}{}}
\@writefile{toc}{\contentsline {subsection}{\numberline {2.13}Fraunhofer/ISI 2001: \"{O}konomisch-Rechtliche Studie \"{u}ber Softwarepatente}{8}{subsection.2.13}}
\newlabel{bmwi-fhgmpi01}{{2.13}{9}{Fraunhofer/ISI 2001: \"{O}konomisch-Rechtliche Studie \"{u}ber Softwarepatente\relax }{Hfootnote.24}{}}
\@writefile{toc}{\contentsline {subsection}{\numberline {2.14}Seminar Linuxtag Stuttgart 2001-07-05: 15 Jahre Softwarepatentierung am Europ\"{a}ischen Patentamt: der Technikbegriff 1986, heute und in Zukunft}{9}{subsection.2.14}}
\newlabel{swplxtg017}{{2.14}{9}{Seminar Linuxtag Stuttgart 2001-07-05: 15 Jahre Softwarepatentierung am Europ\"{a}ischen Patentamt: der Technikbegriff 1986, heute und in Zukunft\relax }{Hfootnote.25}{}}
\@writefile{toc}{\contentsline {subsection}{\numberline {2.15}Berlin 2001-06-21: Bundestags-Expertengespr\"{a}ch Softwarepatente}{9}{subsection.2.15}}
\newlabel{swpbtag016}{{2.15}{10}{Berlin 2001-06-21: Bundestags-Expertengespr\"{a}ch Softwarepatente\relax }{Hfootnote.26}{}}
\@writefile{toc}{\contentsline {subsection}{\numberline {2.16}Gefahren durch Ausweitung des Haager \"{U}bereinkommens}{10}{subsection.2.16}}
\newlabel{swnhaag016}{{2.16}{10}{Gefahren durch Ausweitung des Haager \"{U}bereinkommens\relax }{Hfootnote.27}{}}
\@writefile{toc}{\contentsline {subsection}{\numberline {2.17}EU-Regierungen gegen Kodifizierung der EPA-Praxis -- Studien und Konsultationen er\"{o}ffnen Handlungsspielraum}{10}{subsection.2.17}}
\newlabel{b015}{{2.17}{10}{EU-Regierungen gegen Kodifizierung der EPA-Praxis -- Studien und Konsultationen er\"{o}ffnen Handlungsspielraum\relax }{Hfootnote.28}{}}
\@writefile{toc}{\contentsline {subsection}{\numberline {2.18}Gesetzentwurf soll Hochschulen zu Patentfabriken machen}{10}{subsection.2.18}}
\newlabel{swnbmbf014}{{2.18}{11}{Gesetzentwurf soll Hochschulen zu Patentfabriken machen\relax }{Hfootnote.29}{}}
\@writefile{toc}{\contentsline {subsection}{\numberline {2.19}WIPO will grenzenlose Patentierbarkeit und strenge Begrenzung der Patentqualit\"{a}t festschreiben.}{11}{subsection.2.19}}
\newlabel{swnwipo014}{{2.19}{11}{WIPO will grenzenlose Patentierbarkeit und strenge Begrenzung der Patentqualit\"{a}t festschreiben}{Hfootnote.30}{}}
