\relax 
\ifx\hyper@anchor\@undefined
\global \let \oldcontentsline\contentsline
\gdef \contentsline#1#2#3#4{\oldcontentsline{#1}{#2}{#3}}
\global \let \oldnewlabel\newlabel
\gdef \newlabel#1#2{\newlabelxx{#1}#2}
\gdef \newlabelxx#1#2#3#4#5#6{\oldnewlabel{#1}{{#2}{#3}}}
\AtEndDocument{\let \contentsline\oldcontentsline
\let \newlabel\oldnewlabel}
\else
\global \let \hyper@last\relax 
\fi

\@writefile{toc}{\contentsline {section}{\numberline {1}Bemoaning the Ineffectiveness of Fraudulent Communication Strategies}{3}{section.1}}
\newlabel{swpat}{{1}{3}{Bemoaning the Ineffectiveness of Fraudulent Communication Strategies\relax }{section.1}{}}
\@writefile{toc}{\contentsline {section}{\numberline {2}Promoting TRIPs Extremism in favor of Microsoft and Pharma Patent Lobby}{9}{section.2}}
\newlabel{trips}{{2}{9}{Promoting TRIPs Extremism in favor of Microsoft and Pharma Patent Lobby\relax }{section.2}{}}
\@writefile{toc}{\contentsline {section}{\numberline {3}Politics at the Service of Friends from Big Business}{9}{section.3}}
\newlabel{borst}{{3}{9}{Politics at the Service of Friends from Big Business\relax }{section.3}{}}
\@writefile{toc}{\contentsline {section}{\numberline {4}Annotated Links}{11}{section.4}}
\newlabel{links}{{4}{11}{Annotated Links\relax }{section.4}{}}
\@writefile{toc}{\contentsline {section}{\numberline {5}Questions, Things To Do, How you can Help}{13}{section.5}}
\newlabel{tasks}{{5}{13}{Questions, Things To Do, How you can Help\relax }{section.5}{}}
\gdef\scr@tpo@lst{0}
