\contentsline {section}{\numberline {1}Bemoaning the Ineffectiveness of Fraudulent Communication Strategies}{3}{section.1}
\contentsline {section}{\numberline {2}Promoting TRIPs Extremism in favor of Microsoft and Pharma Patent Lobby}{9}{section.2}
\contentsline {section}{\numberline {3}Politics at the Service of Friends from Big Business}{9}{section.3}
\contentsline {section}{\numberline {4}Annotated Links}{11}{section.4}
\contentsline {section}{\numberline {5}Questions, Things To Do, How you can Help}{13}{section.5}
