\contentsline {section}{\numberline {1}Mailing Lists}{2}{section.1}
\contentsline {section}{\numberline {2}Other News Sources}{3}{section.2}
\contentsline {section}{\numberline {3}Questions, Things To Do, How you can Help}{5}{section.3}
