\select@language {french}
\contentsline {section}{\numberline {1}Rondes de Courriel}{2}{section.1}
\contentsline {section}{\numberline {2}Autre Sources d'Actualit\'{e}s}{3}{section.2}
\contentsline {section}{\numberline {3}Questions, choses \`{a} faire, comment vous pouvez aider}{5}{section.3}
