\relax 
\catcode`:\active
\catcode`;\active
\catcode`!\active
\catcode`?\active
\ifx\hyper@anchor\@undefined
\global \let \oldcontentsline\contentsline
\gdef \contentsline#1#2#3#4{\oldcontentsline{#1}{#2}{#3}}
\global \let \oldnewlabel\newlabel
\gdef \newlabel#1#2{\newlabelxx{#1}#2}
\gdef \newlabelxx#1#2#3#4#5#6{\oldnewlabel{#1}{{#2}{#3}}}
\AtEndDocument{\let \contentsline\oldcontentsline
\let \newlabel\oldnewlabel}
\else
\global \let \hyper@last\relax 
\fi

\select@language{french}
\@writefile{toc}{\select@language{french}}
\@writefile{lof}{\select@language{french}}
\@writefile{lot}{\select@language{french}}
\@writefile{toc}{\contentsline {section}{\numberline {1}Rondes de Courriel}{2}{section.1}}
\newlabel{mlist}{{1}{2}{Rondes de Courriel\relax }{section.1}{}}
\@writefile{toc}{\contentsline {section}{\numberline {2}Autre Sources d'Actualit\'{e}s}{3}{section.2}}
\newlabel{netc}{{2}{3}{Autre Sources d'Actualit\'{e}s\relax }{section.2}{}}
\@writefile{toc}{\contentsline {section}{\numberline {3}Questions, choses \`{a} faire, comment vous pouvez aider}{5}{section.3}}
\newlabel{tasks}{{3}{5}{Questions, choses \`{a} faire, comment vous pouvez aider\relax }{section.3}{}}
\gdef\scr@tpo@lst{0}
