\contentsline {section}{\numberline {1}E-Post-Foren}{2}{section.1}
\contentsline {section}{\numberline {2}Weitere Nachrichtenquellen}{3}{section.2}
\contentsline {section}{\numberline {3}Fragen, Aufgaben, Wie Sie helfen k\"{o}nnen}{5}{section.3}
