\select@language {french}
\contentsline {section}{\numberline {1}Contenu}{1}{section.1}
\contentsline {section}{\numberline {2}Texte d'Invitation}{1}{section.2}
\contentsline {section}{\numberline {3}Liens Annot\'{e}s}{2}{section.3}
