\contentsline {section}{\numberline {1}details}{2}{section.1}
\contentsline {section}{\numberline {2}Media Contacts}{2}{section.2}
\contentsline {section}{\numberline {3}Permanent URL of this Press Release}{2}{section.3}
\contentsline {section}{\numberline {4}Annotated Links}{3}{section.4}
