\select@language {french}
\select@language {french}
\contentsline {section}{\numberline {1}details}{1}{section.0.1}
\contentsline {section}{\numberline {2}Contact Media}{2}{section.0.2}
\contentsline {section}{\numberline {3}URL permanente de cette publication}{2}{section.0.3}
\contentsline {section}{\numberline {4}Liens Annot\'{e}s}{2}{section.0.4}
