\contentsline {section}{\numberline {1}details}{2}{section.1}
\contentsline {section}{\numberline {2}Ansprechpartner f\"{u}r Medien}{2}{section.2}
\contentsline {section}{\numberline {3}Permanente Netzadresse dieser Mitteilung}{3}{section.3}
\contentsline {section}{\numberline {4}Kommentierte Verweise}{3}{section.4}
