aaaaatest	wasmeier.com
abel	informatik.uni-muenchen.de
arnd	g3th.net
ab	cswgmbh.de
abender	ldknet.org
alexander.brandt	uni-bielefeld.de
abstractorium	free.fr
abstractorium	free.fr
abu	software-lab.de
aceop	gmx.net
Achim.Schillinger	t-online.de
andre	malchen.de
adh	gmx.de
had53	gmx.net
adrigam	gmx.net
albd	wasmeier.com
Andreas-Fink	T-Online.de
alexander.fuchs	uni-koblenz.de
alexander.gloeckner	gmx.de
a.hilboll	web.de
lst_hoe	kwsoft.de
ahoesch	smartsoft.de
a.jaeke	web.de
a.j.henneboele	web.de
ajmail	attglobal.net
ajordan	spittix.de
andreas.koehler	thales-is.com
akcs	gmx.net
a.keusch	gmx.at
achim.kraus	kraus-softwareentwicklung.de
andreas.lemke	epost.de
alexander.letzas	sdm.de
alexander.hoernlein	web.de
her	admin.de
alfred.kretschmer	gmx.de
fb	alien8.de
akis	akis.at
hans-juergen	hoefer.net
info	alobar.de
alois.duck	wasmeier.com
steven.dziubiel	epost.de
Andreas.Matthus	web.de
a.malcher	web.de
amalthea	freenet.de
amaus	gmx.de
amayer	cosy.sbg.ac.at
phm	ffii.org
max	sternwelten.at
anders.henke	schlund.de
andiekohlers	web.de
andihartmann	freenet.de
aw	corti.de
andreas	rudert-home.de
andreas	kainz.com
andreas	huennebeck-online.de
andreas	sassermann.de
Andreas	Tofahrn.de
andreas.korinek	wizards-of-chemistry.net
andreas.nagel_	t-online.de
andreas.lankes	epost.de
andreas	ahit.de
andre.bender	gmx.de
andre	familie-liebe.net
andre.rieck	gmx.de
andre.schleife	gmx.de
andreas.roetschke	web.de
andy_pre	gmx.de
www.ffii.org	uhsemann.de
an.huber	gmx.net
anick	epost.de
anita.kirchdorfer	web.de
Anja.Pekrul	gmx.de
a100424	smail.uni-koeln.de
anker	circuitry.de
ansgar	team-licher.de
20020922-ffii	uxp.de
antheus	caledor.de
anton.staffler	fujitsu-siemens.com
an.weiss	gmx.net
a.ollinger	gmx.at
apollierer	web.de
aleksandar.pozgaj	gmx.at
n.hasenbanck	gmx.de
meyer	elcom.net
arebenti	web.de
are	lihas.de
ahoff	zoe-consulting.de
ariser	pilotomie.de
andreas.r	wtal.de
kolatzek	web.de
armin	graefe-forchheim.de
abs	pol87774p983.mc.schoenewald.de
arndt.heuvel	web.de
arnimffii	rupp.de
Arno_Fleck	gmx.de
webmaster	arnulfpelzer.de
arogge	gmx.de
aschlager	eunet.at
andreas.schwarz	hamburg.de
m.jahn	gmx.net
alex	tomisch.de
tschischka	web.de
aufschlager.lutz	snafu.de
augi	asamnet.de
avatar	lords.com
fabian.knittel	avona.com
A.Wagner	commontology.de
A.Wagner	stud.uni-frankfurt.de
aw.ffii	awilix.de
albrecht.will	t-online.de
Andreas.Winter	ePost.de
axel	dov.net
Axel.Rau	Chaos1.DE
d.ayers	inode.at
andreas.zilly	uni.de
azprivat	yahoo.de
baaden	smplinux.de
ballarmc	studi.informatik.uni-stuttgart.de
j.bugariu	wad.org
werbung	netzjunkie.de
barmeier	barmeier.com
hans.dembinski	kullenhof.de
bastian	blankenburg.net
werbung	alba-media.de
baumgartner	infotrax.de
bclassen	webmail.co.za
b.dillschneider	web.de
becker	cdg-mv.de
beerwish	lycos.com
beggers	ist-gmbh-net.de
behrens	ma.tum.de
benib	web.de
b.fallenstein	gmx.de
benjamin	goedereis.de
benjamir	minet.uni-jena.de
ben	spamcop.net
berberic	forwiss.uni-passau.de
wmb	internettrainer.com
bergerzittau	aol.com
bernd	timebarn.com
bema136	compuserve.de
bernd	petrovitsch.at
bernd	stejskal.de
bernd.van-de-sand	dresdner-bank.com
bvdb	kanka.de
bernnik	web.de
beyer	bsp-solutions.de
bfisseni	gmx.de
b	drogengegengewalt.de
BodoGiertz	web.de
bgruen	rhoen.de
bjh	datasysteme.de
bhoel	web.de
bianca	roland-mohrbacher.de
bigfoot	killerhippy.de
busgefahren	gmx.de
birdy2	funkbird.de
bish0p	mycore.info
bjoern.eschrich	beschrich.homeip.net
bjoernzessack	web.de
bernhard.kaindl	gmx.de
bernhard.kaindl	gmx.de
holgerlists	blasum.net
bluetoons	web.de
bluth	muenster.de
B.milhahn	web.de
b.molitor	gmx.net
bernhard_mollenhauer	web.de
b.mommenthal	web.de
bernhard.niessl	gmx.net
mail	tcottmann.de
bodo.schlecht	gmx.net
boehlen	cs.rwth-aachen.de
gerd.boerrigter	gmx.net
bootsy52	gmx.net
boris	macbeth.rhoen.de
michael.brach	uni-bonn.de
brandt	stud.uni-goettingen.de
peter-m.braun	icn.siemens.de
bernhard	intevation.de
brodmann	gmx.de
mail	andreas-brotzmann.de
m	mbsks.franken.de
Bruno.Amann	t-online.de
b.schad	web.de
bsieper	worldpilot.nl
hotbubble	gmx.at
mail	martin-burchard.de
www	b-burkhart.de
burntime	web.de
busch	vicbrother.de
j.dreyer	butonic.de
bernhard.wendler	epost.de
bwkeil	web.de
frank	wizards.de
phm	ffii.org
pollmeier	gonicus.de
harald.oehl	web.de
max	unmuted.de
marc-web	gmx.net
ian	carterian.com
cb	digital-movie.de
c.berauer	cenit.de
cbiebri	gwdg.de
cbrand01	yahoo.de
c.dalhoff	gmx.de
cdonat	gmx.de
cejaekel	aol.com
mail	celindir.de
christoph.fauck	fauck.info
cs-ffii	nil.ics.uci.edu
mister-s	gmx.net
chr.franzke	gmx.de
frick	sc-networks.de
cfuchs	n-net.org
phm	a2e.de
chacabaou	gmx.de
clemens	cybercon.de
chakotay505	freenet.de
boesch	keysolution.de
cs	cheasy.de
c-held	web.de
chris	smitty.de
christian.perner	gmx.net
cp	viskprog.org
christian.heller	tuxtax.de
christian_klass	web.de
christof	petig-baender.de
cw	4ix.net
phm	ffii.org
christian.tauber	cjt.de
mail	kapherr.de
c.kleinau	amann-druckguss.de
c.kolf	uni-duisburg.de
c	cfrank.de
clamor	fafalter.de
claudia	freigeister.org
Claussen	FreieBerater.de
christoph.lechner	planet.at
clemens	in.tum.de
c.martens	gmx.net
cm	chrismeier.de
cm	itm.tuwien.ac.at
cmund	web.de
christoph	cocon-seide.com
cohen	pigmedia.de
dp	peitgen.org
lars.goe	gmx.de
Cord.Kielhorn	OpenIT.de
uk7g	rz.uni-karlsruhe.de
christoph.pech	sek-ost.de
cplusplushelp	gmx.net
cpkffii	reactor.de
gregor.heinze	epost.de
crimmann	gmx.de
andreas.beeker	gmx.de
witte	cewis.de
christoph.sahm	bigfoot.com
c-schlueter	gmx.net
scho5105	uni-trier.de
Christian.Schuhegger	gmx.de
christian.tauber	cjt.de
ffii.org_petition	schlaumachtsexy.de
christof.tuerk	CplusC.de
christian.ullrich	quiana.net
info.u	cunrady.de
cyberman	gmx.ch
cyberwizzard	gmx.de
cypher	bassassassins.com
dagobert	wasmeier.com
danny-albrecht	gmx.de
d.alfier	t-online.de
danbetz	gmx.de
uwe.thiede	germaniaairline.de
w126	gmx.net
daniel.golle	onlineplus.de
daniel	dunckerbunker.de
darius	linuxpraxis.info
davidjoerg	web.de
dawabi	web.de
dawedawe	gmx.de
mail	richardstevens.de
daniel.bassen	public.uni-hamburg.de
beyer.daniel	stud.tu-ilmenau.de
dbork	gmx.net
ddietrich	dietrich-maschinen.de
test	wasmeier.com
decker.michael	siemens.com
denis	q-dsl.de
dennis	dbhome.de
chip	raymisoft.de
derkoepf	t-online.de
jk	ynx.de
detlef	jockheck.de
uwe	dewath.de
daniel_gruen	web.de
dha	heise.de
daniel-hollon	web.de
didi	oeh.uni-linz.ac.at
Dieter.Woerz	T-Systems.com
hoffmann	fringspartner.de
DirkNeumann	gmx.ch
dirk	steuwer.de
dirk	goe.net
daxboeck.jakob	aon.at
morbems.nospam	web.de
kaiser_d	gmx.net
dr.klepp	gmx.at
daniel.kossmann	i-tv-t.de
domenique.kuehne	bim-consulting.de
dk	pro-ite.de
dlade	web.de
dl-ffi	mrspock.de
dl	dirk-loss.de
dmaurus	trustsolutions.de
dirk.meiners	debitel.net
kontakt	arsattaque.de
da_mueller	web.de
dr.nibbles	gmx.de
dnjl	lugv.org
doemming	tu-harburg.de
rainer.doerntge	dlh.de
DOlsson	WEB.de
dominik	deobald.de
d.raddatz	basketballmail.com
draegerm	web.de
rudolf.wustinger	siemens.com
jan.dreyer	web.de
riek	de.alcove.com
drmfeldmann	compuserve.de
dsch	gmx.at
david.schmidt	gmx.de
d.scholand	isc-inf.com
d.schroff	gmx.de
dp_seal	yahoo.com
daniel.sobe	epost.de
detlef.steuer	gmx.de
dirk.stockmann	web.de
daniel.thormann	gmx.de
tremel	tremel-computer.de
tom	kistner.nu
rumpfjonas	yahoo.de
ivor	delektron.de
chef	oc-corner.de
dzu	denx.de
amu	linux.de
EdmundFeindert	web.de
edv	dresden-theater.de
edwin.hold	t-online.de
E.Egberts	TANtec.de
ee	innovativsoftware.de
ElmarFasel	web.de
eikevons	yahoo.de
eike.welk	post.rwth-aachen.de
guenter	laudenklos.de
eiskar	my-mail.ch
e.simon	gmx.net
olaf.email	gmx.de
ffii	elho.net
jochen_leberecht	bigfoot.de
marco	lierfeld.de
rene	sirodev.com
emhabe	web.de
erik.micek	gmx.de
emilia	emilia-maxim.de
ernst.molitor	t-online.de
erbel	brainlab.com
ereuss	gmx.net
EricMoos	t-online.de
er-ri	gmx.net
k-hm	escit.de
sk12	gmx.de
ernsta.thaler	gmx.de
eupetition	abstrakt.de
dzu	akk.org
ewald.recher	aon.at
werner	mausiges.de
petition.eurolinux.org	extaxpi.de
ffii.org	open-haus.de
fab	f-cube.de
falk.schilling	informatik.uni-jena.de
Falk.Siemonsmeier	web.de
fast.mike	gmx.de
benkstein	gmx.de
florian.brand	redhat.de
frank.carsten	web.de
fchk	istda.com
feenders	gmx.de
felix.klee	inka.de
felitas	web.de
felix	fbreuer.de
manfred.koerkel	epost.de
mario-fetka	gmx.at
ff	iff.de
ffii-auftrag	ewald-arnold.de
ffii-sachen	monoxyd.de
ffii	winnisurf.de
ffii	thomas-richter.de
programmer	finner.de
fabian-funk	gmx.de
Florian.Georg	web.de
f.heckenbach	g-n-u.de
filip_pistovcak	yahoo.com
fionn	unix-ag.org
fireball	enlightning.de
firefox34	gmx.de
frank.kuester	unibas.ch
debian	fhdesign.de
flash	itp.tugraz.at
florib	arcor.de
fleck	isoc.de
fl1ger	mac.com
florian	reichl.net
florian	holeczek.de
florian.st	ssen.com
florin.spanachi	colibri.de
florz	gmx.de
Florz	t-online.de
flegel-lothar	t-online.de
ffii	antonfluegge.de
flummi	everymail.net
total	abgedreht.de
fm311	web.de
frankm	lug-owl.de
frank.moses	gmx.de
franck	akustik.rwth-aachen.de
frank	burgdorf.org
frank.berger	gerling.de
frankluttmann	onlinehome.de
e020613	gmx.net
Frank	NightLabs.de
frank.stebich	siemens.com
frank	frankweber.net
Franz.Ratzinger	a-city.de
florian.rauh	gmx.net
freddy	nowak-sys.de
frederikreiss	gmx.de
f.metzger	gmx.de
freeshadow	web.de
florian	reichl.net
jens	freimann.org
joerg.freisler	knechtplanung.net
frerk	online.de
frerk	meychern.de
felix.reuning	eed.ericsson.se
Ralf.Friedl	online.de
manfred.frommel	frommel-edv.de
fsamson	unix-ag.uni-kl.de
fschaper	intux.org
olaf	phobosmoon.de
frank	f-seidel.de
phm	ffii.org
l.savernik	aon.at
valentin.funk	computerfabrik.de
FvonderHeyde	t-online.de
f.weik	web.de
phm	ffii.org
Felix.Wiemann	ososo.de
mike.gahn	beyondsoft.de
galeriehan	gmx.de
garry	glendown.de
gaudiman	web.de
georg.bannert	t-online.de
mail	guenther-bruns.de
us4i	stud.uni-karlsruhe.de
georg.auer	coc-ag.de
ge	gabrielebner.at
jens	gecius.de
geddert	arche.ag
geddylee	arcor.de
gekupa	yahoo.de
georgmaass	gmx.de
georg.lachenmayr	t-online.de
georg.martin	froeschbach.de
georg.ramsch	t-online.de
r.krause	geosens.de
Marc.Palkowitsch	t-online.de
g.christoph	gmx.de
grog	hrz.tu-chemnitz.de
gerhard	bleys.de
GerhardSchmid	addcom.de
Gerhard.Kociok	gmx.de
d.gerholdt	gmx.de
gerlach-software	gmx.de
gernot.eyssler	eyssler.com
Gero.Schwenk	sowi.uni-giessen.de
G.Riesch	Firemail.de
LGerstmayr	gmx.net
ggduckab	wasmeier.com
ggduckac	wasmeier.com
ggduck	wasmeier.com
ghostdancer	gmx.net
Gerhard.Huebner	huebner-technologie.de
giersch	osgroup.de
giesbert	exactt.de
rainer	gievers.de
ffii	slvtech.de
gunnar	jentzen.com?subject=swpat
los	rz.uni-mannheim.de
georg.jungnitsch	gmx.de
info	pro-spekt.de
goliath.mailinglist	gmx.de
g.menke	gmx.net
gmsmith	gmx.net
gd	rothenburg.org
ogg	audio-exact.de
johannes	jwedv.de
goesele	hfph.mwn.de
ffii_appell	CustomCDROM.de
gero	sbox.tugraz.at
goodwin	t-online.de
gos	gmx.li
gottfried.scheckenbach	xtelligent.de
gpel	mpex.net
g.prager	t-online.de
gquell	skequell.de
Grafe-Lindenau	t-online.de
gerhard.ratzinger	utanet.at
christoph	g-graphix.de
tobias	frech.info
piotr.grochocki	campus.lmu.de
jro	tardis.ifs.de
gross	mail.icbm.uni-oldenburg.de
grude	tfh-berlin.de
gruel	web.de
GSEPower	web.de
gtautenhahn	gmx.de
gerhard.treffner	aon.at
fz	gso-koeln.de
guenther	guennet.priv.at
gummiente	chello.at
gurubert	gurubert.de
gutschke	pete-software.de
gerd	egidy.de
g.wick	eos.igm.de
info	zuckersoft.de
IN-TEC	t-online.de
johanneskoerner	web.de
HansJ.Tilch	epost.de
hans.aretz	web.de
harms	arche.ag
hartmut.surmann	epost.de
a.l.hasenbanck	t-online.de
jan	opengroups.de
michael.haub	preh.de
patent-ffii	hausburg.de
tainagaertner	hotmail.com
phm	ffii.org
hans-bernhard.broeker	epost.de
hddick	gmx.de
hdeppenmeier	yahoo.com
heiner.dewendt	open-ls.de
heesch	cybervillage.de
holger.eichler	i-nex.de
heiko	goll.ws
heiko	hoff-solartechnik.de
heiko.rau	web.de
heine_alexander	hotmail.com
klaus.heinisch	gmx.de
heinz	hhombergs.de
heisti	heisti.org
heitzenroeder	web.de
mai95bhf	studserv.uni-leipzig.de
mail	hdroessler.de
Helios	Lichtvollst.de
helmut	cybernetic-systems.de
helmut	familie-willems.de
hendrik	raessler.de
hendrik	halkow.de
henry	jobst-berlin.de
henrywolf	gmx.de
herbader	t-online.de
herbert.kaminski	ePost.de
HermelBraeu	gmx.de
h.eversheim	web.de
hexe-02	web.de
heyade	yahoo.de
Harry.Fink	gmx.de
hfrenzel	scunc.net
hgfriedmann	gmx.net
hhees	systemconcept.de
hilbing	t-online.de
hinrichgevekoth	web.de
daur	gmx.de
hessmann	spricom.de
hkaelber	gmx.net
herbert.kaminski	t-online.de
henry_kiessling	level-10.biz
hkuehn	markpine.de
edv	lang-stockstadt-main.de
heiner-ludwig	t-online.de
harald.mah	gmx.de
helmut.meyer.q	bigfoot.com
h.neven	netcologne.de
Robert.Hoepler	web.de
roland.hoesch	gmx.de
hofmann	anvil-soft.com
hofmeier	inbremen.de
holger	reif.net
holger	jakobs.com
holger.detering	arcor.de
hollerer	buhlbau.at
hans.honecker	web.de
kevin.horst	wir-webdesign.de
gert.h	gmx.net
mmv1	planetpenguin.org
hotzi	hotzi.no-ip.org
porsch	odn.de
hpschmitz	orthoshi.de
hpweih	web.de
hrabbach	revivaltown.de
kurt	siegert-koeln.de
hsternberg	t-online.de
hajo.thelen	epost.de
hahn_thorsten	gmx.de
helmut.wais	gmx.net
hubert.riesch	epost.de
huger	web.de
huhr	uni-paderborn.de
hukrause	gmx.de
huland.ohg	gmx.de
hunger	jugowl.org
h.j.unsoeld	t-online.de
hweidner	gmx.net
holger.wenzel	engineous.com
holger-wessel	web.de
hwilker	gmx.de
Holger.Witt	epost.de
henri.walter	imail.de
frank	rosendahl.dyndns.org
iblech	web.de
wilhelm	icecrash.com
I.deVries	vhs-norden.de
idw.doc	t-online.de
ingo.jaitner	aon.at
ilsa.gold	web.de
christoph	liquid-dynamics.de
peter_weik	web.de
ffii_org	immoartl.de
imsadi26	gmx.de
info	ruettger-mediendesign.de
info	tillsoft.com
info	peter-thomassen.de
ingmars	web.de
webmaster	ingo-keller.de
pech1	gmx.de
edv	smerz.de
ingo	ingostruck.de
ingo.voss	web.de
j_adam	web.de
jakob	obilot.de
jakob	obilot.de
janis.blechert	gmx.net
jan	aixlink.de
janos	bigfoot.de
jansen	dennis.de
christian.janssen	crt-domino.de
jan.wildeboer	gmx.de
jan.wolter	rootlinux.org
Jan	Zuchhold.com
jappel	linux01.gwdg.de
jaschke	atv-hannover.de
ffii	baach.de
info	issb.de
j.brockes	freenet.de
jan.brueninghaus	t-online.de
steenbuck	ticcon.de
uzs33d	uni-bonn.de
jcbreit	gmx.de
forcemstr	t-online.de
jean-luc	picard.franken.de
seitz-jens	freenet.de
jens.klein	jensquadrat.de
jens.goebbert	post.rwth-aachen.de
jens	koester.li
jessica	jh-cs.de
jetti	linuxmail.org
jens.wagner	baw.de
J.Walter	bsz-glauchau.de
juergen-franz.carl	epost.de
jorg.freudenberger	web.de
jochen.georges	epost.de
johann.glaser	gmx.at
johann.glaser	gmx.at
jgrube	foni.net
jens	hardings.cl
janulrich.hasecke	web.de
phm	ffii.org
jhecking	netgaroo.com
jhermann	multilink.de
jiji	c-act.de
alexander	duscheleit.de
niklas.mehner	informatik.uni-oldenburg.de
uzs1y3	uni-bonn.de
news	iversennet.de
jjk	acm.org
juergen_meyer	gmx.net
jj.sarton	t-online.de
dieter.springer	sysconfig.info
juergen.klepper	stk.uni-karlsruhe.de
jochen.klumpp	web.de
dxzhpgovmsvg	spammotel.com
j.krau	chello.at
jkrausz	grafikrausz.at
jlovisca	informatik.hs-bremen.de
jluther	tecchannel.de
gjm	pryde.2053.net
julian	mehnle.net
jmeier	gmx.de
jirka.michael-schubert	sachsenlb.de
info	jmmgc.com
jtr	uni-bonn.de
jochen	scram.de
jochen.georges	epost.de
joebi	joebi.de
joerg	donalbain.de
jkur	informatik.uni-bremen.de
joerg.petersohn	gmx.net
joerg.ungethuem	enersim.de
Joerg_Witzel	arcor.de
joern	sozwi-linux.sozialwiss.uni-hamburg.de
joerg.erdmenger	woerd.de
Johannes.Hofmann	gmx.de
joksch	dieSpezialisten.net
j.krom	fz-juelich.de
joerg.tappe	trinkaus.de
joren	easy-call.net
joergland-ffii	debian.org
jschmiedel	gmx.de
josef	ggzgamingzone.org
joshua.falken	gmx.net
joss.herrmann	ld-net.de
mind	mental-arts.com
chris	joelly.net
j.petersen	msh.de
jp	md-network.de
roschke	ifs.de
j.rohr	comlink.apc.org
josef.rohrboeck	utanet.at
jrotter	gmx.de
joachim.schnitter	s-tec.de
johannes.steger	coders.de
J.Stoehr	Web.de
joerg.thoennes	macd.com
jens	gamemakers.de
Juergen.Weiland1	epost.de
juergen.lindemeyer	gmx.de
Axel.Jusek	fh-wolfenbuettel.de
Elbenfreund	gmx.net
trouble-spam	garni.ch
joerg.wassmer	web.de
juerg.weinert	web.de
j.weinert	t-online.de
J.Weinert	t-online.de
kaber	trash.net
kaber	trash.net
zim	vegaa.de
Kai.Wysotzki	gmx.de
kanschat	dgfem.org
karsten.ott	gmx.de
karl	karzelek.com
karlheinz.guenster	t-online.de
karsten8	web.de
karsten-unterwegs	gmx.net
info	kaschwig.net
brunner	telemorphix.org
christian	reitwiessner.de
keidel	fh-worms.de
kemal.kaygusuz	gmx.de
k.-h.herrmann	fz-juelich.de
nopartents	khnz.de
KH.Zeller	dlr.de
michael.kiermaier	gmx.net
kirchman	dfki.uni-kl.de
kaiser	newtec.de
klabusch	nikmultimedia.com
ulf.klaperski	web.de
klaproth	online.de
privat	klaus-schmidt.de
klaus	muecknet.de
klaus	amling.com
klaus.rothert	communitare.de
klaus.Vietzke	gmx.de
k.neubauer	eduhi.at
mario.knezovic	bonespark.com
knopp	odn.de
ffii	knopper.net
koenig_a	flix.de
koester	x-itec.de
konrad	uni.de
kontakt	meitznermedien.de
kontakt	arsattaque.de
korpo	01019freenet.de
info	karl-philipp.de
kraske	lre.de
krueger	nrw-online.de
ffii	land-of-kain.de
nils	krumnack.de
kschnei	velbert.net
kade	schoenfel.de
karsten.schulz	natural-computing.de
kueper	flowerdale.de
jens.kumpfmueller	stud.uni-rostock.de
kuniss	grammarcraft.com
kunze	tivano.de
landgrae	uni-muenster.de
langec	web.de
ralf.langewiesche	web.de
langitzer.albin	aon.at
lang-wetzlar	t-online.de
lantzsch	eas.iis.fhg.de
larosablanca	bigfoot.com
lars.haendel	gmx.de
lars	brokenbits.de
martin.lass	web.de
lawall	cortologic.com
lazarustri	gmx.de
leisener	web.de
leiser	aleiser.de
ffii	pentax.boerde.de
tilo	levante.de
lgolbs	usa.net
leu.heiko	gmx.de
kalu	chattus.de
info	lavadots.com
kessler	nscit.com
linden	hurg.org
linuxbizz	viegelinsch.de
linuxfan	gmx.de
ascalvin8	netscape.net
lkoeke	suse.de
lars_e_krueger	gmx.de
loethi	meck.oche.de
lorch	nettzwerg.org
me	lordhelmchen.net
Lukas.Pinkowski	web.de
lars.soltau	slab.de
steinke	lsweb.de
s	luedecke-online.de
thiess	gudberg.de
maass	in.tum.de
marcus.abele	novasoft.de
m.budinger	gmx.de
madedmund	web.de
webmaster	real-i-ze.de
richard-steffen	web.de
carsten	kloepperpieper.de
magnus	vonkoeller.de
Martin.Holtz	muenster.de
ffii	robertmaier.net
maik.freitag	etechnik.uni-rostock.de
mail	thomas-flad.de
mailforme	epost.de
harald.kraner	multicom.de
mail	Franosch.org
Mainz	epost.de
bernhard	mairb.de
mambres	mud.tap.de
mark.a.meyer	naiad.de
mampfi	nefkom.net
matthias.andree	gmx.de
manfred	blackbox.net
manfred-ffii.org	selma.de
manfred.henk	t-online.de
manfred	hessels.de
info	raven-web.de
m.marangio	web.de
marcf	gmx.li
marcobh	web.de
marcus.fellinger	tomcat.de
sm	online.de
markus	gerwinski.de
markushabig	gmx.de
markushagenlocher	web.de
markus	oefai.at
Markus.Knak	epost.de
markus	brunnbauer.net
rincewind2	gmx.net
karlheinzdeu	netscape.net
Martin	wunderkis.de
martin	veser.net
martinix	yifan.net
martin-jo	gmx.de
martin	kochs-web.de
martin.rosskothen	gmx.net
martin-schmitz	web.de
martin.thomas	wtal.de
martintrautmann	gmx.de
Martin_Voss	web.de
martinwolters	yahoo.com
knut	masanetz.net
patent	ma-scha.de
assmann.m	bnv-bamberg.de
matbrc	gmx.de
wagner.mathias	web.de
matthi	gmx.li
matthias.burghardt	mailbox.tu-dresden.de
matthias.geining	ecb.int
matthias	koch-moeck.de
matthias.prager	t-online.de
matthias.weinhold	tiscalinet.de
matthias	grimsel.de
matthschulz	gmx.net
mattke	uni-wuppertal.de
matze	difficulties.de
maushasi	gmx.net
max.glanz	ph.tum.de
Robert_Hennig	web.de
martin.barth	aon.at
Matthias.Bethke	gmx.net
mbraun	buecherbote.de
mbroemme	plusserver.de
m.buchmeier	fz-juelich.de
phm	a2e.de
webmaster	templex.net
Markus.deWendt	Open-LS.de
M.Dickopp	physik.tu-dresden.de
m.diehl	diehl-software.de
aleksp	bnv-bamberg.de
mdweb	web.de
mechthild	linuxmail.org
maurice	meeden.de
magixhome	gmx.de
m.eller	online-marketwatch.com
marcus	endberg.de
1	menter.info
stefan.ochocki	gmx.de
merzky	zib.de
Michael.Essing	meconsult.de
jwilkes	metabit.com
stoeber-yurdakul	weatherarts.de
ffii	meyer-luetgens.de
meyer	mesw.de
mfabian	suse.de
markus.falkner	elinebg.at
markus.fehn	gmx.net
michael.frantzky	fernuni-hagen.de
matthiasfratz	web.de
Marc.Friedrich	smile-datentechnik.de
friedel	pixelartists.de
mfr	bmx-chemnitz.de
Manfred.Frommel	Frommel-edv.de
martin.fuerstenau	genesix.de
mf	tagtraum-tee.de
beowulf30	gmx.de
m.gasper	gmx.de
m.gehling	gmx.de
markus.goetzl	web.de
m_grassl	web.de
swpatents	mgwosdz.de
mhaecker	mac.com
mhaeger	hagemeyer.de
mhartle	hartle-klug.com
mhaydn	mail.emagic.de
mhe	cs.tu-berlin.de
matthias	mhcsoftware.de
m.herget	wirtschaft.uni-giessen.de
mark.huebler	gmx.de
Matthias.Hoelzl	t-online.de
mhopf	mark13.de
markus.humm	freenet.de
michael	wsr.ac.at
MICHAEL	PURESTAR.COM
michael	trent.de
Michael.Ervens	gmx.de
michael.volkmer	dresdner-bank.com
MichaelWein	web.de
michaelni	gmx.at
m.nemecky	mbit-gmbh.de
mr	uue.org
michel	brunolds.de
ffii.org	michis.org
m.alevra	stud.uni-goettingen.de
mailbox	andrea-mueller.de
mike.willuweit	t-online.de
mk	mkd-gmbh.de
iler	boe-network.com
millin	suse.de
millin	suse.de
michael	elschner.de
webmaster	mins.de
webmaster	mins.de
mirkokl	freenet.de
michael.ruoff	ruoff-germany.de
misch	steyla.com
d.miskowiec	gsi.de
jerger	jerger.org
marco.kalweit	fakt-software.de
martin.kiehne	gmx.de
mklamt	freenet.de
M.Kloas	planungsteam-eb.de
mkmail	gmx.net
mkoch	h3l.net
M.Kossick	gmx.de
marco.krohn	gmx.de
m-lesser	better-com.de
mslm	gmx.de
marcus.linke	gmx.de
mlkessle	cip.physik.uni-wuerzburg.de
mlkessle	cip.physik.uni-wuerzburg.de
manfred_luether	web.de
mmage	itlawsec.org
mmeier	siemens.md.st.schule.de
tbm	cyrius.com
m.mumberg	com-on.de
Mirko.Mumberg	gmx.net
ffii	moritz-naumann.com
mnemofutur	aol.com
mneuber	web.de
Michael.Neumann14	web.de
marc	nieper-wisskirchen.de
m.nitz	orb.de
mn	yupp.de
moewe	t-online.de
hlehmbruch	web.de
molitor	uni-bonn.de
mmh	gmx.net
ossy86	gmx.net
moser	egu.schule.ulm.de
michael	mosmann.de
m.otto	fh-sm.de
Manfred.Pohler	t-online.de
markus.pooch	onlinehome.de
joerg.keller	kleinhoern.de
mrabe	de.ibm.com
martin.r.fajt	web.de
mike	mrm-it.de
master-sandman	gmx.de
msa	familie-saschek.de
msl	phaidros.com
martin.schlegel	freenet.de
michaels	bonbon.net
martin.schmidt	tu-bs.de
michael_schreiter	gmx.de
malte.schuenemann	web.de
markus_seuring	web.de
msi	kiss-linux.org
max	enddeluxe.de
michael_spitzer	gmx.de
ffii	michaelspringmann.de
m.reiner	gmx.de
stammberger	gmx.de
markus.stampfl	i-one.at
michael.steder	web.de
manfred.suttorp	web.de
patent.petition	vamos.de
mt	wmipf.in-berlin.de
marc-tell.volkmann	web.de
michael.triffterer	thyssengas.de
m.tuchscheerer	onlinehome.de
seraph	web.de
Michael.Uhlenberg	ixos.de
michael.uhlenberg	ixos.de
Michael.Vetter	iao.fhg.de
mvogel	cityoffers.de
martin.vogel	ruhr-uni-bochum.de
mvo	debian.org
marek-walther	gmx.de
mwas	ffii.org
mweber	aon.at
max	home-werner.de
martin.westermeier	twinsoft.de
martin_wirtz	t-online.de
my.office	berlin.de
fred	ebone.at
bernhard.runge	sap.com
michael	native-instruments.de
norbert.brosche	t-online.de
info	herdsoft.com
frank	it-lan.net
sven-ffii	sven.de
neubauer	std-software.de
niklashofmann	web.de
ricair	info.com.ph
ricair	info.com.ph
nico.erichsen	gmx.de
nicole.m	gmx.de
niehus	sitekiosk.net
tim.niggemeier	gmx.de
nikkit	web.de
nikolaus.neumaier	gmx.de
nils-gunnar.fritz	kopanet.de
nils	lisas.de
3nitron	feogamers.de
j.-a.steen	clajoedie.de
ralf.neuthe	gmx.de
nils	voll.org
nlangert	stroem.de
Marco	NightLabs.de
nmanicone	web.de
eric.noack	gmx.de
noel	koethe.net
Norbert.Perk	gmx.de
nowack.andreas	gmx.de
nsteinl	realperformance.de
nthode	sunrise-design.com
nvj	fys.ku.dk
oliver.banf	web.de
olaf.bergner	gmx.de
oberhage	uni-essen.de
thomas.obermair	inlab.de
ffii	brahmstaedt.de
obuerger	ginko.de
odiwan	gmx.de
odumat	netkom-sachsen.de
o.ehrhardt	web.de
w100	bigfoot.com
office	chello.or.at
office	digs.at
oliver.freyd	gmx.de
john.c	descy.de
okarch	gmx.net
olaf.deppe	hamburg.de
oli	oliwood.org
olibe	gmx.de
oli996	tiscalinet.de
eurolinux-01	oliverklee.de
olistrut	gmx.net
Oliver.Braun	hamburg.de
oliver	humbuk.com
oliver	neukum.name
null	kds-online.com
oliver.jaeckel	basf-it-services.com
og	gg-net.de
oliver	humbuk.com
otfried.morck	epost.de
olaf.morgenstern	gmx.net
osmar.mueller	stadt.nrw.de
ismiregal	firemail.de
os	webinspace.de
no	pad.zuken.de
otto	otto2.de
wagner-rosstal	t-online.de
Wagner-Rosstal	t-online.de
wasil2049	gmx.net
patrickhornung	t-online.de
tobias	paepke.net
pagin	gmx.de
christoph.panwinkler	gmx.net
paranoid	stop1984.org
paster	ihs.ac.at
patrick.schmeichel	web.de
patrick.fromberg	b-more.de
Patrick.Kursawe	ruhr-uni-bochum.de
falk	doubleseven.de
paule.p	gmx.de
pauly	hrz.uni-marburg.de
pavel.nesladek	infineon.com
tmueller	ffm.pandacom.de
PrinzEnrique	gmx.de
mail	nezzophil.com
pessarra	gmx.de
petebull	web.de
pf	artcom-gmbh.de
peter	gerwinski.de
Peter.Kaempf	fbmev.de
peter.rieger	bigfoot.de
peters	math.tu-berlin.de
Peter.Schoen1	web.de
peter.wintrich	gmx.de
petra.winkler	avendum.de
petzoldt	gmx.de
pfandt	vimukti.de
Artur.Pfeiffer	id-d.de
pf	artcom-gmbh.de
phm	ffii.org
phm	a2e.de
P.Hohmeyer	web.de
peter.hormanns	jalin.de
matpieps	compuserve.de
pietz	gmx.de
pit	pi-data.de
janze	digitalblue.de
PeterJHaas	t-online.de
peter.kolditz	onlinehome.de
plail	in.tum.de
plumeyer	gmx.de
der.plusch	gmx.at
pavel.nesladek	infineon.com
dave	fen-net.de
Michael.Polster	gmx.net
pom	beatsteaks.de
popof	gmx.net
g.fuchs	service-fuchs.com
Peter.Prade	gmx.de
prefect	rtts.org
preisi	gmx.net
promberger	vr-web.de
prophyle	gmx.de
pschmitt	orga.com
p.thierolf	neon-online.de
pusto	web.de
pusztagarden	freenet.de
pwalter	net.uni-sb.de
pweilba	gwdg.de
pxh	gmx.net
michael.klaus	gmx.net
wilke	quartis.de
2quick	web.de
raiden	web.de
rainerp	vr-web.de
ffii	alber.org
Ralf.Langewiesche	web.de
ralf	nyms.de
ralfw	reallysoft.de
info	r23.de
raphael	arrivingarrow.net
rauhut	ib-rauhut.de
ralfbarth	compuserve.com
ricardo-boettcher	gmx.de
matthias.leber	mapi-net.de
redlabs	gmx.de
linux-radio	web.de
reinhold	pete-software.de
rene	schlund.de
Rene.Winkelmann	web.de
reuter	portsite.de
reinhold.fischer	aon.at
robert.freund	gmx.de
rfthode	mail.isis.de
r.gieray	gmx.de
rainer.glaschick	c-lab.de
rgloeckner	gloeckner.cx
rheimbaecher	wb-net.de
rolf-hoffmann	gmx.net
r.hogrefe	innovacomputer.de
richard	meinsen.de
richard	krauss.at
Richter_Weimar	web.de
richardbruskowski	web.de
riechen	gmx.de
Jan.Riechers	gmx.net
rimaal	web.de
rincewind	discworld.dascon.de
the_rising	t-online.de
Rittmeyer	online.de
roland.jansen	t-online.de
rjbader	t-online.de
reinhard.jessich	frequentis.com
john.h	web.de
rk	k-itx.net
rainer.kuissl	gmx.de
r_lang	web.de
r.lehmann	lh-westfalen.de
roman.libera	gmx.de
r.maertin	klarsyn.de
rm	r-m-e-d-v.de
ffii_org	rachinsky.de
rf	inmacom.de
robcast	gmx.net
robert.loebig	t-online.de
robert.mayrhofer	liwest.at
roczen	mathematik.hu-berlin.de
fr	fhd.de
schroeder_thomas	yahoo.de
rohloff	ingorohloff.de
mail	rohrmann.com
bernd.fuerst	t-online.de
roland	mechling.de
rolf.koehler	physik.hu-berlin.de
rjk	ciscom-cleve.de
ronny-swpat	vlugnet.org
roser	forst.uni-freiburg.de
mcr42	gmx.de
F101164	freenet.de
rainer.peipp	gmx.net
Rainer.Queck	t-online.de
r.ring	gmx.de
rainer.saric	t-online.de
rolf.schaumburg	online.de
ralf.scherer.kl	gmx.de
ralf_schroth	t-online.de
r.schwebel	pengutronix.de
rolf.sievers	gmx.de
raul.steimbach	kuehn-controls.biz
rstein	nawira.de
ri.st	freenet.de
info	eldakom.de
rupert	net-appel.com
rupert	net-appel.de
ruppert	enst.fr
rurban	x-ray.at
r.voelkel	gmx.net
rvogel	ling.uni-potsdam.de
r.volkmer	fh-wolfenbuettel.de
r.wiesemann	villa-vogelsang.de
ronald.woelfel	netzoffice.de
rwoll	arthrose.de
ryco	gmx.net
rol.ziegler	web.de
sadlowsk	mail.uni-mainz.de
Daniel.Albrecht	gmx.net
sam	b-soft.de
samogon	web.de
sander	mpch-mainz.mpg.de
guenter.sandner	aon.at
sandra-ffii.org	selma.de
sandro	ibforen.de
dominik	crosslight.de
sascha	deusoft.de
au	hcsd.de
stefan.bayer	gmx.net
sbellon	sbellon.de
s_bormann	gmx.de
sc	itst.org
scarlschm	t-online.de
schaefer	jobpilot.com
msalex	newmail.net
schandl	gmx.net
torsten.scheck	gmx.de
w.scheinast	fz-rossendorf.de
schetzke	red-labs.de
rich.schieder	arcormail.de
fschippan	arcor.de
schlecht	selk-stuttgart.de
schmidjo	bnro.de
gs	tmag.de
aschneider	battweiler.de
schoebe	fh-swf.de
spam	schranzhofer.net
wolfgang.schreiner	risc.uni-linz.ac.at
schreter	gmx.net
s	rapi.com
bernhard.schubach	merck.de
schuetz-kemmern	t-online.de
schugy	uni.de
schullo	gmx.de
schumacher	abc-system.com
schumann	physik.uni-kl.de
jens	schurek.de
schwarzbart	dokom.net
gcg	gl.aser.de
code	asm68k.org
s.dancer	gmx.net
Stefan.Dannemann	abas.de
sd	b-comp.de
sdumke	surfeu.de
Seba_B	gmx.net
sebastian.droege	gmx.de
sebi	sebi.org
georg.seewald	fh-joanneum.at
segfault_ii	web.de
selaykirim	hotmail.com
Jens.Selbach	gmx.de
Joerg_Witzel	arcor.de
semyon	semyon.net
igor	gilitschenski.org
senglert	n-factory.com
sera42	gmx.de
Stefan.Erzepky	T-Online.de
sebastian.fett	koeln.de
sf	bonn.iz-soz.de
sfrank	swmf.de
stefan	gaffga.de
s.giessl	web.de
siegfried.glaser	t-systems.at
sebg	online.de
sgoeke	gmx.net
herbold	stahlwille.de
s.hitzemann	web.de
shlomme	gmx.net
info	asp-mail.de
siefke	gmx.de
siggiklar	gmx.de
sihewiel	stud.informatik.uni-erlangen.de
sascha-ffii	silbe.org
silencer99	gmx.net
silke.reimer	intevation.de
wolfram.moll	freenet.de
micasim	gmx.de
simon	echterhof.net
m.sindhoff	gmx.net
singu	wivada.de
sittig	mechanik.tu-darmstadt.de
stephan.kahl	t-online.de
stefan.karg	t-online.de
skat	tuxas.net
skeimer	gmx.net
s.kuehnlein	web.de
stefan.kluehspies	gmx.net
sascha.koenig	epost.de
stefan.koerner	rocklinux.org
katakombi	gmx.net
info	skytravel24.de
konfusious	gmx.de
Sebastian.Leske	bigfoot.de
stephan.magg	seeleben.de
stephan	martin.de
smilebef	web.de
snake	snake-pc.org
sjstoelting	yahoo.de
wolfgang_loehr	web.de
soeldner	netlogix.de
soeren	easybrowse.com
software	netzlabor.com
ws	tools.de
tobias	tgtools.de
klaus	soonix.de
stefan.padberg	epost.de
simon.papel	gmx.de
speflo	web.de
andreas	spengler-netz.de
gl	esr-pollmeier.de
squan	web.de
Stefan.Reeder	web.de
srohlfing	gmx.de
sschmidt72	web.de
sebastian.schoof	gmx.de
sena	hurd.homeunix.org
sstranz	gmx.de
stahl	memo-software.de
peter	stamfest.at
stapel	rz.tu-clausthal.de
staude	trilos.de
sb	engelschall.com
ste.ba	gmx.de
stefan	netz-administration.de
dirnstor	web.de
stefan.fleiter	gmx.de
stefan.kloe	web.de
stefan.marr	web.de
stefan	stefan-foerster.de
stefan	datendock.de
stefan	freiheit.com
webmaster	mins.de
SteffenRoecker	gmx.de
marcus-stein	web.de
stephangeue	web.de
Stephane.Ledeux	t-online.de
stefan.koerner	db.com
timo.stoeckigt	web.de
ostoerkel	web.de
frank	ruell.com
stratmann	gmx.de
w.strehlow	wtnet.de
mirko	ulmi.de
sturamail	stura.de
sascha.morr	sturmkind.info
rotes.bueffelfell	web.de
suchi	data-quest.de
suess	allizom.com
numerical.simulation	web.de
support	oeko.net
susanne	java.2053.net
sg-ffii.org	svengo.de
albrecht.wirth	web.de
SZander	husware.de
szegedy	or.uni-bonn.de
info	ruediger-kuhlmann.de
ffiiorg	taillandier.de
tanja.nitschke	gmx.de
tanner	ffii.org
info	tarent.de
tawiszus	web.de
tbaust	gmx.net
t.bittermann	online.de
thomas.bremer	gmx.de
tbruckschlegel	gmx.de
T.Bruehl	gmx.net
torsten.bsdurek	it-bbr.de
t.tischendorf	ttd.mei.shuttle.de
teggy	teggy.org
temu	medizin.uni-leipzig.de
victor	terber.de
info	thomas-fahle.de
thomas.fida	gmx.at
th.fischer	gmx.net
thomas.fricke.begemann	uni-oldenburg.de
Tim.Gollnik	t-online.de
Tobias.Graf	gmx.net
tgerigk	gmx.de
tgs	epost.de
thackert	nexgo.de
thaipeer	web.de
joerg	haselmeyer.de
THarms	bidm.de
thebeing	deetraxx.com
count	flatline.de
Manfred	Theilert.de
Andreas.Steffens	web.de
thorstengiese	gmx.de
thimo	debian.org
thinnes	uute.de
thomas.hirsch	ofd-m.bayern.de
thklein	netcologne.de
thknopp	addcom.de
thomas	jungwirth-online.de
thmueller	myrealbox.com
Rainer.Hohn	web.de
thomas	swifty-morgan.de
thomas.wilczek	stud.fh-kempten.de
thomas.witt	infopark.de
thorstengiese	gmx.de
schulenburg	market-value.de
patents	thowil.de
fms	gmx.net
thschilz	web.de
th.schmitt	gmx.net
thst	strauss-it.de
thomas.huenerbein	t-online.de
thurecht	linuxpartner.de
t.csoegoer	web.de
t.kindschus	bmiag.de
t.wuestenfeld	gmx.de
till	tillwe.de
tilmann.krueger	inpho.de
tb84	gmx.net
timj	gtk.org
timmesfeld	idas.de
timon	dorf.RWTH-Aachen.DE
tino.fritzsche	gmx.net
jan.reissmann	web.de
tischendorfd	web.de
tischhau	rbg.informatik.tu-darmstadt.de
tobias.jakobs	web.de
tk-eurolinux	datas-world.de
tkiel	has-ps.de
t.kindschus	bmiag.de
tklaffke	hotmail.com
thorsten	koenigshome.de
t.kosch	schuckeduster.org
thomas.lamy	netwake.de
thomas.ludwig	informatik.uni-heidelberg.de
tobias_mayer	t-online.de
thomas.mitzkat	planet-interkom.de
hartmann	informatik.uni-bremen.de
tmuschter	web.de
tanja.nitschke	gmx.de
tobias.besch	gmx.de
tobiam2	web.de
tobias.crefeld	klekih-petra.de
tobias	langhammer.com
tobi.web	gmx.de
inkognito.anonym	uni.de
tobias	rischer.com
tommy	bielefeldts.de
tolzmann	sieda.com
tomeki	web.de
thomas.otto	hybris.de
mario.trzesinski	berlin.de
twilight1	gmx.de
tonimoll	yahoo.com
amun.re	topas.org
Torsten	Schuchort.de
TorstenSteinert	web.de
toussaint	hamburg.de
bene1	gmx.net
oliver	trackers-world.net
traff	ccrl-nece.de
r.kloibhofer	inode.at
trek-ubs	web.de
lmh	syscologne.de
stefan	jaschke-net.de
ray007	europe.com
mail	thomas--schaefer.de
c.h.tscheuschner	chtdesign.com
tschosie	gmx.de
tschur	tsa.de
tschweikle	fiducia.de
thomas.oberhofer	phil.uni-erlangen.de
thomas.sprickmann	natural-computing.de
t.Steinel	web.de
kontakt	tobias-stumpf.de
ttannebe	gmx.net
t.tischendorf	ttd.mei.shuttle.de
m.tuchscheerer	mtu.brb.shuttle.de
tuerck	lens.unifi.it
tu_e_ta	yahoo.de
klaehn	gamemakers.de
joerg	tuxmaster.de
thomas.voelker	tgvconsult.de
thomas.wallner	woina.de
pitu	caipy.de
twanger	bluetwanger.de
nw	wegener-net.de
tinowilloeper	web.de
jacek.zmudzki	t-online.de
ae	informatik.tu-cottbus.de
tb	laokoon.in-berlin.de
tzinner	t-online.de
uberger	cs.tu-berlin.de
Udo.Frese	dlr.de
udo.steinbach	oldenbuerger.de
ulrike.dressel	freenet.de
support	grimm-brothers.de
uhering	uwe-hering.de
uheyn	uni-bonn.de
su	su2.info
ffii.org	ukeer.de
ulrich.landermann	t-online.de
ulrich.kuettler	mailbox.tu-dresden.de
ulrike	fam-eckert.de
udo.neist	t-online.de
106075.1423	compuserve.com
home	upstar.de
udo.rader	bestsolution.at
udo.rader	vibe.ac
urban	cwsm.de
usander	onlinehome.de
us-	gmx.de
uwe.siepmann	t-online.de
u.stenzel	web.de
uvl33	web.de
uwe.arzt	robots.de
uwe.behn	adept.com
jans	hs-bremen.de
private	uwk-wolf.de
vahedipour	unicmind.com
varoquier	online.de
vermeulen	t-online.de
veser	gmx.de
zen	gams.at
helm.volker	gmx.de
volker.holfeld	gppc.de
vinyl	novellogic.de
michael.lindenau	loesungen-und-ideen.de
volker.krause	rwth-aachen.de
vladislav	lubojacky.com
vlukas	gmx.de
voegelas	gmx.net
andi_v	web.de
joerg	jvogel.de
vogt	thinking-wires.de
vgass	gmx.de
v.dormeyer	t-online.de
volker.karrer	web.de
heiko.haase	wan2.de
voppmann	surfeu.de
volker.rittner	t-online.de
vs	digigeek.net
volker.tanger	wyae.de
waechter	azh.de
tw	waldmann-edv.de
nullgravitation	gmx.de
phm	ffii.org
warp-ffii	spin.de
schaffer	informatik.uni-muenchen.de
heineman	wiz.uni-kassel.de
mwat	mwat.de
wb	o3-software.de
phm	a2e.de
wd	denx.de
wido.depping	tu-clausthal.de
wolf-dieter.groll	gmx.de
wdraxinger	muenchen-mail.de
weber.freiburg	freenet.de
webguide	gmx.net
webmaster	lapstore.de
webmaster	bodystylers.com
wehning	gmx.de
svenweidauer	web.de
weilerbacher	gmx.net
mqv5mw02	sneakemail.com
weissi	tux4u.de
weitling	informatik.uni-freiburg.de
wende	biochem.mpg.de
wennsbrennt	gmx.de
BernhardWenzel	GMX.de
werner.network	gmx.de
werpu	gmx.at
w.hennings	fz-juelich.de
l.widdershoven	fz-juelich.de
jens	willmroth.de
winandy	gmx.net
windle_c	informatik.fh-hamburg.de
adolf.j.winterer	inn-salzach.de
lyn	lynonwire.de
wirthw	in.tum.de
wiskott	gmx.de
witterstein	web.de
wkailer	gmx.de
wkarwen	t-online.de
wl	gnu.org
wolfgang_loehr	web.de
wlueckemann	tibosoft.de
wolfgang.neidel	web.de
wolfgang.hopp	online.de
wolfgang	bressgott.de
Wolfgang.Lux.Lohne	t-online.de
W.Schwenzer	nikocity.de
thomas.wollersberger	gks.adac.de
wolli	wolli.com
woogie	gmx.de
saar	pop-dresden.de
wilfried.stangler	t-online.de
walter.stier	web.de
wolfgang.stuehlmeyer	tiscali.de
wuendi	t-online.de
evill33t	fuckmicrosoft.com
Wuschel	end-of-line.de
WWagemann	t-online.de
willi	hobbit.in-berlin.de
wolfi_z	web.de
w.zucker	arcor.de
Marko.Kirchhoff	stim.de
kuestner	cs.tu-berlin.de
xela	slit.de
wjb	uni.de
dev.zero	gmx.net
yasar.arman	waibschd.de
wolfram.herzog	yellow.de
yingdingwang	yahoo.de
youghal	web.de
holger.leskien	gmx.de
zach	cs.uni-bonn.de
arne	hueggenberg.net
zaphod-b	herz--aus--gold.de
hinterkopf	adl-gmbh.de
symposion	onlinehome.de
zduck	wasmeier.com
toralf.zemlin	informatik.tu-chemnitz.de
zendel	linuxtag.org
zimmel	machno.hdm-stuttgart.de
zisowsky	fokus.gmd.de
jochen.zuegge	web.de
info	berts-linux.de
Michael Loeffler <michael	opengroups.de>
bratgitarre	web.de
