olo	altkom.com.pl
aas	gapsl.com
alef	infocom.uniroma1.it
t.van.de.haar.pinto	ogd.nl
abelml	terra.es
alexander	bostrom.net
alain.cledes	wanadoo.fr
europeanpatents	evergreencomputing.com
ant_diaz	teleline.es
adrian_antiswpatent	moye.org.uk
arturo.digioia	ing.unitn.it
c.chaboisseau	obs.coe.int
werni.a	intergga.ch
info	aefisher.plus.com
aegnor	mittelerde.ch
alga	codeworks.lt
adam	adamofgreyskull.co.uk
aigarius	debian.org
albiez.info	free.fr
airadier	users.sourceforge.net
auke.kok	planet.nl
ajjager	wanadoo.nl
achim.kaier	bmw.ch
akaihola	siba.fi
anders.kallstrom	math.uu.se
alabor	mail.com
reinhardt	free.fr
ald	arrakis.es
keko	khor-ha.net
anamsuero	mi.madritel.es
albert	ati.es
aldert	zomeronline.net
aleeming	btinternet.com
aleistad	broadpark.no
alexandra_nuzzo	hotmail.com
alessandro.bragaglia	email.it
alex_tea	r107.co.uk
alfnewby	lineone.net
alindh	iname.com
linux34	lycos.co.uk
mafj1085	student.uu.se
thierry.alteirac	free.fr
altkota	gold.uni-miskolc.hu
alvaro	alobbs.com
alex	cgce.net
alex	cgce.net
amahti	cc.hut.fi
luzs	acm.org
amaryllide	libero.it
amendes	procompe.pt
amper	777westel.hu
angelo.pozzi	libero.it
afm	othello.ch
ari.mujunen	hut.fi
anamafe	retena.com
ancua	alumni.uv.es
andel	ifi.unizh.ch
joost	lumatec.be
andjo	lysator.liu.se
andrea	voicebook.com
andrea	bedini.homelinux.net
andrea	z80.it
andreu	dilvert.com
andrew.robinson	metso.com
andyw2	btconnect.com
anglerud	mail.com
alain.nord	wanadoo.fr
antjalm	mail.telepac.pt
antoine	delvaux.net
antowen	btinternet.com
antrik	gmx.net
antsims9999	yahoo.co.uk
fineales	ozemail.com.au
patent	varga.co.uk
apeiron	pobox.sk
a.w.peters	ieee.org
amer	ruth.upc.es
ufo	linux.net.mk
aries	mindworks.hu
arjanmolenaar	hetnet.nl
arjen	andromeda.nl
info	informaticaconsulting.net
arnie_egel	yahoo.com
pierre-yves	trebaol.net
arrow	pileborg.org
arturo	langre.com
askerb	massive.se
alexandre.skrzyniarz	enst-bretagne.fr
alf.tims	pp.inet.fi
alan.tonkin	swedbank.lu
andrea.trentini	itmentor.it
avilella	lycos.es
awalt	gmx.net
niko32	o2.pl
info	ente.limmat.ch
andreas.zieritz.cadupi19	eposten.no
m.v.sangster	abdn.ac.uk
baggins	esatclear.ie
baran	knm.org.pl
eurolinux	vrielink.net
ivo	phy.hr
raymond.edah	motorbox.ltd.nu
benjamin.berge	epfl.ch
yaa	euronet.nl
dan	burrill-it.co.uk
fen	comedia.com
baldassare.cocchiara	unito.it
bcouck	skynet.be
bdesmedt	vub.ac.be
bas	river.nl
jim	bear-cave.org.uk
beckmann	fmrib.ox.ac.uk
benoit.hap	robeco.be
berda1	caramail.com
ch_ris.b	bigfoot.com
bernetti	inwind.it
bertil.sigra	home.se
bettelli	irsamc.ups-tlse.fr
beat_fasel	yahoo.com
bjg.ffii	network-theory.co.uk
bognar.gabor	primanet.hu
benjamin.geer	misys.com
gufler	in.tum.de
ben.henderson	tiscali.nl
anders_biehl	yahoo.com
john.tore	andersen.as
bimbofranco	libero.it
cweb	mailme.dk
bjont97	student.vxu.se
bjorklof	nic.fi
bjorn	victor.se
bruno.lartillot	laposte.net
riko	anubics.org
blink	riseup.net
stefano	assi.polito.it
bartosz.malkowski	pro.wp.pl
berne.nicolas	wanadoo.fr
p.boetschi	gmx.ch
bojar	magsoft.com.pl
julius_p_cramp	yahoo.com
borgia	students.cs.unibo.it
alain.bosch	free.fr
sebmathieu	ifrance.com
bouthier	loria.fr
bozkurt	multitel.be
edi	minfin.bg
bricofoy	free.fr
nicolas.brodu	free.fr
epit	x-dsl.hu
bruno	tlk.fr
brydell	inter.nl.net
noepatents	brynge.com
coa	mac.com
bela.torok	kssg.ch
jbusquets	grespania.com
bas_vanderpeet	yahoo.co.uk
bram	bram.be
bruno.vernay	proval.fr
marcus.berglund	exensus.com
be_well	linuxmail.org
caapal	emation.pt
callcott	cwcom.net
camossi	disi.unige.it
canard5	wanadoo.fr
simone.m	lynx2000.it
robert.dehez	minfin.fed.be
carleos	fisher.ciencias.uniovi.es
carles	pinux.info
carles	math.u-bordeaux.fr
carueda	ucdavis.edu
plc	students.fct.unl.pt
castanyo	yahoo.es
cbellsola	terra.es
chris.bevan	ieee.org
chris.baker	dependency.com
cbugel	netvision.net.il
c.chambery	warp-eng.it
claudio	linux.it
catherine.cledes	wanadoo.fr
chris.cowsley	ntlworld.com
cemal.draman	ensps.u-strasbg.fr
reg.ffii	cdrnet.net
pc	future-interface.com
cesar	petitjournal.org
ffii	cesc.info
christoffer-euro	omk.dk
cezar	funinf.cs.unibuc.ro
carlos_felipe	asturies.org
caterina.genualdi	libero.it
charlie	riskdecisions.com
charlie	cgrosvenor.co.uk
tico492	wanadoo.fr
chas_haywood	yahoo.com
alexej.michailowski	web.de
chienmortbb	ntlworld.com
jchochola	volny.cz
chreex	freemail.hu
clj3	kent.ac.uk
ciniol	atos.wmid.amu.edu.pl
greekradiofan	yahoo.com
benjamin	hille.charitydays.co.uk
mail	cizaire.com
claudio.succa	pertel.it
chris.magerman	pandora.be
cmarshall	blackwellpublishers.co.uk
cyrille.masson	lisi.insa-lyon.fr
petition	codex.net
jean-pierre.coeffic	ipmfrance.com
coimbra	libertysurf.fr
colin	colina.demon.co.uk
colinap2010	hotmail.com
contacto	martinfernandez.com
cordioligp	libero.it
carles	pinux.info
ffii	craigtubby.co.uk
creativecoca	yahoo.com.mx
cristim	mail.multinet.ro
cesc	ati.es
sasso_christian	yahoo.com
csp	astro.ku.dk
clement.stenac	via.ecp.fr
claus	teglman.com
temple.ced	infonie.fr
chris	cthoday.uklinux.net
eurolinux.org	qwirx.com
dont_search	yahoo.com
dre00r	ecs.soton.ac.uk
daedalus	cycos.net
michel	daenzer.net
herman.van.gestel	dannan.net
dandario	libero.it
ryan2k1	runbox.com
danieljo	fagotten.org
peter.vanopstal	health.fgov.be
denis.arnaud_eurolinux	m4x.org
pangur	utvinternet.ie
community	struck.lu
datifasulli	libero.it
davide125	tiscali.it
calvelo	lifl.fr
d.costanza	cpr.it
dick	radioworldwide.org
dominique.devriese	student.kuleuven.ac.be
davide.dozza	yacme.com
mail	secondguess.dk
seb	goodidea.be
juancarlos	demartin.it
mark	markvdb.be
depietri	fis.unipr.it
derek	wavecor.co.uk
kkd	pandora.be
sf16350	chello.be
desktopstudio	planet.nl
debianuser.rene	ifrance.com
daniel.flipo	univ-lille1.fr
dglaudemailing	gmx.net
david.golden	oceanfree.net
dof	codepoets.co.uk
d.hoepli	gmx.ch
d.hofstee	its.tudelft.nl
david.hopwood	zetnet.co.uk
dietvu	village.uunet.be
niels	digitalforbruger.dk
bd3	mageos.com
bd3	mageos.com
david	clocksoft.com
dominic.jackson	stop.mail-abuse.org
daniel-jean.perin1	libertysurf.fr
djwilly	jazzfree.com
daniel	kalor.dk
dns	uzlethaz.com
dobled	freesurf.ch
dopr	eresmas.net
donpacy	abv.bg
richard.downing	bcs.org.uk
dpfister	gallatinriver.net
ml	powerdata.dk
didier.rambeau1	libertysurf.fr
drewheasman	hotmail.com
drfelip	novenadimensio.net
d.sbragion	infotecna.it
dermot.smyth	blueyonder.co.uk
dthierbach	gmx.de
dubreuil	ufr-info-p7.jussieu.fr
romuald.dufour	herstalgroup.com
adl	gnu.org
david.vanraes	chem.kuleuven.ac.be
dweenink	xs4all.nl
didier.wolff	worldonline.fr
dwscott	ieee.org
zdzd	box43.pl
ea3bil	terra.es
eleberg	cbe.ericsson.se
eblanpain	netscape.net
emmanuel.blot	anciens.enib.fr
erik.dewilde	pandora.be
ediaz	ultreia.es
edwardjorge	iol.pt
ende33	lycos.nl
eferro	inicia.es
egoin	ecreasol.ch
eguerin	bat710.univ-lyon1.fr
erlo	image.dk
w-ill	rocketmail.com
ekogw	univ.gda.pl
dom	sden.org
henk	elbers.com
olivetti	itc.it
erick.mascart	cfwb.be
contact	emencia.com
eric-muller	tiscali.fr
henrik	enberg.org
a.choraffa	livjm.ac.uk
h.j.meijers	zeeuwsebibliotheek.nl
ed	membled.com
erwin.pfeifer	provinz.bz.it
eric.ianna	9online.fr
ericb	lecannet.com
sigra	home.se
erik	sslug.dk
xavi	idevel.net
on	cs.ait.ac.th
alejandrorf	arrakis.es
esben	haabendal.dk
joe	edb.dk
robt	flyingpig.com
pedroantunes	free.fr
etienne	baudrillard.fr.st
hkcc1976	operamail.com
emmanuel.valliet	enst-bretagne.fr
e.vancutsem	arcadis.be
ewitbreuk	hotmail.com
fabbe	sci.fi
fabrice	bellet.info
michele_fab	libero.it
alex	fifi.org
fabrice.bauzac	etu.enseeiht.fr
fb2001	free.fr
fabrice.bryjak	univ-valenciennes.fr
ifd	bigmailbox.net
frej	sics.se
federmann.dutriez	wanadoo.fr
feanor	darkening.net
feczo	fw.hu
fedemp	altern.org
fergal	esatclear.ie
ferran_pegueroles	retemail.es
ferrbsd	libero.it
jean-philippe.guerard	laposte.net
freddy.frouin	fluxus.net
fg	numlog.fr
fg	numlog.fr
fabien.guiot	aukali.fr
f4cfe	free.fr
pauphelle	irci.fr
frederic_labbe	yahoo.fr
fabrice.lang	free.fr
f.lauwers	sedac.be
fleurey	free.fr
fal	galactica.it
manuel.flury	free.fr
gerald	beautifulcode.nl
fmommeja	bigfoot.com
frederic.montagnat	free.fr
mail	fernandomoreira.com
francisco.moya	uclm.es
fnevgeny	plasma-gate.weizmann.ac.il
konrad.foerstner	gmx.de
moon98	mail.telepac.pt
folon	folon.com
philipj	telia.com
francesco	fampeeters.com
craigm	foundationproject.org
pot	gnu.org
franklin82	gmx.net
frederik	aktua.com
stef	lunatech.com
listes.rusconi	laposte.net
jfs	skynet.be
francois.tepenier	edfgdf.fr
fxd	fnac.net
gabrielg	home.se
garaizar	eside.deusto.es
gb.eurolinux.org	olivesandhoney.com
giorgio.carra	gcarra.com
gchaussy	free.fr
geraldine.cledes	wanadoo.fr
virtualdk	inwind.it
g.dimitropoulos	lboro.ac.uk
gavin.doherty	mail.com
general	markedup.co.uk
qef	laxan.com
gerardolisboa	netcabo.pt
g_erlingsson	yahoo.com
germain	ebooksfrance.com
mail	germstore.com
geunes	xs4all.be
gfaieta	iname.com
gilles.filippini	free.fr
gfranza	mgeng.com
ggduckad	wasmeier.com
ggduckad	wasmeier.com
dandoy.gilbert	brutele.be
g.renault	free.fr
gk	joshua.haninge.kth.se
geo_kolev	yahoo.com
guenter.lippert	siemens.com
andrea.glorioso	binary-only.com
rama	altern.org
gam	cs.elte.hu
blue_water	libero.it
g.mole	mmu.ac.uk
gun	chello.fr
gnipi	europeonline.com
gnulinux	nospammail.net
pag	hinesna.no
goneri	gmx.fr
gonzalez	ibdm.univ-mrs.fr
gosciu1	wp.pl
gossep	esiee-amiens.fr
gpadrin	gest.unipd.it
glawton.ffii	alola.org
graham	exmosis.net
grgec	uni-bremen.de
mg	grouleff.com
roland.gruen	siemens.com
conchaudron	free.fr
gaetan.schmidt	gmx.net
silk	poznan.telbank.pl
gary	stimson.org.uk
gswinnen	skynet.be
goran	kirra.net
Kasper.Souren	ircam.fr
guardiola	altern.org
guerby	acm.org
guffens	auto.ucl.ac.be
gustav	cactus.dk
gwena	ya.com
g.wesselink	hccnet.nl
haaf	ime.rwth-aachen.de
hbliek	whitebream.nl
mikko.harjula	iki.fi
hatethatspam	cs.com
henri.delbos	free.fr
hedwin	xs4all.nl
heikkis	ifi.uio.no
hel	linux.nu
jch	reseaucitoyen.be
hellsbell	libero.it
herman	linux.nu
h	coolbleiben.net
g.fabbris	kromeidon.com
hgnsjx9bkp001	sneakemail.com
hgranlie	dadlnet.dk
hh.gudmann	mail.dk
richard.higson	gt.owl.de
hakan.johansson	mbox3.swipnet.se
henk.m.keller	atcomputing.nl
sf16350	chello.be
ilkka.forsblom	helsinki.fi
dbjh	gmx.net
hoyrup	ribekatedralskole.dk
hozelda	yahoo.com
herman_pijl	email.com
fiee.visuelle	gmx.net
herman	iet.hist.no
howard.richardson	bris.ac.uk
humphrey-sherwood	lucidit.co.uk
hugge	netg.se
hukoskin	cc.hut.fi
huott1	supergeek.com
henri.valta	kemi.fi
ian	cudlip.co.uk
iarenaza	escomposlinux.org
ibasescu	xnet.ro
ib_seekertoo2	yahoo.com
salvaperez	wanadoo.es
iespadam	worldonline.es
ignas	kks.lt
igorc	gmx.net
isak	hypergene.com
ianw	micrologica.co.uk
iko+eurolinux	cd.chalmers.se
ildemone	inwind.it
ilus-ns	o2.pl
ivan	xajckop.co.yu
rikard	imediasw.com
michael	michaelconaghan.fsnet.co.uk
ina	stats.ucl.ac.uk
indrek	bps.co.ee
inetrunner	hotmail.com
olaf	infovore.xs4all.nl
suonodelsilenzio	tiscalinet.it
roland	inherit.se
ruizgon	telecable.es
innocenti	cineca.it
in10d	friko.internet.pl
rok	hermes.si
igor.pronin	iki.fi
ignace.saenen	pandora.be
isazi	pescarafree.org
ilja.sidoroff	welho.com
ismael	olea.org
itommola	lut.fi
iwantuniqueemail	yahoo.com
ja1bal	mail.hinocatv.ne.jp
jackson	hig.se
jacob.bay.hansen.ffii	rain.dk
jacob	strakt.com
jacques	caruso.bz
j.adriaansen	misterydesigns.com
jadrian	mat.uc.pt
j.jagielka	cplus.com.pl
johnaherne	rocs.co.uk
james	v-ice.net
softwarepatents	janc.cjb.net
janneke	gnu.org
pruner	cekia.cz
jarkko.m.laine	tut.fi
jan_greczycho	snti.pl
ffii	jasperharms.nl
jauclair	uoguelph.ca
jros	unavarra.es
jsmaldone	yahoo.com
jimi	mbox302.swipnet.se
jbarbour	iname.com
job.baretta	wanadoo.nl
julien.bellion	free.fr
johan.bogg	torsb.bollnas.se
jbontje	suespammers.org
julien.boucaron	free.fr
jbradsha	nortelnetworks.com
jbraun	pp.inet.fi
joel.brich	chello.be
jbueno	freesurf.fr
j.cawkwell	open.ac.uk
jcdoctus	yahoo.com
jcd	tribudubois.net
josemarcos.chalmes	hispalinux.es
john	drystone.co.uk
ffii	dataconversion.co.uk
jesus.climent	hispalinux.es
jorgecortell	mac.com
jcouto	innosec.es
jcsvmar	netscape.net
jdassen	debian.org
jeff	llandre.freeserve.co.uk
jdcooke	totalise.co.uk
jdc	x64.com
jdiogo	mail.eunet.pt
jdmv	mac.com
jdthood	yahoo.co.uk
jean.luc.duflot	freesbee.fr
jeando.veuve	mazfp.fgov.be
jeanp.florestal	wanadoo.fr
jacques.englebert	dlm-law.com
j.bjerrehuus	acm.org
jens	fallesen.dk
jensk	futarque.com
jens	kubieziel.de
j.ten.berge	twinbit.nl
jesper_michelsen	bigfoot.com
jmce	artenumerica.com
johan.fabry	vub.ac.be
flax-ea	algonet.se
jeanjacques.freulon	free.fr
jgb	gsyc.escet.urjc.es
jgc	arkemie.com
ffii	jguk.org
jguerrie	club-internet.fr
jul_h	bluemail.ch
juha.hemminki	infocorp.co.uk
jh	inetcom.ch
jiri.hadamek	systemservis.cz
jan.jakobsson	bredband.net
jjvainio	cc.hut.fi
janne.kataja	iki.fi
jkeating	gol.com
janne.kivijarvi	iki.fi
jklava	oic.lv
jean.lebail	free.fr
jlbasura	wol.es
nc	nightmare-creature.org
jlmargot	hotmail.com
jlmartinavarro	yahoo.es
joan.louis	itaca-net.com
jluis	escomposlinux.org
macias	die.upm.es
jean.marie.gouarne	genicorp.fr
jm-ffii.org	jmason.org
jm	tlk.fr
jmm	voile.net
jacques.moret-bailly	u-bourgogne.fr
jmf.renard	free.fr
jnareb	wp.pl
nay	leicester.ac.uk
joao	silvaneves.org
joachim	loberg.nu
card	posta.unizar.es
jochen.ahleff	t-online.de
jochen	proximus.be
jocle	cerc.wvu.edu
jody	ggpl.org
joel.kjellgren	staff.spray.se
j.engstrom	chello.nl
johng	surfshop.net.ph
johnpadraic	ig.com.br
totalnirvana	mailme.dk
jonas	gnu.org
jonne	sandnet.se
joostvb-ffii	mdcc.cx
juan.orduna	uv.es
joris	ideeel.nl
jorneg	retemail.es
josecrubia	yahoo.es
jfebrer	inicia.es
nacht	inwind.it
jothal	hotmail.com
david.jourand	laposte.net
jpd	ctv.es
jpa	sontex.ch
jpalko	iki.fi
jeanpierre.cholet	orangefrance.com
jani	dreamnation.co.uk
jpfoidart1	tiscali.be
jeanphi.sap	free.fr
jean-pierre.pele	libertysurf.fr
john	pipal.net
john	johnnypops.demon.co.uk
j_post	pacbell.net
jama	debianlinux.net
jp.pozzi	izzop.org
jean-pierre.riviere	ac-versailles.fr
jpsecher	diku.dk
joan.puigdemont	ati.es
jpyrat	free.fr
j.p.ziesel	irsamc.ups-tlse.fr
jlp	holodeck1.com
cej	os.dk
jrhunt	iee.org
jroux	cnrs-orleans.fr
jsalama	pp.htv.fi
jmsw	apexbeat.net
jan	sierens.com
jernej.simoncic	guest.arnes.si
julien.simonnet	irisa.fr
jsogo	debian.org
jordi	viladesants.com
root	snowboarder.demon.nl
jay_tokarz	yahoo.com
joel.tret	free.fr
jarek.t	klub.chip.pl
juba-san	telefonica.net
lc.balland-poirier	voila.fr
jungle	mclink.it
juroz	menta.net
ujan	mail.dotcom.fr
jussalmi	utu.fi
tapio.karppinen	kymp.net
jvdk	home.nl
jverbogt	cirrus.nl
jmbsvicetto	yahoo.com
jwarnier	beeznest.net
jan	cognitivetools.com
justin.wilson	alpheus.com
jwinius	umrk.to
jarno.pelkonen	iki.fi
joerg	joergmaier.org
kaespu	netscape.net
kakalot	airtel.net
tijl	ulyssis.org
karagoun	hol.gr
kardargo	yahoo.com
karolosp	ibelgique.com
kasal	math.cas.cz
mcachessilnath	yahoo.com
klaas.besseling	wur.nl
kbrink	liacs.nl
kdorothee	club-internet.fr
kenno	tiscali.be
kevinb	drs.co.uk
kevin	caboose.org.uk
klaas.gadeyne	mech.kuleuven.ac.be
kg	kgsoft.dk
killar	get2net.dk
kilsmo	opera.com
kim	b-e-c-k.dk
kimmo.parviainen	pronics.com
kir	asplinux.ru
k.skau	chem.leidenuniv.nl
klaus	kaan.dk
kkovacs	kkovacs.hu
klali	chello.se
klausanderson	yahoo.com
klematis	image.dk
kmarchand	online.fr
kty.meyer	wanadoo.fr
kenneth	geisshirt.dk
koophel	wp.pl
jonas	init.se
makrey	web.de
kasper_ronning	hotmail.com
kris.steenhaut	hccnet.nl
ktakkune	helsinki.fi
kari.tuomainen	iki.fi
klavdij.voncina	siol.net
kristian.werner	services.fujitsu.com
unix	planet.nl
hegenj1	feld.cvut.cz
kyrah	gnu.org
lac	strakt.com
admin	quizcomposer.dk
lars_johannesson	home.se
lakeland	acm.org
lz_on_ptnet	yahoo.com
lars	malmheden.nu
lamco333	yahoo.com
gkerneis	free.fr
larsed	online.no
lars.ffii	ukmix.net
jean-christophe.lasvergnas	polytechnique.org
lberut	berut.net
lbogede	tecnatom.es
lbruguiere	wanadoo.fr
laurent.champaney	meca.uvsq.fr
loic	gnu.org
ldegiorgi	tiscali.it
lorenzo.detomasi	libero.it
louis.dibenedetto	laposte.net
l.dipietro	inwind.it
luigi	luigidragone.com
philippe.leclercq	osix.be
ph.l	libertysurf.fr
lennartb	xs4all.nl
leen	wirehub.nl
leoncini	up.univ-mrs.fr
lerouge	creteil.inserm.fr
petitiononline	tuxz.org
letalis	athela.com
lewellyn72	free.fr
lionel.gamet	fluorem.com
lars.hoeg	get2net.dk
libart	freemail.nl
librizzi	libertysurf.fr
linebular	hotmail.com
joan	linuxbcn.com
skid	minet.net
llanigl	terra.es
luc.maisonobe	free.fr
lionel	mamane.lu
lmarinucci	yahoo.com
lindsay.marshall	ncl.ac.uk
lmeszaros	sanyo.com.au
lm75	yifan.net
l.noordergraaf	i-a-m.nl
lol	modulesystem.com
longja	logica.com
lists.sridhar	dhanapalan.com
fred	lorksoft.com
louis.reinard	ses-astra.com
lionel-roux	club-internet.fr
laurent.salle	taciturne.net
larting.spree	free.fr
leon.stok	nl.yokogawa.com
lothar.stolz	gmx.de
lucho	mbox.digsys.bg
ludde_83	linuxmail.org
luffatt	libero.it
lgraval	yahoo.es
lukka	iki.fi
xss	najt.nu
karllunger	hotmail.com
lionel.vaux	ens-lyon.fr
lvilla	xsec.it
luz	synthesis.ch
mache	abcpages.com
michel.aconin	laposte.net
ffii.org	pobox.madduck.net
madflo	poxx.net
madmath	wanadoo.fr
mads	dydensborg.dk
madshorn	operamail.com
maechler	stat.math.ethz.ch
stefano.maffulli	madeinlinux.com
mkolaja	mistral.cz
me	magne.info
raul	raulmahiques.com
malaquias	malaquias.net
michael	nemecky.de
malousimon	hotmail.com
mandras	sednet.hu
msrcreac	wol.es
manfernets	netscape.net
manni	nic.fi
zen6877	zen.co.uk
maranke	mansio.uva.nl
marco.bari	vene.ws
marcod	acm.org
m4rt	libero.it
marek	campus.ie
marian.ion	igcti.ro
markus	veistos.com
markwall	fichtner.co.uk
martijnt	dataserve.nl
martin	wrasse.demon.co.uk
martin	hardcoder.dk
masala	polito.it
mases	algonet.se
iain	iain.mason.name
mathias	stacken.kth.se
m.heydtmann	bham.ac.uk
mathop	interfree.it
maulkin	halon.org.uk
maxmars	libero.it
mohamed.bada	free.fr
klao	ludens.elte.hu
maurice.basquin	wanadoo.fr
mark	intcom.nl
mab	net.pulawy.pl
martial.boudant	sciences.unicaen.fr
miquel.cabanas	uab.es
michel.caplain	inpg.fr
torstenchr	hotmail.com
paulmcbride	classmethod.com
mcgimenez	izar.es
marcel.chatenet	mektor.com
mc	mclaveau.com
michel.clerbois	skynet.be
mgraaf	csc.com
meirep	bluewin.ch
melvyn	burgo.fsnet.co.uk
tatu	hypermall.net
menthos	menthos.com
merdos	hit.hu
michiel	ettema.net
dm2	unipg.it
m.farcot	wanadoo.fr
michael.ferber	mpi-expmed.mpg.de
asp	person.dk
mfrances	spbo.unibo.it
marc	wimba.com
mgius	pi.be
marc.green	skynet.be
m.e.jhabets	freeler.nl
matthieu.herrb	laas.fr
mhledik	vm.cz
marc.hoffmann	wur.nl
mhouston	deluxe-tech.co.uk
mht	bttr-software.de
michiel	kopz.org
miernik	ctnet.pl
miguel	math.ucr.edu
ffii	mikan.net
michael	runrev.com
mike	frcatel.fri.utc.sk
mikko.moilanen	ty.mikkeliamk.fi
sam_x	bluemail.ch
milo.petrovic	phusis.com
mimarfer	ono.com
mauro	minenna.it
mirah	centrum.cz
mireaux	tmt-venture.com
misko	arih.si
mjenner10	hotmail.com
mj	isy.liu.se
michel.kikkine	free.fr
mkrech	intelligentfirm.co.uk
mkurula	abo.fi
labbe_m	hotmail.com
mladen	tipografika.co.yu
mariolorenzo.lanzani	fastwebnet.it
marc.leeman	ieee.org
mleroy	chez.com
mike	whaley-bridge.fsnet.co.uk
madis.listak	mail.ee
mats.loman	home.se
mikael.lyngvig	toolwood.dk
mmanini	uninetcom.it
tilk	linux.gery.pl
ma_nicola	arnet.com.ar
marian_ion	noos.fr
mnogomedvjeda	bigfoot.com
moffe	amagerkollegiet.dk
mogensjaeger	get2net.dk
metalnoiz	hotmail.com
monga	debian.org
moranne	compodata.com
rmorley	core.com
mortenjohs	gofairtrade.net
nemo	rudiment.dk
mortenro	screenmedia.no
mosmi1	hotmail.com
matjaz.ostroversnik	ztm.si
maximilien.oursel	libertysurf.fr
martin	skydebanen.net
matti.polla	hut.fi
mikko.rajanen	oulu.fi
matthieu.recouly	laposte.net
hfwddpwlscna	spammotel.com
mark	mrfodder.com
misterled	yahoo.fr
mcr	wildcard.demon.co.uk
mroos	linux.ee
sadplanet	chello.be
mrybczyn	elka.pw.edu.pl
msarlin	netcourrier.com
mschnide	bluewin.ch
mika.selin	iki.fi
marko.makela	hohde.com
msteinacher	websource.ch
michel-stephane.dupertuis	ima.unil.ch
msxmartos	teleline.es
mw3	daisy.chains.ch
mteodonio	libero.it
mikko.markus.torni	iki.fi
massimo.torrigiani	fastwebnet.it
kato	kabelfoon.nl
muaddib	muaddib.net
mugur_rus	yahoo.com
mullit	tiscali.dk
marco_valli	libero.it
marc.vanlandeghem	pandora.be
mve	zurich.ibm.com
martin.vermeer	hut.fi
martin.voelkle	epfl.ch
martin.ward	durham.ac.uk
mwat	mwat.de
mx	marc-xicluna.com
fnaaijkens	ultihouse.com
nadeau	peraldus.ch
info	nakawe.se
nando	iepala.es
napolj2	optonline.net
narmloth	yahoo.fr
neal.astle	virgin.net
rex_the_first	yahoo.co.uk
niels	bjerre.net
nb	cisto.com
ivo	segger.com
nicolas.chauvat	logilab.fr
neal.clewlow	virgin.net
jc	apliware.ch
nebrot	post8.tele.dk
s_eurolinux	nedprod.com
roel	sunshine.rave.org
neil	next-touch.com
nelis2	yahoo.com
franck	nenie.org
newpincho	yahoo.es
nick_flynn	bigfoot.com
me	nickgravgaard.com
nhancock	bigfoot.com
nicklek	iceht.forth.gr
niclas	cs.umu.se
nicoe	wanadoo.be
lolleriani	yahoo.com
simone.nicotra	fastwebnet.it
engi33	libero.it
nicholas.shopland	ntu.ac.uk
nivil	yucom.be
djk	tobit.co.uk
rasa	lsic.lt
nalesso.luca	infinito.it
nmagnier	nerim.net
nicolas.regnault	poly.in2p3.fr
rgraf	altern.org
nopatents	ochoto.com
leonard.norrgard	refactor.fi
nick-eurolinux	nilex.co.uk
no_patents	palmans.org
nilsronningen	aol.com
no_software_patents_in_europe	cynode.org
no_spam_2002	yahoo.com
nuni	megamail.pt
ya	tiscalinet.be
fii	mvoncken.nl
ffii	nickwillson.com
obenassy	entrouvert.com
olivier.david	conseils-web.com
sean	odonnell.nu
odin	szilank.hu
kleo	bulinfo.net
ottavio.rizzo	mat.unimi.it
dan	ohnesorg.cz
ol	unice.fr
olivier.levillain	free.fr
luca	ventoso.org
ogautherot	freesurf.fr
tom	tomeykens.com
org	menouno.com
odd.nydren	oddpixel.com
orestes	tsc.upc.es
oliver.ruebenkoenig	web.de
oscar	nerdvana.no
oleg	vefbank.com
info	teknobilge.com
o.s.sands	ieee.org
maximilien	bigfoot.com
mest	netcom.no
oyvind.hallsteinsen	aitel.hist.no
nixlinder	gmx.de
pacotoni	redestb.es
pascalgouhier	mac.com
pekka.akselin	swipnet.se
paluszak	fastmail.fm
pansanel	chimie.u-strasbg.fr
paolini	students.cs.unibo.it
paolodelbene	yahoo.it
wouter.pappaert	intec.rug.ac.be
ffiipatentpolicy	paralline.com
pardux	ptf.ntu-kpi.kiev.ua
parm	it.dk
psteichen	email.lu
register	astrom.net
robert	ffii.allyourbass.org
paulo	100limite.com
bernhard	cs.waikato.ac.nz
p.bizzarri	icube.it
p.bizzarri	icube.it
patrick.boos	finances.gouv.fr
pcara	vub.ac.be
philippe.cherel	mayenne.org
pascal.choukroune	laposte.net
pascal.conrad	libertysurf.fr
phil.coulaud	free.fr
patrick.dreyer	gmx.net
paul.dure	laposte.net
pedro	formtech.se
pelle	dsv.su.se
o.pellerin	voila.fr
janpe	geek.rcc.se
paal.arne.hoff	rampco.com
perarnau	ati.es
per.k.karlsson	home.se
peteswp	catnip.co.uk
petos	fyrplus.se
jean-marc.le_peuvedic	centraliens.net
patrick.fourniols	wanadoo.fr
pfremy	yalbi.com
pgaivao	iol.pt
pg	matrix.pl
p	gerhards.nl
p.gledhill	talk21.com
perttu.haimi	helsinki.fi
philippe.harrand	francetelecom.com
phduc	free.fr
phenden	tdab.com
phenden	tdab.com
philh	cabalamat.org
phimx	free.fr
phloeve	club-internet.fr
philippe.martin	gu.edu.au
piasta	web.de
piccardi	softwarelibero.it
john	picken.org.uk
pierre	tuxfamily.org
ph	imatix.com
pietrocipriano	supereva.it
pijuan	ono.com
info	tec4you.net
pinna	inventati.org
pioppo	ferrara.linux.it
piotr	member.fsf.org
marco.piovanelli	pobox.com
pisuke	libero.it
patrick.jadin	noos.fr
pjharper	yahoo.com
peter.johansson	nat.oru.se
Pawel.Jochym	ifj.edu.pl
paul.kerbourch	free.fr
petri.koistinen	iki.fi
peter.kraker	volja.net
peter.lappo	smr.co.uk
phils.laptop	pandora.be
platil	feld.cvut.cz
platinumears	hotmail.com
tom	playford.net
philippe.leclercq	osix.be
mcastelli	mail.com
pmanna	kagi.com
pmartino	valdorel.fnclcc.fr
jp	mattenet.com
pl.mattey	ukonline.co.uk
patrick	pantheon.at
pmoses	seznam.cz
pmo	xs4all.nl
tt	linux.nu
pere.nubiola	barcelona.sema.slb.com
p.nuytinck	most-wanted.com
polik71	inwind.it
ponchietto	yahoo.com
portello	conecta.it
portuzar	wanadoo.fr
pallinger.peter	freemail.hu
ppezziardi	octo.com
pplfichi	lineone.net
paul.rezvoy	univ-lyon3.fr
printart	libero.it
mdz	prohest.com
droopy75	club-internet.fr
paolo.saggese	libero.it
philip.sargent	computer.org
psch	ti.be
jdoe	k.ro
paul.sinnett	btinternet.com
peter.sleet	gb.abb.com
plamaiziere.softs	free.fr
petter.sundlof	findus.dhs.org
philippe.thomin	univ-valenciennes.fr
patrik.johansson	intertex.se
puttaert.p	pi.be
pvalach	gmx.net
p.vandenbulcke	edpnet.be
pveber	arkalis.com
picaud.vincent	wanadoo.fr
peter.warasin	darkrealms.org
pytr_behri	hotmail.com
pw5	poczta.fm
pyxis	libero.it
pyxis	soften.ktu.lt
patrick.zani	amma-interactive.com
raap	epost.de
radnev	yahoo.com
rcarreras	menta.net
raf	clueless.be
ramiro	mac.com
ramus	c.dk
rastreador	lycos.es
pierre-jean.raugel	laposte.net
raxhonp	iname.com
lical-lao	wanadoo.es
ramon_codina	mailtvc.com
roberto.dorsogna	libero.it
doverall	redversconsulting.co.uk
reine	linux.nu
noepatents	zwitserloot.com
reinout	cs.vu.nl
reinout	cs.vu.nl
remco	ch.tudelft.nl
remijnj	eidetica.com
ow	sda-ats.ch
maglor	libero.it
renato	math.rug.nl
spam	rgn.ch
geek	premonition.co.uk
reytans	wanadoo.fr
rolf.fankhauser	switzerland.org
robin.farine	terminus.org
rfp3	alu.um.es
romain	orebokech.com
r.froger	estrate.nl
rfstomp	lamarray.nl
rgauvin	look.ca
rgy	infobi.com
rghetta	larix.it
richgilson	hotmail.com
ricardo.gladwell	btinternet.com
rgwishart	eagles-gift.net
risto.helminen	pp.inet.fi
riccardopoli	tin.it
rpb	metapraxis.com
richard	medmedia.ie
richard	luney.co.uk
hugh.richardson	blueyonder.co.uk
new_kingdom	hotmail.com
rickard	ekeroth.com
info	kyosk.net
juri	juri.dk
rikard	linuxmail.org
rikard.enberg	tsl.uu.se
wintleglyn	netscape.net
rjmunro	arjam.net
rjgjonker	xs4all.nl
rob	pickering.org
karl	kalle.csb.ki.se
rodolfo.lunardi	relo.fastwebnet.it
superman_ha_muerto	yahoo.com
raym	herald.ox.ac.uk
rm	dh.dk
rmoller	mailme.dk
rove.monteux	fluid-rock.com
moreda	alfa21.com
rms	1407.org
riccardo.murri	gmx.it
rn214	cam.ac.uk
rn214	cam.ac.uk
caramishev	inbox.lv
robbiani	gmx.ch
robert	gide.net
ian_fg_robinson	hotmail.com
robi	politext.hu
lord_lt	eresmas.net
spa	di.uevora.pt
rodriguescelio	netcabo.pt
roehling	tiscali.dk
romain	zzict.nl
roland.orre	neurologic.se
roland.orre	neurologic.se
smo	jippii.fi
rossifred2	free.fr
rotro	wirehub.nl
royb	superoffice.no
raul.palma	terra.es
peter	42live.com
riccardo.pucci	dbcaditaly.com
reginald.ricquier	skynet.be
rsaar	gmx.net
r.scussat	dsplabs.net
rob	sterenborg.info
rtellez	ual.es
raphael.terrien	indigodev.fr
rugholmhus	vip.cybercity.dk
kim	runholt.dk
eru	netti.fi
johannes	turing.net
rvalles	ya.com
romain.vassallo	wanadoo.fr
mop07635	mail.telepac.pt
safield	ntlworld.com
sampsa	sohlman.com
sanderscheepens	netscape.net
rosario_lambiase	hotmail.com
stefan.bettler	gmx.net
iis	mpq.mpg.de
schelcher	ulp.u-strasbg.fr
schiarat	libero.it
schmidig	perso.ch
t	eo.lu
bernd	fams.de
schuller+patents	lunatech.com
viktor.schuppan	gmx.de
sandro_cipolat	onebox.com
sday	mac.com
scoubid00	freesys.org
seasword	syrensoftware.se
sk	z.pl
semancik	alert.sk
sergei	stams.strath.ac.uk
sergelr	freesurf.fr
sergesmeesters	netcourrier.com
pablo.serralta	free.fr
aife	netvisao.pt
seto-kun	freesurf.ch
severin	cosmopol.com
sferriol	free.fr
garcia.sergio	free.fr
sylvain.gelly	polytechnique.fr
steve.giraud	wanadoo.fr
sgmoreau	canal21.com
spaceman.himself	home.se
webe	siol.net
sdh300	ecs.soton.ac.uk
shuart	curie.fr
sietse	cs.rug.nl
tsiivola	cc.hut.fi
silpol	yahoo.com
simkim	free.fr
simon	ateb.co.uk
simone	cortesi.com
simonl	mirrormind.com
simon	diesel1.demon.co.uk
sjaubert	capgemini.fr
aj	cdt.luth.se
samu.karanko	foreca.com
ska-ffii	skarnet.org
ilari.salminen	rokki.net
skoob	kth.se
skordonis	oaed.gr
slaanesh	netcourrier.com
ffiiorg	sledziu.com
slejska	centrum.cz
slinky	iki.fi
auke	muze.nl
stef_lopin	yahoo.com
stephane.martin	gmx.net
s.menant	free.fr
serge.miguet	univ-lyon2.fr
mst80	ptt.yu
mottet	psycho.univ-paris5.fr
socrate	tuiasi.ro
softpat	alk.org.lu
sojka	fi.muni.cz
sokrates	gmx.li
s0rc3r3r	yahoo.com
rjs	net4b.pt
s.peter	elsoft.ch
smolik_petr	post.cz
rw.newsbox01	wanadoo.fr
philong	ifrance.com
spitalnik	penguin.cz
spolve	despammed.com
sebastien.pont1	wanadoo.fr
spyroux	namurlug.org
sander_eupatents	raaijmakers.net
stephanie.rioche	wanadoo.fr
sswee	earthlink.net
zolo.h	szm.sk
stalbert	btinternet.com
s.m.claassen	member.fsf.org
starsail	tiscali.it
stefan	eijk.nu
stefanoclerico	libero.it
sander	steffann.nl
sterbini	dsi.uniroma1.it
me	twolife.org
stuber	loria.fr
ffii	sulimma.de
sumenos	wanadoo.es
suzi.wells	oneworld.net
svanebor	mpip-mainz.mpg.de
svanebor	mpip-mainz.mpg.de
svdmade	planet.nl
sandervdmeijs	planet.nl
swesemeyer	freeuk.com
sylvain	europe-shareware.org
synap	yourbase.nl
szokocs.csaba	evosoft.hu
takyon	wanadoo.fr
stefano.falda	tiscalinet.it
tom	tamplint.freeserve.co.uk
tarmo.toikkanen	iki.fi
tashkova	yahoo.com
taurino	na.infn.it
tavasti	iki.fi
pom	ehess.fr
tbaashus	online.no
tom.backstrom	hut.fi
tbode	xs4all.nl
thomas	carlu.de
tyc-talant	libertysurf.fr
ffii	mettalogic.uklinux.net
tim.coninx	cs.kuleuven.ac.be
daur	so-nso.de
tomas_diez	yahoo.com
thierry.dutoit	fpms.ac.be
tim	famdijkstra.org
peterpansrl	inwind.it
the	teamwww.com
markov	daconltd.com
mtetrode	yahoo.com
tony.hadfield	eudoramail.com
magnus.therning	wanadoo.nl
the-seb	the-seb.net
ian.bell	thezulu.co.uk
thierry	sniff-em.com
thieu	trumnet.nl
thomas	krath.dk
thomperi	swing.be
thorax	boredom.nu
tignat	uaic.ro
tille	soti.org
timp	paneris.org
thomas.infanger	winterthur.ch
titinou	chez.com
teemu	kanetti.com
thomas.labourdette	free.fr
tom	leitchy.com
t_r_mayo	fenditton.fsnet.co.uk
tmochel	free.fr
tmorton	linuxmail.org
tmoser	futurelab.ch
thomas.nagy	eleve.emn.fr
tnykung	nic.fi
tomcook	eyeeye.com
tomhay	cyberus.ca
webmaster	tomatoma.ws
tomnolan	esatclear.ie
pilc	rtime.felk.cvut.cz
tomyl	linux.nu
tonikasch	hotmail.com
pascal.nardon	wanadoo.fr
agar9938	alu-etsetb.upc.es
torehalv	stud.ntnu.no
t0rkel	yahoo.no
ctorralba	planet-save.com
totzauer	fho-emden.de
tjp	iki.fi
tpbarnabas	bigfoot.com
trevor	digdog.freeserve.co.uk
triade	zeelandnet.nl
trizt	iname.com
mitr	volny.cz
vincent	troll.be
ch.tronche	computer.org
anders	trudheim.com
trytrytry	netzero.net
ts	schenkthomas.de
thomas	scholz.dk
tslocki	poczta.wp.pl
ffii	tim-smith.me.uk
nstoop	gmx.net
tszeredi	freemail.hu
ttroxell	debian.org
tom.uijldert	tiscali.nl
thomas.vivet	brutele.be
josep.m.ferrer	wanadoo.es
txusin	euskalnet.net
serpent	o2.pl
tyllat_at_petition.ffii.org	tylla.hu
takahiro_y	monolithworks.co.jp
tytus	linux.net.pl
goeran	uddeborg.pp.se
ue	ccieurope.com
pwf	tip.net.pl
ujember	kajata.hu
nuno	nunosilva.com
urbandoltar	yahoo.co.uk
urcindalo	mac.com
urmeant2b	hotmail.com
regis.desgroppes	laposte.net
vader	supercable.es
markku.vahaaho	cs.helsinki.fi
pvl	maxon.be
olivier	dehaybe.be
vitor.borrego	siemens.com
vcorreze	free.fr
vdemongodin	cer-ca.fr
vel	cable.netissat.bg
venkain	comsoft.bg
verbovet	yahoo.com
vk	os-academy.dk
vernier	vc.bc.ca
vesseur	phys.uu.nl
vfotop1	ieee.org
vph	iki.fi
virpi.huhtinen	hut.fi
vicferma	eui.upv.es
vidal	iponet.es
vidarjb	mail.dk
viggor	post3.tele.dk
vigna	dsi.unimi.it
vinceduf	free.fr
vinnie	irc.pl
ffii	vinz.nl
vishal.vatsa	may.ie
vincent.laanen	iname.com
vincent	vinc17.org
vonodna	yahoo.com
rafael	dojo1.org
vic.sadowski	hds.com
vincent.stehle	free.fr
thomas.vulin	wanadoo.fr
juul	imada.sdu.dk
p_wb_c	yahoo.co.uk
wallyjlee	yahoo.com
ward	pong.be
wilhelm.assarsson	progenitor.se
fredrik.forssen	edu.norrkoping.se
ffii.org	kihlstrom.com
william.cledes	wanadoo.fr
webmaster	lotas-smartman.net
webmaster	mynavigator.dk
pweemeeuw	pandora.be
wegorz	unipro.com.pl
ferenc.wagner	kcl.ac.uk
whybill	linux.nu
wiart	yahoo.com
wiebe	vrijschrift.org
hj	vanwilligen.org
lwinter1	comcast.net
wolfgang.mehl	jrc.it
wojtek	power.com.pl
wookey	aleph1.co.uk
wouter_cox	yahoo.co.uk
matt	isitgone.com
wpilorz	bdk.pl
wytze	nlnet.nl
wannesrambour	netscape.net
wouter	thibeau.be
wyrazik	yahoo.com
wysiwyg	glympton.airtime.co.uk
wzab	ise.pw.edu.pl
xavier	cnsx.net
frankvanboekel	hotmail.com
xdrudis	tinet.org
thomas	gramstad.no
xfranc	online.fr
xrios	wanadoo.fr
tony	chello.nl
ygnus	telefonica.net
yura	metal-plus.kiev.ua
yves.krahenbuhl	urbanet.ch
mtruyols.j	ono.com
greg	shayol.com
yovko	sdf.lonestar.org
ygrill	libertysurf.fr
nick	linux.it
z_zahariev.niis	btc.bg
zaheer	belgacom.net
samildanach	wp.pl
zdenek.drlik	seznam.cz
simone	omni.it
ziphnor	yahoo.com
zkilfing	hotmail.com
zmower	ntlworld.com
zwets	zwets.com
veret_a	epita.fr
zzzed	tjohoo.se
