\select@language {french}
\select@language {french}
\contentsline {chapter}{\numberline {1}Page de garde}{4}{chapter.1}
\contentsline {chapter}{\numberline {2}Les ``Commentaires par les \'{E}tats-Unis''}{5}{chapter.2}
\contentsline {chapter}{\numberline {3}Liens Annot\'{e}s}{10}{chapter.3}
