\contentsline {chapter}{\numberline {1}Cover Sheet}{4}{chapter.1}
\contentsline {chapter}{\numberline {2}The ``Comments by the U.S.''}{5}{chapter.2}
\contentsline {chapter}{\numberline {3}Annotated Links}{10}{chapter.3}
