\select@language {french}
\contentsline {section}{\numberline {1}Propri\'{e}t\'{e}, Brevets, Droit d'Auteur et le Domaine Publique}{1}{section.1}
\contentsline {section}{\numberline {2}Brevets softes pour logique durcie}{3}{section.2}
\contentsline {section}{\numberline {3}logil\`{e}ge: Privil\'{e}ge d'usage sur des innovation abstraites-logiques}{3}{section.3}
\contentsline {section}{\numberline {4}Logidende: dividende d'innovation logicielle}{4}{section.4}
\contentsline {section}{\numberline {5}Inspirations pour reformes du syst\`{e}me de brevets}{4}{section.5}
\contentsline {section}{\numberline {6}Autres textes a lire}{5}{section.6}
