\relax 
\ifx\hyper@anchor\@undefined
\global \let \oldcontentsline\contentsline
\gdef \contentsline#1#2#3#4{\oldcontentsline{#1}{#2}{#3}}
\global \let \oldnewlabel\newlabel
\gdef \newlabel#1#2{\newlabelxx{#1}#2}
\gdef \newlabelxx#1#2#3#4#5#6{\oldnewlabel{#1}{{#2}{#3}}}
\AtEndDocument{\let \contentsline\oldcontentsline
\let \newlabel\oldnewlabel}
\else
\global \let \hyper@last\relax 
\fi

\@writefile{toc}{\contentsline {section}{\numberline {1}Property, Patents, Copyright and the Public Domain}{2}{section.1}}
\newlabel{pubpriv}{{1}{2}{Property, Patents, Copyright and the Public Domain\relax }{section.1}{}}
\@writefile{toc}{\contentsline {section}{\numberline {2}Soft Patents for Hardware Logics}{3}{section.2}}
\newlabel{softent}{{2}{3}{Soft Patents for Hardware Logics\relax }{section.2}{}}
\@writefile{toc}{\contentsline {section}{\numberline {3}Logilege: Use Privilege for Abstract-Logical Innovations}{3}{section.3}}
\newlabel{logileg}{{3}{3}{Logilege: Use Privilege for Abstract-Logical Innovations\relax }{section.3}{}}
\@writefile{toc}{\contentsline {section}{\numberline {4}Logidend: Logical Innovation Dividend}{4}{section.4}}
\newlabel{logidend}{{4}{4}{Logidend: Logical Innovation Dividend\relax }{section.4}{}}
\@writefile{toc}{\contentsline {section}{\numberline {5}Inspiration for Patent Reform}{4}{section.5}}
\newlabel{patref}{{5}{4}{Inspiration for Patent Reform\relax }{section.5}{}}
\@writefile{toc}{\contentsline {section}{\numberline {6}Further Reading}{5}{section.6}}
\newlabel{links}{{6}{5}{Further Reading\relax }{section.6}{}}
\gdef\scr@tpo@lst{0}
