\contentsline {section}{\numberline {1}Eigentum, Patente, Urheberrecht und das ``Niemandsland''}{2}{section.1}
\contentsline {section}{\numberline {2}Weiche Patente f\"{u}r Hardware-Logik}{3}{section.2}
\contentsline {section}{\numberline {3}Logileg: Nutzungsprivileg auf abstrakt-logische Innovationen}{3}{section.3}
\contentsline {section}{\numberline {4}Logidende: Logikalieninnovationsdividende}{4}{section.4}
\contentsline {section}{\numberline {5}Anregungen f\"{u}r eine Reform des Patentwesens}{5}{section.5}
\contentsline {section}{\numberline {6}Weitere Lekt\"{u}re}{5}{section.6}
