\relax 
\ifx\hyper@anchor\@undefined
\global \let \oldcontentsline\contentsline
\gdef \contentsline#1#2#3#4{\oldcontentsline{#1}{#2}{#3}}
\global \let \oldnewlabel\newlabel
\gdef \newlabel#1#2{\newlabelxx{#1}#2}
\gdef \newlabelxx#1#2#3#4#5#6{\oldnewlabel{#1}{{#2}{#3}}}
\AtEndDocument{\let \contentsline\oldcontentsline
\let \newlabel\oldnewlabel}
\else
\global \let \hyper@last\relax 
\fi

\@writefile{toc}{\contentsline {section}{\numberline {1}Eigentum, Patente, Urheberrecht und das ``Niemandsland''}{2}{section.1}}
\newlabel{pubpriv}{{1}{2}{Eigentum, Patente, Urheberrecht und das ``Niemandsland''\relax }{section.1}{}}
\@writefile{toc}{\contentsline {section}{\numberline {2}Weiche Patente f\"{u}r Hardware-Logik}{3}{section.2}}
\newlabel{softent}{{2}{3}{Weiche Patente f\"{u}r Hardware-Logik\relax }{section.2}{}}
\@writefile{toc}{\contentsline {section}{\numberline {3}Logileg: Nutzungsprivileg auf abstrakt-logische Innovationen}{3}{section.3}}
\newlabel{logileg}{{3}{3}{Logileg: Nutzungsprivileg auf abstrakt-logische Innovationen\relax }{section.3}{}}
\@writefile{toc}{\contentsline {section}{\numberline {4}Logidende: Logikalieninnovationsdividende}{4}{section.4}}
\newlabel{logidend}{{4}{4}{Logidende: Logikalieninnovationsdividende\relax }{section.4}{}}
\@writefile{toc}{\contentsline {section}{\numberline {5}Anregungen f\"{u}r eine Reform des Patentwesens}{5}{section.5}}
\newlabel{patref}{{5}{5}{Anregungen f\"{u}r eine Reform des Patentwesens\relax }{section.5}{}}
\@writefile{toc}{\contentsline {section}{\numberline {6}Weitere Lekt\"{u}re}{5}{section.6}}
\newlabel{links}{{6}{5}{Weitere Lekt\"{u}re\relax }{section.6}{}}
\gdef\scr@tpo@lst{0}
