\relax 
\catcode`:\active
\catcode`;\active
\catcode`!\active
\catcode`?\active
\ifx\hyper@anchor\@undefined
\global \let \oldcontentsline\contentsline
\gdef \contentsline#1#2#3#4{\oldcontentsline{#1}{#2}{#3}}
\global \let \oldnewlabel\newlabel
\gdef \newlabel#1#2{\newlabelxx{#1}#2}
\gdef \newlabelxx#1#2#3#4#5#6{\oldnewlabel{#1}{{#2}{#3}}}
\AtEndDocument{\let \contentsline\oldcontentsline
\let \newlabel\oldnewlabel}
\else
\global \let \hyper@last\relax 
\fi

\select@language{french}
\@writefile{toc}{\select@language{french}}
\@writefile{lof}{\select@language{french}}
\@writefile{lot}{\select@language{french}}
\@writefile{toc}{\contentsline {section}{\numberline {1}Propri\'{e}t\'{e}, Brevets, Droit d'Auteur et le Domaine Publique}{1}{section.1}}
\newlabel{pubpriv}{{1}{1}{Propri\'{e}t\'{e}, Brevets, Droit d'Auteur et le Domaine Publique\relax }{section.1}{}}
\@writefile{toc}{\contentsline {section}{\numberline {2}Brevets softes pour logique durcie}{3}{section.2}}
\newlabel{softent}{{2}{3}{Brevets softes pour logique durcie\relax }{section.2}{}}
\@writefile{toc}{\contentsline {section}{\numberline {3}logil\`{e}ge: Privil\'{e}ge d'usage sur des innovation abstraites-logiques}{3}{section.3}}
\newlabel{logileg}{{3}{3}{logil\`{e}ge: Privil\'{e}ge d'usage sur des innovation abstraites-logiques\relax }{section.3}{}}
\@writefile{toc}{\contentsline {section}{\numberline {4}Logidende: dividende d'innovation logicielle}{4}{section.4}}
\newlabel{logidend}{{4}{4}{Logidende: dividende d'innovation logicielle\relax }{section.4}{}}
\@writefile{toc}{\contentsline {section}{\numberline {5}Inspirations pour reformes du syst\`{e}me de brevets}{4}{section.5}}
\newlabel{patref}{{5}{4}{Inspirations pour reformes du syst\`{e}me de brevets\relax }{section.5}{}}
\@writefile{toc}{\contentsline {section}{\numberline {6}Autres textes a lire}{5}{section.6}}
\newlabel{links}{{6}{5}{Autres textes a lire\relax }{section.6}{}}
\gdef\scr@tpo@lst{0}
