\contentsline {section}{\numberline {1}Property, Patents, Copyright and the Public Domain}{2}{section.1}
\contentsline {section}{\numberline {2}Soft Patents for Hardware Logics}{3}{section.2}
\contentsline {section}{\numberline {3}Logilege: Use Privilege for Abstract-Logical Innovations}{3}{section.3}
\contentsline {section}{\numberline {4}Logidend: Logical Innovation Dividend}{4}{section.4}
\contentsline {section}{\numberline {5}Inspiration for Patent Reform}{4}{section.5}
\contentsline {section}{\numberline {6}Further Reading}{5}{section.6}
