\select@language {polish}
\contentsline {section}{\numberline {1}Why all this fury about software patents?}{2}{section.1}
\contentsline {section}{\numberline {2}Current Situation in Europe}{2}{section.2}
\contentsline {section}{\numberline {3}What can we do?}{3}{section.3}
\contentsline {section}{\numberline {4}}{3}{section.4}
