\contentsline {section}{\numberline {1}Waarom al die drukte over softwarepatenten?}{1}{section.1}
\contentsline {section}{\numberline {2}Huidige situatie in Europa}{2}{section.2}
\contentsline {section}{\numberline {3}What can we do?}{3}{section.3}
\contentsline {section}{\numberline {4}Speciaal aanbevolen leesvoer}{3}{section.4}
