\relax 
\catcode`"\active
\ifx\hyper@anchor\@undefined
\global \let \oldcontentsline\contentsline
\gdef \contentsline#1#2#3#4{\oldcontentsline{#1}{#2}{#3}}
\global \let \oldnewlabel\newlabel
\gdef \newlabel#1#2{\newlabelxx{#1}#2}
\gdef \newlabelxx#1#2#3#4#5#6{\oldnewlabel{#1}{{#2}{#3}}}
\AtEndDocument{\let \contentsline\oldcontentsline
\let \newlabel\oldnewlabel}
\else
\global \let \hyper@last\relax 
\fi

\select@language{portuguese}
\@writefile{toc}{\select@language{portuguese}}
\@writefile{lof}{\select@language{portuguese}}
\@writefile{lot}{\select@language{portuguese}}
\@writefile{toc}{\contentsline {section}{\numberline {1}Situa\c {c}\~{a}o actual}{2}{section.1}}
\newlabel{situ}{{1}{2}{Situa\c {c}\~{a}o actual\relax }{section.1}{}}
\@writefile{toc}{\contentsline {section}{\numberline {2}Links Anotados}{2}{section.2}}
\newlabel{links}{{2}{2}{Links Anotados\relax }{section.2}{}}
\gdef\scr@tpo@lst{0}
