\select@language {czech}
\contentsline {section}{\numberline {1}Pro\v {c} v\v {s}echen ten rozruch kv\r {u}li softwarov\'{y}m patent\r {u}m?}{1}{section.1}
\contentsline {section}{\numberline {2}Sou\v {c}asn\'{a} situace v Evrop\v {e}}{2}{section.2}
\contentsline {section}{\numberline {3}Co m\r {u}\v {z}eme d\v {e}lat?}{3}{section.3}
\contentsline {section}{\numberline {4}Specially Recommended Reading}{3}{section.4}
