This is pdfTeX, Version 3.14159-1.10b (Web2C 7.4.5) (format=pdflatex 2004.10.14)  30 MAY 2005 17:27
**bgh-komm04.de
(./bgh-komm04.de.tex{/usr/share/texmf/pdftex/config/pdftex.cfg}
LaTeX2e <2001/06/01>
Babel <v3.7h> and hyphenation patterns for american, nohyphenation, loaded.
(/usr/share/texmf/tex/latex/koma-script/scrartcl.cls
Document Class: scrartcl 2003/01/31 v2.9n LaTeX2e KOMA document class
(/usr/share/texmf/tex/latex/koma-script/scrlfile.sty
Package: scrlfile 2003/01/31 v2.9n LaTeX2e KOMA package

Package scrlfile, 2003/01/31 v2.9n LaTeX2e KOMA package
                  Copyright (C) Markus Kohm

) (/usr/share/texmf/tex/latex/base/size11.clo
File: size11.clo 2001/04/21 v1.4e Standard LaTeX file (size option)
)
(/usr/share/texmf/tex/latex/koma-script/typearea.sty
Package: typearea 2003/01/31 v2.9n LaTeX2e KOMA package

Package typearea, 2003/01/31 v2.9n LaTeX2e KOMA package
                  Copyright (C) Frank Neukam, 1992-1994
                  Copyright (C) Markus Kohm, 1994-2002

\ta@bcor=\skip41
\ta@div=\count79
\ta@hblk=\skip42
\ta@vblk=\skip43
\ta@temp=\skip44
Package typearea Info: These are the values describing the layout:
(typearea)             DIV  = 10
(typearea)             BCOR = 0.0pt
(typearea)             \paperwidth      = 597.50793pt
(typearea)              \textwidth      = 418.25555pt
(typearea)              DIV-departure   = -6/100
(typearea)              \evensidemargin = 17.3562pt
(typearea)              \oddsidemargin  = 17.3562pt
(typearea)             \paperheight     = 845.04694pt
(typearea)              \textheight     = 595.80026pt
(typearea)              \topmargin      = -25.16531pt
(typearea)              \headheight     = 17.0pt
(typearea)              \headsep        = 20.40001pt
(typearea)              \topskip        = 11.0pt
(typearea)              \footskip       = 47.60002pt
(typearea)              \baselineskip   = 13.6pt
(typearea)              on input line 625.
)
\c@part=\count80
\c@section=\count81
\c@subsection=\count82
\c@subsubsection=\count83
\c@paragraph=\count84
\c@subparagraph=\count85
\c@figure=\count86
\c@table=\count87
\abovecaptionskip=\skip45
\belowcaptionskip=\skip46
\c@pti@nb@sid@b@x=\box26
\bibindent=\dimen102
) (/usr/share/texmf/tex/generic/german/german.sty v2.5e 1998-07-08
Package: german 1998/07/08 v2.5e Support for writing german texts (br)
\grmnU@D=\dimen103

german -- \language number for German undefined, default 255 used,
german -- Please read "gerdoc.tex" how to install hyphenation patterns.
german -- \language number for Austrian undefined, default 255 used.
german -- \language number for French undefined, default 255 used.
)
(/usr/share/texmf/tex/latex/TXP/TXM/ansidate.sty)
(/usr/share/texmf/tex/latex/hyperref/hyperref.sty
Package: hyperref 2003/01/22 v6.73n Hypertext links for LaTeX

(/usr/share/texmf/tex/latex/graphics/keyval.sty
Package: keyval 1999/03/16 v1.13 key=value parser (DPC)
\KV@toks@=\toks14
)
\@linkdim=\dimen104
\Hy@linkcounter=\count88
\Hy@pagecounter=\count89

(/usr/share/texmf/tex/latex/hyperref/pd1enc.def
File: pd1enc.def 2003/01/22 v6.73n Hyperref: PDFDocEncoding definition (HO)
)
(/usr/share/texmf/tex/latex/config/hyperref.cfg
File: hyperref.cfg 2002/06/06 v1.2 hyperref configuration of TeXLive and teTeX
)
Package hyperref Info: Hyper figures OFF on input line 1792.
Package hyperref Info: Link nesting OFF on input line 1797.
Package hyperref Info: Hyper index ON on input line 1800.
Package hyperref Info: Plain pages ON on input line 1805.
Package hyperref Info: Backreferencing OFF on input line 1812.

Implicit mode ON; LaTeX internals redefined
Package hyperref Info: Bookmarks ON on input line 1916.
(/usr/share/texmf/tex/latex/misc/url.sty
\Urlmuskip=\muskip10
Package: url 1999/03/28  ver 1.5x  Verb mode for urls, etc.
)
LaTeX Info: Redefining \url on input line 2055.
\Fld@menulength=\count90
\Field@Width=\dimen105
\Fld@charsize=\dimen106
\Choice@toks=\toks15
\Field@toks=\toks16
Package hyperref Info: Hyper figures OFF on input line 2513.
Package hyperref Info: Link nesting OFF on input line 2518.
Package hyperref Info: Hyper index ON on input line 2521.
Package hyperref Info: backreferencing OFF on input line 2528.
Package hyperref Info: Link coloring OFF on input line 2533.
\c@Item=\count91
\c@Hfootnote=\count92
)
*hyperref using default driver hpdftex*
(/usr/share/texmf/tex/latex/hyperref/hpdftex.def
File: hpdftex.def 2003/01/22 v6.73n Hyperref driver for pdfTeX

(/usr/share/texmf/tex/latex/psnfss/pifont.sty
Package: pifont 2002/09/08 PSNFSS-v9.0a Pi font support (SPQR) 
LaTeX Font Info:    Try loading font information for U+pzd on input line 62.

(/usr/share/texmf/tex/latex/psnfss/upzd.fd
File: upzd.fd 2001/06/04 font definitions for U/pzd.
)
LaTeX Font Info:    Try loading font information for U+psy on input line 63.

(/usr/share/texmf/tex/latex/psnfss/upsy.fd
File: upsy.fd 2001/06/04 font definitions for U/psy.
))
\Fld@listcount=\count93
\@outlinefile=\write3
)
(/usr/share/texmf/tex/latex/graphics/graphicx.sty
Package: graphicx 1999/02/16 v1.0f Enhanced LaTeX Graphics (DPC,SPQR)

(/usr/share/texmf/tex/latex/graphics/graphics.sty
Package: graphics 2001/07/07 v1.0n Standard LaTeX Graphics (DPC,SPQR)

(/usr/share/texmf/tex/latex/graphics/trig.sty
Package: trig 1999/03/16 v1.09 sin cos tan (DPC)
)
(/usr/share/texmf/tex/latex/config/graphics.cfg
File: graphics.cfg 2001/08/31 v1.1 graphics configuration of teTeX/TeXLive
)
Package graphics Info: Driver file: pdftex.def on input line 80.

(/usr/share/texmf/tex/latex/graphics/pdftex.def
File: pdftex.def 2002/06/19 v0.03k graphics/color for pdftex
\Gread@gobject=\count94
))
\Gin@req@height=\dimen107
\Gin@req@width=\dimen108
)
(/usr/share/texmf/tex/latex/tools/array.sty
Package: array 1998/05/13 v2.3m Tabular extension package (FMi)
\col@sep=\dimen109
\extrarowheight=\dimen110
\NC@list=\toks17
\extratabsurround=\skip47
\backup@length=\skip48
)
(/usr/share/texmf/tex/latex/misc/wrapfig.sty
\wrapoverhang=\dimen111
\WF@size=\dimen112
\c@WF@wrappedlines=\count95
\WF@box=\box27
\WF@everypar=\toks18
Package: wrapfig 2003/01/31  v 3.6
)
(/usr/share/texmf/tex/latex/TXP/TXM/mlht/el2tex.tex
\sectlevel=\count96
\toplevel=\count97
)
(/usr/share/texmf/tex/latex/TXP/TXM/mlht/coldef.tex) (./bgh-komm04.de.aux)
\openout1 = `bgh-komm04.de.aux'.

LaTeX Font Info:    Checking defaults for OML/cmm/m/it on input line 12.
LaTeX Font Info:    ... okay on input line 12.
LaTeX Font Info:    Checking defaults for T1/cmr/m/n on input line 12.
LaTeX Font Info:    ... okay on input line 12.
LaTeX Font Info:    Checking defaults for OT1/cmr/m/n on input line 12.
LaTeX Font Info:    ... okay on input line 12.
LaTeX Font Info:    Checking defaults for OMS/cmsy/m/n on input line 12.
LaTeX Font Info:    ... okay on input line 12.
LaTeX Font Info:    Checking defaults for OMX/cmex/m/n on input line 12.
LaTeX Font Info:    ... okay on input line 12.
LaTeX Font Info:    Checking defaults for U/cmr/m/n on input line 12.
LaTeX Font Info:    ... okay on input line 12.
LaTeX Font Info:    Checking defaults for PD1/pdf/m/n on input line 12.
LaTeX Font Info:    ... okay on input line 12.
Package hyperref Info: Link coloring OFF on input line 12.

(/usr/share/texmf/tex/latex/hyperref/nameref.sty
Package: nameref 2001/01/27 v2.19 Cross-referencing by name of section
\c@section@level=\count98
)
LaTeX Info: Redefining \ref on input line 12.
LaTeX Info: Redefining \pageref on input line 12.
 (./bgh-komm04.de.out)
(./bgh-komm04.de.out)
\openout3 = `bgh-komm04.de.out'.

 (/usr/share/texmf/tex/context/base/supp-pdf.tex
(/usr/share/texmf/tex/context/base/supp-mis.tex
loading : Context Support Macros / Missing
\protectiondepth=\count99
\scratchcounter=\count100
\scratchtoks=\toks19
\scratchdimen=\dimen113
\scratchskip=\skip49
\scratchmuskip=\muskip11
\scratchbox=\box28
\scratchread=\read1
\scratchwrite=\write4
\zeropoint=\dimen114
\minusone=\count101
\thousandpoint=\dimen115
\emptytoks=\toks20
\nextbox=\box29
\nextdepth=\dimen116
\everyline=\toks21
\!!counta=\count102
\!!countb=\count103
\recursecounter=\count104
)
loading : Context Support Macros / PDF
\nofMPsegments=\count105
\nofMParguments=\count106
\everyMPtoPDFconversion=\toks22
) (/ul/sig/srv/res/www/ffii/swpat/papiere/bgh-komm04/bgh-komm04.de.sub
BGH 2004-10-19: Kommunikationsl\"{o}sung
LaTeX Font Info:    External font `cmex10' loaded for size
(Font)              <14.4> on input line 1.
LaTeX Font Info:    External font `cmex10' loaded for size
(Font)              <7> on input line 1.
LaTeX Font Info:    External font `cmex10' loaded for size
(Font)              <5> on input line 1.
LaTeX Font Info:    External font `cmex10' loaded for size
(Font)              <9> on input line 1.
LaTeX Font Info:    External font `cmex10' loaded for size
(Font)              <6> on input line 1.
(./bgh-komm04.de.toc)
\tf@toc=\write5
\openout5 = `bgh-komm04.de.toc'.

 [1


{/usr/share/texmf/dvips/config/pdftex.map}]
Underfull \hbox (badness 10000) in paragraph at lines 20--21
[]/cmr10@10.95pt/Die Rechtsbeschwerde gegen den Beschlu^^Y des 17. Senats (Tech
nischen
 []


Underfull \hbox (badness 1043) in paragraph at lines 33--34
/cmr10@10.95pt/verbindbar sind, beinhaltend folgende Schritte [Buchstaben in ec
kigen
 []


Underfull \hbox (badness 10000) in paragraph at lines 47--48
[]/cmr10@10.95pt/ergibt das Vergleichen an einem Zeitpunkt mit einer vorgebbare
n
 []

[2]
Underfull \hbox (badness 4036) in paragraph at lines 64--65
[]/cmr10@10.95pt/In der US-Patentschrift 6 108 637 sei eine M[]oglichkeit zum [
]Uberwachen
 []


Underfull \hbox (badness 2213) in paragraph at lines 64--65
/cmr10@10.95pt/eines an einem Rechnersystem angezeigten Inhalts beschrieben. Da
bei k[]onnten
 []


Underfull \hbox (badness 2698) in paragraph at lines 64--65
/cmr10@10.95pt/des angezeigten Inhalts durch einen Betrachter gezogen werden k[
]onnten. Des
 []


Underfull \hbox (badness 3098) in paragraph at lines 64--65
/cmr10@10.95pt/weiteren k[]onne anhand der []Uberwachungsinformationen ein aktu
alisierter oder
 []


Underfull \hbox (badness 3049) in paragraph at lines 66--67
/cmr10@10.95pt/mittels einer Applettechnik eingeleitet und durchgef[]uhrt. Es s
ei beispielsweise
 []


Underfull \hbox (badness 2689) in paragraph at lines 68--69
[]/cmr10@10.95pt/Als Aufgabe der Erfindung wird angegeben, ein verbessertes Ver
fahren der
 []


Underfull \hbox (badness 1975) in paragraph at lines 68--69
/cmr10@10.95pt/vorgenannten Art zu schaffen, mit dem unter anderem die Anzahl e
rfolgreich
 []

[3]
Underfull \hbox (badness 2057) in paragraph at lines 72--73
[]/cmr10@10.95pt/Diese Lehre beruhe nicht auf technischen []Uberlegungen, sonde
rn h[]ange von
 []


Underfull \hbox (badness 3568) in paragraph at lines 72--73
/cmr10@10.95pt/der zutreffenden Auswertung des Bedienverhaltens des Kunden in (
verkaufs-)
 []


Underfull \hbox (badness 1502) in paragraph at lines 72--73
/cmr10@10.95pt/Datenverarbeitungsschritte, ohne da^^Y Ma^^Ynahmen ersichtlich w
[]aren, die auf die
 []


Underfull \hbox (badness 1983) in paragraph at lines 72--73
[]/cmr10@10.95pt/Uberwindung besonderer technischer Schwierigkeiten hinwiesen u
nd somit einen
 []


Underfull \hbox (badness 4886) in paragraph at lines 74--75
[]/cmr10@10.95pt/3. Die Rechtsbeschwerde ist demgegen[]uber der Auffassung, Ver
fahren, die
 []


Underfull \hbox (badness 1127) in paragraph at lines 74--75
/cmr10@10.95pt/automatisierte Abl[]aufe zum Gegenstand h[]atten, welche wiederu
m nur mit Hilfe
 []


Underfull \hbox (badness 1038) in paragraph at lines 74--75
/cmr10@10.95pt/habe das technische Problem nur unzureichend erkannt. Es gehe ni
cht lediglich
 []


Underfull \hbox (badness 1210) in paragraph at lines 74--75
/cmr10@10.95pt/Ma^^Ynahmen Hilfestellungen f[]ur den Kunden bei der Bedienung d
es Programms
 []


Underfull \hbox (badness 5374) in paragraph at lines 74--75
/cmr10@10.95pt/Auswertung des Kundenverhaltens gewonnenen Erkenntnisse l[]osten
 bestimmte
 []

LaTeX Font Info:    Try loading font information for OMS+cmr on input line 78.
(/usr/share/texmf/tex/latex/base/omscmr.fd
File: omscmr.fd 1999/05/25 v2.5h Standard LaTeX font definitions
)
LaTeX Font Info:    Font shape `OMS/cmr/m/n' in size <10.95> not available
(Font)              Font shape `OMS/cmsy/m/n' tried instead on input line 78.

Underfull \hbox (badness 4608) in paragraph at lines 78--79
[]/cmr10@10.95pt/a) Nach der Rechtsprechung des Senats ist ein Verfahren, das s
ich zur
 []

[4]
Underfull \hbox (badness 2735) in paragraph at lines 82--83
/cmr10@10.95pt/zur Datenverarbeitung zu stellen, denen nach der Rechtsprechung 
des Senats
 []


Underfull \hbox (badness 2547) in paragraph at lines 86--87
[]/cmr10@10.95pt/Die hier beanspruchte Lehre bewirkt nicht unmittelbar eine Ste
igerung des
 []


Underfull \hbox (badness 4144) in paragraph at lines 88--89
[]/cmr10@10.95pt/c) Dieses Problem ist indessen seinerseits nicht technischer N
atur, da es
 []


Underfull \hbox (badness 1783) in paragraph at lines 88--89
/cmr10@10.95pt/eines kausal []ubersehbaren Erfolges erfordert. Es rechtfertigt 
auch keine andere
 []

[5]
Underfull \hbox (badness 1546) in paragraph at lines 90--91
/cmr10@10.95pt/vorzunehmen. Das gen[]ugt nicht, um die beanspruchte Lehre dem P
atentschutz
 []


Underfull \hbox (badness 1888) in paragraph at lines 90--91
/cmr10@10.95pt/zug[]anglich zu machen. Die Hinweise der Rechtsbeschwerde, da^^Y
 das Verfahren
 []


Underfull \hbox (badness 2662) in paragraph at lines 96--97
/cmr10@10.95pt/eine breite Palette von Realisierungsm[]oglichkeiten zur Auswahl
. Bei einer als
 []

[6]) [7] (./bgh-komm04.de.aux) ) 
Here is how much of TeX's memory you used:
 3306 strings out of 95460
 44089 string characters out of 1190703
 102095 words of memory out of 1000001
 6247 multiletter control sequences out of 10000+50000
 9146 words of font info for 33 fonts, out of 500000 for 1000
 14 hyphenation exceptions out of 1000
 36i,12n,24p,2079b,358s stack positions out of 1500i,500n,5000p,200000b,5000s
 68 PDF objects out of 300000
 14 named destinations out of 131072
 16 words of extra memory for PDF output out of 65536
{/usr/share/texmf/dvips/tetex/09fbbfac.enc}</us
r/share/texmf/fonts/type1/bluesky/cm/cmtt9.pfb>{/usr/share/texmf/dvips/tetex/bb
ad153f.enc}</usr/share/texmf/fonts/type1/bluesky/cm/cmsy6.pfb>{/usr/share/texmf
/dvips/tetex/f7b6d320.enc}</usr/share/texmf/fonts/type1/bluesky/cm/cmr10.pfb></
usr/share/texmf/fonts/type1/bluesky/cm/cmsy10.pfb></usr/share/texmf/fonts/type1
/bluesky/cm/cmtt12.pfb></usr/share/texmf/fonts/type1/bluesky/cm/cmr12.pfb></usr
/share/texmf/fonts/type1/bluesky/cm/cmssbx10.pfb>
Output written on bgh-komm04.de.pdf (7 pages, 72543 bytes).
