\contentsline {section}{\numberline {1}EuroLinux Alliance -- Largest Software Innovation Network in Europe}{1}{section.1}
\contentsline {section}{\numberline {2}EuroLinux Companies -- A Wider Product Range than Microsoft}{2}{section.2}
\contentsline {section}{\numberline {3}The Directive Proposal -- No Limits, No Clarification, Less Intellectual Property}{4}{section.3}
\contentsline {section}{\numberline {4}Counter-Proposal: Clear and Adequate Software Property Rules}{6}{section.4}
\contentsline {section}{\numberline {5}Annotated Links}{9}{section.5}
