\BOOKMARK [1][-]{section.1}{EuroLinux Alliance -- Largest Software Innovation Network in Europe}{}
\BOOKMARK [1][-]{section.2}{EuroLinux Companies -- A Wider Product Range than Microsoft}{}
\BOOKMARK [1][-]{section.3}{The Directive Proposal -- No Limits, No Clarification, Less Intellectual Property}{}
\BOOKMARK [1][-]{section.4}{Counter-Proposal: Clear and Adequate Software Property Rules}{}
\BOOKMARK [1][-]{section.5}{Annotated Links}{}
