\relax 
\ifx\hyper@anchor\@undefined
\global \let \oldcontentsline\contentsline
\gdef \contentsline#1#2#3#4{\oldcontentsline{#1}{#2}{#3}}
\global \let \oldnewlabel\newlabel
\gdef \newlabel#1#2{\newlabelxx{#1}#2}
\gdef \newlabelxx#1#2#3#4#5#6{\oldnewlabel{#1}{{#2}{#3}}}
\AtEndDocument{\let \contentsline\oldcontentsline
\let \newlabel\oldnewlabel}
\else
\global \let \hyper@last\relax 
\fi

\@writefile{toc}{\contentsline {section}{\numberline {1}EuroLinux Alliance -- Largest Software Innovation Network in Europe}{1}{section.1}}
\newlabel{larg}{{1}{1}{EuroLinux Alliance -- Largest Software Innovation Network in Europe\relax }{section.1}{}}
\@writefile{toc}{\contentsline {section}{\numberline {2}EuroLinux Companies -- A Wider Product Range than Microsoft}{2}{section.2}}
\newlabel{micr}{{2}{2}{EuroLinux Companies -- A Wider Product Range than Microsoft\relax }{section.2}{}}
\@writefile{toc}{\contentsline {section}{\numberline {3}The Directive Proposal -- No Limits, No Clarification, Less Intellectual Property}{4}{section.3}}
\newlabel{nolc}{{3}{4}{The Directive Proposal -- No Limits, No Clarification, Less Intellectual Property\relax }{section.3}{}}
\@writefile{toc}{\contentsline {section}{\numberline {4}Counter-Proposal: Clear and Adequate Software Property Rules}{6}{section.4}}
\newlabel{prop}{{4}{6}{Counter-Proposal: Clear and Adequate Software Property Rules\relax }{section.4}{}}
\@writefile{toc}{\contentsline {section}{\numberline {5}Annotated Links}{9}{section.5}}
\newlabel{links}{{5}{9}{Annotated Links\relax }{section.5}{}}
