\contentsline {section}{\numberline {1}Header}{2}{section.1}
\contentsline {section}{\numberline {2}Body}{2}{section.2}
\contentsline {section}{\numberline {3}footer}{4}{section.3}
\contentsline {section}{\numberline {4}Annotated Links}{5}{section.4}
