\relax 
\ifx\hyper@anchor\@undefined
\global \let \oldcontentsline\contentsline
\gdef \contentsline#1#2#3#4{\oldcontentsline{#1}{#2}{#3}}
\global \let \oldnewlabel\newlabel
\gdef \newlabel#1#2{\newlabelxx{#1}#2}
\gdef \newlabelxx#1#2#3#4#5#6{\oldnewlabel{#1}{{#2}{#3}}}
\AtEndDocument{\let \contentsline\oldcontentsline
\let \newlabel\oldnewlabel}
\else
\global \let \hyper@last\relax 
\fi

\@writefile{toc}{\contentsline {section}{\numberline {1}Kommentierte Verweise}{3}{section.1}}
\newlabel{links}{{1}{3}{Kommentierte Verweise\relax }{section.1}{}}
\@writefile{toc}{\contentsline {section}{\numberline {2}Permanente Netzadresse dieser Mitteilung}{4}{section.2}}
\newlabel{url}{{2}{4}{Permanente Netzadresse dieser Mitteilung\relax }{section.2}{}}
