\contentsline {section}{\numberline {1}Annotated Links}{3}{section.1}
\contentsline {section}{\numberline {2}About the FFII}{4}{section.2}
\contentsline {section}{\numberline {3}About the Eurolinux Alliance}{4}{section.3}
\contentsline {section}{\numberline {4}Permanent URL of this Press Release}{5}{section.4}
