\relax 
\catcode`"\active
\ifx\hyper@anchor\@undefined
\global \let \oldcontentsline\contentsline
\gdef \contentsline#1#2#3#4{\oldcontentsline{#1}{#2}{#3}}
\global \let \oldnewlabel\newlabel
\gdef \newlabel#1#2{\newlabelxx{#1}#2}
\gdef \newlabelxx#1#2#3#4#5#6{\oldnewlabel{#1}{{#2}{#3}}}
\AtEndDocument{\let \contentsline\oldcontentsline
\let \newlabel\oldnewlabel}
\else
\global \let \hyper@last\relax 
\fi

\select@language{catalan}
\@writefile{toc}{\select@language{catalan}}
\@writefile{lof}{\select@language{catalan}}
\@writefile{lot}{\select@language{catalan}}
\@writefile{toc}{\contentsline {section}{\numberline {1}Roter Faden: Mehr Macht den Vorst\@umlaut {a}nden (?)}{1}{section.1}}
\newlabel{prog}{{1}{1}{Roter Faden: Mehr Macht den Vorst\"{a}nden (?)\relax }{section.1}{}}
\@writefile{toc}{\contentsline {section}{\numberline {2}Schattenhafte Funktion\@umlaut {a}rsgestalten}{2}{section.2}}
\newlabel{cuibono}{{2}{2}{Schattenhafte Funktion\"{a}rsgestalten\relax }{section.2}{}}
\@writefile{toc}{\contentsline {section}{\numberline {3}Enlla\c {c}os anotats}{2}{section.3}}
\newlabel{links}{{3}{2}{Enlla\c {c}os anotats\relax }{section.3}{}}
\@writefile{toc}{\contentsline {section}{\numberline {4}Q\@umlaut {u}estions, Coses Per Fer, Com pots Ajudar}{2}{section.4}}
\newlabel{tasks}{{4}{2}{Q\"{u}estions, Coses Per Fer, Com pots Ajudar\relax }{section.4}{}}
