\relax 
\ifx\hyper@anchor\@undefined
\global \let \oldcontentsline\contentsline
\gdef \contentsline#1#2#3#4{\oldcontentsline{#1}{#2}{#3}}
\global \let \oldnewlabel\newlabel
\gdef \newlabel#1#2{\newlabelxx{#1}#2}
\gdef \newlabelxx#1#2#3#4#5#6{\oldnewlabel{#1}{{#2}{#3}}}
\AtEndDocument{\let \contentsline\oldcontentsline
\let \newlabel\oldnewlabel}
\else
\global \let \hyper@last\relax 
\fi

\@writefile{toc}{\contentsline {section}{\numberline {1}Baseline: More Power for Corporate Boards (?)}{2}{section.1}}
\newlabel{prog}{{1}{2}{Baseline: More Power for Corporate Boards (?)\relax }{section.1}{}}
\@writefile{toc}{\contentsline {section}{\numberline {2}Organisational structure of Bitkom}{2}{section.2}}
\newlabel{orgnatur}{{2}{2}{Organisational structure of Bitkom\relax }{section.2}{}}
\@writefile{toc}{\contentsline {section}{\numberline {3}Bitkom Survey 2002}{3}{section.3}}
\newlabel{umfrage}{{3}{3}{Bitkom Survey 2002\relax }{section.3}{}}
\@writefile{toc}{\contentsline {section}{\numberline {4}Annotated Links}{4}{section.4}}
\newlabel{links}{{4}{4}{Annotated Links\relax }{section.4}{}}
\@writefile{toc}{\contentsline {section}{\numberline {5}Questions, Things To Do, How you can Help}{8}{section.5}}
\newlabel{tasks}{{5}{8}{Questions, Things To Do, How you can Help\relax }{section.5}{}}
\gdef\scr@tpo@lst{0}
