\contentsline {section}{\numberline {1}Baseline: More Power for Corporate Boards (?)}{2}{section.1}
\contentsline {section}{\numberline {2}Organisational structure of Bitkom}{2}{section.2}
\contentsline {section}{\numberline {3}Bitkom Survey 2002}{3}{section.3}
\contentsline {section}{\numberline {4}Annotated Links}{4}{section.4}
\contentsline {section}{\numberline {5}Questions, Things To Do, How you can Help}{8}{section.5}
