%!PS-Adobe-3.0
%XpPrinter-Model: Generic Printer
%%Creator: Wind/U Xprinter Version 3.1.0 (linux) (Compile Date: Mar 15 2000 17:33:05) (XpDummyUser)
%%Title: 
%%CreationDate:Mon Oct 15 23:22:28 2001
%%DocumentSuppliedResources: (atend)
%%Pages: (atend)
%%LanguageLevel: 2
%%EndComments
%%BeginProlog
/XPrinterDict dup 200 dict def load begin
/bdf{bind def}bind def
/ldf{load def}bdf
/m/rmoveto ldf
/l2/rlineto ldf
/gs/gsave ldf
/gr/grestore ldf
/np/newpath ldf
/sv/save ldf
/rs/restore ldf
/tl/translate ldf
/mt/matrix ldf
/l/length ldf
/z/dict ldf
/d/def ldf
/e/exch ldf
/a/array ldf
/ac/arc ldf
/an/arcn ldf
/b/begin ldf
/pi/putinterval ldf
/t/moveto ldf
/lo/lineto ldf
/st/stroke ldf
/p/add ldf
/s/sub ldf
/c/mul ldf
/v/div ldf
/cp/closepath ldf
/sl/scale ldf
/ff/findfont ldf
/mf/makefont ldf
/sf/setfont ldf
/f/fill ldf
/sw/setlinewidth ldf
/sc/setlinecap ldf
/sj/setlinejoin ldf
/sg/setgray ldf
/ski/ISOLatin1Encoding where{pop true}{false}ifelse d
/fcd{ff dup l z b{1 index /FID ne{d}{pop pop}ifelse}forall /Encoding ISOLatin1Encoding d currentdict end}bdf
/fdf{e definefont pop}bdf
/sdt 22 z d
sdt b
/tpm mt d
/tpt mt d
/tps mt d
/cps
{/pr2 e cvlit d
/pr1 e cvlit d
/npc pr1 l pr2 l p a d
npc 0 pr1 pi
npc pr1 l pr2 pi
npc cvx
}bdf
/rmx mt d
/frs
{72 0 rmx defaultmatrix dtransform
/yres e d /xres e d
xres dup c yres dup c p sqrt
}bdf
end

/reencodesmalldict 12 dict def
/ReEncodeSmall { 
	reencodesmalldict begin
		/newcodesandnames exch def
		/newfontname exch def
		/basefontname exch def
		/basefontdict basefontname findfont def
		/newfont basefontdict maxlength dict def

		basefontdict
		{
			exch dup /FID ne
			{ 
				dup /Encoding eq
				{ 
					ski
					{
						exch pop
						ISOLatin1Encoding dup length array copy
					}{
					 	exch dup length array copy
					}
					ifelse
					newfont 3 1 roll put
				}{
					exch newfont 3 1 roll put
				}
				ifelse
			}{
				pop pop
			}
			ifelse
		} forall

		newfont /FontName newfontname put
		newcodesandnames aload pop
		newcodesandnames length 2 idiv
		{
			newfont /Encoding get 3 1 roll put
		} repeat

		newfontname newfont definefont pop
	end
} def

/changesvec [
	16#80 /euro
	16#82 /quotesinglbase
	16#83 /florin
	16#84 /quotedblbase
	16#85 /ellipsis
	16#86 /dagger
	16#87 /daggerdbl
	16#88 /circumflex
	16#89 /perthousand
	16#8a /Scaron
	16#8b /guilsinglleft
	16#8c /OE
	16#8e /zcaron
	16#91 /quoteleft
	16#92 /quoteright
	16#93 /quotedblleft
	16#94 /quotedblright
	16#95 /bullet
	16#96 /endash
	16#97 /emdash
	16#98 /tilde
	16#99 /trademark
	16#9a /scaron
	16#9b /guilsinglright
	16#9c /oe
	16#9e /zcaron
	16#9f /Ydieresis
] def


/sus 
{sdt b
/spf e d
/sag e d 
/ces e d
300 ces v sag /spf load
setscreen
end
}bdf
/spt 18 z d
spt b
/bts
{/ybit e d /xbit e d
/byv bstr ybit bwd c xbit 8 idiv
p get d
/mask 1 7 xbit 8 mod s bitshift d
byv mask and 0 ne
}bdf
end
/bsf
{spt b
/y e d /x e d
/xix x 1 p 2 v bpx c cvi d
/yix y 1 p 2 v bpy c cvi d
xix yix bts
{/onb onb 1 p d 1}
{/ofb ofb 1 p d 0}
ifelse
end
}bdf
/setpattern
{spt b
/csz e d
/agl e d
/bwd e d
/bpy e d
/bpx e d
/bstr e d
/onb 0 d /ofb 0 d
csz agl /bsf load
sus
{ }settransfer
ofb ofb onb p v setgray
end
}bdf
/picstr 500 string d
/inch{72 c}bdf
/DP{gs np 0 360 ac cp f gr}bdf
/DL{gs np t lo st gr}bdf
/RGB{setrgbcolor}bdf
/C{gs t show gr}bdf

/ren 12 z d
/REn
{ren b
/nwc e d
/nwf e d
/bft e d
/bfd bft ff d
/nf bfd maxlength z d
bfd
{e dup /FID ne 
{dup /Encoding eq
{e dup l a copy
nf 3 1 roll put}
{e nf 3 1 roll put}
ifelse
}
{pop pop}
ifelse
}forall
nf /FontName nwf put
nwc aload pop
nwc l 2 idiv
{nf /Encoding get 3 1 roll put}
repeat
nwf nf definefont pop
end
}d
/rots{gs t rotate show gr}bdf
/imdata 256 string def
/imstr1 1 string def
/imdecode{
currentfile imstr1 readhexstring pop 0 get 8 bitshift currentfile imstr1 readhexstring pop 0 get or {
currentfile imdata 
currentfile imstr1 readhexstring pop 0 get 8 bitshift currentfile imstr1 readhexstring pop 0 get or 
currentfile imstr1 readhexstring pop 0 get 
getinterval 
readhexstring pop pop
} repeat
imdata
} bdf

%%EndProlog
%%BeginSetup
%
%%BeginFeature: *Resolution 300dpi
1 dict dup /HWResolution [300 300] put setpagedevice
%%EndFeature
%%BeginFeature: *PageSize A4
<</PageSize [595 842] /ImagingBBox null>> setpagedevice
%%EndFeature
%%EndSetup
%%Page: 1 1
%%BeginPageSetup
/#copies 1 def
sv
1.0 -1.0 sl
18.0 -824.0 tl
%%EndPageSetup
%%PageBoundingBox: (atend)
gs
gr gs
0 0 t 0 805.92 lo 558.96 805.92 lo 558.96 0 lo cp clip np
0.0 0.0 0.0 RGB
/Helvetica /Helvetica-MSenc changesvec ReEncodeSmall
/Helvetica-MSenc ff [18.0 0 0 -18.0 0 0] mf sf
<42> 182.16 83.52 C
<65> 194.16 83.52 C
<73> 204.24 83.52 C
<74> 213.36 83.52 C
<65> 218.4 83.52 C
<6c> 228.48 83.52 C
<6c> 232.56 83.52 C
<66> 236.64 83.52 C
<6f> 241.68 83.52 C
<72> 251.76 83.52 C
<6d> 257.76 83.52 C
<75> 272.64 83.52 C
<6c> 282.72 83.52 C
<61> 286.8 83.52 C
<72> 296.88 83.52 C
<20> 302.88 83.52 C
<46> 307.92 83.52 C
<46> 318.96 83.52 C
<49> 330.0 83.52 C
<49> 335.04 83.52 C
<20> 340.08 83.52 C
<65> 345.12 83.52 C
<2e> 355.2 83.52 C
<56> 360.24 83.52 C
<2e> 372.24 83.52 C
gr gs
0 0 t 0 805.92 lo 558.96 805.92 lo 558.96 0 lo cp clip np
0.0 0.0 0.0 RGB
/Helvetica-MSenc ff [12.0 0 0 -12.0 0 0] mf sf
<42> 38.64 112.8 C
<69> 46.56 112.8 C
<74> 49.2 112.8 C
<74> 52.56 112.8 C
<65> 55.92 112.8 C
<20> 62.64 112.8 C
<61> 66.0 112.8 C
<6d> 72.72 112.8 C
<20> 82.8 112.8 C
<53> 86.16 112.8 C
<74> 94.08 112.8 C
<61> 97.44 112.8 C
<6e> 104.16 112.8 C
<64> 110.88 112.8 C
<20> 117.6 112.8 C
<61> 120.96 112.8 C
<62> 127.68 112.8 C
<67> 134.4 112.8 C
<65> 141.12 112.8 C
<62> 147.84 112.8 C
<65> 154.56 112.8 C
<6e> 161.28 112.8 C
<2e> 168.0 112.8 C
<46> 38.64 140.4 C
<46> 46.08 140.4 C
<49> 53.52 140.4 C
<49> 56.88 140.4 C
<20> 60.24 140.4 C
<65> 63.6 140.4 C
<2e> 70.32 140.4 C
<56> 73.68 140.4 C
<2e> 81.6 140.4 C
<42> 38.64 154.32 C
<6c> 46.56 154.32 C
<75> 49.2 154.32 C
<74> 55.92 154.32 C
<65> 59.28 154.32 C
<6e> 66.0 154.32 C
<62> 72.72 154.32 C
<75> 79.44 154.32 C
<72> 86.16 154.32 C
<67> 90.24 154.32 C
<73> 96.96 154.32 C
<74> 102.96 154.32 C
<72> 106.32 154.32 C
<2e> 110.4 154.32 C
<20> 113.76 154.32 C
<31> 117.12 154.32 C
<37> 123.84 154.32 C
<44> 38.64 168.24 C
<2d> 47.28 168.24 C
<38> 54.24 168.24 C
<30> 60.96 168.24 C
<36> 67.68 168.24 C
<33> 74.4 168.24 C
<36> 81.12 168.24 C
<20> 87.84 168.24 C
<4d> 91.2 168.24 C
<fc> 101.28 168.24 C
<6e> 108.0 168.24 C
<63> 114.72 168.24 C
<68> 120.72 168.24 C
<65> 127.44 168.24 C
<6e> 134.16 168.24 C
<42> 38.64 210.0 C
<69> 46.56 210.0 C
<74> 49.2 210.0 C
<74> 52.56 210.0 C
<65> 55.92 210.0 C
<20> 62.64 210.0 C
<73> 66.0 210.0 C
<65> 72.0 210.0 C
<6e> 78.72 210.0 C
<64> 85.44 210.0 C
<65> 92.16 210.0 C
<6e> 98.88 210.0 C
<20> 105.6 210.0 C
<53> 108.96 210.0 C
<69> 116.88 210.0 C
<65> 119.52 210.0 C
<20> 126.24 210.0 C
gr gs
0 0 t 0 805.92 lo 558.96 805.92 lo 558.96 0 lo cp clip np
0.0 0.0 0.0 RGB
/Helvetica-BoldOblique /Helvetica-BoldOblique-MSenc changesvec ReEncodeSmall
/Helvetica-BoldOblique-MSenc ff [12.0 0 0 -12.0 0 0] mf sf
<41> 132.96 240.96 C
<72> 141.6 240.96 C
<74> 146.16 240.96 C
<69> 150.24 240.96 C
<6b> 153.6 240.96 C
<65> 160.32 240.96 C
<6c> 167.04 240.96 C
<41> 272.4 240.96 C
<6e> 281.04 240.96 C
<7a> 288.48 240.96 C
<61> 294.48 240.96 C
<68> 301.2 240.96 C
<6c> 308.64 240.96 C
<45> 339.6 240.96 C
<69> 347.52 240.96 C
<6e> 350.88 240.96 C
<7a> 358.32 240.96 C
<65> 364.32 240.96 C
<6c> 371.04 240.96 C
<70> 374.4 240.96 C
<72> 381.84 240.96 C
<65> 386.4 240.96 C
<69> 393.12 240.96 C
<73> 396.48 240.96 C
<47> 435.36 240.96 C
<65> 444.72 240.96 C
<73> 451.44 240.96 C
<61> 458.16 240.96 C
<6d> 464.88 240.96 C
<74> 475.44 240.96 C
<70> 479.52 240.96 C
<72> 486.96 240.96 C
<65> 491.52 240.96 C
<69> 498.24 240.96 C
<73> 501.6 240.96 C
/Helvetica-MSenc ff [12.0 0 0 -12.0 0 0] mf sf
<54> 41.52 260.4 C
<2d> 48.96 260.4 C
<53> 55.92 260.4 C
<68> 63.84 260.4 C
<69> 70.56 260.4 C
<72> 73.2 260.4 C
<74> 77.28 260.4 C
gr gs
0 0 t 0 805.92 lo 558.96 805.92 lo 558.96 0 lo cp clip np
0.0 0.0 0.0 RGB
/Times-Roman /Times-Roman-MSenc changesvec ReEncodeSmall
/Times-Roman-MSenc ff [12.0 0 0 -12.0 0 0] mf sf
<20> 80.64 260.4 C
<22> 83.76 260.4 C
<57> 88.56 260.4 C
<65> 99.84 260.4 C
<20> 105.12 260.4 C
<61> 108.24 260.4 C
<72> 113.52 260.4 C
<65> 117.6 260.4 C
<20> 122.88 260.4 C
<74> 126.0 260.4 C
<68> 129.36 260.4 C
<65> 135.36 260.4 C
<20> 140.64 260.4 C
<50> 143.76 260.4 C
<61> 150.48 260.4 C
<74> 155.76 260.4 C
<65> 159.12 260.4 C
<6e> 164.4 260.4 C
<74> 170.4 260.4 C
<20> 173.76 260.4 C
<4f> 176.88 260.4 C
<66> 185.52 260.4 C
<66> 189.6 260.4 C
<69> 193.68 260.4 C
<63> 197.04 260.4 C
<65> 202.32 260.4 C
<2c> 207.6 260.4 C
<20> 210.72 260.4 C
<6e> 213.84 260.4 C
<6f> 219.84 260.4 C
<74> 225.84 260.4 C
<20> 229.2 260.4 C
<74> 232.32 260.4 C
<68> 235.68 260.4 C
<65> 241.68 260.4 C
<52> 41.52 273.84 C
<65> 49.44 273.84 C
<6a> 54.72 273.84 C
<65> 58.08 273.84 C
<63> 63.36 273.84 C
<74> 68.64 273.84 C
<69> 72.0 273.84 C
<6f> 75.36 273.84 C
<6e> 81.36 273.84 C
<20> 87.36 273.84 C
<4f> 90.48 273.84 C
<66> 99.12 273.84 C
<66> 103.2 273.84 C
<69> 107.28 273.84 C
<63> 110.64 273.84 C
<65> 115.92 273.84 C
<22> 121.2 273.84 C
/Helvetica-MSenc ff [12.0 0 0 -12.0 0 0] mf sf
<20> 322.56 260.4 C
<20> 325.92 260.4 C
<20> 329.28 260.4 C
<20> 332.64 260.4 C
<20> 336.0 260.4 C
<20> 339.36 260.4 C
<20> 342.72 260.4 C
<20> 346.08 260.4 C
<20> 349.44 260.4 C
<20> 352.8 260.4 C
<20> 356.16 260.4 C
<20> 359.52 260.4 C
<20> 362.88 260.4 C
<20> 366.24 260.4 C
<20> 369.6 260.4 C
<20> 372.96 260.4 C
<20> 376.32 260.4 C
<20> 379.68 260.4 C
<32> 383.04 260.4 C
<35> 389.76 260.4 C
<2e> 396.48 260.4 C
<30> 399.84 260.4 C
<30> 406.56 260.4 C
<44> 322.56 274.32 C
<45> 331.2 274.32 C
<4d> 339.12 274.32 C
<20> 322.56 294.24 C
<20> 325.92 294.24 C
<20> 329.04 294.24 C
<4b> 41.52 313.68 C
<75> 49.44 313.68 C
<67> 56.16 313.68 C
<65> 62.88 313.68 C
<6c> 69.6 313.68 C
<73> 72.24 313.68 C
<63> 78.24 313.68 C
<68> 84.24 313.68 C
<72> 90.96 313.68 C
<65> 95.04 313.68 C
<69> 101.76 313.68 C
<62> 104.4 313.68 C
<65> 111.12 313.68 C
<72> 117.84 313.68 C
/Times-Roman-MSenc ff [12.0 0 0 -12.0 0 0] mf sf
<20> 121.92 313.68 C
<22> 125.04 313.68 C
<4c> 129.84 313.68 C
<6f> 137.28 313.68 C
<67> 143.28 313.68 C
<69> 149.28 313.68 C
<6b> 152.64 313.68 C
<70> 158.64 313.68 C
<61> 164.64 313.68 C
<74> 169.92 313.68 C
<65> 173.28 313.68 C
<6e> 178.56 313.68 C
<74> 184.56 313.68 C
<65> 187.92 313.68 C
<20> 193.2 313.68 C
<4e> 196.32 313.68 C
<65> 204.96 313.68 C
<69> 210.24 313.68 C
<6e> 213.6 313.68 C
<20> 219.6 313.68 C
<44> 222.72 313.68 C
<61> 231.36 313.68 C
<6e> 236.64 313.68 C
<6b> 242.64 313.68 C
<65> 248.64 313.68 C
<22> 253.92 313.68 C
/Helvetica-MSenc ff [12.0 0 0 -12.0 0 0] mf sf
<20> 322.56 313.68 C
<20> 325.92 313.68 C
<20> 329.28 313.68 C
<20> 332.64 313.68 C
<20> 336.0 313.68 C
<20> 339.36 313.68 C
<20> 342.72 313.68 C
<20> 346.08 313.68 C
<20> 349.44 313.68 C
<20> 352.8 313.68 C
<20> 356.16 313.68 C
<20> 359.52 313.68 C
<20> 362.88 313.68 C
<20> 366.24 313.68 C
<20> 369.6 313.68 C
<20> 372.96 313.68 C
<20> 376.32 313.68 C
<20> 379.68 313.68 C
<20> 383.04 313.68 C
<20> 386.4 313.68 C
<20> 389.76 313.68 C
<32> 393.12 313.68 C
<2e> 399.84 313.68 C
<35> 403.2 313.68 C
<30> 409.92 313.68 C
<44> 322.56 327.6 C
<45> 331.2 327.6 C
<4d> 339.12 327.6 C
/Times-Roman-MSenc ff [12.0 0 0 -12.0 0 0] mf sf
<4b> 41.52 346.56 C
<75> 50.16 346.56 C
<67> 56.16 346.56 C
<65> 62.16 346.56 C
<6c> 67.44 346.56 C
<73> 70.8 346.56 C
<63> 75.36 346.56 C
<68> 80.64 346.56 C
<72> 86.64 346.56 C
<65> 90.72 346.56 C
<69> 96.0 346.56 C
<62> 99.36 346.56 C
<65> 105.36 346.56 C
<72> 110.64 346.56 C
<20> 114.72 346.56 C
<22> 117.84 346.56 C
<4e> 122.64 346.56 C
<6f> 131.28 346.56 C
<20> 137.28 346.56 C
<65> 140.4 346.56 C
<2d> 145.68 346.56 C
<50> 152.4 346.56 C
<61> 159.12 346.56 C
<74> 164.4 346.56 C
<65> 167.76 346.56 C
<6e> 173.04 346.56 C
<74> 179.04 346.56 C
<73> 182.4 346.56 C
<22> 186.96 346.56 C
<20> 322.56 346.56 C
<20> 325.68 346.56 C
<20> 328.8 346.56 C
<20> 331.92 346.56 C
<20> 335.04 346.56 C
<20> 338.16 346.56 C
<20> 341.28 346.56 C
<20> 344.4 346.56 C
<20> 347.52 346.56 C
<20> 350.64 346.56 C
<20> 353.76 346.56 C
<20> 356.88 346.56 C
<20> 360.0 346.56 C
<20> 363.12 346.56 C
<20> 366.24 346.56 C
<20> 369.36 346.56 C
<20> 372.48 346.56 C
<20> 375.6 346.56 C
<20> 378.72 346.56 C
<20> 381.84 346.56 C
<20> 384.96 346.56 C
<32> 388.08 346.56 C
<2e> 394.08 346.56 C
<35> 397.2 346.56 C
<30> 403.2 346.56 C
<44> 322.56 360.0 C
<45> 331.2 360.0 C
<4d> 338.64 360.0 C
/Helvetica-MSenc ff [12.0 0 0 -12.0 0 0] mf sf
<4e> 41.52 379.44 C
<65> 50.16 379.44 C
<75> 56.88 379.44 C
<67> 63.6 379.44 C
<69> 70.32 379.44 C
<65> 72.96 379.44 C
<72> 79.68 379.44 C
<77> 83.76 379.44 C
<65> 92.4 379.44 C
<63> 99.12 379.44 C
<6b> 105.12 379.44 C
<65> 111.12 379.44 C
<6e> 117.84 379.44 C
<64> 124.56 379.44 C
<65> 131.28 379.44 C
<73> 138.0 379.44 C
<20> 144.0 379.44 C
<50> 147.36 379.44 C
<6c> 155.28 379.44 C
<61> 157.92 379.44 C
<6b> 164.64 379.44 C
<61> 170.64 379.44 C
<74> 177.36 379.44 C
<20> 180.72 379.44 C
<28> 184.08 379.44 C
<53> 188.16 379.44 C
<77> 196.08 379.44 C
<70> 204.72 379.44 C
<61> 211.44 379.44 C
<74> 218.16 379.44 C
<75> 221.52 379.44 C
<78> 228.24 379.44 C
<29> 234.24 379.44 C
<20> 322.56 379.44 C
<20> 325.92 379.44 C
<20> 329.28 379.44 C
<20> 332.64 379.44 C
<20> 336.0 379.44 C
<20> 339.36 379.44 C
<20> 342.72 379.44 C
<20> 346.08 379.44 C
<20> 349.44 379.44 C
<20> 352.8 379.44 C
<20> 356.16 379.44 C
/Times-Roman-MSenc ff [12.0 0 0 -12.0 0 0] mf sf
<20> 359.52 379.44 C
<20> 362.64 379.44 C
<20> 365.76 379.44 C
<20> 368.88 379.44 C
<20> 372.0 379.44 C
<20> 375.12 379.44 C
<20> 378.24 379.44 C
<20> 381.36 379.44 C
<31> 384.48 379.44 C
<30> 390.48 379.44 C
<2e> 396.48 379.44 C
<30> 399.6 379.44 C
<30> 405.6 379.44 C
<44> 322.56 392.88 C
<45> 331.2 392.88 C
<4d> 338.64 392.88 C
<20> 349.2 392.88 C
<41> 41.52 411.84 C
<75> 50.16 411.84 C
<66> 56.16 411.84 C
<6b> 60.24 411.84 C
<6c> 66.24 411.84 C
<61> 69.6 411.84 C
<65> 74.88 411.84 C
<72> 80.16 411.84 C
<65> 84.24 411.84 C
<6e> 89.52 411.84 C
<64> 95.52 411.84 C
<65> 101.52 411.84 C
<73> 106.8 411.84 C
<20> 111.36 411.84 C
<50> 114.48 411.84 C
<6c> 121.2 411.84 C
<61> 124.56 411.84 C
<6b> 129.84 411.84 C
<61> 135.84 411.84 C
<74> 141.12 411.84 C
<20> 144.48 411.84 C
<28> 147.6 411.84 C
<53> 151.68 411.84 C
<77> 158.4 411.84 C
<70> 167.04 411.84 C
<61> 173.04 411.84 C
<74> 178.32 411.84 C
<75> 181.68 411.84 C
<78> 187.68 411.84 C
<20> 193.68 411.84 C
<2b> 196.8 411.84 C
<20> 203.52 411.84 C
<57> 206.64 411.84 C
<65> 217.92 411.84 C
<6c> 223.2 411.84 C
<74> 226.56 411.84 C
<65> 229.92 411.84 C
<6e> 235.2 411.84 C
<29> 241.2 411.84 C
<20> 322.56 411.84 C
<20> 325.68 411.84 C
<20> 328.8 411.84 C
<20> 331.92 411.84 C
<20> 335.04 411.84 C
<20> 338.16 411.84 C
<20> 341.28 411.84 C
<20> 344.4 411.84 C
<20> 347.52 411.84 C
<20> 350.64 411.84 C
<20> 353.76 411.84 C
<20> 356.88 411.84 C
<20> 360.0 411.84 C
<20> 363.12 411.84 C
<20> 366.24 411.84 C
<20> 369.36 411.84 C
<20> 372.48 411.84 C
<20> 375.6 411.84 C
<20> 378.72 411.84 C
<31> 381.84 411.84 C
<30> 387.84 411.84 C
<2e> 393.84 411.84 C
<30> 396.96 411.84 C
<30> 402.96 411.84 C
<44> 322.56 425.28 C
<45> 331.2 425.28 C
<4d> 338.64 425.28 C
<43> 41.52 444.24 C
<44> 49.44 444.24 C
<52> 58.08 444.24 C
<4f> 66.0 444.24 C
<4d> 74.64 444.24 C
<20> 322.56 444.24 C
<20> 325.68 444.24 C
<20> 328.8 444.24 C
<20> 331.92 444.24 C
<20> 335.04 444.24 C
<20> 338.16 444.24 C
<20> 341.28 444.24 C
<20> 344.4 444.24 C
<20> 347.52 444.24 C
<20> 350.64 444.24 C
<20> 353.76 444.24 C
<20> 356.88 444.24 C
<20> 360.0 444.24 C
<20> 363.12 444.24 C
<20> 366.24 444.24 C
<20> 369.36 444.24 C
<20> 372.48 444.24 C
<20> 375.6 444.24 C
<20> 378.72 444.24 C
<31> 381.84 444.24 C
<30> 387.84 444.24 C
<2e> 393.84 444.24 C
<30> 396.96 444.24 C
<30> 402.96 444.24 C
<44> 322.56 457.68 C
<45> 331.2 457.68 C
<4d> 338.64 457.68 C
/Helvetica-MSenc ff [12.0 0 0 -12.0 0 0] mf sf
<61> 38.64 488.4 C
<6e> 45.36 488.4 C
<3a> 52.08 488.4 C
<4e> 41.52 518.88 C
<61> 50.16 518.88 C
<6d> 56.88 518.88 C
<65> 66.96 518.88 C
<2c> 73.68 518.88 C
<20> 77.04 518.88 C
<56> 80.4 518.88 C
<6f> 88.32 518.88 C
<72> 95.04 518.88 C
<6e> 99.12 518.88 C
<61> 105.84 518.88 C
<6d> 112.56 518.88 C
<65> 122.64 518.88 C
<53> 41.52 539.28 C
<74> 49.44 539.28 C
<72> 52.8 539.28 C
<61> 56.88 539.28 C
<df> 63.6 539.28 C
<65> 71.04 539.28 C
<2c> 77.76 539.28 C
<20> 81.12 539.28 C
<48> 84.48 539.28 C
<61> 93.12 539.28 C
<75> 99.84 539.28 C
<73> 106.56 539.28 C
<2d> 112.56 539.28 C
<4e> 119.52 539.28 C
<72> 128.16 539.28 C
<2e> 132.24 539.28 C
<50> 41.52 559.92 C
<4c> 49.44 559.92 C
<5a> 56.16 559.92 C
<2c> 63.6 559.92 C
<20> 66.96 559.92 C
<4f> 70.32 559.92 C
<72> 79.68 559.92 C
<74> 83.76 559.92 C
<4b> 41.52 580.32 C
<6f> 49.44 580.32 C
<6e> 56.16 580.32 C
<74> 62.88 580.32 C
<6f> 66.24 580.32 C
<6e> 72.96 580.32 C
<75> 79.68 580.32 C
<6d> 86.4 580.32 C
<6d> 96.48 580.32 C
<65> 106.56 580.32 C
<72> 113.28 580.32 C
<42> 41.52 600.72 C
<61> 49.44 600.72 C
<6e> 56.16 600.72 C
<6b> 62.88 600.72 C
<42> 41.52 621.12 C
<61> 49.44 621.12 C
<6e> 56.16 621.12 C
<6b> 62.88 621.12 C
<6c> 68.88 621.12 C
<65> 71.52 621.12 C
<69> 78.24 621.12 C
<74> 80.88 621.12 C
<7a> 84.24 621.12 C
<61> 90.24 621.12 C
<68> 96.96 621.12 C
<6c> 103.68 621.12 C
<44> 38.64 694.32 C
<61> 47.28 694.32 C
<74> 54.0 694.32 C
<75> 57.36 694.32 C
<6d> 64.08 694.32 C
<2c> 74.16 694.32 C
<20> 77.52 694.32 C
<55> 80.88 694.32 C
<6e> 89.52 694.32 C
<74> 96.24 694.32 C
<65> 99.6 694.32 C
<72> 106.32 694.32 C
<73> 110.4 694.32 C
<63> 116.4 694.32 C
<68> 122.4 694.32 C
<72> 129.12 694.32 C
<69> 133.2 694.32 C
<66> 135.84 694.32 C
<74> 139.2 694.32 C
<3a> 142.56 694.32 C
<20> 145.92 694.32 C
<20> 149.28 694.32 C
<20> 152.64 694.32 C
<20> 156.0 694.32 C
<20> 159.36 694.32 C
<20> 162.72 694.32 C
<20> 166.08 694.32 C
<20> 169.44 694.32 C
<20> 172.8 694.32 C
<20> 176.16 694.32 C
<20> 179.52 694.32 C
<20> 182.88 694.32 C
<20> 186.24 694.32 C
<20> 189.6 694.32 C
<20> 192.96 694.32 C
<20> 196.32 694.32 C
<20> 199.68 694.32 C
<20> 203.04 694.32 C
<20> 206.4 694.32 C
<20> 209.76 694.32 C
<20> 213.12 694.32 C
<20> 216.48 694.32 C
<20> 219.84 694.32 C
<20> 223.2 694.32 C
<20> 226.56 694.32 C
<20> 229.92 694.32 C
<20> 233.28 694.32 C
<20> 236.64 694.32 C
<20> 240.0 694.32 C
<20> 243.36 694.32 C
<20> 246.72 694.32 C
<20> 250.08 694.32 C
<20> 253.44 694.32 C
<20> 256.8 694.32 C
<20> 260.16 694.32 C
<20> 263.52 694.32 C
<20> 266.88 694.32 C
<20> 270.24 694.32 C
<20> 273.6 694.32 C
<20> 276.96 694.32 C
<20> 280.32 694.32 C
<20> 283.68 694.32 C
<20> 287.04 694.32 C
<20> 290.4 694.32 C
<20> 293.76 694.32 C
<20> 297.12 694.32 C
<20> 300.48 694.32 C
<20> 303.84 694.32 C
<20> 307.2 694.32 C
<20> 310.56 694.32 C
<20> 313.92 694.32 C
<20> 317.28 694.32 C
<20> 320.64 694.32 C
<20> 324.0 694.32 C
<20> 327.36 694.32 C
<20> 330.72 694.32 C
<20> 334.08 694.32 C
<20> 337.44 694.32 C
<20> 340.8 694.32 C
<20> 344.16 694.32 C
<20> 347.52 694.32 C
<20> 350.88 694.32 C
<20> 354.24 694.32 C
<20> 357.6 694.32 C
<20> 360.96 694.32 C
<20> 364.32 694.32 C
<20> 367.68 694.32 C
<20> 371.04 694.32 C
<20> 374.4 694.32 C
<20> 377.76 694.32 C
<20> 381.12 694.32 C
<20> 384.48 694.32 C
<20> 387.84 694.32 C
<20> 391.2 694.32 C
<20> 394.56 694.32 C
<20> 397.92 694.32 C
<20> 401.28 694.32 C
<20> 404.64 694.32 C
<20> 408.0 694.32 C
<20> 411.36 694.32 C
<20> 414.72 694.32 C
<20> 418.08 694.32 C
<20> 421.44 694.32 C
<20> 424.8 694.32 C
<20> 428.16 694.32 C
<20> 431.52 694.32 C
<20> 434.88 694.32 C
gr gs
0 0 t 0 805.92 lo 558.96 805.92 lo 558.96 0 lo cp clip np
0.0 0.0 0.0 RGB
0.24 sw
[] 0 setdash
0 sc
0 sj
gs np 149.28 695.52 t 149.28 696.24 lo 438.24 696.24 lo 438.24 695.52 lo cp f st gr
/Helvetica-MSenc ff [12.0 0 0 -12.0 0 0] mf sf
<20> 438.24 694.32 C
gs np 438.24 695.52 t 438.24 696.24 lo 441.6 696.24 lo 441.6 695.52 lo cp f st gr
gs np 38.88 246.24 t 38.88 246.48 lo 520.56 246.48 lo 520.56 246.24 lo cp f st gr
gs np 265.92 226.56 t 265.92 463.44 lo 266.16 463.44 lo 266.16 226.56 lo cp f st gr
gs np 319.68 226.56 t 319.68 463.44 lo 319.92 463.44 lo 319.92 226.56 lo cp f st gr
gs np 424.32 226.56 t 424.32 463.44 lo 424.56 463.44 lo 424.56 226.56 lo cp f st gr
gs np 38.88 299.52 t 38.88 299.76 lo 520.56 299.76 lo 520.56 299.52 lo cp f st gr
gs np 38.88 332.88 t 38.88 333.12 lo 520.56 333.12 lo 520.56 332.88 lo cp f st gr
gs np 38.88 365.28 t 38.88 365.52 lo 520.56 365.52 lo 520.56 365.28 lo cp f st gr
gs np 38.88 398.16 t 38.88 398.4 lo 520.56 398.4 lo 520.56 398.16 lo cp f st gr
gs np 38.88 430.56 t 38.88 430.8 lo 520.56 430.8 lo 520.56 430.56 lo cp f st gr
gs np 153.84 522.48 t 153.84 522.72 lo 517.92 522.72 lo 517.92 522.48 lo cp f st gr
gs np 153.84 542.88 t 153.84 543.12 lo 517.92 543.12 lo 517.92 542.88 lo cp f st gr
gs np 153.84 563.28 t 153.84 563.52 lo 517.92 563.52 lo 517.92 563.28 lo cp f st gr
gs np 153.84 583.68 t 153.84 583.92 lo 517.92 583.92 lo 517.92 583.68 lo cp f st gr
gs np 153.84 604.08 t 153.84 604.32 lo 517.92 604.32 lo 517.92 604.08 lo cp f st gr
gs np 153.84 624.48 t 153.84 624.72 lo 517.92 624.72 lo 517.92 624.48 lo cp f st gr
gs np 38.88 226.56 t 38.88 463.44 lo 39.12 463.44 lo 39.12 226.56 lo cp f st gr
gs np 38.88 226.56 t 38.88 226.8 lo 520.56 226.8 lo 520.56 226.56 lo cp f st gr
gs np 520.32 226.56 t 520.32 463.44 lo 520.56 463.44 lo 520.56 226.56 lo cp f st gr
gs np 38.88 463.2 t 38.88 463.44 lo 520.56 463.44 lo 520.56 463.2 lo cp f st gr
gr
%%PageTrailer
rs
%%PageBoundingBox: 18 127 538 823
showpage
%%Trailer
%%Pages: 1
end
%%DocumentSuppliedResources: 
%%EOF
