\relax 
\ifx\hyper@anchor\@undefined
\global \let \oldcontentsline\contentsline
\gdef \contentsline#1#2#3#4{\oldcontentsline{#1}{#2}{#3}}
\global \let \oldnewlabel\newlabel
\gdef \newlabel#1#2{\newlabelxx{#1}#2}
\gdef \newlabelxx#1#2#3#4#5#6{\oldnewlabel{#1}{{#2}{#3}}}
\AtEndDocument{\let \contentsline\oldcontentsline
\let \newlabel\oldnewlabel}
\else
\global \let \hyper@last\relax 
\fi

\@writefile{toc}{\contentsline {section}{\numberline {1}Wann?}{3}{section.1}}
\newlabel{kiam}{{1}{3}{Wann?\relax }{section.1}{}}
\@writefile{toc}{\contentsline {section}{\numberline {2}Wo?}{3}{section.2}}
\newlabel{kiok}{{2}{3}{Wo?\relax }{section.2}{}}
\@writefile{toc}{\contentsline {section}{\numberline {3}Zeitplan}{3}{section.3}}
\newlabel{tmp}{{3}{3}{Zeitplan\relax }{section.3}{}}
\@writefile{toc}{\contentsline {subsection}{\numberline {3.1}Montag 2001-10-15}{3}{subsection.3.1}}
\newlabel{mon}{{3.1}{3}{Montag 2001-10-15\relax }{subsection.3.1}{}}
\@writefile{toc}{\contentsline {subsection}{\numberline {3.2}Dienstag 2001-10-16}{3}{subsection.3.2}}
\newlabel{die}{{3.2}{3}{Dienstag 2001-10-16\relax }{subsection.3.2}{}}
\@writefile{toc}{\contentsline {subsection}{\numberline {3.3}Mittwoch 2001-10-17}{5}{subsection.3.3}}
\newlabel{mit}{{3.3}{5}{Mittwoch 2001-10-17\relax }{subsection.3.3}{}}
\@writefile{toc}{\contentsline {subsection}{\numberline {3.4}Donnerstag 2001-10-18}{5}{subsection.3.4}}
\newlabel{don}{{3.4}{5}{Donnerstag 2001-10-18\relax }{subsection.3.4}{}}
\@writefile{toc}{\contentsline {subsection}{\numberline {3.5}Freitag 2001-10-19}{5}{subsection.3.5}}
\newlabel{fre}{{3.5}{5}{Freitag 2001-10-19\relax }{subsection.3.5}{}}
\@writefile{toc}{\contentsline {section}{\numberline {4}Standausstattung}{5}{section.4}}
\newlabel{std}{{4}{5}{Standausstattung\relax }{section.4}{}}
\@writefile{toc}{\contentsline {section}{\numberline {5}Weitere Lekt\"{u}re}{6}{section.5}}
\newlabel{etc}{{5}{6}{Weitere Lekt\"{u}re\relax }{section.5}{}}
