\contentsline {section}{\numberline {1}When?}{3}{section.1}
\contentsline {section}{\numberline {2}Where?}{3}{section.2}
\contentsline {section}{\numberline {3}time table}{3}{section.3}
\contentsline {subsection}{\numberline {3.1}Monday 2001-10-15}{3}{subsection.3.1}
\contentsline {subsection}{\numberline {3.2}Tuesday 2001-10-16}{3}{subsection.3.2}
\contentsline {subsection}{\numberline {3.3}Wednesday 2001-10-17}{5}{subsection.3.3}
\contentsline {subsection}{\numberline {3.4}Thursday 2001-10-18}{5}{subsection.3.4}
\contentsline {subsection}{\numberline {3.5}Friday 2001-10-19}{5}{subsection.3.5}
\contentsline {section}{\numberline {4}Swpat Paraphernalia and equipment at the Booth}{5}{section.4}
\contentsline {section}{\numberline {5}Further Reading}{6}{section.5}
