\relax 
\ifx\hyper@anchor\@undefined
\global \let \oldcontentsline\contentsline
\gdef \contentsline#1#2#3#4{\oldcontentsline{#1}{#2}{#3}}
\global \let \oldnewlabel\newlabel
\gdef \newlabel#1#2{\newlabelxx{#1}#2}
\gdef \newlabelxx#1#2#3#4#5#6{\oldnewlabel{#1}{{#2}{#3}}}
\AtEndDocument{\let \contentsline\oldcontentsline
\let \newlabel\oldnewlabel}
\else
\global \let \hyper@last\relax 
\fi

\newlabel{kiam}{{1}{2}{When?\label {kiam}\relax }{section.1}{}}
\@writefile{toc}{\contentsline {section}{\numberline {1}When?}{2}{section.1}}
\newlabel{kiok}{{2}{2}{Where?\label {kiok}\relax }{section.2}{}}
\@writefile{toc}{\contentsline {section}{\numberline {2}Where?}{2}{section.2}}
\newlabel{tmp}{{3}{3}{Time table\label {tmp}\relax }{section.3}{}}
\@writefile{toc}{\contentsline {section}{\numberline {3}Time table}{3}{section.3}}
\newlabel{mon}{{3.1}{3}{Monday 2001-10-15\label {mon}\relax }{subsection.3.1}{}}
\@writefile{toc}{\contentsline {subsection}{\numberline {3.1}Monday 2001-10-15}{3}{subsection.3.1}}
\newlabel{die}{{3.2}{3}{Tuesday 2001-10-16\label {die}\relax }{subsection.3.2}{}}
\@writefile{toc}{\contentsline {subsection}{\numberline {3.2}Tuesday 2001-10-16}{3}{subsection.3.2}}
\newlabel{mit}{{3.3}{3}{Wednesday 2001-10-17\label {mit}\relax }{subsection.3.3}{}}
\@writefile{toc}{\contentsline {subsection}{\numberline {3.3}Wednesday 2001-10-17}{3}{subsection.3.3}}
\newlabel{don}{{3.4}{4}{Thursday 2001-10-18\label {don}\relax }{subsection.3.4}{}}
\@writefile{toc}{\contentsline {subsection}{\numberline {3.4}Thursday 2001-10-18}{4}{subsection.3.4}}
\newlabel{fre}{{3.5}{4}{Friday 2001-10-19\label {fre}\relax }{subsection.3.5}{}}
\@writefile{toc}{\contentsline {subsection}{\numberline {3.5}Friday 2001-10-19}{4}{subsection.3.5}}
\newlabel{std}{{4}{4}{Swpat Paraphernalia and equipment at the Booth\label {std}\relax }{section.4}{}}
\@writefile{toc}{\contentsline {section}{\numberline {4}Swpat Paraphernalia and equipment at the Booth}{4}{section.4}}
\newlabel{etc}{{5}{5}{Further Reading\label {etc}\relax }{section.5}{}}
\@writefile{toc}{\contentsline {section}{\numberline {5}Further Reading}{5}{section.5}}
