\relax 
\ifx\hyper@anchor\@undefined
\global \let \oldcontentsline\contentsline
\gdef \contentsline#1#2#3#4{\oldcontentsline{#1}{#2}{#3}}
\global \let \oldnewlabel\newlabel
\gdef \newlabel#1#2{\newlabelxx{#1}#2}
\gdef \newlabelxx#1#2#3#4#5#6{\oldnewlabel{#1}{{#2}{#3}}}
\AtEndDocument{\let \contentsline\oldcontentsline
\let \newlabel\oldnewlabel}
\else
\global \let \hyper@last\relax 
\fi

\newlabel{kiam}{{1}{3}{Wann?\label {kiam}\relax }{section.1}{}}
\@writefile{toc}{\contentsline {section}{\numberline {1}Wann?}{3}{section.1}}
\newlabel{kiam}{{1}{3}{Wann?\label {kiam}\relax }{section.1}{}}
\newlabel{kiok}{{2}{3}{Wo?\label {kiok}\relax }{section.2}{}}
\@writefile{toc}{\contentsline {section}{\numberline {2}Wo?}{3}{section.2}}
\newlabel{kiok}{{2}{3}{Wo?\label {kiok}\relax }{section.2}{}}
\newlabel{tmp}{{3}{5}{Zeitplan\label {tmp}\relax }{section.3}{}}
\@writefile{toc}{\contentsline {section}{\numberline {3}Zeitplan}{5}{section.3}}
\newlabel{tmp}{{3}{5}{Zeitplan\label {tmp}\relax }{section.3}{}}
\newlabel{mon}{{3.1}{5}{Montag\ 2001-10-15\label {mon}\relax }{subsection.3.1}{}}
\@writefile{toc}{\contentsline {subsection}{\numberline {3.1}Montag\ 2001-10-15}{5}{subsection.3.1}}
\newlabel{mon}{{3.1}{5}{Montag\ 2001-10-15\label {mon}\relax }{subsection.3.1}{}}
\newlabel{die}{{3.2}{5}{Dienstag\ 2001-10-16\label {die}\relax }{subsection.3.2}{}}
\@writefile{toc}{\contentsline {subsection}{\numberline {3.2}Dienstag\ 2001-10-16}{5}{subsection.3.2}}
\newlabel{die}{{3.2}{5}{Dienstag\ 2001-10-16\label {die}\relax }{subsection.3.2}{}}
\newlabel{mit}{{3.3}{7}{Mittwoch\ 2001-10-17\label {mit}\relax }{subsection.3.3}{}}
\@writefile{toc}{\contentsline {subsection}{\numberline {3.3}Mittwoch\ 2001-10-17}{7}{subsection.3.3}}
\newlabel{mit}{{3.3}{7}{Mittwoch\ 2001-10-17\label {mit}\relax }{subsection.3.3}{}}
\newlabel{don}{{3.4}{7}{Donnerstag\ 2001-10-18\label {don}\relax }{subsection.3.4}{}}
\@writefile{toc}{\contentsline {subsection}{\numberline {3.4}Donnerstag\ 2001-10-18}{7}{subsection.3.4}}
\newlabel{don}{{3.4}{7}{Donnerstag\ 2001-10-18\label {don}\relax }{subsection.3.4}{}}
\newlabel{fre}{{3.5}{7}{Freitag\ 2001-10-19\label {fre}\relax }{subsection.3.5}{}}
\@writefile{toc}{\contentsline {subsection}{\numberline {3.5}Freitag\ 2001-10-19}{7}{subsection.3.5}}
\newlabel{fre}{{3.5}{7}{Freitag\ 2001-10-19\label {fre}\relax }{subsection.3.5}{}}
\newlabel{std}{{4}{7}{Standausstattung\label {std}\relax }{section.4}{}}
\@writefile{toc}{\contentsline {section}{\numberline {4}Standausstattung}{7}{section.4}}
\newlabel{std}{{4}{7}{Standausstattung\label {std}\relax }{section.4}{}}
\newlabel{etc}{{5}{8}{Weitere Lekt\"ure\label {etc}\relax }{section.5}{}}
\@writefile{toc}{\contentsline {section}{\numberline {5}Weitere Lekt\"ure}{8}{section.5}}
\newlabel{etc}{{5}{8}{Weitere Lekt\"ure\label {etc}\relax }{section.5}{}}
