\contentsline {section}{\numberline {1}Wann?}{3}{section.1}
\contentsline {section}{\numberline {2}Wo?}{3}{section.2}
\contentsline {section}{\numberline {3}Zeitplan}{5}{section.3}
\contentsline {subsection}{\numberline {3.1}Montag\ 2001-10-15}{5}{subsection.3.1}
\contentsline {subsection}{\numberline {3.2}Dienstag\ 2001-10-16}{5}{subsection.3.2}
\contentsline {subsection}{\numberline {3.3}Mittwoch\ 2001-10-17}{7}{subsection.3.3}
\contentsline {subsection}{\numberline {3.4}Donnerstag\ 2001-10-18}{7}{subsection.3.4}
\contentsline {subsection}{\numberline {3.5}Freitag\ 2001-10-19}{7}{subsection.3.5}
\contentsline {section}{\numberline {4}Standausstattung}{7}{section.4}
\contentsline {section}{\numberline {5}Weitere Lekt\"ure}{8}{section.5}
