\BOOKMARK [1][-]{section.1}{Wann?}{}
\BOOKMARK [1][-]{section.2}{Wo?}{}
\BOOKMARK [1][-]{section.3}{Zeitplan}{}
\BOOKMARK [2][-]{subsection.3.1}{Montag 2001-10-15}{section.3}
\BOOKMARK [2][-]{subsection.3.2}{Dienstag 2001-10-16}{section.3}
\BOOKMARK [2][-]{subsection.3.3}{Mittwoch 2001-10-17}{section.3}
\BOOKMARK [2][-]{subsection.3.4}{Donnerstag 2001-10-18}{section.3}
\BOOKMARK [2][-]{subsection.3.5}{Freitag 2001-10-19}{section.3}
\BOOKMARK [1][-]{section.4}{Standausstattung}{}
\BOOKMARK [1][-]{section.5}{Weitere Lekt\374re}{}
