\relax 
\ifx\hyper@anchor\@undefined
\global \let \oldcontentsline\contentsline
\gdef \contentsline#1#2#3#4{\oldcontentsline{#1}{#2}{#3}}
\global \let \oldnewlabel\newlabel
\gdef \newlabel#1#2{\newlabelxx{#1}#2}
\gdef \newlabelxx#1#2#3#4#5#6{\oldnewlabel{#1}{{#2}{#3}}}
\AtEndDocument{\let \contentsline\oldcontentsline
\let \newlabel\oldnewlabel}
\else
\global \let \hyper@last\relax 
\fi

\newlabel{kiam}{{1}{2}{Wann?\label {kiam}\relax }{section.1}{}}
\@writefile{toc}{\contentsline {section}{\numberline {1}Wann?}{2}{section.1}}
\newlabel{kiok}{{2}{2}{Wo?\label {kiok}\relax }{section.2}{}}
\@writefile{toc}{\contentsline {section}{\numberline {2}Wo?}{2}{section.2}}
\newlabel{tmp}{{3}{3}{Zeitplan\label {tmp}\relax }{section.3}{}}
\@writefile{toc}{\contentsline {section}{\numberline {3}Zeitplan}{3}{section.3}}
\newlabel{mon}{{3.1}{3}{Montag 2001-10-15\label {mon}\relax }{subsection.3.1}{}}
\@writefile{toc}{\contentsline {subsection}{\numberline {3.1}Montag 2001-10-15}{3}{subsection.3.1}}
\newlabel{die}{{3.2}{3}{Dienstag 2001-10-16\label {die}\relax }{subsection.3.2}{}}
\@writefile{toc}{\contentsline {subsection}{\numberline {3.2}Dienstag 2001-10-16}{3}{subsection.3.2}}
\newlabel{mit}{{3.3}{3}{Mittwoch 2001-10-17\label {mit}\relax }{subsection.3.3}{}}
\@writefile{toc}{\contentsline {subsection}{\numberline {3.3}Mittwoch 2001-10-17}{3}{subsection.3.3}}
\newlabel{don}{{3.4}{4}{Donnerstag 2001-10-18\label {don}\relax }{subsection.3.4}{}}
\@writefile{toc}{\contentsline {subsection}{\numberline {3.4}Donnerstag 2001-10-18}{4}{subsection.3.4}}
\newlabel{fre}{{3.5}{4}{Freitag 2001-10-19\label {fre}\relax }{subsection.3.5}{}}
\@writefile{toc}{\contentsline {subsection}{\numberline {3.5}Freitag 2001-10-19}{4}{subsection.3.5}}
\newlabel{std}{{4}{4}{Standausstattung\label {std}\relax }{section.4}{}}
\@writefile{toc}{\contentsline {section}{\numberline {4}Standausstattung}{4}{section.4}}
\newlabel{etc}{{5}{5}{Weitere Lekt\"{u}re\label {etc}\relax }{section.5}{}}
\@writefile{toc}{\contentsline {section}{\numberline {5}Weitere Lekt\"{u}re}{5}{section.5}}
