\contentsline {section}{\numberline {1}Pea}{2}{section.1}
\contentsline {section}{\numberline {2}Unfortunately most of this, like the other CEC papers, is available only in PDF form. We have however extracted a raw text (softanalyse.txt). Please help putting it into a usable order, 1 sentence per line, so that we can write a critique which quotes this text paragraph by paragraph.}{2}{section.2}
\contentsline {section}{\numberline {3}Annotated Links}{4}{section.3}
\contentsline {section}{\numberline {4}Questions, Things To Do, How you can Help}{5}{section.4}
