\relax 
\ifx\hyper@anchor\@undefined
\global \let \oldcontentsline\contentsline
\gdef \contentsline#1#2#3#4{\oldcontentsline{#1}{#2}{#3}}
\global \let \oldnewlabel\newlabel
\gdef \newlabel#1#2{\newlabelxx{#1}#2}
\gdef \newlabelxx#1#2#3#4#5#6{\oldnewlabel{#1}{{#2}{#3}}}
\AtEndDocument{\let \contentsline\oldcontentsline
\let \newlabel\oldnewlabel}
\else
\global \let \hyper@last\relax 
\fi

\newlabel{ML}{{1}{2}{Pea\label {ML}\relax }{section.1}{}}
\@writefile{toc}{\contentsline {section}{\numberline {1}Pea}{2}{section.1}}
\newlabel{pref}{{2}{2}{Unfortunately most of this, like the other CEC papers, is available only in PDF form. We have however extracted a raw text (softanalyse.txt). Please help putting it into a usable order, 1 sentence per line, so that we can write a critique which quotes this text paragraph by paragraph.\label {pref}\relax }{section.2}{}}
\@writefile{toc}{\contentsline {section}{\numberline {2}Unfortunately most of this, like the other CEC papers, is available only in PDF form. We have however extracted a raw text (softanalyse.txt). Please help putting it into a usable order, 1 sentence per line, so that we can write a critique which quotes this text paragraph by paragraph.}{2}{section.2}}
\newlabel{links}{{3}{4}{Annotated Links\label {links}\relax }{section.3}{}}
\@writefile{toc}{\contentsline {section}{\numberline {3}Annotated Links}{4}{section.3}}
\newlabel{tasks}{{4}{5}{Questions, Things To Do, How you can Help\label {tasks}\relax }{section.4}{}}
\@writefile{toc}{\contentsline {section}{\numberline {4}Questions, Things To Do, How you can Help}{5}{section.4}}
