\relax 
\ifx\hyper@anchor\@undefined
\global \let \oldcontentsline\contentsline
\gdef \contentsline#1#2#3#4{\oldcontentsline{#1}{#2}{#3}}
\global \let \oldnewlabel\newlabel
\gdef \newlabel#1#2{\newlabelxx{#1}#2}
\gdef \newlabelxx#1#2#3#4#5#6{\oldnewlabel{#1}{{#2}{#3}}}
\AtEndDocument{\let \contentsline\oldcontentsline
\let \newlabel\oldnewlabel}
\else
\global \let \hyper@last\relax 
\fi

\@writefile{toc}{\contentsline {section}{\numberline {1}Quotations}{2}{section.1}}
\newlabel{cusku}{{1}{2}{Quotations\relax }{section.1}{}}
\@writefile{toc}{\contentsline {subsection}{\numberline {1.1}introduction}{2}{subsection.1.1}}
\newlabel{intr}{{1.1}{2}{introduction\relax }{subsection.1.1}{}}
\@writefile{toc}{\contentsline {subsection}{\numberline {1.2}Recommendation 6 (Executive Summary, p. 17)}{2}{subsection.1.2}}
\newlabel{rek6}{{1.2}{2}{Recommendation 6 (Executive Summary, p. 17)\relax }{subsection.1.2}{}}
\@writefile{toc}{\contentsline {subsection}{\numberline {1.3}Summary (Chapter 3, I, p. 110-111)}{3}{subsection.1.3}}
\newlabel{summ}{{1.3}{3}{Summary (Chapter 3, I, p. 110-111)\relax }{subsection.1.3}{}}
\@writefile{toc}{\contentsline {subsection}{\numberline {1.4}Introduction -- Conclusions about various industries (Chapter 3, V.A page 153)}{3}{subsection.1.4}}
\newlabel{intch3}{{1.4}{3}{Introduction -- Conclusions about various industries (Chapter 3, V.A page 153)\relax }{subsection.1.4}{}}
\@writefile{toc}{\contentsline {section}{\numberline {2}Annotated Links}{4}{section.2}}
\newlabel{links}{{2}{4}{Annotated Links\relax }{section.2}{}}
\gdef\scr@tpo@lst{0}
