\contentsline {section}{\numberline {1}Quotations}{2}{section.1}
\contentsline {subsection}{\numberline {1.1}introduction}{2}{subsection.1.1}
\contentsline {subsection}{\numberline {1.2}Recommendation 6 (Executive Summary, p. 17)}{2}{subsection.1.2}
\contentsline {subsection}{\numberline {1.3}Summary (Chapter 3, I, p. 110-111)}{3}{subsection.1.3}
\contentsline {subsection}{\numberline {1.4}Introduction -- Conclusions about various industries (Chapter 3, V.A page 153)}{3}{subsection.1.4}
\contentsline {section}{\numberline {2}Annotated Links}{4}{section.2}
