\relax 
\catcode`:\active
\catcode`;\active
\catcode`!\active
\catcode`?\active
\ifx\hyper@anchor\@undefined
\global \let \oldcontentsline\contentsline
\gdef \contentsline#1#2#3#4{\oldcontentsline{#1}{#2}{#3}}
\global \let \oldnewlabel\newlabel
\gdef \newlabel#1#2{\newlabelxx{#1}#2}
\gdef \newlabelxx#1#2#3#4#5#6{\oldnewlabel{#1}{{#2}{#3}}}
\AtEndDocument{\let \contentsline\oldcontentsline
\let \newlabel\oldnewlabel}
\else
\global \let \hyper@last\relax 
\fi

\select@language{french}
\@writefile{toc}{\select@language{french}}
\@writefile{lof}{\select@language{french}}
\@writefile{lot}{\select@language{french}}
\@writefile{toc}{\contentsline {section}{\numberline {1}Bulletins d'informations}{2}{section.1}}
\newlabel{news}{{1}{2}{Bulletins d'informations\relax }{section.1}{}}
\@writefile{toc}{\contentsline {section}{\numberline {2}R\'{e}sum\'{e}}{2}{section.2}}
\newlabel{abs}{{2}{2}{R\'{e}sum\'{e}\relax }{section.2}{}}
\@writefile{toc}{\contentsline {section}{\numberline {3}Ant\'{e}riorit\'{e}}{2}{section.3}}
\newlabel{prio}{{3}{2}{Ant\'{e}riorit\'{e}\relax }{section.3}{}}
\@writefile{toc}{\contentsline {section}{\numberline {4}Situation en Europe}{2}{section.4}}
\newlabel{eur}{{4}{2}{Situation en Europe\relax }{section.4}{}}
\@writefile{toc}{\contentsline {section}{\numberline {5}contextes}{3}{section.5}}
\newlabel{bakgr}{{5}{3}{contextes\relax }{section.5}{}}
\@writefile{toc}{\contentsline {section}{\numberline {6}Liens annot\'{e}s}{3}{section.6}}
\newlabel{links}{{6}{3}{Liens annot\'{e}s\relax }{section.6}{}}
\gdef\scr@tpo@lst{0}
