\relax 
\ifx\hyper@anchor\@undefined
\global \let \oldcontentsline\contentsline
\gdef \contentsline#1#2#3#4{\oldcontentsline{#1}{#2}{#3}}
\global \let \oldnewlabel\newlabel
\gdef \newlabel#1#2{\newlabelxx{#1}#2}
\gdef \newlabelxx#1#2#3#4#5#6{\oldnewlabel{#1}{{#2}{#3}}}
\AtEndDocument{\let \contentsline\oldcontentsline
\let \newlabel\oldnewlabel}
\else
\global \let \hyper@last\relax 
\fi

\@writefile{toc}{\contentsline {section}{\numberline {1}News Reports}{2}{section.1}}
\newlabel{news}{{1}{2}{News Reports\relax }{section.1}{}}
\@writefile{toc}{\contentsline {section}{\numberline {2}Abstract}{2}{section.2}}
\newlabel{abs}{{2}{2}{Abstract\relax }{section.2}{}}
\@writefile{toc}{\contentsline {section}{\numberline {3}prior art}{2}{section.3}}
\newlabel{prio}{{3}{2}{prior art\relax }{section.3}{}}
\@writefile{toc}{\contentsline {section}{\numberline {4}Situation in Europe}{2}{section.4}}
\newlabel{eur}{{4}{2}{Situation in Europe\relax }{section.4}{}}
\@writefile{toc}{\contentsline {section}{\numberline {5}backgrounds}{3}{section.5}}
\newlabel{bakgr}{{5}{3}{backgrounds\relax }{section.5}{}}
\@writefile{toc}{\contentsline {section}{\numberline {6}Annotated Links}{3}{section.6}}
\newlabel{links}{{6}{3}{Annotated Links\relax }{section.6}{}}
\gdef\scr@tpo@lst{0}
