\BOOKMARK [1][-]{section.1}{News Reports}{}
\BOOKMARK [1][-]{section.2}{Abstract}{}
\BOOKMARK [1][-]{section.3}{prior art}{}
\BOOKMARK [1][-]{section.4}{Situation in Europe}{}
\BOOKMARK [1][-]{section.5}{backgrounds}{}
\BOOKMARK [1][-]{section.6}{Annotated Links}{}
