\select@language {french}
\contentsline {section}{\numberline {1}Bulletins d'informations}{2}{section.1}
\contentsline {section}{\numberline {2}R\'{e}sum\'{e}}{2}{section.2}
\contentsline {section}{\numberline {3}Ant\'{e}riorit\'{e}}{2}{section.3}
\contentsline {section}{\numberline {4}Situation en Europe}{2}{section.4}
\contentsline {section}{\numberline {5}contextes}{3}{section.5}
\contentsline {section}{\numberline {6}Liens annot\'{e}s}{3}{section.6}
