\contentsline {section}{\numberline {1}News Reports}{2}{section.1}
\contentsline {section}{\numberline {2}Abstract}{2}{section.2}
\contentsline {section}{\numberline {3}prior art}{2}{section.3}
\contentsline {section}{\numberline {4}Situation in Europe}{2}{section.4}
\contentsline {section}{\numberline {5}backgrounds}{3}{section.5}
\contentsline {section}{\numberline {6}Annotated Links}{3}{section.6}
