\BOOKMARK [1][-]{section.1}{Bulletins d'informations}{}
\BOOKMARK [1][-]{section.2}{R\351sum\351}{}
\BOOKMARK [1][-]{section.3}{Ant\351riorit\351}{}
\BOOKMARK [1][-]{section.4}{Situation en Europe}{}
\BOOKMARK [1][-]{section.5}{contextes}{}
\BOOKMARK [1][-]{section.6}{Liens annot\351s}{}
