\select@language {french}
\contentsline {section}{\numberline {1}Base de Donn\'{e}es et Exemples}{1}{section.1}
\contentsline {section}{\numberline {2}Comment lire les descriptions de brevet}{3}{section.2}
\contentsline {section}{\numberline {3}Sugg\'{e}stions pour lire}{3}{section.3}
