\contentsline {section}{\numberline {1}\"{U}bersicht und Beispiele}{1}{section.1}
\contentsline {section}{\numberline {2}Wie man Patentschriften liest}{3}{section.2}
\contentsline {section}{\numberline {3}Weitere Lekt\"{u}re}{3}{section.3}
