\relax 
\catcode`"\active
\ifx\hyper@anchor\@undefined
\global \let \oldcontentsline\contentsline
\gdef \contentsline#1#2#3#4{\oldcontentsline{#1}{#2}{#3}}
\global \let \oldnewlabel\newlabel
\gdef \newlabel#1#2{\newlabelxx{#1}#2}
\gdef \newlabelxx#1#2#3#4#5#6{\oldnewlabel{#1}{{#2}{#3}}}
\AtEndDocument{\let \contentsline\oldcontentsline
\let \newlabel\oldnewlabel}
\else
\global \let \hyper@last\relax 
\fi

\select@language{catalan}
\@writefile{toc}{\select@language{catalan}}
\@writefile{lof}{\select@language{catalan}}
\@writefile{lot}{\select@language{catalan}}
\@writefile{toc}{\contentsline {section}{\numberline {1}Base de Dades i Exemples}{2}{section.1}}
\newlabel{dat}{{1}{2}{Base de Dades i Exemples\relax }{section.1}{}}
\@writefile{toc}{\contentsline {section}{\numberline {2}Com llegir descripcions de patents}{3}{section.2}}
\newlabel{ana}{{2}{3}{Com llegir descripcions de patents\relax }{section.2}{}}
\@writefile{toc}{\contentsline {section}{\numberline {3}M\'{e}s Lectura}{3}{section.3}}
\newlabel{etc}{{3}{3}{M\'{e}s Lectura\relax }{section.3}{}}
\gdef\scr@tpo@lst{0}
