\relax 
\ifx\hyper@anchor\@undefined
\global \let \oldcontentsline\contentsline
\gdef \contentsline#1#2#3#4{\oldcontentsline{#1}{#2}{#3}}
\global \let \oldnewlabel\newlabel
\gdef \newlabel#1#2{\newlabelxx{#1}#2}
\gdef \newlabelxx#1#2#3#4#5#6{\oldnewlabel{#1}{{#2}{#3}}}
\AtEndDocument{\let \contentsline\oldcontentsline
\let \newlabel\oldnewlabel}
\else
\global \let \hyper@last\relax 
\fi

\@writefile{toc}{\contentsline {section}{\numberline {1}\"{U}bersicht und Beispiele}{1}{section.1}}
\newlabel{dat}{{1}{1}{\"{U}bersicht und Beispiele\relax }{section.1}{}}
\@writefile{toc}{\contentsline {section}{\numberline {2}Wie man Patentschriften liest}{3}{section.2}}
\newlabel{ana}{{2}{3}{Wie man Patentschriften liest\relax }{section.2}{}}
\@writefile{toc}{\contentsline {section}{\numberline {3}Weitere Lekt\"{u}re}{3}{section.3}}
\newlabel{etc}{{3}{3}{Weitere Lekt\"{u}re\relax }{section.3}{}}
\gdef\scr@tpo@lst{0}
