\relax 
\catcode`:\active
\catcode`;\active
\catcode`!\active
\catcode`?\active
\ifx\hyper@anchor\@undefined
\global \let \oldcontentsline\contentsline
\gdef \contentsline#1#2#3#4{\oldcontentsline{#1}{#2}{#3}}
\global \let \oldnewlabel\newlabel
\gdef \newlabel#1#2{\newlabelxx{#1}#2}
\gdef \newlabelxx#1#2#3#4#5#6{\oldnewlabel{#1}{{#2}{#3}}}
\AtEndDocument{\let \contentsline\oldcontentsline
\let \newlabel\oldnewlabel}
\else
\global \let \hyper@last\relax 
\fi

\select@language{french}
\@writefile{toc}{\select@language{french}}
\@writefile{lof}{\select@language{french}}
\@writefile{lot}{\select@language{french}}
\@writefile{toc}{\contentsline {section}{\numberline {1}Base de Donn\'{e}es et Exemples}{1}{section.1}}
\newlabel{dat}{{1}{1}{Base de Donn\'{e}es et Exemples\relax }{section.1}{}}
\@writefile{toc}{\contentsline {section}{\numberline {2}Comment lire les descriptions de brevet}{3}{section.2}}
\newlabel{ana}{{2}{3}{Comment lire les descriptions de brevet\relax }{section.2}{}}
\@writefile{toc}{\contentsline {section}{\numberline {3}Sugg\'{e}stions pour lire}{3}{section.3}}
\newlabel{etc}{{3}{3}{Sugg\'{e}stions pour lire\relax }{section.3}{}}
\gdef\scr@tpo@lst{0}
