\select@language {catalan}
\contentsline {section}{\numberline {1}Base de Dades i Exemples}{2}{section.1}
\contentsline {section}{\numberline {2}Com llegir descripcions de patents}{3}{section.2}
\contentsline {section}{\numberline {3}M\'{e}s Lectura}{3}{section.3}
