\contentsline {section}{\numberline {1}Database and Examples}{1}{section.1}
\contentsline {section}{\numberline {2}How to read patent descriptions}{3}{section.2}
\contentsline {section}{\numberline {3}Further Reading}{3}{section.3}
