\relax 
\ifx\hyper@anchor\@undefined
\global \let \oldcontentsline\contentsline
\gdef \contentsline#1#2#3#4{\oldcontentsline{#1}{#2}{#3}}
\global \let \oldnewlabel\newlabel
\gdef \newlabel#1#2{\newlabelxx{#1}#2}
\gdef \newlabelxx#1#2#3#4#5#6{\oldnewlabel{#1}{{#2}{#3}}}
\AtEndDocument{\let \contentsline\oldcontentsline
\let \newlabel\oldnewlabel}
\else
\global \let \hyper@last\relax 
\fi

\@writefile{toc}{\contentsline {section}{\numberline {1}Database and Examples}{1}{section.1}}
\newlabel{dat}{{1}{1}{Database and Examples\relax }{section.1}{}}
\@writefile{toc}{\contentsline {section}{\numberline {2}How to read patent descriptions}{3}{section.2}}
\newlabel{ana}{{2}{3}{How to read patent descriptions\relax }{section.2}{}}
\@writefile{toc}{\contentsline {section}{\numberline {3}Further Reading}{3}{section.3}}
\newlabel{etc}{{3}{3}{Further Reading\relax }{section.3}{}}
\gdef\scr@tpo@lst{0}
