\BOOKMARK [1][-]{section.1}{Wie funktioniert es?}{}
\BOOKMARK [1][-]{section.2}{Ausgezeichnete Textteile}{}
\BOOKMARK [1][-]{section.3}{Was kann der \334bersetzer falsch machen?}{}
\BOOKMARK [2][-]{subsection.3.1}{Zeilentrennung}{section.3}
\BOOKMARK [2][-]{subsection.3.2}{Auszeichnungsfehler}{section.3}
\BOOKMARK [2][-]{subsection.3.3}{Dateikodierungssystem}{section.3}
\BOOKMARK [2][-]{subsection.3.4}{Neue Bl\366cke \374berschrieben}{section.3}
\BOOKMARK [2][-]{subsection.3.5}{neue Bl\366cke auskommentiert}{section.3}
\BOOKMARK [2][-]{subsection.3.6}{Textimport wegen falsch gesetzter Lokaler Variablen gescheitert}{section.3}
\BOOKMARK [1][-]{section.4}{Kommentierte Verweise}{}
