\relax 
\ifx\hyper@anchor\@undefined
\global \let \oldcontentsline\contentsline
\gdef \contentsline#1#2#3#4{\oldcontentsline{#1}{#2}{#3}}
\global \let \oldnewlabel\newlabel
\gdef \newlabel#1#2{\newlabelxx{#1}#2}
\gdef \newlabelxx#1#2#3#4#5#6{\oldnewlabel{#1}{{#2}{#3}}}
\AtEndDocument{\let \contentsline\oldcontentsline
\let \newlabel\oldnewlabel}
\else
\global \let \hyper@last\relax 
\fi

\@writefile{toc}{\contentsline {section}{\numberline {1}How does it work?}{2}{section.1}}
\newlabel{cel}{{1}{2}{How does it work?\relax }{section.1}{}}
\@writefile{toc}{\contentsline {section}{\numberline {2}Marked Text Pieces}{2}{section.2}}
\newlabel{erhs}{{2}{2}{Marked Text Pieces\relax }{section.2}{}}
\@writefile{toc}{\contentsline {section}{\numberline {3}What can the translator do wrong}{4}{section.3}}
\newlabel{err}{{3}{4}{What can the translator do wrong\relax }{section.3}{}}
\@writefile{toc}{\contentsline {subsection}{\numberline {3.1}line separation}{4}{subsection.3.1}}
\newlabel{erln}{{3.1}{4}{line separation\relax }{subsection.3.1}{}}
\@writefile{toc}{\contentsline {subsection}{\numberline {3.2}Markup errors}{4}{subsection.3.2}}
\newlabel{markerr}{{3.2}{4}{Markup errors\relax }{subsection.3.2}{}}
\@writefile{toc}{\contentsline {subsection}{\numberline {3.3}File Coding System}{4}{subsection.3.3}}
\newlabel{utf8}{{3.3}{4}{File Coding System\relax }{subsection.3.3}{}}
\@writefile{toc}{\contentsline {subsection}{\numberline {3.4}New Blocks Overwritten}{5}{subsection.3.4}}
\newlabel{trolin}{{3.4}{5}{New Blocks Overwritten\relax }{subsection.3.4}{}}
\@writefile{toc}{\contentsline {subsection}{\numberline {3.5}New Blocks Commented Out}{5}{subsection.3.5}}
\newlabel{jingzf}{{3.5}{5}{New Blocks Commented Out\relax }{subsection.3.5}{}}
\@writefile{toc}{\contentsline {subsection}{\numberline {3.6}Failed Importing due to Wrong Variable Settings at Page Bottom}{5}{subsection.3.6}}
\newlabel{mlhtimport}{{3.6}{5}{Failed Importing due to Wrong Variable Settings at Page Bottom\relax }{subsection.3.6}{}}
\@writefile{toc}{\contentsline {section}{\numberline {4}Annotated Links}{5}{section.4}}
\newlabel{links}{{4}{5}{Annotated Links\relax }{section.4}{}}
\gdef\scr@tpo@lst{0}
