\relax 
\catcode`:\active
\catcode`;\active
\catcode`!\active
\catcode`?\active
\ifx\hyper@anchor\@undefined
\global \let \oldcontentsline\contentsline
\gdef \contentsline#1#2#3#4{\oldcontentsline{#1}{#2}{#3}}
\global \let \oldnewlabel\newlabel
\gdef \newlabel#1#2{\newlabelxx{#1}#2}
\gdef \newlabelxx#1#2#3#4#5#6{\oldnewlabel{#1}{{#2}{#3}}}
\AtEndDocument{\let \contentsline\oldcontentsline
\let \newlabel\oldnewlabel}
\else
\global \let \hyper@last\relax 
\fi

\select@language{french}
\@writefile{toc}{\select@language{french}}
\@writefile{lof}{\select@language{french}}
\@writefile{lot}{\select@language{french}}
\@writefile{toc}{\contentsline {section}{\numberline {1}Comment est-ce que ca marche?}{1}{section.1}}
\newlabel{cel}{{1}{1}{Comment est-ce que ca marche?\relax }{section.1}{}}
\@writefile{toc}{\contentsline {section}{\numberline {2}Morceaux de Texte Marqu\'{e}s}{2}{section.2}}
\newlabel{erhs}{{2}{2}{Morceaux de Texte Marqu\'{e}s\relax }{section.2}{}}
\@writefile{toc}{\contentsline {section}{\numberline {3}Quelles sont les erreurs que peut faire le traducteur?}{4}{section.3}}
\newlabel{err}{{3}{4}{Quelles sont les erreurs que peut faire le traducteur?\relax }{section.3}{}}
\@writefile{toc}{\contentsline {subsection}{\numberline {3.1}s\'{e}paration de lignes}{4}{subsection.3.1}}
\newlabel{erln}{{3.1}{4}{s\'{e}paration de lignes\relax }{subsection.3.1}{}}
\@writefile{toc}{\contentsline {subsection}{\numberline {3.2}Erreurs de marquage}{4}{subsection.3.2}}
\newlabel{markerr}{{3.2}{4}{Erreurs de marquage\relax }{subsection.3.2}{}}
\@writefile{toc}{\contentsline {subsection}{\numberline {3.3}Syst\`{e}me de Codage de Fichiers}{4}{subsection.3.3}}
\newlabel{utf8}{{3.3}{4}{Syst\`{e}me de Codage de Fichiers\relax }{subsection.3.3}{}}
\@writefile{toc}{\contentsline {subsection}{\numberline {3.4}Remplac\'{e} lignes nouvelles par vieilles}{5}{subsection.3.4}}
\newlabel{trolin}{{3.4}{5}{Remplac\'{e} lignes nouvelles par vieilles\relax }{subsection.3.4}{}}
\@writefile{toc}{\contentsline {subsection}{\numberline {3.5}Lignes mises en commentaires}{5}{subsection.3.5}}
\newlabel{jingzf}{{3.5}{5}{Lignes mises en commentaires\relax }{subsection.3.5}{}}
\@writefile{toc}{\contentsline {subsection}{\numberline {3.6}importation non r\'{e}ussie due \`{a} des variables incorrectes dans le pied de page}{5}{subsection.3.6}}
\newlabel{mlhtimport}{{3.6}{5}{importation non r\'{e}ussie due \`{a} des variables incorrectes dans le pied de page\relax }{subsection.3.6}{}}
\@writefile{toc}{\contentsline {section}{\numberline {4}Liens annot\'{e}s}{5}{section.4}}
\newlabel{links}{{4}{5}{Liens annot\'{e}s\relax }{section.4}{}}
\gdef\scr@tpo@lst{0}
