\contentsline {section}{\numberline {1}Wie funktioniert es?}{2}{section.1}
\contentsline {section}{\numberline {2}Ausgezeichnete Textteile}{2}{section.2}
\contentsline {section}{\numberline {3}Was kann der \"{U}bersetzer falsch machen?}{4}{section.3}
\contentsline {subsection}{\numberline {3.1}Zeilentrennung}{4}{subsection.3.1}
\contentsline {subsection}{\numberline {3.2}Auszeichnungsfehler}{4}{subsection.3.2}
\contentsline {subsection}{\numberline {3.3}Dateikodierungssystem}{4}{subsection.3.3}
\contentsline {subsection}{\numberline {3.4}Neue Bl\"{o}cke \"{u}berschrieben}{5}{subsection.3.4}
\contentsline {subsection}{\numberline {3.5}neue Bl\"{o}cke auskommentiert}{5}{subsection.3.5}
\contentsline {subsection}{\numberline {3.6}Textimport wegen falsch gesetzter Lokaler Variablen gescheitert}{5}{subsection.3.6}
\contentsline {section}{\numberline {4}Kommentierte Verweise}{5}{section.4}
