\contentsline {section}{\numberline {1}Kiel mian traduktekston uzas la verkanto?}{1}{section.1}
\contentsline {section}{\numberline {2}hipertekst-sintaksaj signoj}{2}{section.2}
\contentsline {section}{\numberline {3}Kiel la tradukanto povas erari?}{4}{section.3}
\contentsline {subsection}{\numberline {3.1}liniseparado}{4}{subsection.3.1}
\contentsline {subsection}{\numberline {3.2}Markup errors}{4}{subsection.3.2}
\contentsline {subsection}{\numberline {3.3}Fajlkodiga Sistemo}{4}{subsection.3.3}
\contentsline {subsection}{\numberline {3.4}sendi na tro multaj linioj}{4}{subsection.3.4}
\contentsline {subsection}{\numberline {3.5}elkomentitaj linioj}{5}{subsection.3.5}
\contentsline {subsection}{\numberline {3.6}automata importado}{5}{subsection.3.6}
\contentsline {section}{\numberline {4}Annotated Links}{5}{section.4}
