\select@language {french}
\contentsline {section}{\numberline {1}Comment est-ce que ca marche?}{1}{section.1}
\contentsline {section}{\numberline {2}Morceaux de Texte Marqu\'{e}s}{2}{section.2}
\contentsline {section}{\numberline {3}Quelles sont les erreurs que peut faire le traducteur?}{4}{section.3}
\contentsline {subsection}{\numberline {3.1}s\'{e}paration de lignes}{4}{subsection.3.1}
\contentsline {subsection}{\numberline {3.2}Erreurs de marquage}{4}{subsection.3.2}
\contentsline {subsection}{\numberline {3.3}Syst\`{e}me de Codage de Fichiers}{4}{subsection.3.3}
\contentsline {subsection}{\numberline {3.4}Remplac\'{e} lignes nouvelles par vieilles}{5}{subsection.3.4}
\contentsline {subsection}{\numberline {3.5}Lignes mises en commentaires}{5}{subsection.3.5}
\contentsline {subsection}{\numberline {3.6}importation non r\'{e}ussie due \`{a} des variables incorrectes dans le pied de page}{5}{subsection.3.6}
\contentsline {section}{\numberline {4}Liens annot\'{e}s}{5}{section.4}
