\relax 
\ifx\hyper@anchor\@undefined
\global \let \oldcontentsline\contentsline
\gdef \contentsline#1#2#3#4{\oldcontentsline{#1}{#2}{#3}}
\global \let \oldnewlabel\newlabel
\gdef \newlabel#1#2{\newlabelxx{#1}#2}
\gdef \newlabelxx#1#2#3#4#5#6{\oldnewlabel{#1}{{#2}{#3}}}
\AtEndDocument{\let \contentsline\oldcontentsline
\let \newlabel\oldnewlabel}
\else
\global \let \hyper@last\relax 
\fi

\@writefile{toc}{\contentsline {section}{\numberline {1}Wie funktioniert es?}{2}{section.1}}
\newlabel{cel}{{1}{2}{Wie funktioniert es?\relax }{section.1}{}}
\@writefile{toc}{\contentsline {section}{\numberline {2}Ausgezeichnete Textteile}{2}{section.2}}
\newlabel{erhs}{{2}{2}{Ausgezeichnete Textteile\relax }{section.2}{}}
\@writefile{toc}{\contentsline {section}{\numberline {3}Was kann der \"{U}bersetzer falsch machen?}{4}{section.3}}
\newlabel{err}{{3}{4}{Was kann der \"{U}bersetzer falsch machen?\relax }{section.3}{}}
\@writefile{toc}{\contentsline {subsection}{\numberline {3.1}Zeilentrennung}{4}{subsection.3.1}}
\newlabel{erln}{{3.1}{4}{Zeilentrennung\relax }{subsection.3.1}{}}
\@writefile{toc}{\contentsline {subsection}{\numberline {3.2}Auszeichnungsfehler}{4}{subsection.3.2}}
\newlabel{markerr}{{3.2}{4}{Auszeichnungsfehler\relax }{subsection.3.2}{}}
\@writefile{toc}{\contentsline {subsection}{\numberline {3.3}Dateikodierungssystem}{4}{subsection.3.3}}
\newlabel{utf8}{{3.3}{4}{Dateikodierungssystem\relax }{subsection.3.3}{}}
\@writefile{toc}{\contentsline {subsection}{\numberline {3.4}Neue Bl\"{o}cke \"{u}berschrieben}{5}{subsection.3.4}}
\newlabel{trolin}{{3.4}{5}{Neue Bl\"{o}cke \"{u}berschrieben\relax }{subsection.3.4}{}}
\@writefile{toc}{\contentsline {subsection}{\numberline {3.5}neue Bl\"{o}cke auskommentiert}{5}{subsection.3.5}}
\newlabel{jingzf}{{3.5}{5}{neue Bl\"{o}cke auskommentiert\relax }{subsection.3.5}{}}
\@writefile{toc}{\contentsline {subsection}{\numberline {3.6}Textimport wegen falsch gesetzter Lokaler Variablen gescheitert}{5}{subsection.3.6}}
\newlabel{mlhtimport}{{3.6}{5}{Textimport wegen falsch gesetzter Lokaler Variablen gescheitert\relax }{subsection.3.6}{}}
\@writefile{toc}{\contentsline {section}{\numberline {4}Kommentierte Verweise}{5}{section.4}}
\newlabel{links}{{4}{5}{Kommentierte Verweise\relax }{section.4}{}}
\gdef\scr@tpo@lst{0}
