\relax 
\ifx\hyper@anchor\@undefined
\global \let \oldcontentsline\contentsline
\gdef \contentsline#1#2#3#4{\oldcontentsline{#1}{#2}{#3}}
\global \let \oldnewlabel\newlabel
\gdef \newlabel#1#2{\newlabelxx{#1}#2}
\gdef \newlabelxx#1#2#3#4#5#6{\oldnewlabel{#1}{{#2}{#3}}}
\AtEndDocument{\let \contentsline\oldcontentsline
\let \newlabel\oldnewlabel}
\else
\global \let \hyper@last\relax 
\fi

\@writefile{toc}{\contentsline {section}{\numberline {1}Kiel mian traduktekston uzas la verkanto?}{1}{section.1}}
\newlabel{cel}{{1}{1}{Kiel mian traduktekston uzas la verkanto?\relax }{section.1}{}}
\@writefile{toc}{\contentsline {section}{\numberline {2}hipertekst-sintaksaj signoj}{2}{section.2}}
\newlabel{erhs}{{2}{2}{hipertekst-sintaksaj signoj\relax }{section.2}{}}
\@writefile{toc}{\contentsline {section}{\numberline {3}Kiel la tradukanto povas erari?}{4}{section.3}}
\newlabel{err}{{3}{4}{Kiel la tradukanto povas erari?\relax }{section.3}{}}
\@writefile{toc}{\contentsline {subsection}{\numberline {3.1}liniseparado}{4}{subsection.3.1}}
\newlabel{erln}{{3.1}{4}{liniseparado\relax }{subsection.3.1}{}}
\@writefile{toc}{\contentsline {subsection}{\numberline {3.2}Markup errors}{4}{subsection.3.2}}
\newlabel{markerr}{{3.2}{4}{Markup errors\relax }{subsection.3.2}{}}
\@writefile{toc}{\contentsline {subsection}{\numberline {3.3}Fajlkodiga Sistemo}{4}{subsection.3.3}}
\newlabel{utf8}{{3.3}{4}{Fajlkodiga Sistemo\relax }{subsection.3.3}{}}
\@writefile{toc}{\contentsline {subsection}{\numberline {3.4}sendi na tro multaj linioj}{4}{subsection.3.4}}
\newlabel{trolin}{{3.4}{4}{sendi na tro multaj linioj\relax }{subsection.3.4}{}}
\@writefile{toc}{\contentsline {subsection}{\numberline {3.5}elkomentitaj linioj}{5}{subsection.3.5}}
\newlabel{jingzf}{{3.5}{5}{elkomentitaj linioj\relax }{subsection.3.5}{}}
\@writefile{toc}{\contentsline {subsection}{\numberline {3.6}automata importado}{5}{subsection.3.6}}
\newlabel{mlhtimport}{{3.6}{5}{automata importado\relax }{subsection.3.6}{}}
\@writefile{toc}{\contentsline {section}{\numberline {4}Annotated Links}{5}{section.4}}
\newlabel{links}{{4}{5}{Annotated Links\relax }{section.4}{}}
\gdef\scr@tpo@lst{0}
