\relax 
\catcode`"\active
\ifx\hyper@anchor\@undefined
\global \let \oldcontentsline\contentsline
\gdef \contentsline#1#2#3#4{\oldcontentsline{#1}{#2}{#3}}
\global \let \oldnewlabel\newlabel
\gdef \newlabel#1#2{\newlabelxx{#1}#2}
\gdef \newlabelxx#1#2#3#4#5#6{\oldnewlabel{#1}{{#2}{#3}}}
\AtEndDocument{\let \contentsline\oldcontentsline
\let \newlabel\oldnewlabel}
\else
\global \let \hyper@last\relax 
\fi

\select@language{portuguese}
\@writefile{toc}{\select@language{portuguese}}
\@writefile{lof}{\select@language{portuguese}}
\@writefile{lot}{\select@language{portuguese}}
\@writefile{toc}{\contentsline {section}{\numberline {1}Story}{2}{section.1}}
\newlabel{story}{{1}{2}{Story\relax }{section.1}{}}
\gdef\scr@tpo@lst{0}
