\contentsline {section}{\numberline {1}Annotated Links}{1}{section.1}
\contentsline {section}{\numberline {2}IP-Telefonie: eine br\"{o}ckelnde propriet\"{a}re Festung}{3}{section.2}
\contentsline {section}{\numberline {3}Fragen, Aufgaben, Wie Sie helfen k\"{o}nnen}{4}{section.3}
