\select@language {french}
\contentsline {section}{\numberline {1}Liens annot\'{e}s}{1}{section.1}
\contentsline {section}{\numberline {2}IP Telephony -- a crumbling proprietary market}{3}{section.2}
\contentsline {section}{\numberline {3}Questions, choses \`{a} faire, comment vous pouvez aider}{3}{section.3}
