\relax 
\ifx\hyper@anchor\@undefined
\global \let \oldcontentsline\contentsline
\gdef \contentsline#1#2#3#4{\oldcontentsline{#1}{#2}{#3}}
\global \let \oldnewlabel\newlabel
\gdef \newlabel#1#2{\newlabelxx{#1}#2}
\gdef \newlabelxx#1#2#3#4#5#6{\oldnewlabel{#1}{{#2}{#3}}}
\AtEndDocument{\let \contentsline\oldcontentsline
\let \newlabel\oldnewlabel}
\else
\global \let \hyper@last\relax 
\fi

\@writefile{toc}{\contentsline {section}{\numberline {1}Annotated Links}{1}{section.1}}
\newlabel{links}{{1}{1}{Annotated Links\relax }{section.1}{}}
\@writefile{toc}{\contentsline {section}{\numberline {2}IP-Telefonie: eine br\"{o}ckelnde propriet\"{a}re Festung}{3}{section.2}}
\newlabel{intro}{{2}{3}{IP-Telefonie: eine br\"{o}ckelnde propriet\"{a}re Festung\relax }{section.2}{}}
\@writefile{toc}{\contentsline {section}{\numberline {3}Fragen, Aufgaben, Wie Sie helfen k\"{o}nnen}{4}{section.3}}
\newlabel{tasks}{{3}{4}{Fragen, Aufgaben, Wie Sie helfen k\"{o}nnen\relax }{section.3}{}}
\gdef\scr@tpo@lst{0}
