\contentsline {section}{\numberline {1}Annotated Links}{1}{section.1}
\contentsline {section}{\numberline {2}IP Telephony -- a crumbling proprietary market}{3}{section.2}
\contentsline {section}{\numberline {3}Questions, Things To Do, How you can Help}{4}{section.3}
