\relax 
\ifx\hyper@anchor\@undefined
\global \let \oldcontentsline\contentsline
\gdef \contentsline#1#2#3#4{\oldcontentsline{#1}{#2}{#3}}
\global \let \oldnewlabel\newlabel
\gdef \newlabel#1#2{\newlabelxx{#1}#2}
\gdef \newlabelxx#1#2#3#4#5#6{\oldnewlabel{#1}{{#2}{#3}}}
\AtEndDocument{\let \contentsline\oldcontentsline
\let \newlabel\oldnewlabel}
\else
\global \let \hyper@last\relax 
\fi

\newlabel{intro}{{1}{2}{Einf\"{u}hrung\label {intro}\relax }{section.1}{}}
\@writefile{toc}{\contentsline {section}{\numberline {1}Einf\"{u}hrung}{2}{section.1}}
\newlabel{links}{{2}{2}{Kommentierte Verweise\label {links}\relax }{section.2}{}}
\@writefile{toc}{\contentsline {section}{\numberline {2}Kommentierte Verweise}{2}{section.2}}
\newlabel{tasks}{{3}{7}{Fragen, Aufgaben, Wie Sie helfen k\"{o}nnen\label {tasks}\relax }{section.3}{}}
\@writefile{toc}{\contentsline {section}{\numberline {3}Fragen, Aufgaben, Wie Sie helfen k\"{o}nnen}{7}{section.3}}
