\contentsline {section}{\numberline {1}Einf\"{u}hrung}{2}{section.1}
\contentsline {section}{\numberline {2}Kommentierte Verweise}{2}{section.2}
\contentsline {section}{\numberline {3}Fragen, Aufgaben, Wie Sie helfen k\"{o}nnen}{7}{section.3}
