\relax 
\ifx\hyper@anchor\@undefined
\global \let \oldcontentsline\contentsline
\gdef \contentsline#1#2#3#4{\oldcontentsline{#1}{#2}{#3}}
\global \let \oldnewlabel\newlabel
\gdef \newlabel#1#2{\newlabelxx{#1}#2}
\gdef \newlabelxx#1#2#3#4#5#6{\oldnewlabel{#1}{{#2}{#3}}}
\AtEndDocument{\let \contentsline\oldcontentsline
\let \newlabel\oldnewlabel}
\else
\global \let \hyper@last\relax 
\fi

\newlabel{epc54}{{1}{1}{EPA beugt Neuheitsregelung\label {epc54}\relax }{section.1}{}}
\@writefile{toc}{\contentsline {section}{\numberline {1}EPA beugt Neuheitsregelung}{1}{section.1}}
\newlabel{exam}{{2}{2}{St\"{a}ndig sinkende Pr\"{u}fungsqualit\"{a}t\label {exam}\relax }{section.2}{}}
\@writefile{toc}{\contentsline {section}{\numberline {2}St\"{a}ndig sinkende Pr\"{u}fungsqualit\"{a}t}{2}{section.2}}
\newlabel{pers}{{3}{5}{Rechtsfreier Raum, schlechtes Arbeitsklima\label {pers}\relax }{section.3}{}}
\@writefile{toc}{\contentsline {section}{\numberline {3}Rechtsfreier Raum, schlechtes Arbeitsklima}{5}{section.3}}
\newlabel{etc}{{4}{6}{Weitere Lekt\"{u}re\label {etc}\relax }{section.4}{}}
\@writefile{toc}{\contentsline {section}{\numberline {4}Weitere Lekt\"{u}re}{6}{section.4}}
