\relax 
\ifx\hyper@anchor\@undefined
\global \let \oldcontentsline\contentsline
\gdef \contentsline#1#2#3#4{\oldcontentsline{#1}{#2}{#3}}
\global \let \oldnewlabel\newlabel
\gdef \newlabel#1#2{\newlabelxx{#1}#2}
\gdef \newlabelxx#1#2#3#4#5#6{\oldnewlabel{#1}{{#2}{#3}}}
\AtEndDocument{\let \contentsline\oldcontentsline
\let \newlabel\oldnewlabel}
\else
\global \let \hyper@last\relax 
\fi

\@writefile{toc}{\contentsline {section}{\numberline {1}The special legal construction of the EPO}{2}{section.1}}
\newlabel{intro}{{1}{2}{The special legal construction of the EPO\relax }{section.1}{}}
\@writefile{toc}{\contentsline {section}{\numberline {2}Dissolving the invention concept of Art 52 EPC}{2}{section.2}}
\newlabel{epc52}{{2}{2}{Dissolving the invention concept of Art 52 EPC\relax }{section.2}{}}
\@writefile{toc}{\contentsline {section}{\numberline {3}Disrespecting the Exceptions of Art 53 EPC}{3}{section.3}}
\newlabel{epc53}{{3}{3}{Disrespecting the Exceptions of Art 53 EPC\relax }{section.3}{}}
\@writefile{toc}{\contentsline {section}{\numberline {4}Eroding the novelty concept of Art 54 EPC}{3}{section.4}}
\newlabel{epc54}{{4}{3}{Eroding the novelty concept of Art 54 EPC\relax }{section.4}{}}
\@writefile{toc}{\contentsline {section}{\numberline {5}Formal view of Art 56 EPC: Lowest Non-Obviousness Standards of the World}{4}{section.5}}
\newlabel{epc56}{{5}{4}{Formal view of Art 56 EPC: Lowest Non-Obviousness Standards of the World\relax }{section.5}{}}
\@writefile{toc}{\contentsline {section}{\numberline {6}Continuously deteriorating examination quality}{4}{section.6}}
\newlabel{exam}{{6}{4}{Continuously deteriorating examination quality\relax }{section.6}{}}
\@writefile{toc}{\contentsline {section}{\numberline {7}BEST: assured worst examination quality, illegally introduced, legalised in 2000}{5}{section.7}}
\newlabel{best}{{7}{5}{BEST: assured worst examination quality, illegally introduced, legalised in 2000\relax }{section.7}{}}
\@writefile{toc}{\contentsline {section}{\numberline {8}Novelty search problems increasingly complex, EPO lagging far behind}{6}{section.8}}
\newlabel{obje}{{8}{6}{Novelty search problems increasingly complex, EPO lagging far behind\relax }{section.8}{}}
\@writefile{toc}{\contentsline {section}{\numberline {9}Outlaw zone, poor working climate}{7}{section.9}}
\newlabel{pers}{{9}{7}{Outlaw zone, poor working climate\relax }{section.9}{}}
\@writefile{toc}{\contentsline {section}{\numberline {10}National controllers of the EPO aspiring for careers in EPO}{8}{section.10}}
\newlabel{karr}{{10}{8}{National controllers of the EPO aspiring for careers in EPO\relax }{section.10}{}}
\@writefile{toc}{\contentsline {section}{\numberline {11}EPO Boards of Appeal lack Independence}{8}{section.11}}
\newlabel{kamm}{{11}{8}{EPO Boards of Appeal lack Independence\relax }{section.11}{}}
\@writefile{toc}{\contentsline {section}{\numberline {12}Withholding Patent Information from the Public}{9}{section.12}}
\newlabel{espa}{{12}{9}{Withholding Patent Information from the Public\relax }{section.12}{}}
\@writefile{toc}{\contentsline {section}{\numberline {13}Questions, Things To Do, How you can Help}{10}{section.13}}
\newlabel{tasks}{{13}{10}{Questions, Things To Do, How you can Help\relax }{section.13}{}}
