\relax 
\ifx\hyper@anchor\@undefined
\global \let \oldcontentsline\contentsline
\gdef \contentsline#1#2#3#4{\oldcontentsline{#1}{#2}{#3}}
\global \let \oldnewlabel\newlabel
\gdef \newlabel#1#2{\newlabelxx{#1}#2}
\gdef \newlabelxx#1#2#3#4#5#6{\oldnewlabel{#1}{{#2}{#3}}}
\AtEndDocument{\let \contentsline\oldcontentsline
\let \newlabel\oldnewlabel}
\else
\global \let \hyper@last\relax 
\fi

\@writefile{toc}{\contentsline {section}{\numberline {1}Das EPA: eine besondere Rechtskonstruktion}{3}{section.1}}
\newlabel{intro}{{1}{3}{Das EPA: eine besondere Rechtskonstruktion\relax }{section.1}{}}
\@writefile{toc}{\contentsline {section}{\numberline {2}Aufl\"{o}sung des Erfindungsbegriff von Art 52 EP\"{U}}{3}{section.2}}
\newlabel{epc52}{{2}{3}{Aufl\"{o}sung des Erfindungsbegriff von Art 52 EP\"{U}\relax }{section.2}{}}
\@writefile{toc}{\contentsline {section}{\numberline {3}Missachtung der Patentierbarkeitsausnahmen von Art 53 EP\"{U}}{3}{section.3}}
\newlabel{epc53}{{3}{3}{Missachtung der Patentierbarkeitsausnahmen von Art 53 EP\"{U}\relax }{section.3}{}}
\@writefile{toc}{\contentsline {section}{\numberline {4}Aufweichung des Neuheitsbegriffs von Art 54 EP\"{U}}{3}{section.4}}
\newlabel{epc54}{{4}{3}{Aufweichung des Neuheitsbegriffs von Art 54 EP\"{U}\relax }{section.4}{}}
\@writefile{toc}{\contentsline {section}{\numberline {5}Formelle Sicht von Art 52 EP\"{U}: Niedrigste Erfindungsh\"{o}he der Welt}{4}{section.5}}
\newlabel{epc56}{{5}{4}{Formelle Sicht von Art 52 EP\"{U}: Niedrigste Erfindungsh\"{o}he der Welt\relax }{section.5}{}}
\@writefile{toc}{\contentsline {section}{\numberline {6}St\"{a}ndig sinkende Pr\"{u}fungsqualit\"{a}t}{6}{section.6}}
\newlabel{exam}{{6}{6}{St\"{a}ndig sinkende Pr\"{u}fungsqualit\"{a}t\relax }{section.6}{}}
\@writefile{toc}{\contentsline {section}{\numberline {7}BEST: schlechtestm\"{o}gliche Pr\"{u}fungsqualit\"{a}t, gesetzeswidrig eingef\"{u}hrt, 2000 legalisiert}{7}{section.7}}
\newlabel{best}{{7}{7}{BEST: schlechtestm\"{o}gliche Pr\"{u}fungsqualit\"{a}t, gesetzeswidrig eingef\"{u}hrt, 2000 legalisiert\relax }{section.7}{}}
\@writefile{toc}{\contentsline {section}{\numberline {8}Probleme der Neuheitsrecherche zunehmend komplex, EPA weit abgeschlagen}{8}{section.8}}
\newlabel{obje}{{8}{8}{Probleme der Neuheitsrecherche zunehmend komplex, EPA weit abgeschlagen\relax }{section.8}{}}
\@writefile{toc}{\contentsline {section}{\numberline {9}Rechtsfreier Raum, schlechtes Arbeitsklima}{9}{section.9}}
\newlabel{pers}{{9}{9}{Rechtsfreier Raum, schlechtes Arbeitsklima\relax }{section.9}{}}
\@writefile{toc}{\contentsline {section}{\numberline {10}Karrieren zwischen \"{U}berwachenden Organen und EPA}{10}{section.10}}
\newlabel{karr}{{10}{10}{Karrieren zwischen \"{U}berwachenden Organen und EPA\relax }{section.10}{}}
\@writefile{toc}{\contentsline {section}{\numberline {11}Unabh\"{a}ngigkeit der Beschwerdekammern nicht gew\"{a}hrleistet}{10}{section.11}}
\newlabel{kamm}{{11}{10}{Unabh\"{a}ngigkeit der Beschwerdekammern nicht gew\"{a}hrleistet\relax }{section.11}{}}
\@writefile{toc}{\contentsline {section}{\numberline {12}Vorenthaltung von Patentinformationen.}{12}{section.12}}
\newlabel{espa}{{12}{12}{Vorenthaltung von Patentinformationen}{section.12}{}}
\@writefile{toc}{\contentsline {section}{\numberline {13}Annotated Links}{12}{section.13}}
\newlabel{links}{{13}{12}{Annotated Links\relax }{section.13}{}}
\@writefile{toc}{\contentsline {section}{\numberline {14}Fragen, Aufgaben, Wie Sie helfen k\"{o}nnen}{17}{section.14}}
\newlabel{tasks}{{14}{17}{Fragen, Aufgaben, Wie Sie helfen k\"{o}nnen\relax }{section.14}{}}
\gdef\scr@tpo@lst{0}
