\BOOKMARK [1][-]{section.1}{Hannover-Messe im Zeichen der Softwarepatente}{}
\BOOKMARK [1][-]{section.2}{Le S\351nat Espagnol Unanimement Contre les Brevets Logiciels}{}
\BOOKMARK [1][-]{section.3}{European Parliament JURI Committee votes for restart with massive majority}{}
\BOOKMARK [1][-]{section.4}{IBM releases 500 patents for open-source use}{}
\BOOKMARK [1][-]{section.5}{2005-01-10 EU Soixante et un d\351put\351s du Parlement europ\351en poussent \340 un retour en 1re lecture}{}
