\BOOKMARK [1][-]{section.1}{Hannover-Messe im Zeichen der Softwarepatente}{}
\BOOKMARK [1][-]{section.2}{EuroParl DG Economic and Scientific Policy document: Commission and Council propose US practice}{}
\BOOKMARK [1][-]{section.3}{European Parliament JURI Committee votes for restart with massive majority}{}
\BOOKMARK [1][-]{section.4}{IBM releases 500 patents for open-source use}{}
\BOOKMARK [1][-]{section.5}{61 MEPs Urge Return to 1st Reading}{}
