\select@language {french}
\contentsline {section}{\numberline {1}Hannover-Messe im Zeichen der Softwarepatente}{1}{section.1}
\contentsline {section}{\numberline {2}Le S\'{e}nat Espagnol Unanimement Contre les Brevets Logiciels}{2}{section.2}
\contentsline {section}{\numberline {3}European Parliament JURI Committee votes for restart with massive majority}{2}{section.3}
\contentsline {section}{\numberline {4}IBM releases 500 patents for open-source use}{2}{section.4}
\contentsline {section}{\numberline {5}2005-01-10 EU Soixante et un d\'{e}put\'{e}s du Parlement europ\'{e}en poussent \`{a} un retour en 1re lecture}{2}{section.5}
