\contentsline {section}{\numberline {1}Hannover-Messe im Zeichen der Softwarepatente}{2}{section.1}
\contentsline {section}{\numberline {2}EuroParl DG Economic and Scientific Policy document: Commission and Council propose US practice}{2}{section.2}
\contentsline {section}{\numberline {3}Rechtsausschuss des Europ\"{a}ischen Parlaments entscheidet f\"{u}r Neustart des Softwarepatent-Gesetzgebungsverfahrens}{2}{section.3}
\contentsline {section}{\numberline {4}IBM releases 500 patents for open-source use}{2}{section.4}
\contentsline {section}{\numberline {5}61 Parlamentarier dr\"{a}ngen auf R\"{u}ckkehr zur ersten Lesung}{3}{section.5}
