\contentsline {section}{\numberline {1}Hannover-Messe im Zeichen der Softwarepatente}{1}{section.1}
\contentsline {section}{\numberline {2}EuroParl DG Economic and Scientific Policy document: Commission and Council propose US practice}{2}{section.2}
\contentsline {section}{\numberline {3}European Parliament JURI Committee votes for restart with massive majority}{2}{section.3}
\contentsline {section}{\numberline {4}IBM releases 500 patents for open-source use}{2}{section.4}
\contentsline {section}{\numberline {5}61 MEPs Urge Return to 1st Reading}{2}{section.5}
