\relax 
\catcode`:\active
\catcode`;\active
\catcode`!\active
\catcode`?\active
\ifx\hyper@anchor\@undefined
\global \let \oldcontentsline\contentsline
\gdef \contentsline#1#2#3#4{\oldcontentsline{#1}{#2}{#3}}
\global \let \oldnewlabel\newlabel
\gdef \newlabel#1#2{\newlabelxx{#1}#2}
\gdef \newlabelxx#1#2#3#4#5#6{\oldnewlabel{#1}{{#2}{#3}}}
\AtEndDocument{\let \contentsline\oldcontentsline
\let \newlabel\oldnewlabel}
\else
\global \let \hyper@last\relax 
\fi

\select@language{french}
\@writefile{toc}{\select@language{french}}
\@writefile{lof}{\select@language{french}}
\@writefile{lot}{\select@language{french}}
\newlabel{messe0504}{{1}{1}{Hannover-Messe im Zeichen der Softwarepatente\label {messe0504}\relax }{section.1}{}}
\@writefile{toc}{\contentsline {section}{\numberline {1}Hannover-Messe im Zeichen der Softwarepatente}{1}{section.1}}
\newlabel{messe0504}{{1}{2}{Hannover-Messe im Zeichen der Softwarepatente\label {messe0504}\relax }{section.1}{}}
\newlabel{senado050208}{{2}{2}{Le S\'{e}nat Espagnol Unanimement Contre les Brevets Logiciels\label {senado050208}\relax }{section.2}{}}
\@writefile{toc}{\contentsline {section}{\numberline {2}Le S\'{e}nat Espagnol Unanimement Contre les Brevets Logiciels}{2}{section.2}}
\newlabel{senado050208}{{2}{2}{Le S\'{e}nat Espagnol Unanimement Contre les Brevets Logiciels\label {senado050208}\relax }{section.2}{}}
\newlabel{restart050202}{{3}{2}{European Parliament JURI Committee votes for restart with massive majority\label {restart050202}\relax }{section.3}{}}
\@writefile{toc}{\contentsline {section}{\numberline {3}European Parliament JURI Committee votes for restart with massive majority}{2}{section.3}}
\newlabel{restart050202}{{3}{2}{European Parliament JURI Committee votes for restart with massive majority\label {restart050202}\relax }{section.3}{}}
\newlabel{ibm0501}{{4}{2}{IBM releases 500 patents for open-source use\label {ibm0501}\relax }{section.4}{}}
\@writefile{toc}{\contentsline {section}{\numberline {4}IBM releases 500 patents for open-source use}{2}{section.4}}
\newlabel{ibm0501}{{4}{2}{IBM releases 500 patents for open-source use\label {ibm0501}\relax }{section.4}{}}
\newlabel{restart0501}{{5}{2}{2005-01-10 EU Soixante et un d\'{e}put\'{e}s du Parlement europ\'{e}en poussent \`{a} un retour en 1re lecture\label {restart0501}\relax }{section.5}{}}
\@writefile{toc}{\contentsline {section}{\numberline {5}2005-01-10 EU Soixante et un d\'{e}put\'{e}s du Parlement europ\'{e}en poussent \`{a} un retour en 1re lecture}{2}{section.5}}
\newlabel{restart0501}{{5}{2}{2005-01-10 EU Soixante et un d\'{e}put\'{e}s du Parlement europ\'{e}en poussent \`{a} un retour en 1re lecture\label {restart0501}\relax }{section.5}{}}
\gdef\scr@tpo@lst{0}
