     _________________________________________________________________

   United States Patent         6,665,797 
   Keung                December 16, 2003 
     _________________________________________________________________

   Protection of software again against unauthorized use

                                  Abstract

   A central program comprising a EI sub-program for providing identity
   information of the rightful user thereof for accessing a network
   central computer to obtain service(s) or software product(s) or alike,
   in which a secure operation on an account of the rightful user for
   payment therefor involved; and a AS sub-program for using the
   existence of the EI sub-program in a computer as a precondition for
   authorising use of those software products obtained on that computer.
   The central program is for managing the use of the individual
   sub-programs therein so that the AS sub-program can be protected from
   being copied individually.
     _________________________________________________________________

   Inventors: Keung; Tse Ho (P.O. Box 54670, North Point Post Office, HK)
   Appl. No.: 112276
   Filed:     July 9, 1998

   Current U.S. Class:    713/193; 705/51; 705/59
   Intern'l Class:                     H04L 012/22
   Field of Search:    705/51,52,56,58,59 713/193
     _________________________________________________________________

                    References Cited [10][Referenced By]
     _________________________________________________________________

                           U.S. Patent Documents

   [11]4796181 Jan., 1989 Wiedemer      705/52.
   [12]5155680 Oct., 1992 Wiedemer      705/52.
   [13]5586186 Dec., 1996 Yuval et al.  380/30.
   [14]5719938 Feb., 1998 Haas et al.  380/281.
   [15]5737416 Apr., 1998 Cooper        705/51.

   Primary Examiner: Barron; Gilberto
     _________________________________________________________________

                              Parent Case Text
     _________________________________________________________________

   This is a continuation-in-part of patent application Ser. No.
   08/587,448, filed on Dec. 1, 1995, which is still pending.
     _________________________________________________________________

                                   Claims
     _________________________________________________________________

   What is claimed is:
   1. A method for protecting publicly distributed software from
   unauthorised use, comprising the steps of:
   determining if identity information, is existing in a processing
   apparatus;
   using a positive result of said determination as a pre-condition for
   causing said processing apparatus to provide user access to said
   software desired to be protected;
   wherein:
   said identity information, if so existing, being capable of being used
   in enabling electronic commerce operation(s) for which rightful
   user(s) of said software desired to be protected has to be
   responsible;
   access to said software desired to be protected is being provided
   without causing a said operation being performed and said identity
   information being specific to said rightful user(s).
   2. A method for protecting software from unauthorised use, as claimed
   in claim 1, wherein further comprising the steps of:
   authenticating said identity information;
   determining said identity information as existing, if said identity
   information being authentic and as not existing if otherwise.
   3. A method for protecting software from unauthorised use, as claimed
   in claim 1, wherein said operation being operation related to making
   payment from an account of said rightful user(s), for obtaining a
   service/product.
   4. A method for protecting software from unauthorised use, as claimed
   in claim 1, wherein said software desired to be protected comprises a
   plurality of protected programs; each of said protected programs
   having validity information in a first predetermined location therein
   for indicating a valid identity of its rightful user exists in a
   second predetermined location therein, and an encrypted identity of
   its rightful user therein; and each of said protected programs, when
   being executed, will fail to operate if said validity information
   therein being altered, or said identity therein and the decryption
   result of said encrypted identity therein being inconsistent.
   5. A method for protecting software from unauthorised use, as claimed
   in claim 4, wherein further comprising the steps of:
   storing an encrypted identity of a user in said processing apparatus;
   and if all of said protected programs stored in said processing
   apparatus has a valid user identity which being consistent with the
   decryption result of said stored encrypted identity, permitting use of
   said protected programs and not permitting if otherwise.
   6. A computer software product for protecting software publicly and
   individually distributed against unauthorised use;
   said software product comprising:
   identity program code for enabling electronic commerce operation(s)
   for which rightful user(s) of said software desired to be protected
   has to be responsible;
   authorising software effectively under the control of said rightful
   user(s) for, when executed, providing user access to said software
   desired to be protected, without causing a said operation being
   performed;
   a computer readable medium having said identity program code and said
   authorising software;
   wherein:
   said identity program code and said authorising software are stored in
   said medium in such a manner that said authorising software is
   prevented from being copied therefrom individually; and
   the improvement resides in said protection basing on no hardware
   and/or software specific to said rightful user(s) other than said
   identity program code and said identity program code being specific to
   said rightful user(s).
   7. A computer software product as claimed in claim 6, wherein said
   operation being operation related to making payment from an account of
   said rightful user(s).
   8. A computer software product as claimed in claim 6, wherein said
   authorising software contains said identity program code therein.
   9. A computer software product for protecting other software against
   unauthorised use, comprising:
   authorising program for, when being executed on a processing
   apparatus, providing user access to said software desired to be
   protected;
   a computer readable medium having said authorising program
   wherein:
   information specific to rightful users) of said software desired to be
   protected, exists in said authorising program as a part thereof;
   said existing information being capable of being used in enabling
   electronic commerce operation(s) for which said rightful user(s) has
   to be responsible, but not being usable by said processing apparatus
   for said electronic commerce purpose, when said authorising program
   being loaded on said processing apparatus as a part thereof, and
   access to said software desired to be protected is being provided
   without causing a said operation being performed.
   10. A computer software product as claimed in claim 9, wherein said
   operation being operation related to making payment from an account of
   said rightful user(s).
   11. A method for protecting publicly distributed software from
   unauthorised use, comprising the steps of:
   obtaining first information from a user of a processing apparatus
   having an identity software;
   using said first information received being correct as a pre-condition
   for causing said processing apparatus to provide user access to said
   software desired to be protected;
   wherein:
   said identity software being for providing a second information
   specific to rightful user(s) of said software desired to be protected,
   if said correct first information is being obtained from a user
   thereof; and said second information being capable of being used in
   enabling electronic commerce operation(s) for which said rightful
   user(s) has to be responsible;
   access to said software desired to be protected is being provided
   without causing a said operation being performed.
   12. A method for protecting software from unauthorised use, as claimed
   in claim 11, wherein said operation being operation related to making
   payment from an account of said rightful user(s) and said first
   information being a password.
   13. A method for protecting software from unauthorised use, as claimed
   in claim 11, wherein said software desired to be protected being first
   software used on said processing apparatus for determining third
   information related to hardware and/or software of said processing
   apparatus;
   wherein further comprising second software for, when being executed,
   authenticating the identity of the computer on which said second
   software runs as being said processing apparatus, basing on at least a
   part of said third information;
   and for providing user access to third software if said computer has
   an authentic identity.
   14. A method for protecting publicly distributed software from
   unauthorised use, comprising the steps of:
   authenticating identity information associated with a processing
   apparatus;
   using a positive result of said authentication as a pre-condition for
   causing said processing apparatus to provide user access to said
   software desired to be protected;
   wherein said identity information existing in such a manner that said
   identity information being capable of being used in enabling
   electronic commerce operation(s) for which rightful user(s) of said
   software desired to be protected has to be responsible;
   wherein access to said software desired to be protected is being
   provided without causing a said operation being performed and said
   identity information being specific to said rightful user(s).
   15. A method for protecting software from unauthorised use, as claimed
   in claim 14, wherein said operation being operation related to making
   payment from an account of said rightful user(s).
   16. A method for protecting software from unauthorised use, comprising
   the steps of:
   (a) obtaining by protection software running on a processing
   apparatus, say, first processing apparatus, first information from the
   user thereof;
   (b) determining by said protection software, from said processing
   apparatus second information related to the hardware or/and software
   thereof for future reference in step (c) below, in response to said
   first information obtained being consistent with third information
   contained in said protection software, thereafter
   (c) authenticating a processing apparatus, say, second processing
   apparatus, basing on at least a part of said second information;
   (d) using a positive result of said authentication as a pre-condition
   for permitting use of said software desired to be protected on said
   second processing apparatus;
   wherein said third information being confidential information of a
   rightful user of said software desire to be protected and being
   necessary for enabling electronic commerce transaction(s) for which
   said rightful user has to be responsible; and said method is being
   performed without causing a said transaction take place.
   17. A method for protecting software from unauthorised use, as claimed
   by claim 12, wherein said software desired to be protected being
   purchased commercial software.
   18. A method for protecting software from unauthorised use, by
   restricting the use thereof to be under control of a single person,
   comprising a sub-method; said sub-method comprising the steps of:
   (a) establishing a communication between a processing apparatus, say,
   first processing apparatus and a remote electronic transaction system;
   (b) verifying said person having a valid account, by said remote
   electronic transaction system, basing on authenticated information
   related to said person, said information being communicated to said
   remote electronic transaction system from said processing apparatus;
   (c) using a positive result of said verification as a pre-condition
   for
   permitting use of said software on said first processing apparatus;
   wherein said sub-method a cost is being charged from said account; and
   thereafter, said sub-method being capable of being used on a
   processing apparatus, say, second processing apparatus, without
   re-charging from said account said cost.
   19. A method for protecting software from unauthorised use, as claimed
   by claim 18, wherein no charge for repeating said sub-method.
   20. A method for protecting software, for use by a user, from
   unauthorised use; comprising a sub-method;
   wherein said sub-method a protection software being used and "the
   presence of identity information in a processing apparatus" is being
   used in the creation of said protection software as an "installation"
   pre-condition for said protection software to perform in said
   processing apparatus step (a) below; and said identity information
   being specific to said user and capable of being used in enabling
   electronic commerce operation(s) for which said user has to be
   responsible;
   said sub-method comprising the steps of:
   (a) determining by said protection software running on a processing
   apparatus, say, first processing apparatus with said "installation"
   precondition being met, first information related to the hardware
   or/and software of said first processing apparatus, for future
   reference in step (c) below; thereafter
   (b) determining from a processing apparatus, say, second processing
   apparatus, second information related to the hardware or/and software
   thereof;
   (c) determining if said second information is consistent with said
   first information;
   (d) using a positive result of said determination of consistence as a
   pre-condition for permitting use of said software desired to be
   protected on said second processing apparatus, with said
   "installation" pre-condition not being met;
   thereafter, said sub-method being capable of being used on a
   processing apparatus, say, third processing apparatus, without causing
   any user responsible operation(s) being performed therefor and with no
   step relating to a new user payment therefor.
   21. A method for verifying identity of a user of a data processing
   apparatus, comprising the steps of:
   receiving, by said data processing apparatus, information specific to
   a user and necessary for accessing an account of said user;
   verifying said account being valid, by an electronic transaction
   system by use of said information received by said data processing
   apparatus;
   using by said data processing apparatus, a positive result of said
   verification as a precondition for providing user access to at least a
   part of the functionality of said data processing apparatus;
   wherein said method is being performed without charging said account
   and said at least a part of functionality being not related to said
   validity status of said account.
   22. A software product comprising a computer readable medium having
   computer code for causing one or more processing apparatus to perform
   the method of claim 1, 12, 14, 16, 18, 20 or 21.
     _________________________________________________________________

                                Description
     _________________________________________________________________

   FIELD OF THE INVENTION
   The present invention relates to protection of software, and
   particularly, to protection of software against unauthorised use or
   copying.
   BACKGROUND OF THE INVENTION
   Conventionally, software protection methods for protecting commercial
   software products such as programs, multimedia software, distributed
   through a communication network, such as a telephone system, require a
   user computer to have a piece of hardware comprising decryption keys
   and system be installed therein, for to be authenticated by a software
   program running on the computer. Hardware, rather than software, are
   being used because software duplication facilities are commonly found
   in personal computers. However, this is extremely cumbersome and
   places a large burden on users and vendors alike.
   It is therefore an object of the present invention to provide a piece
   of software to replace the above-mentioned piece of hardware and the
   rightful user of that piece of software is being discouraged from
   copying it to someone else, by means of a psychological barrier.
   It is therefore another object of the present invention is to provide
   a method to discourage a rightful user from copying his software to
   someone else.
   SUMMARY OF THE INVENTION
   According to a first embodiment of the present invention, there is
   provided a central program comprising 1) a sub-program for providing
   an Encrypted Identity (herein below referred to as EI sub-program), 2)
   a sub-program for authorising use of a software product (herein below
   referred to as AS sub-program), 3) a sub-program for authenticating
   user computer (herein below referred to as AC sub-program).
   The central program is for managing the use of the individual
   sub-programs therein so that the AS sub-program can be protected from
   being accessed directly, thereby preventing it from being copied
   individually. The EI sub-program is for providing identity
   information(an encrypted identity) of its rightful owner for accessing
   a network central computer to obtain services or software products or
   alike in which a secure operation on a user account of that owner for
   payment therefor involved. The AC sub-program is for authenticating
   the computer on which it runs as being a particular predetermined
   computer, by determining the hardware and software configuration as
   well as hardware characteristics of that computer by software means
   and comparing the result with that required. The AS sub-program is for
   using the authentication result of the AC sub-program and the
   existence of the EI sub-program which being not protected against
   unauthorised use and being capable of being used by any user thereof,
   on a computer, as preconditions for authorising those software
   products "which may be purchased commercial computer software"
   obtained to be used on that computer.
   It should be noted that in the central program, as far as protection
   of the software products from being unlawfully copied by the rightful
   user to someone else is concerned, the AS sub-program is the only
   sub-program which needs protection and according to the present
   invention, the AS sub-program is protected from being unauthorised
   copied by its rightful user to someone else lies on the fact that a
   rightful user would not copy a software, i.e., the central program in
   which the EI sub-program exists and which can be used by an
   unauthorised user to provide the rightful user's identity information
   for using the rightful user's account in obtaining, for eg., network
   services or software products, to someone else. As seen from the use
   of automatic teller machine(ATM) magnetic cards, which although can
   readily be forged, has been proved to be remarkably secure.
   According to a second embodiment of the present invention, the central
   program comprising the EI sub-program only, and the AS sub-program
   become an individual program which authorises the software product(s)
   to be used only when the EI sub-program exists in the same computer it
   runs and which is being determined by receiving an encrypted identity
   of the EI sub-program from the same.
   According to a third embodiment, the EI and AS sub-programs are
   basically equivalent such that copying the AS sub-program by its
   rightful user to someone else is equivalent to copying the EI
   sub-program to someone else, thereby preventing the AS sub-program
   from unauthorised copying or use.
   BRIEF DESCRIPTION OF DRAWINGS
   FIG. 1 is a block diagram of the central program.
   FIG. 2 is a diagrammatic view of a program in which a part B thereof
   being encrypted, in RAM space.
   DETAILED DESCRIPTION OF THE PREFERRED EMBODIMENTS
   The present invention is directed to protecting software product(s)
   distributed through a communication network, against unauthorised
   copying or use, and for the sake of simplicity, the following
   description is directed to protection of such software product(s)
   stored in a user's IBM PC computer. And, the present invention will be
   described under the following headings:
   1) The Central Program.
   2) The Sub-program for providing an Encrypted Identity (EI
   sub-program).
   3) The Sub-program for authorising use of a software product (AS
   sub-program).
   4) The Sub-program for authenticating user computer (AC sub-program).
   5) Other Embodiments.
   1) The Central Program.
   According to the first embodiment, there is provided a central program
   which being an executable program and can be caused to be executed a)
   by user by entering its filename in DOS environment, b) by a running
   program. FIG. 1 is a block diagram of the central program, details are
   provided as follows:
   a) If a user desires to access a network central computer through a
   communication link, the user has to cause the central program to be
   executed. The central program will request the user to enter a
   password to enable its operation and if the password coincidents with
   that required, it will be responsive to user's command(s) to send an
   encrypted identity of its rightful user, who should be that user, to
   the central computer.
   This requirement of user password is necessary to prevent someone to
   access the central computer and use the account of the rightful user
   without his authorisation.
   The central program will cause the EI sub-program, of which details
   will be described herein below, to be executed for providing an
   encrypted identity of the user, to the central computer. The central
   computer will permit the access request from the user if the encrypted
   identity is correct, for which details will be described in item 2
   herein below.
   b) When a running program desires to cause the AS sub-program to be
   executed, to authorise it to continue to run, it will first prepare an
   input parameter for indicating to the central program such a request
   and store the input parameter in a predetermined location in RAM, then
   through the use of a PC DOS service call for that purpose, cause the
   central program to be executed. If the central program is being
   enabled previously by the above-mentioned password, it will access the
   input parameter in the predetermined location and from it the central
   program can determine that a running program is requesting for an
   authorisation command from the AS sub-program, and will then cause the
   AS sub-program to be executed. Otherwise, the central program will not
   cause the AS sub-program to authorise the running program to continue
   to run. As the password is a password for enabling use of AS
   sub-program, as well as the EI sub-program, the rightful user is
   discouraged from providing the password to someone else, in order that
   the someone else can use his AS sub-program.
   For the case the central program is being caused by user to be
   executed, there will be no valid or no input parameter and the central
   program can thus know this fact.
   2) The sub-Program for Providing an Encrypted Identity (EI
   Sub-program).
   This sub-program uses the method used in IC credit card for identity
   authentication and in which an encrypted identity is generated.
   When starts, the EI sub-program sends an access request to the central
   computer which in return will send back a random number. The EI
   sub-program will then encrypt the random number with a predetermined
   algorithm Al and send the result to the central computer which will
   permit access if the result is identical with another result it
   obtained by performing the same encryption algorithm on that random
   number.
   It should be noted that for each user, there is a corresponding
   respective encryption algorithm Al for the identity authentication
   thereof and also that the central computer may use the encryption
   result received from the EI sub-program, if it being correct, as a
   user authorisation for payment to be made, from a user account for
   obtaining network services or software products or the like.
   3) The sub-Program for Authorising Use of a Software Product (AS
   Sub-program).
   According to the present invention, there are 2 approaches for
   authorising a software product to be used:
   i) by sending encrypted command to a running software program for
   authorising it to continue to run on a computer, in a similar manner
   as that mentioned above in item 2 for identity authentication.
   Specifically, the running software program includes in the input
   parameter, as mentioned above in item 1b, a random number it
   generated, then causes the central program to be executed. The AS
   sub-program, which being caused to be executed by the central program,
   as mentioned above in item 1b, sends the result it obtained by
   performing a predetermined encryption algorithm A2 on that random
   number, to the running software program which will accept the
   encrypted command and continue to run, if the result is identical to
   another result it obtained by performing the same encryption algorithm
   A2 on that random number.
   It should be noted that continuous use of the software program
   requires continuously receiving encrypted commands.
   It should also be noted that for each user, each of the software
   products for use on his/her computer(s) use a same respective
   encryption algorithm A2 and the encryption algorithm A2 being included
   into each such software product by the central computer at the time
   when the central computer is to supply the same to the user computer.
   ii) by decrypting an encrypted part of a software product or a
   completely encrypted software product.
   It should be noted that if the software product is a program, then it
   will be sufficient to have a part thereof to be encrypted, for
   preventing unauthorised copying and use, however, if the software
   product is an audio/visual multimedia data file, it should be more
   desirable to have the whole software product be encrypted.
   The decryption of a part of or an entire software product takes place
   on a temporary copy of which in RAM, and that temporary copy should no
   longer exist after user finish using the software product, so as to
   prevent illegal copy from being made. Given by example only, FIG. 2 is
   a diagrammatic view of a program in RAM space, with a part B thereof
   being encrypted. As seen, the AS sub-program decrypts part B and
   stores the result which size should be not equivalent to that of the
   encrypted copy, in `part B decrypted`.
   The AS sub-program then overwrites at the first location of `part B
   encrypted` an instruction `JUMP TO part B decrypted` and at the end of
   `part B decrypted` appends an instruction `JUMP TO part C`. In this
   way, the encrypted part of the software will not be executed and the
   decrypted part will be executed instead.
   In the case of audio/visual multimedia software, the software will be
   decrypted a small part by a small part and each small part is
   decrypted at the time it is about to be utilized by a audio/visual
   program for causing audio/visual effect. In other words, that
   audio/visual program has to cause the AS sub-program to be executed in
   the manner as described above in item 1b, everytime it wants a
   decryption of a small part. Desirably, a newly decrypted small part
   will overwrite a previously decrypted one so that a whole copy of the
   decrypted software will not exist in RAM.
   4) The sub-Program for Authenticating User Computer (AC Sub-program).
   The AC sub-program for authenticating a computer on which it runs as
   being a particular predetermined computer, and prevent use of
   protected software if the computer is not, and its operation is under
   control of the central program.
   Specifically, when the central program is being installed in a
   harddisk of a user computer and executed, it will check an encrypted
   status information stored in itself and from which it knows this is
   the first time it being executed and will cause an initialization
   process to take place. In the initialization process, the central
   program sends to the central computer, as mentioned herein above in
   item 2, an unencrypted identity of the rightful user of the central
   program, then the AC sub-program requests for an encrypted command
   from the central computer which will provide such an encrypted
   command, in the manner as described hereinabove in item 3i, if the
   rightful user has a valid account which is not closed.
   After authenticating the command, the AC sub-program determines the
   hardware and software configuration of the user computer, which
   includes, for eg., identities of peripherals such as mouse, printer,
   joystick, harddisk and floppy disk drive etc; characteristics of
   hardware such as running speed determination which is a function of
   CPU frequency, cache memory size etc; number and number of heads,
   cylinders, sectors of harddisk and locations of bad sectors therein;
   version number of operation system software and physical position of a
   particular software product including the central program in the
   harddisk; by skills well known to those in the art. For instance, the
   running speed can be determined by causing the computer to execute a
   test program and initializing a hardware counter to measure the time
   the computer has taken to finish executing the program. For another
   instance, the version number of the operation system may be determined
   by using a particular DOS service call.
   The result of the determination and a status information indicative of
   the central program being initialized will be stored by the AC
   sub-program in a predetermined part of the central program in the
   harddisk, in the form of encrypted data. Thereafter, everytime when
   the central program is executed, it will first check the status
   information, and after determining that it is being initialized, it
   will perform a job as requested, as mentioned in item 1 herein above,
   and in addition thereto, it will also automatically cause the AC
   sub-program to be executed which will determine at least a part of the
   above-mentioned hardware and software configuration as well as
   hardware characteristics of the computer on which it runs, at a time,
   and the AC sub-program will encrypt an indication information in
   another predetermined part of the central program for causing the AS
   sub-program not to operate, if any part of the
   configuration/characteristics determined is not identical to the
   corresponding part of that it encrypted and stored previously.
   In addition thereto, the AC sub-program will also reset the encrypted
   status information so that another initialization process will
   automatically take place when the user causes the central program to
   be executed, and for the authorisation of which another encrypted
   command from the central computer will be required.
   This prevents a user from deliberately adapting the central program to
   computer of other user(s), after closing his account.
   In addition, the encrypted command from the central computer may
   alternatively be supplied to the user via, e.g., a telephone line, and
   then entered into the user computer by the user. Specifically, to
   request for an encrypted command, the AC sub-program generates a
   random number and conveys the random number to the user who in turn
   supplies it to the central computer by means of telephone dual tone
   signals, generated by entering the random number on a telephone
   keypad, through the telephone line, and after encrypting the random
   number, the central computer sends the result to the user via the same
   telephone line by means of a voice synthesizer.
   5) Other Embodiments
   According to the second embodiment, the AS sub-program is separated
   from the central program and become an independent program, whereas
   the central program comprises the EI sub-program only. The AS program
   is bound to the EI sub-program by requiring the AS program to operate
   only when the EI sub-program exists in the same computer.
   Specifically, the AS program when running, can cause the EI
   sub-program to be executed for generating an encrypted identity for
   the AS program to authenticate. The EI sub-program knows that this is
   a request for encrypted identity from the AS program, not a request
   from user for encrypted identity for accessing the central computer,
   by the method of input parameter as mentioned above in item 1b.
   Further, the EI sub-program before sending the encrypted identity to
   the AS program, may first check the data integrity of itself by, for
   instance, checksum method. Alternatively, it may also be that the AS
   program performs the checking. And, if the checking result is that
   some data in the EI sub-program being altered, then in the former
   case, the AS will be caused to be not operable by the EI sub-program
   by not sending it an encrypted identity, and in the latter case, the
   AS program will be caused to be not operable by itself.
   According to the third embodiment, the encryption algorithms A1 and A2
   that the EI and AS sub-programs use respectively for providing an
   encrypted identity to the central computer and for generating
   encrypted commands to authorise use of a software product
   respectively, is a same algorithm.
   Thus, it would be equivalent for a rightful user to copy his EI
   sub-program to someone else if he copies his AS sub-program to someone
   else. In this case, a slight modification on the AS sub-program can
   make it equivalent to the EI sub-program and which involves adding a
   simple interface program for receiving a random number from the
   central computer, feeding the random number into the AS sub-program,
   receiving the encryption result from the AS sub-program and supplying
   the encryption result to the central computer, and such functions are
   commonly found in any network interface software. Alternatively, the
   A1 and A2 algorithms may be 2 different algorithms, but information
   representative of the A1 algorithm is being included into the AS
   sub-program and be accessible by user or when the AS sub-program being
   executed, capable of being used by AS sub-program to perform the
   corresponding encryption function which being user-usable.
   In addition, according to another embodiment of the present invention,
   the software products and AS sub-program each includes an identity of
   its rightful user, so as to facilitate legal action against piracy.
   Further, the AS sub-program, when executed, will access each of the
   software products, by using a particular DOS service call for loading
   a software product stored in the computer on which it runs, from
   harddisk to RAM, one by one, for checking such an identity therein, if
   any software product is found to have an identity not identical to
   that of the AS sub-program, the AS sub-program will inhibit use of all
   software products under its control, including itself, on the
   computer. Such identities may be stored in a predetermined location of
   the software products, and is protected from being altered by having
   an encrypted one stored in another location in each software product,
   and each of those another locations is different in different software
   products so that it would not be discovered and altered. And, each
   such software product, when executed, will automatically check the
   unencrypted identity stored therein against the decryption result of
   the encrypted one, if they are not consistent, the software product
   will fail to operate. The identity or encrypted identity of the
   rightful user being included into each of the software products by the
   central computer at the time when the central computer is to supply
   the same to the user computer. Further, to prevent the AS sub-program
   from mistakenly regarding a software product which stored in the
   computer and which being not supplied from the central computer, as a
   software product under its control, the central computer may further
   include information in a third predetermined location of each software
   product for indicating this fact, that is, the software product being
   supplied from the central computer, to the AS sub-program and each
   software product will not operate if when being executed, it finds
   that information therein being altered.
   It should be noted that the above embodiments are given by way of
   example only, and it will be obvious to those skilled in the art that
   various changes and modifications may be made without departing from
   the spirit of the present invention.

                                 * * * * *
     _________________________________________________________________

                                [16][Image] 

            [17][View Shopping Cart] [18][Add to Shopping Cart] 
                                 [19][Top] 

      [20][Home] [21][Boolean Search] [22][Manual Search] [23][Number
                            Search] [24][Help] 

References

   1. http://www.uspto.gov/patft/index.html
   2. http://patft.uspto.gov/netahtml/search-bool.html
   3. http://patft.uspto.gov/netahtml/search-adv.htm
   4. http://patft.uspto.gov/netahtml/srchnum.htm
   5. http://www.uspto.gov/patft/help/help.htm
   6. http://patft.uspto.gov/netacgi/nph-Parser?u=/netahtml/srchnum.htm&Sect1=PTO1&Sect2=HITOFF&p=1&r=1&l=50&f=G&d=PALL&s1=6665797.WKU.&OS=PN/6665797&RS=PN/6665797]#bottom
   7. http://ebiz1.uspto.gov/vision-service/ShoppingCart_P/ShowShoppingCart?backUrl1=http%3A//164.195.100.11/netacgi/nph-Parser?u%3D%2Fnetahtml%2Fsrchnum.htm%26Sect1%3DPTO1%26Sect2%3DHITOFF%26p%3D1%26r%3D1%26l%3D50%26f%3DG%26d%3DPALL%26s1%3D6665797.WKU.%26OS%3DPN%2F6665797&backLabel1=Back%20to%20Document%3A%206,665,797
   8. http://ebiz1.uspto.gov/vision-service/ShoppingCart_P/AddToShoppingCart?docNumber=6,665,797&backUrl1=http%3A//164.195.100.11/netacgi/nph-Parser?u%3D%2Fnetahtml%2Fsrchnum.htm%26Sect1%3DPTO1%26Sect2%3DHITOFF%26p%3D1%26r%3D1%26l%3D50%26f%3DG%26d%3DPALL%26s1%3D6665797.WKU.%26OS%3DPN%2F6665797&backLabel1=Back%20to%20Document%3A%206,665,797
   9. http://patimg2.uspto.gov/.piw?Docid=06665797&homeurl=http%3A%2F%2Fpatft.uspto.gov%2Fnetacgi%2Fnph-Parser%3Fu%3D%2Fnetahtml%2Fsrchnum.htm%2526Sect1%3DPTO1%2526Sect2%3DHITOFF%2526p%3D1%2526r%3D1%2526l%3D50%2526f%3DG%2526d%3DPALL%2526s1%3D6665797.WKU.%2526OS%3DPN%2F6665797%2526RS%3DPN%2F6665797%5D&PageNum=&Rtype=&SectionNum=&idkey=01D53052E49D
  10. http://patft.uspto.gov/netacgi/nph-Parser?Sect1=PTO2&Sect2=HITOFF&p=1&u=%2Fnetahtml%2Fsearch-adv.htm&r=0&f=S&l=50&d=CR03&Query=ref/6,665,797
  11. http://patft.uspto.gov/netacgi/nph-Parser?Sect2=PTO1&Sect2=HITOFF&p=1&u=%2Fnetahtml%2Fsearch-bool.html&r=1&f=G&l=50&d=PALL&RefSrch=yes&Query=PN%2F4796181
  12. http://patft.uspto.gov/netacgi/nph-Parser?Sect2=PTO1&Sect2=HITOFF&p=1&u=%2Fnetahtml%2Fsearch-bool.html&r=1&f=G&l=50&d=PALL&RefSrch=yes&Query=PN%2F5155680
  13. http://patft.uspto.gov/netacgi/nph-Parser?Sect2=PTO1&Sect2=HITOFF&p=1&u=%2Fnetahtml%2Fsearch-bool.html&r=1&f=G&l=50&d=PALL&RefSrch=yes&Query=PN%2F5586186
  14. http://patft.uspto.gov/netacgi/nph-Parser?Sect2=PTO1&Sect2=HITOFF&p=1&u=%2Fnetahtml%2Fsearch-bool.html&r=1&f=G&l=50&d=PALL&RefSrch=yes&Query=PN%2F5719938
  15. http://patft.uspto.gov/netacgi/nph-Parser?Sect2=PTO1&Sect2=HITOFF&p=1&u=%2Fnetahtml%2Fsearch-bool.html&r=1&f=G&l=50&d=PALL&RefSrch=yes&Query=PN%2F5737416
  16. http://patimg2.uspto.gov/.piw?Docid=06665797&homeurl=http%3A%2F%2Fpatft.uspto.gov%2Fnetacgi%2Fnph-Parser%3Fu%3D%2Fnetahtml%2Fsrchnum.htm%2526Sect1%3DPTO1%2526Sect2%3DHITOFF%2526p%3D1%2526r%3D1%2526l%3D50%2526f%3DG%2526d%3DPALL%2526s1%3D6665797.WKU.%2526OS%3DPN%2F6665797%2526RS%3DPN%2F6665797%5D&PageNum=&Rtype=&SectionNum=&idkey=01D53052E49D
  17. http://ebiz1.uspto.gov/vision-service/ShoppingCart_P/ShowShoppingCart?backUrl1=http%3A//164.195.100.11/netacgi/nph-Parser?u%3D%2Fnetahtml%2Fsrchnum.htm%26Sect1%3DPTO1%26Sect2%3DHITOFF%26p%3D1%26r%3D1%26l%3D50%26f%3DG%26d%3DPALL%26s1%3D6665797.WKU.%26OS%3DPN%2F6665797&backLabel1=Back%20to%20Document%3A%206,665,797
  18. http://ebiz1.uspto.gov/vision-service/ShoppingCart_P/AddToShoppingCart?docNumber=6,665,797&backUrl1=http%3A//164.195.100.11/netacgi/nph-Parser?u%3D%2Fnetahtml%2Fsrchnum.htm%26Sect1%3DPTO1%26Sect2%3DHITOFF%26p%3D1%26r%3D1%26l%3D50%26f%3DG%26d%3DPALL%26s1%3D6665797.WKU.%26OS%3DPN%2F6665797&backLabel1=Back%20to%20Document%3A%206,665,797
  19. http://patft.uspto.gov/netacgi/nph-Parser?u=/netahtml/srchnum.htm&Sect1=PTO1&Sect2=HITOFF&p=1&r=1&l=50&f=G&d=PALL&s1=6665797.WKU.&OS=PN/6665797&RS=PN/6665797]#top
  20. http://www.uspto.gov/patft/index.html
  21. http://patft.uspto.gov/netahtml/search-bool.html
  22. http://patft.uspto.gov/netahtml/search-adv.htm
  23. http://patft.uspto.gov/netahtml/srchnum.htm
  24. http://www.uspto.gov/patft/help/help.htm
