\relax 
\catcode`"\active
\ifx\hyper@anchor\@undefined
\global \let \oldcontentsline\contentsline
\gdef \contentsline#1#2#3#4{\oldcontentsline{#1}{#2}{#3}}
\global \let \oldnewlabel\newlabel
\gdef \newlabel#1#2{\newlabelxx{#1}#2}
\gdef \newlabelxx#1#2#3#4#5#6{\oldnewlabel{#1}{{#2}{#3}}}
\AtEndDocument{\let \contentsline\oldcontentsline
\let \newlabel\oldnewlabel}
\else
\global \let \hyper@last\relax 
\fi

\select@language{portuguese}
\@writefile{toc}{\select@language{portuguese}}
\@writefile{lof}{\select@language{portuguese}}
\@writefile{lot}{\select@language{portuguese}}
\@writefile{toc}{\contentsline {section}{\numberline {1}Fonte da Pol\'{\i }tica Portuguesa de Patentes: INPI.pt -- Instituto Nacional da Propriedade Industrial}{2}{section.1}}
\newlabel{inpi}{{1}{2}{Fonte da Pol\'{\i }tica Portuguesa de Patentes: INPI.pt -- Instituto Nacional da Propriedade Industrial\relax }{section.1}{}}
\gdef \LT@i {\LT@entry 
    {1}{83.90266pt}\LT@entry 
    {1}{83.50267pt}\LT@entry 
    {1}{83.50267pt}\LT@entry 
    {1}{83.50267pt}\LT@entry 
    {1}{83.50267pt}}
\@writefile{toc}{\contentsline {section}{\numberline {2}Consulta pro-patentes do INPI de 2001 / 2002}{6}{section.2}}
\newlabel{konsult}{{2}{6}{Consulta pro-patentes do INPI de 2001 / 2002\relax }{section.2}{}}
\@writefile{toc}{\contentsline {section}{\numberline {3}``Reabertura'' da Consulta em 2003-07}{11}{section.3}}
\newlabel{kons03}{{3}{11}{``Reabertura'' da Consulta em 2003-07\relax }{section.3}{}}
