\BOOKMARK [1][-]{section.1}{Fonte da Pol\355tica Portuguesa de Patentes: INPI.pt -- Instituto Nacional da Propriedade Industrial}{}
\BOOKMARK [1][-]{section.2}{Consulta pro-patentes do INPI de 2001 / 2002}{}
\BOOKMARK [1][-]{section.3}{``Reabertura'' da Consulta em 2003-07}{}
