\relax 
\ifx\hyper@anchor\@undefined
\global \let \oldcontentsline\contentsline
\gdef \contentsline#1#2#3#4{\oldcontentsline{#1}{#2}{#3}}
\global \let \oldnewlabel\newlabel
\gdef \newlabel#1#2{\newlabelxx{#1}#2}
\gdef \newlabelxx#1#2#3#4#5#6{\oldnewlabel{#1}{{#2}{#3}}}
\AtEndDocument{\let \contentsline\oldcontentsline
\let \newlabel\oldnewlabel}
\else
\global \let \hyper@last\relax 
\fi

\@writefile{toc}{\contentsline {section}{\numberline {1}Source of Portuguese Patent Policy: INPI.pt -- the Patent Office}{2}{section.1}}
\newlabel{inpi}{{1}{2}{Source of Portuguese Patent Policy: INPI.pt -- the Patent Office\relax }{section.1}{}}
\gdef \LT@i {\LT@entry 
    {1}{83.90266pt}\LT@entry 
    {1}{83.50267pt}\LT@entry 
    {1}{83.50267pt}\LT@entry 
    {1}{83.50267pt}\LT@entry 
    {1}{83.50267pt}}
\@writefile{toc}{\contentsline {section}{\numberline {2}INPI pro-patent consultations of 2001 / 2002}{6}{section.2}}
\newlabel{konsult}{{2}{6}{INPI pro-patent consultations of 2001 / 2002\relax }{section.2}{}}
\@writefile{toc}{\contentsline {section}{\numberline {3}``Re-Opening'' of Consultations in 2003-07}{11}{section.3}}
\newlabel{kons03}{{3}{11}{``Re-Opening'' of Consultations in 2003-07\relax }{section.3}{}}
