\contentsline {section}{\numberline {1}Name of the Workgroup}{1}{section.1}
\contentsline {section}{\numberline {2}Puropse of the Workgroup}{2}{section.2}
\contentsline {section}{\numberline {3}Means for Realising the Aim}{2}{section.3}
\contentsline {section}{\numberline {4}Compostion of the Workgroup}{2}{section.4}
\contentsline {section}{\numberline {5}Location}{3}{section.5}
\contentsline {section}{\numberline {6}Bank Account}{3}{section.6}
\contentsline {section}{\numberline {7}Signataries}{3}{section.7}
