\BOOKMARK [1][-]{section.1}{Name der Arbeitsgruppe}{}
\BOOKMARK [1][-]{section.2}{Zweck der Arbeitsgruppe}{}
\BOOKMARK [1][-]{section.3}{Mittel zur Verwirklichung des Zwecks}{}
\BOOKMARK [1][-]{section.4}{Zusammensetzung der Arbeitsgruppe}{}
\BOOKMARK [1][-]{section.5}{Sitz der Arbeitsgruppe}{}
\BOOKMARK [1][-]{section.6}{Bankverbindung der SWPAT-AG}{}
\BOOKMARK [1][-]{section.7}{Unterzeichner}{}
