\contentsline {section}{\numberline {1}Name der Arbeitsgruppe}{1}{section.1}
\contentsline {section}{\numberline {2}Zweck der Arbeitsgruppe}{2}{section.2}
\contentsline {section}{\numberline {3}Mittel zur Verwirklichung des Zwecks}{2}{section.3}
\contentsline {section}{\numberline {4}Zusammensetzung der Arbeitsgruppe}{2}{section.4}
\contentsline {section}{\numberline {5}Sitz der Arbeitsgruppe}{3}{section.5}
\contentsline {section}{\numberline {6}Bankverbindung der SWPAT-AG}{3}{section.6}
\contentsline {section}{\numberline {7}Unterzeichner}{3}{section.7}
