\select@language {french}
\select@language {french}
\contentsline {section}{\numberline {1}Nom du Groupe de Travail}{1}{section.0.1}
\contentsline {section}{\numberline {2}But du Groupe de Travail}{2}{section.0.2}
\contentsline {section}{\numberline {3}Moyens pour achever le But}{2}{section.0.3}
\contentsline {section}{\numberline {4}Composition du Groupe}{2}{section.0.4}
\contentsline {section}{\numberline {5}Si\`{e}ge}{2}{section.0.5}
\contentsline {section}{\numberline {6}Compte Banquaire}{3}{section.0.6}
\contentsline {section}{\numberline {7}Signataires}{3}{section.0.7}
