\relax 
\ifx\hyper@anchor\@undefined
\global \let \oldcontentsline\contentsline
\gdef \contentsline#1#2#3#4{\oldcontentsline{#1}{#2}{#3}}
\global \let \oldnewlabel\newlabel
\gdef \newlabel#1#2{\newlabelxx{#1}#2}
\gdef \newlabelxx#1#2#3#4#5#6{\oldnewlabel{#1}{{#2}{#3}}}
\AtEndDocument{\let \contentsline\oldcontentsline
\let \newlabel\oldnewlabel}
\else
\global \let \hyper@last\relax 
\fi

\csname auxWARNINGii\endcsname {\typeout {-34- this file and other auxiliary files require to use the following}}
\csname auxWARNINGii\endcsname {\typeout {-34- LaTeX packages: french and babel!}}
\csname auxWARNINGii\endcsname {\typeout {-34- check \protect \usepackage \space or remove these files. Typesetting is aborted!} \stop }
\select@language{french}
\@writefile{toc}{\select@language{french}}
\@writefile{lof}{\select@language{french}}
\@writefile{lot}{\select@language{french}}
\select@language{french}
\@writefile{toc}{\select@language{french}}
\@writefile{lof}{\select@language{french}}
\@writefile{lot}{\select@language{french}}
\newlabel{name}{{1}{1}{Nom du Groupe de Travail\label {name}\relax }{section.0.1}{}}
\@writefile{toc}{\contentsline {section}{\numberline {1}Nom du Groupe de Travail}{1}{section.0.1}}
\newlabel{zwek}{{2}{2}{But du Groupe de Travail\label {zwek}\relax }{section.0.2}{}}
\@writefile{toc}{\contentsline {section}{\numberline {2}But du Groupe de Travail}{2}{section.0.2}}
\newlabel{meth}{{3}{2}{Moyens pour achever le But\label {meth}\relax }{section.0.3}{}}
\@writefile{toc}{\contentsline {section}{\numberline {3}Moyens pour achever le But}{2}{section.0.3}}
\newlabel{mitg}{{4}{2}{Composition du Groupe\label {mitg}\relax }{section.0.4}{}}
\@writefile{toc}{\contentsline {section}{\numberline {4}Composition du Groupe}{2}{section.0.4}}
\newlabel{sitz}{{5}{2}{Si\`{e}ge\label {sitz}\relax }{section.0.5}{}}
\@writefile{toc}{\contentsline {section}{\numberline {5}Si\`{e}ge}{2}{section.0.5}}
\newlabel{kont}{{6}{3}{Compte Banquaire\label {kont}\relax }{section.0.6}{}}
\@writefile{toc}{\contentsline {section}{\numberline {6}Compte Banquaire}{3}{section.0.6}}
\newlabel{sign}{{7}{3}{Signataires\label {sign}\relax }{section.0.7}{}}
\@writefile{toc}{\contentsline {section}{\numberline {7}Signataires}{3}{section.0.7}}
