\relax 
\ifx\hyper@anchor\@undefined
\global \let \oldcontentsline\contentsline
\gdef \contentsline#1#2#3#4{\oldcontentsline{#1}{#2}{#3}}
\global \let \oldnewlabel\newlabel
\gdef \newlabel#1#2{\newlabelxx{#1}#2}
\gdef \newlabelxx#1#2#3#4#5#6{\oldnewlabel{#1}{{#2}{#3}}}
\AtEndDocument{\let \contentsline\oldcontentsline
\let \newlabel\oldnewlabel}
\else
\global \let \hyper@last\relax 
\fi

\newlabel{name}{{1}{1}{Name of the Workgroup\label {name}\relax }{section.1}{}}
\@writefile{toc}{\contentsline {section}{\numberline {1}Name of the Workgroup}{1}{section.1}}
\newlabel{zwek}{{2}{2}{Puropse of the Workgroup\label {zwek}\relax }{section.2}{}}
\@writefile{toc}{\contentsline {section}{\numberline {2}Puropse of the Workgroup}{2}{section.2}}
\newlabel{meth}{{3}{2}{Means for Realising the Aim\label {meth}\relax }{section.3}{}}
\@writefile{toc}{\contentsline {section}{\numberline {3}Means for Realising the Aim}{2}{section.3}}
\newlabel{mitg}{{4}{2}{Compostion of the Workgroup\label {mitg}\relax }{section.4}{}}
\@writefile{toc}{\contentsline {section}{\numberline {4}Compostion of the Workgroup}{2}{section.4}}
\newlabel{sitz}{{5}{3}{Location\label {sitz}\relax }{section.5}{}}
\@writefile{toc}{\contentsline {section}{\numberline {5}Location}{3}{section.5}}
\newlabel{kont}{{6}{3}{Bank Account\label {kont}\relax }{section.6}{}}
\@writefile{toc}{\contentsline {section}{\numberline {6}Bank Account}{3}{section.6}}
\newlabel{sign}{{7}{3}{Signataries\label {sign}\relax }{section.7}{}}
\@writefile{toc}{\contentsline {section}{\numberline {7}Signataries}{3}{section.7}}
