\relax 
\ifx\hyper@anchor\@undefined
\global \let \oldcontentsline\contentsline
\gdef \contentsline#1#2#3#4{\oldcontentsline{#1}{#2}{#3}}
\global \let \oldnewlabel\newlabel
\gdef \newlabel#1#2{\newlabelxx{#1}#2}
\gdef \newlabelxx#1#2#3#4#5#6{\oldnewlabel{#1}{{#2}{#3}}}
\AtEndDocument{\let \contentsline\oldcontentsline
\let \newlabel\oldnewlabel}
\else
\global \let \hyper@last\relax 
\fi

\newlabel{name}{{1}{1}{Name der Arbeitsgruppe\label {name}\relax }{section.1}{}}
\@writefile{toc}{\contentsline {section}{\numberline {1}Name der Arbeitsgruppe}{1}{section.1}}
\newlabel{zwek}{{2}{2}{Zweck der Arbeitsgruppe\label {zwek}\relax }{section.2}{}}
\@writefile{toc}{\contentsline {section}{\numberline {2}Zweck der Arbeitsgruppe}{2}{section.2}}
\newlabel{meth}{{3}{2}{Mittel zur Verwirklichung des Zwecks\label {meth}\relax }{section.3}{}}
\@writefile{toc}{\contentsline {section}{\numberline {3}Mittel zur Verwirklichung des Zwecks}{2}{section.3}}
\newlabel{mitg}{{4}{2}{Zusammensetzung der Arbeitsgruppe\label {mitg}\relax }{section.4}{}}
\@writefile{toc}{\contentsline {section}{\numberline {4}Zusammensetzung der Arbeitsgruppe}{2}{section.4}}
\newlabel{sitz}{{5}{3}{Sitz der Arbeitsgruppe\label {sitz}\relax }{section.5}{}}
\@writefile{toc}{\contentsline {section}{\numberline {5}Sitz der Arbeitsgruppe}{3}{section.5}}
\newlabel{kont}{{6}{3}{Bankverbindung der SWPAT-AG\label {kont}\relax }{section.6}{}}
\@writefile{toc}{\contentsline {section}{\numberline {6}Bankverbindung der SWPAT-AG}{3}{section.6}}
\newlabel{sign}{{7}{3}{Unterzeichner\label {sign}\relax }{section.7}{}}
\@writefile{toc}{\contentsline {section}{\numberline {7}Unterzeichner}{3}{section.7}}
