\select@language {french}
\contentsline {section}{\numberline {1}introduction}{1}{section.1}
\contentsline {section}{\numberline {2}kontakt}{1}{section.2}
\contentsline {section}{\numberline {3}Liens annot\'{e}s}{2}{section.3}
\contentsline {section}{\numberline {4}Questions, choses \`{a} faire, comment vous pouvez aider}{2}{section.4}
