\BOOKMARK [1][-]{section.1}{introduction}{}
\BOOKMARK [1][-]{section.2}{contact}{}
\BOOKMARK [1][-]{section.3}{Annotated Links}{}
\BOOKMARK [1][-]{section.4}{Questions, Things To Do, How you can Help}{}
