\contentsline {section}{\numberline {1}Einf\"{u}hrung}{1}{section.1}
\contentsline {section}{\numberline {2}Kontakt}{2}{section.2}
\contentsline {section}{\numberline {3}Annotated Links}{2}{section.3}
\contentsline {section}{\numberline {4}Fragen, Aufgaben, Wie Sie helfen k\"{o}nnen}{2}{section.4}
