\contentsline {section}{\numberline {1}introduction}{1}{section.1}
\contentsline {section}{\numberline {2}contact}{2}{section.2}
\contentsline {section}{\numberline {3}Annotated Links}{2}{section.3}
\contentsline {section}{\numberline {4}Questions, Things To Do, How you can Help}{2}{section.4}
