\relax 
\ifx\hyper@anchor\@undefined
\global \let \oldcontentsline\contentsline
\gdef \contentsline#1#2#3#4{\oldcontentsline{#1}{#2}{#3}}
\global \let \oldnewlabel\newlabel
\gdef \newlabel#1#2{\newlabelxx{#1}#2}
\gdef \newlabelxx#1#2#3#4#5#6{\oldnewlabel{#1}{{#2}{#3}}}
\AtEndDocument{\let \contentsline\oldcontentsline
\let \newlabel\oldnewlabel}
\else
\global \let \hyper@last\relax 
\fi

\@writefile{toc}{\contentsline {section}{\numberline {1}Tabelle}{2}{section.1}}
\newlabel{tab}{{1}{2}{Tabelle\relax }{section.1}{}}
\gdef \LT@i {\LT@entry 
    {1}{104.81671pt}\LT@entry 
    {1}{104.41672pt}\LT@entry 
    {1}{104.41672pt}\LT@entry 
    {1}{104.41672pt}}
\@writefile{toc}{\contentsline {section}{\numberline {2}Kommentierte Verweise}{17}{section.2}}
\newlabel{links}{{2}{17}{Kommentierte Verweise\relax }{section.2}{}}
\gdef\scr@tpo@lst{0}
