\relax 
\ifx\hyper@anchor\@undefined
\global \let \oldcontentsline\contentsline
\gdef \contentsline#1#2#3#4{\oldcontentsline{#1}{#2}{#3}}
\global \let \oldnewlabel\newlabel
\gdef \newlabel#1#2{\newlabelxx{#1}#2}
\gdef \newlabelxx#1#2#3#4#5#6{\oldnewlabel{#1}{{#2}{#3}}}
\AtEndDocument{\let \contentsline\oldcontentsline
\let \newlabel\oldnewlabel}
\else
\global \let \hyper@last\relax 
\fi

\@writefile{toc}{\contentsline {section}{\numberline {1}Kollision statt Kompromiss}{2}{section.1}}
\newlabel{intro}{{1}{2}{Kollision statt Kompromiss\relax }{section.1}{}}
\@writefile{toc}{\contentsline {section}{\numberline {2}Programm-Anspr\"{u}che: alle T\"{u}ren zugeschlagen}{3}{section.2}}
\newlabel{prog}{{2}{3}{Programm-Anspr\"{u}che: alle T\"{u}ren zugeschlagen\relax }{section.2}{}}
\@writefile{toc}{\contentsline {section}{\numberline {3}Programmtext-Ver\"{o}ffentlichung: Ein weiterer Schritt weg vom Parlament}{7}{section.3}}
\newlabel{publ}{{3}{7}{Programmtext-Ver\"{o}ffentlichung: Ein weiterer Schritt weg vom Parlament\relax }{section.3}{}}
\@writefile{toc}{\contentsline {section}{\numberline {4}Interoperabilit\"{a}tsprivileg gestrichen, Grenzenlose Durchsetzbarkeit gesichert}{8}{section.4}}
\newlabel{itop}{{4}{8}{Interoperabilit\"{a}tsprivileg gestrichen, Grenzenlose Durchsetzbarkeit gesichert\relax }{section.4}{}}
\@writefile{toc}{\contentsline {section}{\numberline {5}Ersatzlose Streichung der Definitionen von ``Technik'', ``Industrie'', ``Erfindung''}{10}{section.5}}
\newlabel{tech}{{5}{10}{Ersatzlose Streichung der Definitionen von ``Technik'', ``Industrie'', ``Erfindung''\relax }{section.5}{}}
\@writefile{toc}{\contentsline {section}{\numberline {6}Systemwidrige Vermengung von Technizit\"{a}t und Erfindungsh\"{o}he}{12}{section.6}}
\newlabel{pens}{{6}{12}{Systemwidrige Vermengung von Technizit\"{a}t und Erfindungsh\"{o}he\relax }{section.6}{}}
\@writefile{toc}{\contentsline {section}{\numberline {7}Anwendungsgebiet der Richtlinie auf beliebige Verfahrenserfindungen ausgeweitet}{13}{section.7}}
\newlabel{kinv}{{7}{13}{Anwendungsgebiet der Richtlinie auf beliebige Verfahrenserfindungen ausgeweitet\relax }{section.7}{}}
\@writefile{toc}{\contentsline {section}{\numberline {8}Scheinbegrenzungen, Irref\"{u}hrende Schachtels\"{a}tze}{15}{section.8}}
\newlabel{tabl}{{8}{15}{Scheinbegrenzungen, Irref\"{u}hrende Schachtels\"{a}tze\relax }{section.8}{}}
\@writefile{toc}{\contentsline {section}{\numberline {9}Mutwillige Zerst\"{o}rung des EU-Richtlinienprojektes?}{16}{section.9}}
\newlabel{ferm}{{9}{16}{Mutwillige Zerst\"{o}rung des EU-Richtlinienprojektes?\relax }{section.9}{}}
\@writefile{toc}{\contentsline {section}{\numberline {10}Kommentierte Verweise}{16}{section.10}}
\newlabel{links}{{10}{16}{Kommentierte Verweise\relax }{section.10}{}}
\gdef\scr@tpo@lst{0}
