\contentsline {section}{\numberline {1}Botsing in plaats van Compromis}{2}{section.1}
\contentsline {section}{\numberline {2}Publicatie van Programma's Niet Toegelaten, Alle Bruggen Verbrand}{3}{section.2}
\contentsline {section}{\numberline {3}Geen Vrijgave van Programma's: Nog een Stap Verder Weg van het Parlement}{7}{section.3}
\contentsline {section}{\numberline {4}Interoperabiliteit met Gepatenteerde Standaarden Niet Toegestaan}{7}{section.4}
\contentsline {section}{\numberline {5}Patenteerbaarheid Gelimiteerd door Betekenisloze Termen, Definities Verwijderd}{10}{section.5}
\contentsline {section}{\numberline {6}Technische Aard Vermengd met het Niet voor de Hand Liggend Zijn}{11}{section.6}
\contentsline {section}{\numberline {7}``In een computer ge\"{\i }mplementeerde Uitvinding'' als Trojaans Paard}{13}{section.7}
\contentsline {section}{\numberline {8}Nietszeggende Beperkingen, Ingewikkelde Dubbelzinnigheden}{15}{section.8}
\contentsline {section}{\numberline {9}Opzettelijke Vernietiging van de EU-Richtlijn?}{17}{section.9}
\contentsline {section}{\numberline {10}koppelingen met voetnoten}{17}{section.10}
