\select@language {french}
\contentsline {section}{\numberline {1}Conflit \`{a} la place de compromis}{2}{section.1}
\contentsline {section}{\numberline {2}Publication de programmes non autoris\'{e}e, d\'{e}molition de tous les ponts}{3}{section.2}
\contentsline {section}{\numberline {3}Aucune divulgation de programme : un pas de plus s'\'{e}loignant du Parlement}{6}{section.3}
\contentsline {section}{\numberline {4}Interop\'{e}rabilit\'{e} non autoris\'{e}e avec les standards brevet\'{e}s}{7}{section.4}
\contentsline {section}{\numberline {5}Brevetabilit\'{e} limit\'{e}e par des termes d\'{e}nu\'{e}s de sens, d\'{e}finitions supprim\'{e}es}{9}{section.5}
\contentsline {section}{\numberline {6}M\'{e}lange du caract\`{e}re technique avec la non \'{e}vidence}{11}{section.6}
\contentsline {section}{\numberline {7}``Invention mise en oeuvre par ordinateur'' enlargi \`{a} n'importe quel proc\'{e}d\'{e} brevetable}{12}{section.7}
\contentsline {section}{\numberline {8}Fausses limites, ambigu\"{\i }t\'{e}s tarabiscot\'{e}es}{14}{section.8}
\contentsline {section}{\numberline {9}Destruction d\'{e}lib\'{e}r\'{e}e du projet de directive europ\'{e}enne ?}{15}{section.9}
\contentsline {section}{\numberline {10}Liens annot\'{e}s}{15}{section.10}
