\relax 
\ifx\hyper@anchor\@undefined
\global \let \oldcontentsline\contentsline
\gdef \contentsline#1#2#3#4{\oldcontentsline{#1}{#2}{#3}}
\global \let \oldnewlabel\newlabel
\gdef \newlabel#1#2{\newlabelxx{#1}#2}
\gdef \newlabelxx#1#2#3#4#5#6{\oldnewlabel{#1}{{#2}{#3}}}
\AtEndDocument{\let \contentsline\oldcontentsline
\let \newlabel\oldnewlabel}
\else
\global \let \hyper@last\relax 
\fi

\@writefile{toc}{\contentsline {section}{\numberline {1}Botsing in plaats van Compromis}{2}{section.1}}
\newlabel{intro}{{1}{2}{Botsing in plaats van Compromis\relax }{section.1}{}}
\@writefile{toc}{\contentsline {section}{\numberline {2}Publicatie van Programma's Niet Toegelaten, Alle Bruggen Verbrand}{3}{section.2}}
\newlabel{prog}{{2}{3}{Publicatie van Programma's Niet Toegelaten, Alle Bruggen Verbrand\relax }{section.2}{}}
\@writefile{toc}{\contentsline {section}{\numberline {3}Geen Vrijgave van Programma's: Nog een Stap Verder Weg van het Parlement}{7}{section.3}}
\newlabel{publ}{{3}{7}{Geen Vrijgave van Programma's: Nog een Stap Verder Weg van het Parlement\relax }{section.3}{}}
\@writefile{toc}{\contentsline {section}{\numberline {4}Interoperabiliteit met Gepatenteerde Standaarden Niet Toegestaan}{7}{section.4}}
\newlabel{itop}{{4}{7}{Interoperabiliteit met Gepatenteerde Standaarden Niet Toegestaan\relax }{section.4}{}}
\@writefile{toc}{\contentsline {section}{\numberline {5}Patenteerbaarheid Gelimiteerd door Betekenisloze Termen, Definities Verwijderd}{10}{section.5}}
\newlabel{tech}{{5}{10}{Patenteerbaarheid Gelimiteerd door Betekenisloze Termen, Definities Verwijderd\relax }{section.5}{}}
\@writefile{toc}{\contentsline {section}{\numberline {6}Technische Aard Vermengd met het Niet voor de Hand Liggend Zijn}{11}{section.6}}
\newlabel{pens}{{6}{11}{Technische Aard Vermengd met het Niet voor de Hand Liggend Zijn\relax }{section.6}{}}
\@writefile{toc}{\contentsline {section}{\numberline {7}``In een computer ge\"{\i }mplementeerde Uitvinding'' als Trojaans Paard}{13}{section.7}}
\newlabel{kinv}{{7}{13}{``In een computer ge\"{\i }mplementeerde Uitvinding'' als Trojaans Paard\relax }{section.7}{}}
\@writefile{toc}{\contentsline {section}{\numberline {8}Nietszeggende Beperkingen, Ingewikkelde Dubbelzinnigheden}{15}{section.8}}
\newlabel{tabl}{{8}{15}{Nietszeggende Beperkingen, Ingewikkelde Dubbelzinnigheden\relax }{section.8}{}}
\@writefile{toc}{\contentsline {section}{\numberline {9}Opzettelijke Vernietiging van de EU-Richtlijn?}{17}{section.9}}
\newlabel{ferm}{{9}{17}{Opzettelijke Vernietiging van de EU-Richtlijn?\relax }{section.9}{}}
\@writefile{toc}{\contentsline {section}{\numberline {10}koppelingen met voetnoten}{17}{section.10}}
\newlabel{links}{{10}{17}{koppelingen met voetnoten\relax }{section.10}{}}
\gdef\scr@tpo@lst{0}
