\relax 
\catcode`:\active
\catcode`;\active
\catcode`!\active
\catcode`?\active
\ifx\hyper@anchor\@undefined
\global \let \oldcontentsline\contentsline
\gdef \contentsline#1#2#3#4{\oldcontentsline{#1}{#2}{#3}}
\global \let \oldnewlabel\newlabel
\gdef \newlabel#1#2{\newlabelxx{#1}#2}
\gdef \newlabelxx#1#2#3#4#5#6{\oldnewlabel{#1}{{#2}{#3}}}
\AtEndDocument{\let \contentsline\oldcontentsline
\let \newlabel\oldnewlabel}
\else
\global \let \hyper@last\relax 
\fi

\select@language{french}
\@writefile{toc}{\select@language{french}}
\@writefile{lof}{\select@language{french}}
\@writefile{lot}{\select@language{french}}
\@writefile{toc}{\contentsline {section}{\numberline {1}Conflit \`{a} la place de compromis}{2}{section.1}}
\newlabel{intro}{{1}{2}{Conflit \`{a} la place de compromis\relax }{section.1}{}}
\@writefile{toc}{\contentsline {section}{\numberline {2}Publication de programmes non autoris\'{e}e, d\'{e}molition de tous les ponts}{3}{section.2}}
\newlabel{prog}{{2}{3}{Publication de programmes non autoris\'{e}e, d\'{e}molition de tous les ponts\relax }{section.2}{}}
\@writefile{toc}{\contentsline {section}{\numberline {3}Aucune divulgation de programme : un pas de plus s'\'{e}loignant du Parlement}{6}{section.3}}
\newlabel{publ}{{3}{6}{Aucune divulgation de programme : un pas de plus s'\'{e}loignant du Parlement\relax }{section.3}{}}
\@writefile{toc}{\contentsline {section}{\numberline {4}Interop\'{e}rabilit\'{e} non autoris\'{e}e avec les standards brevet\'{e}s}{7}{section.4}}
\newlabel{itop}{{4}{7}{Interop\'{e}rabilit\'{e} non autoris\'{e}e avec les standards brevet\'{e}s\relax }{section.4}{}}
\@writefile{toc}{\contentsline {section}{\numberline {5}Brevetabilit\'{e} limit\'{e}e par des termes d\'{e}nu\'{e}s de sens, d\'{e}finitions supprim\'{e}es}{9}{section.5}}
\newlabel{tech}{{5}{9}{Brevetabilit\'{e} limit\'{e}e par des termes d\'{e}nu\'{e}s de sens, d\'{e}finitions supprim\'{e}es\relax }{section.5}{}}
\@writefile{toc}{\contentsline {section}{\numberline {6}M\'{e}lange du caract\`{e}re technique avec la non \'{e}vidence}{11}{section.6}}
\newlabel{pens}{{6}{11}{M\'{e}lange du caract\`{e}re technique avec la non \'{e}vidence\relax }{section.6}{}}
\@writefile{toc}{\contentsline {section}{\numberline {7}``Invention mise en oeuvre par ordinateur'' enlargi \`{a} n'importe quel proc\'{e}d\'{e} brevetable}{12}{section.7}}
\newlabel{kinv}{{7}{12}{``Invention mise en oeuvre par ordinateur'' enlargi \`{a} n'importe quel proc\'{e}d\'{e} brevetable\relax }{section.7}{}}
\@writefile{toc}{\contentsline {section}{\numberline {8}Fausses limites, ambigu\"{\i }t\'{e}s tarabiscot\'{e}es}{14}{section.8}}
\newlabel{tabl}{{8}{14}{Fausses limites, ambigu\"{\i }t\'{e}s tarabiscot\'{e}es\relax }{section.8}{}}
\@writefile{toc}{\contentsline {section}{\numberline {9}Destruction d\'{e}lib\'{e}r\'{e}e du projet de directive europ\'{e}enne ?}{15}{section.9}}
\newlabel{ferm}{{9}{15}{Destruction d\'{e}lib\'{e}r\'{e}e du projet de directive europ\'{e}enne ?\relax }{section.9}{}}
\@writefile{toc}{\contentsline {section}{\numberline {10}Liens annot\'{e}s}{15}{section.10}}
\newlabel{links}{{10}{15}{Liens annot\'{e}s\relax }{section.10}{}}
\gdef\scr@tpo@lst{0}
