\contentsline {section}{\numberline {1}Collision instead of Compromise}{2}{section.1}
\contentsline {section}{\numberline {2}Program Publication Not Allowed, All Bridges Torn Down}{3}{section.2}
\contentsline {section}{\numberline {3}No Program Disclosure: Another Step Away from the Parliament}{6}{section.3}
\contentsline {section}{\numberline {4}Interoperation with Patented Standards Not Allowed}{7}{section.4}
\contentsline {section}{\numberline {5}Patentability Limited by Meaningless Terms, Definitions Removed}{9}{section.5}
\contentsline {section}{\numberline {6}Technicity Mingled with Non-Obviousness}{11}{section.6}
\contentsline {section}{\numberline {7}Scope of Directive Enlarged to Cover Any Process Invention}{13}{section.7}
\contentsline {section}{\numberline {8}Fake Limits, Convoluted Ambiguities}{14}{section.8}
\contentsline {section}{\numberline {9}Deliberate Destruction of EU Directive Project?}{15}{section.9}
\contentsline {section}{\numberline {10}Annotated Links}{15}{section.10}
