\relax 
\ifx\hyper@anchor\@undefined
\global \let \oldcontentsline\contentsline
\gdef \contentsline#1#2#3#4{\oldcontentsline{#1}{#2}{#3}}
\global \let \oldnewlabel\newlabel
\gdef \newlabel#1#2{\newlabelxx{#1}#2}
\gdef \newlabelxx#1#2#3#4#5#6{\oldnewlabel{#1}{{#2}{#3}}}
\AtEndDocument{\let \contentsline\oldcontentsline
\let \newlabel\oldnewlabel}
\else
\global \let \hyper@last\relax 
\fi

\@writefile{toc}{\contentsline {section}{\numberline {1}Collision instead of Compromise}{2}{section.1}}
\newlabel{intro}{{1}{2}{Collision instead of Compromise\relax }{section.1}{}}
\@writefile{toc}{\contentsline {section}{\numberline {2}Program Publication Not Allowed, All Bridges Torn Down}{3}{section.2}}
\newlabel{prog}{{2}{3}{Program Publication Not Allowed, All Bridges Torn Down\relax }{section.2}{}}
\@writefile{toc}{\contentsline {section}{\numberline {3}No Program Disclosure: Another Step Away from the Parliament}{6}{section.3}}
\newlabel{publ}{{3}{6}{No Program Disclosure: Another Step Away from the Parliament\relax }{section.3}{}}
\@writefile{toc}{\contentsline {section}{\numberline {4}Interoperation with Patented Standards Not Allowed}{7}{section.4}}
\newlabel{itop}{{4}{7}{Interoperation with Patented Standards Not Allowed\relax }{section.4}{}}
\@writefile{toc}{\contentsline {section}{\numberline {5}Patentability Limited by Meaningless Terms, Definitions Removed}{9}{section.5}}
\newlabel{tech}{{5}{9}{Patentability Limited by Meaningless Terms, Definitions Removed\relax }{section.5}{}}
\@writefile{toc}{\contentsline {section}{\numberline {6}Technicity Mingled with Non-Obviousness}{11}{section.6}}
\newlabel{pens}{{6}{11}{Technicity Mingled with Non-Obviousness\relax }{section.6}{}}
\@writefile{toc}{\contentsline {section}{\numberline {7}Scope of Directive Enlarged to Cover Any Process Invention}{13}{section.7}}
\newlabel{kinv}{{7}{13}{Scope of Directive Enlarged to Cover Any Process Invention\relax }{section.7}{}}
\@writefile{toc}{\contentsline {section}{\numberline {8}Fake Limits, Convoluted Ambiguities}{14}{section.8}}
\newlabel{tabl}{{8}{14}{Fake Limits, Convoluted Ambiguities\relax }{section.8}{}}
\@writefile{toc}{\contentsline {section}{\numberline {9}Deliberate Destruction of EU Directive Project?}{15}{section.9}}
\newlabel{ferm}{{9}{15}{Deliberate Destruction of EU Directive Project?\relax }{section.9}{}}
\@writefile{toc}{\contentsline {section}{\numberline {10}Annotated Links}{15}{section.10}}
\newlabel{links}{{10}{15}{Annotated Links\relax }{section.10}{}}
\gdef\scr@tpo@lst{0}
