\relax 
\ifx\hyper@anchor\@undefined
\global \let \oldcontentsline\contentsline
\gdef \contentsline#1#2#3#4{\oldcontentsline{#1}{#2}{#3}}
\global \let \oldnewlabel\newlabel
\gdef \newlabel#1#2{\newlabelxx{#1}#2}
\gdef \newlabelxx#1#2#3#4#5#6{\oldnewlabel{#1}{{#2}{#3}}}
\AtEndDocument{\let \contentsline\oldcontentsline
\let \newlabel\oldnewlabel}
\else
\global \let \hyper@last\relax 
\fi

\@writefile{toc}{\contentsline {section}{\numberline {1}Einf\"{u}hrung}{2}{section.1}}
\newlabel{intro}{{1}{2}{Einf\"{u}hrung\relax }{section.1}{}}
\@writefile{toc}{\contentsline {section}{\numberline {2}Durchg\"{a}ngig}{3}{section.2}}
\newlabel{text}{{2}{3}{Durchg\"{a}ngig\relax }{section.2}{}}
\@writefile{toc}{\contentsline {section}{\numberline {3}Titel}{3}{section.3}}
\newlabel{tit}{{3}{3}{Titel\relax }{section.3}{}}
\@writefile{toc}{\contentsline {section}{\numberline {4}Artikel}{4}{section.4}}
\newlabel{art}{{4}{4}{Artikel\relax }{section.4}{}}
\@writefile{toc}{\contentsline {subsection}{\numberline {4.1}Artikel 1}{4}{subsection.4.1}}
\newlabel{art1}{{4.1}{4}{Artikel 1\relax }{subsection.4.1}{}}
\@writefile{toc}{\contentsline {subsection}{\numberline {4.2}Artikel 2(a)}{5}{subsection.4.2}}
\newlabel{art2a}{{4.2}{5}{Artikel 2(a)\relax }{subsection.4.2}{}}
\@writefile{toc}{\contentsline {subsection}{\numberline {4.3}Artikel 2(b)}{6}{subsection.4.3}}
\newlabel{art2b}{{4.3}{6}{Artikel 2(b)\relax }{subsection.4.3}{}}
\@writefile{toc}{\contentsline {subsection}{\numberline {4.4}Artikel 2(b) bis}{7}{subsection.4.4}}
\newlabel{art2b2}{{4.4}{7}{Artikel 2(b) bis\relax }{subsection.4.4}{}}
\@writefile{toc}{\contentsline {subsection}{\numberline {4.5}Artikel 2(c)}{8}{subsection.4.5}}
\newlabel{art2c}{{4.5}{8}{Artikel 2(c)\relax }{subsection.4.5}{}}
\@writefile{toc}{\contentsline {subsection}{\numberline {4.6}Artikel 2(d) (new) 1}{9}{subsection.4.6}}
\newlabel{art2d1}{{4.6}{9}{Artikel 2(d) (new) 1\relax }{subsection.4.6}{}}
\@writefile{toc}{\contentsline {subsection}{\numberline {4.7}Artikel 2(d) (new) 2}{9}{subsection.4.7}}
\newlabel{art2d2}{{4.7}{9}{Artikel 2(d) (new) 2\relax }{subsection.4.7}{}}
\@writefile{toc}{\contentsline {subsection}{\numberline {4.8}Artikel 3a}{10}{subsection.4.8}}
\newlabel{art3a}{{4.8}{10}{Artikel 3a\relax }{subsection.4.8}{}}
\@writefile{toc}{\contentsline {subsection}{\numberline {4.9}Artikel 3}{11}{subsection.4.9}}
\newlabel{art3}{{4.9}{11}{Artikel 3\relax }{subsection.4.9}{}}
\@writefile{toc}{\contentsline {subsection}{\numberline {4.10}Artikel 4(3) (new)}{12}{subsection.4.10}}
\newlabel{art43N}{{4.10}{12}{Artikel 4(3) (new)\relax }{subsection.4.10}{}}
\@writefile{toc}{\contentsline {subsection}{\numberline {4.11}Artikel 4}{12}{subsection.4.11}}
\newlabel{art4@A}{{4.11}{12}{Artikel 4\relax }{subsection.4.11}{}}
\@writefile{toc}{\contentsline {subsection}{\numberline {4.12}Artikel 5(1)}{14}{subsection.4.12}}
\newlabel{art5}{{4.12}{14}{Artikel 5(1)\relax }{subsection.4.12}{}}
\@writefile{toc}{\contentsline {subsection}{\numberline {4.13}Artikel 5(2)}{15}{subsection.4.13}}
\newlabel{art5_2}{{4.13}{15}{Artikel 5(2)\relax }{subsection.4.13}{}}
\@writefile{toc}{\contentsline {subsection}{\numberline {4.14}Artikel 5(b)}{16}{subsection.4.14}}
\newlabel{art5B}{{4.14}{16}{Artikel 5(b)\relax }{subsection.4.14}{}}
\@writefile{toc}{\contentsline {subsection}{\numberline {4.15}Artikel 5(c)}{16}{subsection.4.15}}
\newlabel{art5C}{{4.15}{16}{Artikel 5(c)\relax }{subsection.4.15}{}}
\@writefile{toc}{\contentsline {subsection}{\numberline {4.16}Artikel 6}{17}{subsection.4.16}}
\newlabel{art6}{{4.16}{17}{Artikel 6\relax }{subsection.4.16}{}}
\gdef\scr@tpo@lst{0}
