\BOOKMARK [1][-]{section.1}{Einf\374hrung}{}
\BOOKMARK [1][-]{section.2}{Durchg\344ngig}{}
\BOOKMARK [1][-]{section.3}{Titel}{}
\BOOKMARK [1][-]{section.4}{Artikel}{}
\BOOKMARK [2][-]{subsection.4.1}{Artikel 1}{section.4}
\BOOKMARK [2][-]{subsection.4.2}{Artikel 2\(a\)}{section.4}
\BOOKMARK [2][-]{subsection.4.3}{Artikel 2\(b\)}{section.4}
\BOOKMARK [2][-]{subsection.4.4}{Artikel 2\(b\) bis}{section.4}
\BOOKMARK [2][-]{subsection.4.5}{Artikel 2\(c\)}{section.4}
\BOOKMARK [2][-]{subsection.4.6}{Artikel 2\(d\) \(new\) 1}{section.4}
\BOOKMARK [2][-]{subsection.4.7}{Artikel 2\(d\) \(new\) 2}{section.4}
\BOOKMARK [2][-]{subsection.4.8}{Artikel 3a}{section.4}
\BOOKMARK [2][-]{subsection.4.9}{Artikel 3}{section.4}
\BOOKMARK [2][-]{subsection.4.10}{Artikel 4\(3\) \(new\)}{section.4}
\BOOKMARK [2][-]{subsection.4.11}{Artikel 4}{section.4}
\BOOKMARK [2][-]{subsection.4.12}{Artikel 5\(1\)}{section.4}
\BOOKMARK [2][-]{subsection.4.13}{Artikel 5\(2\)}{section.4}
\BOOKMARK [2][-]{subsection.4.14}{Artikel 5\(b\)}{section.4}
\BOOKMARK [2][-]{subsection.4.15}{Artikel 5\(c\)}{section.4}
\BOOKMARK [2][-]{subsection.4.16}{Artikel 6}{section.4}
