\contentsline {section}{\numberline {1}Einf\"{u}hrung}{2}{section.1}
\contentsline {section}{\numberline {2}Durchg\"{a}ngig}{3}{section.2}
\contentsline {section}{\numberline {3}Titel}{3}{section.3}
\contentsline {section}{\numberline {4}Artikel}{4}{section.4}
\contentsline {subsection}{\numberline {4.1}Artikel 1}{4}{subsection.4.1}
\contentsline {subsection}{\numberline {4.2}Artikel 2(a)}{5}{subsection.4.2}
\contentsline {subsection}{\numberline {4.3}Artikel 2(b)}{6}{subsection.4.3}
\contentsline {subsection}{\numberline {4.4}Artikel 2(b) bis}{7}{subsection.4.4}
\contentsline {subsection}{\numberline {4.5}Artikel 2(c)}{8}{subsection.4.5}
\contentsline {subsection}{\numberline {4.6}Artikel 2(d) (new) 1}{9}{subsection.4.6}
\contentsline {subsection}{\numberline {4.7}Artikel 2(d) (new) 2}{9}{subsection.4.7}
\contentsline {subsection}{\numberline {4.8}Artikel 3a}{10}{subsection.4.8}
\contentsline {subsection}{\numberline {4.9}Artikel 3}{11}{subsection.4.9}
\contentsline {subsection}{\numberline {4.10}Artikel 4(3) (new)}{12}{subsection.4.10}
\contentsline {subsection}{\numberline {4.11}Artikel 4}{12}{subsection.4.11}
\contentsline {subsection}{\numberline {4.12}Artikel 5(1)}{14}{subsection.4.12}
\contentsline {subsection}{\numberline {4.13}Artikel 5(2)}{15}{subsection.4.13}
\contentsline {subsection}{\numberline {4.14}Artikel 5(b)}{16}{subsection.4.14}
\contentsline {subsection}{\numberline {4.15}Artikel 5(c)}{16}{subsection.4.15}
\contentsline {subsection}{\numberline {4.16}Artikel 6}{17}{subsection.4.16}
