\contentsline {section}{\numberline {1}introduction}{2}{section.1}
\contentsline {section}{\numberline {2}Throughout the text}{3}{section.2}
\contentsline {section}{\numberline {3}Title}{3}{section.3}
\contentsline {section}{\numberline {4}Articles}{4}{section.4}
\contentsline {subsection}{\numberline {4.1}Article 1}{4}{subsection.4.1}
\contentsline {subsection}{\numberline {4.2}Article 2(a)}{4}{subsection.4.2}
\contentsline {subsection}{\numberline {4.3}Article 2(b)}{5}{subsection.4.3}
\contentsline {subsection}{\numberline {4.4}Article 2(b) bis}{6}{subsection.4.4}
\contentsline {subsection}{\numberline {4.5}Article 2(c)}{7}{subsection.4.5}
\contentsline {subsection}{\numberline {4.6}Article 2(d) (new) 1}{8}{subsection.4.6}
\contentsline {subsection}{\numberline {4.7}Article 2(d) (new) 2}{8}{subsection.4.7}
\contentsline {subsection}{\numberline {4.8}Article 3a}{9}{subsection.4.8}
\contentsline {subsection}{\numberline {4.9}Article 3}{10}{subsection.4.9}
\contentsline {subsection}{\numberline {4.10}Article 4(3) (new)}{11}{subsection.4.10}
\contentsline {subsection}{\numberline {4.11}Article 4}{11}{subsection.4.11}
\contentsline {subsection}{\numberline {4.12}Article 5(1)}{13}{subsection.4.12}
\contentsline {subsection}{\numberline {4.13}Article 5(2)}{14}{subsection.4.13}
\contentsline {subsection}{\numberline {4.14}Article 5(b)}{15}{subsection.4.14}
\contentsline {subsection}{\numberline {4.15}Article 5(c)}{15}{subsection.4.15}
\contentsline {subsection}{\numberline {4.16}Article 6}{16}{subsection.4.16}
