\BOOKMARK [0][-]{chapter.1}{D\351claration au sujet de la Directive sur la Brevetabilit\351 des Logiciels}{}
\BOOKMARK [0][-]{chapter.2}{Constitution de la Grande Alliance}{}
\BOOKMARK [0][-]{chapter.3}{Liens annot\351s}{}
