\contentsline {chapter}{\numberline {1}Stellungnahme von CEA-PME zum Richtlinienvorschlag der EU-Kommission zu Software-Patenten}{4}{chapter.1}
\contentsline {chapter}{\numberline {2}Statement of the Larger Alliance}{6}{chapter.2}
\contentsline {chapter}{\numberline {3}Kommentierte Verweise}{7}{chapter.3}
