\contentsline {chapter}{\numberline {1}CEA-PME Statement on the Software-Patent-Directive}{4}{chapter.1}
\contentsline {chapter}{\numberline {2}Statement of the Larger Alliance}{6}{chapter.2}
\contentsline {chapter}{\numberline {3}Annotated Links}{7}{chapter.3}
