\select@language {french}
\select@language {french}
\contentsline {chapter}{\numberline {1}D\'{e}claration au sujet de la Directive sur la Brevetabilit\'{e} des Logiciels}{4}{chapter.1}
\contentsline {chapter}{\numberline {2}Constitution de la Grande Alliance}{6}{chapter.2}
\contentsline {chapter}{\numberline {3}Liens annot\'{e}s}{7}{chapter.3}
