\contentsline {section}{\numberline {1}Press Release}{1}{section.1}
\contentsline {section}{\numberline {2}EICTA Press Briefing 2003-11-26}{2}{section.2}
\contentsline {section}{\numberline {3}Annotated Links}{4}{section.3}
