\select@language {french}
\select@language {french}
\contentsline {section}{\numberline {1}Presseerkl\"{a}rung}{1}{section.0.1}
\contentsline {section}{\numberline {2}Kontakt}{2}{section.0.2}
\contentsline {section}{\numberline {3}Mehr \"{u}ber den FFII}{2}{section.0.3}
\contentsline {section}{\numberline {4}Liens}{3}{section.0.4}
