\relax 
\ifx\hyper@anchor\@undefined
\global \let \oldcontentsline\contentsline
\gdef \contentsline#1#2#3#4{\oldcontentsline{#1}{#2}{#3}}
\global \let \oldnewlabel\newlabel
\gdef \newlabel#1#2{\newlabelxx{#1}#2}
\gdef \newlabelxx#1#2#3#4#5#6{\oldnewlabel{#1}{{#2}{#3}}}
\AtEndDocument{\let \contentsline\oldcontentsline
\let \newlabel\oldnewlabel}
\else
\global \let \hyper@last\relax 
\fi

\newlabel{dekl}{{1}{1}{Press Release\label {dekl}\relax }{section.1}{}}
\@writefile{toc}{\contentsline {section}{\numberline {1}Press Release}{1}{section.1}}
\newlabel{kont}{{2}{2}{Press Contact\label {kont}\relax }{section.2}{}}
\@writefile{toc}{\contentsline {section}{\numberline {2}Press Contact}{2}{section.2}}
\newlabel{ffii}{{3}{2}{About FFII\label {ffii}\relax }{section.3}{}}
\@writefile{toc}{\contentsline {section}{\numberline {3}About FFII}{2}{section.3}}
\newlabel{vreji}{{4}{3}{Links\label {vreji}\relax }{section.4}{}}
\@writefile{toc}{\contentsline {section}{\numberline {4}Links}{3}{section.4}}
