\relax 
\ifx\hyper@anchor\@undefined
\global \let \oldcontentsline\contentsline
\gdef \contentsline#1#2#3#4{\oldcontentsline{#1}{#2}{#3}}
\global \let \oldnewlabel\newlabel
\gdef \newlabel#1#2{\newlabelxx{#1}#2}
\gdef \newlabelxx#1#2#3#4#5#6{\oldnewlabel{#1}{{#2}{#3}}}
\AtEndDocument{\let \contentsline\oldcontentsline
\let \newlabel\oldnewlabel}
\else
\global \let \hyper@last\relax 
\fi

\csname auxWARNINGii\endcsname {\typeout {-34- this file and other auxiliary files require to use the following}}
\csname auxWARNINGii\endcsname {\typeout {-34- LaTeX packages: french and babel!}}
\csname auxWARNINGii\endcsname {\typeout {-34- check \protect \usepackage \space or remove these files. Typesetting is aborted!} \stop }
\select@language{french}
\@writefile{toc}{\select@language{french}}
\@writefile{lof}{\select@language{french}}
\@writefile{lot}{\select@language{french}}
\select@language{french}
\@writefile{toc}{\select@language{french}}
\@writefile{lof}{\select@language{french}}
\@writefile{lot}{\select@language{french}}
\newlabel{dekl}{{1}{1}{Presseerkl\"{a}rung\label {dekl}\relax }{section.0.1}{}}
\@writefile{toc}{\contentsline {section}{\numberline {1}Presseerkl\"{a}rung}{1}{section.0.1}}
\newlabel{kont}{{2}{2}{Kontakt\label {kont}\relax }{section.0.2}{}}
\@writefile{toc}{\contentsline {section}{\numberline {2}Kontakt}{2}{section.0.2}}
\newlabel{ffii}{{3}{2}{Mehr \"{u}ber den FFII\label {ffii}\relax }{section.0.3}{}}
\@writefile{toc}{\contentsline {section}{\numberline {3}Mehr \"{u}ber den FFII}{2}{section.0.3}}
\newlabel{vreji}{{4}{3}{Liens\label {vreji}\relax }{section.0.4}{}}
\@writefile{toc}{\contentsline {section}{\numberline {4}Liens}{3}{section.0.4}}
