\contentsline {section}{\numberline {1}Presseerkl\"{a}rung}{1}{section.1}
\contentsline {section}{\numberline {2}Kontakt}{2}{section.2}
\contentsline {section}{\numberline {3}Mehr \"{u}ber den FFII}{2}{section.3}
\contentsline {section}{\numberline {4}Verweise}{3}{section.4}
