\contentsline {section}{\numberline {1}Press Release}{1}{section.1}
\contentsline {section}{\numberline {2}Press Contact}{2}{section.2}
\contentsline {section}{\numberline {3}About FFII}{2}{section.3}
\contentsline {section}{\numberline {4}Links}{3}{section.4}
