\relax 
\catcode`:\active
\catcode`;\active
\catcode`!\active
\catcode`?\active
\ifx\hyper@anchor\@undefined
\global \let \oldcontentsline\contentsline
\gdef \contentsline#1#2#3#4{\oldcontentsline{#1}{#2}{#3}}
\global \let \oldnewlabel\newlabel
\gdef \newlabel#1#2{\newlabelxx{#1}#2}
\gdef \newlabelxx#1#2#3#4#5#6{\oldnewlabel{#1}{{#2}{#3}}}
\AtEndDocument{\let \contentsline\oldcontentsline
\let \newlabel\oldnewlabel}
\else
\global \let \hyper@last\relax 
\fi

\select@language{french}
\@writefile{toc}{\select@language{french}}
\@writefile{lof}{\select@language{french}}
\@writefile{lot}{\select@language{french}}
\@writefile{toc}{\contentsline {section}{\numberline {1}Presseerkl\"{a}rung}{1}{section.1}}
\newlabel{dekl}{{1}{1}{Presseerkl\"{a}rung\relax }{section.1}{}}
\@writefile{toc}{\contentsline {section}{\numberline {2}Kontakt}{2}{section.2}}
\newlabel{kont}{{2}{2}{Kontakt\relax }{section.2}{}}
\@writefile{toc}{\contentsline {section}{\numberline {3}Mehr \"{u}ber den FFII}{2}{section.3}}
\newlabel{ffii}{{3}{2}{Mehr \"{u}ber den FFII\relax }{section.3}{}}
\@writefile{toc}{\contentsline {section}{\numberline {4}Liens}{3}{section.4}}
\newlabel{vreji}{{4}{3}{Liens\relax }{section.4}{}}
\gdef\scr@tpo@lst{0}
