\relax 
\ifx\hyper@anchor\@undefined
\global \let \oldcontentsline\contentsline
\gdef \contentsline#1#2#3#4{\oldcontentsline{#1}{#2}{#3}}
\global \let \oldnewlabel\newlabel
\gdef \newlabel#1#2{\newlabelxx{#1}#2}
\gdef \newlabelxx#1#2#3#4#5#6{\oldnewlabel{#1}{{#2}{#3}}}
\AtEndDocument{\let \contentsline\oldcontentsline
\let \newlabel\oldnewlabel}
\else
\global \let \hyper@last\relax 
\fi

\@writefile{toc}{\contentsline {section}{\numberline {1}Refuting Novelty}{1}{section.1}}
\newlabel{neu}{{1}{1}{Refuting Novelty\relax }{section.1}{}}
\@writefile{toc}{\contentsline {section}{\numberline {2}Multilateral Company Agreements, Mutual Defense Alliances, Assurances}{2}{section.2}}
\newlabel{bund}{{2}{2}{Multilateral Company Agreements, Mutual Defense Alliances, Assurances\relax }{section.2}{}}
\gdef\scr@tpo@lst{0}
