\select@language {french}
\contentsline {section}{\numberline {1}Neuheit widerlegen}{1}{section.1}
\contentsline {section}{\numberline {2}Branchenvereinbarungen, Schutzb\"{u}ndnisse, Versicherungen}{2}{section.2}
