                           EP0587827B1
F_g._3                     Init
l
_IIO         v        Cl
Scan
- -_ Ctrl Unit <
V        V
User IIO     _ata Com-       IIO Data
Memo_ry     _  parison  <-     Sto_ra_ge
_                    V-
_
I \                   I \
I   \       Up-date      I   \        Up-date
I    \                IUser-\
IReceive\ _     Data      I  IIO  \ _     IIO-Data
l  Data   __  _ecoder     l  Data   _   ,  Encoder
\Change?I     Converter    \Change_I       _ulti-
\    l                \    I        plexer
\   I       Up-date      \   l        Ctrl Unit
\ I                   \ I
?                    TH       ,,_m,,,,,,
V          V
_         Transmis-
Data Com-     Receive        I \        sionDelay
_  parison  _    Storage       I   \        Ctrl UnLt
I    )
_                _ ITrans- \ _
_i'SSi'On
\active_I
\    I
\   I
\ I
Receive                  -          Send
Buffer   <                          Buffer   _
- - - - - - - - - - - - -V- - - - - - - - - - - - - - - - - - - -
Co__ unic.       CO_
- - - - - - - - - - - - -V- - - - - - - - - - - - - - - - - - - -
User IIO
_emory        C2
_l   v
IIO     21
