\relax 
\ifx\hyper@anchor\@undefined
\global \let \oldcontentsline\contentsline
\gdef \contentsline#1#2#3#4{\oldcontentsline{#1}{#2}{#3}}
\global \let \oldnewlabel\newlabel
\gdef \newlabel#1#2{\newlabelxx{#1}#2}
\gdef \newlabelxx#1#2#3#4#5#6{\oldnewlabel{#1}{{#2}{#3}}}
\AtEndDocument{\let \contentsline\oldcontentsline
\let \newlabel\oldnewlabel}
\else
\global \let \hyper@last\relax 
\fi

\@writefile{toc}{\contentsline {section}{\numberline {1}The Text}{2}{section.1}}
\newlabel{text}{{1}{2}{The Text\relax }{section.1}{}}
\@writefile{toc}{\contentsline {subsection}{\numberline {1.1}What we are talking about -- some misconceptions to avoid}{2}{subsection.1.1}}
\newlabel{intro}{{1.1}{2}{What we are talking about -- some misconceptions to avoid\relax }{subsection.1.1}{}}
\@writefile{toc}{\contentsline {subsection}{\numberline {1.2}The Patent Lottery and 3 approaches for dealing with it}{3}{subsection.1.2}}
\newlabel{lott}{{1.2}{3}{The Patent Lottery and 3 approaches for dealing with it\relax }{subsection.1.2}{}}
\@writefile{toc}{\contentsline {subsection}{\numberline {1.3}1 Avoiding the patent}{6}{subsection.1.3}}
\newlabel{avoid}{{1.3}{6}{1 Avoiding the patent\relax }{subsection.1.3}{}}
\@writefile{toc}{\contentsline {subsection}{\numberline {1.4}2 Licensing the patent}{8}{subsection.1.4}}
\newlabel{licen}{{1.4}{8}{2 Licensing the patent\relax }{subsection.1.4}{}}
\@writefile{toc}{\contentsline {subsection}{\numberline {1.5}3 Overturning a patent in court}{10}{subsection.1.5}}
\newlabel{litig}{{1.5}{10}{3 Overturning a patent in court\relax }{subsection.1.5}{}}
\@writefile{toc}{\contentsline {subsection}{\numberline {1.6}Software and Symphonies: why the Patent Model doesn't work here}{12}{subsection.1.6}}
\newlabel{softsym}{{1.6}{12}{Software and Symphonies: why the Patent Model doesn't work here\relax }{subsection.1.6}{}}
\@writefile{toc}{\contentsline {subsection}{\numberline {1.7}Political Response: Two Reform Approaches}{16}{subsection.1.7}}
\newlabel{ataku}{{1.7}{16}{Political Response: Two Reform Approaches\relax }{subsection.1.7}{}}
\@writefile{toc}{\contentsline {subsection}{\numberline {1.8}Situation in Europe and UK}{17}{subsection.1.8}}
\newlabel{euruk}{{1.8}{17}{Situation in Europe and UK\relax }{subsection.1.8}{}}
\@writefile{toc}{\contentsline {section}{\numberline {2}Annotated Links}{18}{section.2}}
\newlabel{links}{{2}{18}{Annotated Links\relax }{section.2}{}}
