\relax 
\ifx\hyper@anchor\@undefined
\global \let \oldcontentsline\contentsline
\gdef \contentsline#1#2#3#4{\oldcontentsline{#1}{#2}{#3}}
\global \let \oldnewlabel\newlabel
\gdef \newlabel#1#2{\newlabelxx{#1}#2}
\gdef \newlabelxx#1#2#3#4#5#6{\oldnewlabel{#1}{{#2}{#3}}}
\AtEndDocument{\let \contentsline\oldcontentsline
\let \newlabel\oldnewlabel}
\else
\global \let \hyper@last\relax 
\fi

\@writefile{toc}{\contentsline {section}{\numberline {1}Einf\"{u}hrung}{2}{section.1}}
\newlabel{intro}{{1}{2}{Einf\"{u}hrung\relax }{section.1}{}}
\@writefile{toc}{\contentsline {section}{\numberline {2}Statistiken der Unterschriften}{4}{section.2}}
\newlabel{stat}{{2}{4}{Statistiken der Unterschriften\relax }{section.2}{}}
\@writefile{toc}{\contentsline {subsection}{\numberline {2.1}Nach Aufgabe / Stellung im Unternehmen}{4}{subsection.2.1}}
\newlabel{prof}{{2.1}{4}{Nach Aufgabe / Stellung im Unternehmen\relax }{subsection.2.1}{}}
\@writefile{toc}{\contentsline {subsection}{\numberline {2.2}Nach Land}{5}{subsection.2.2}}
\newlabel{land}{{2.2}{5}{Nach Land\relax }{subsection.2.2}{}}
\@writefile{toc}{\contentsline {subsection}{\numberline {2.3}Nach Unternehmen}{5}{subsection.2.3}}
\newlabel{komp}{{2.3}{5}{Nach Unternehmen\relax }{subsection.2.3}{}}
\@writefile{toc}{\contentsline {section}{\numberline {3}Pressekontakt}{7}{section.3}}
\newlabel{media}{{3}{7}{Pressekontakt\relax }{section.3}{}}
\@writefile{toc}{\contentsline {section}{\numberline {4}\"{U}ber die Eurolinux-Allianz -- www.eurolinux.org}{7}{section.4}}
\newlabel{eurolinux}{{4}{7}{\"{U}ber die Eurolinux-Allianz -- www.eurolinux.org\relax }{section.4}{}}
\@writefile{toc}{\contentsline {section}{\numberline {5}\"{U}ber den FFII -- www.ffii.org}{7}{section.5}}
\newlabel{ffii}{{5}{7}{\"{U}ber den FFII -- www.ffii.org\relax }{section.5}{}}
\@writefile{toc}{\contentsline {section}{\numberline {6}Permanente URL dieser Pressemitteilung}{7}{section.6}}
\newlabel{url}{{6}{7}{Permanente URL dieser Pressemitteilung\relax }{section.6}{}}
\@writefile{toc}{\contentsline {section}{\numberline {7}Kommentierte Verweise}{7}{section.7}}
\newlabel{links}{{7}{7}{Kommentierte Verweise\relax }{section.7}{}}
