\contentsline {section}{\numberline {1}Einf\"{u}hrung}{2}{section.1}
\contentsline {section}{\numberline {2}Statistiken der Unterschriften}{4}{section.2}
\contentsline {subsection}{\numberline {2.1}Nach Aufgabe / Stellung im Unternehmen}{4}{subsection.2.1}
\contentsline {subsection}{\numberline {2.2}Nach Land}{5}{subsection.2.2}
\contentsline {subsection}{\numberline {2.3}Nach Unternehmen}{5}{subsection.2.3}
\contentsline {section}{\numberline {3}Pressekontakt}{7}{section.3}
\contentsline {section}{\numberline {4}\"{U}ber die Eurolinux-Allianz -- www.eurolinux.org}{7}{section.4}
\contentsline {section}{\numberline {5}\"{U}ber den FFII -- www.ffii.org}{7}{section.5}
\contentsline {section}{\numberline {6}Permanente URL dieser Pressemitteilung}{7}{section.6}
\contentsline {section}{\numberline {7}Kommentierte Verweise}{7}{section.7}
