\relax 
\ifx\hyper@anchor\@undefined
\global \let \oldcontentsline\contentsline
\gdef \contentsline#1#2#3#4{\oldcontentsline{#1}{#2}{#3}}
\global \let \oldnewlabel\newlabel
\gdef \newlabel#1#2{\newlabelxx{#1}#2}
\gdef \newlabelxx#1#2#3#4#5#6{\oldnewlabel{#1}{{#2}{#3}}}
\AtEndDocument{\let \contentsline\oldcontentsline
\let \newlabel\oldnewlabel}
\else
\global \let \hyper@last\relax 
\fi

\@writefile{toc}{\contentsline {section}{\numberline {1}introduction}{2}{section.1}}
\newlabel{intro}{{1}{2}{introduction\relax }{section.1}{}}
\@writefile{toc}{\contentsline {section}{\numberline {2}Statistics of signatories}{4}{section.2}}
\newlabel{stat}{{2}{4}{Statistics of signatories\relax }{section.2}{}}
\@writefile{toc}{\contentsline {subsection}{\numberline {2.1}By profession / position in company}{4}{subsection.2.1}}
\newlabel{prof}{{2.1}{4}{By profession / position in company\relax }{subsection.2.1}{}}
\@writefile{toc}{\contentsline {subsection}{\numberline {2.2}By country}{5}{subsection.2.2}}
\newlabel{land}{{2.2}{5}{By country\relax }{subsection.2.2}{}}
\@writefile{toc}{\contentsline {subsection}{\numberline {2.3}By company}{5}{subsection.2.3}}
\newlabel{komp}{{2.3}{5}{By company\relax }{subsection.2.3}{}}
\@writefile{toc}{\contentsline {section}{\numberline {3}Media Contacts}{7}{section.3}}
\newlabel{media}{{3}{7}{Media Contacts\relax }{section.3}{}}
\@writefile{toc}{\contentsline {section}{\numberline {4}About the Eurolinux Alliance -- www.eurolinux.org}{7}{section.4}}
\newlabel{eurolinux}{{4}{7}{About the Eurolinux Alliance -- www.eurolinux.org\relax }{section.4}{}}
\@writefile{toc}{\contentsline {section}{\numberline {5}About the FFII -- www.ffii.org}{7}{section.5}}
\newlabel{ffii}{{5}{7}{About the FFII -- www.ffii.org\relax }{section.5}{}}
\@writefile{toc}{\contentsline {section}{\numberline {6}Permanent URL of this Press Release}{7}{section.6}}
\newlabel{url}{{6}{7}{Permanent URL of this Press Release\relax }{section.6}{}}
\@writefile{toc}{\contentsline {section}{\numberline {7}Annotated Links}{7}{section.7}}
\newlabel{links}{{7}{7}{Annotated Links\relax }{section.7}{}}
