\contentsline {section}{\numberline {1}introduction}{2}{section.1}
\contentsline {section}{\numberline {2}Statistics of signatories}{4}{section.2}
\contentsline {subsection}{\numberline {2.1}By profession / position in company}{4}{subsection.2.1}
\contentsline {subsection}{\numberline {2.2}By country}{5}{subsection.2.2}
\contentsline {subsection}{\numberline {2.3}By company}{5}{subsection.2.3}
\contentsline {section}{\numberline {3}Media Contacts}{7}{section.3}
\contentsline {section}{\numberline {4}About the Eurolinux Alliance -- www.eurolinux.org}{7}{section.4}
\contentsline {section}{\numberline {5}About the FFII -- www.ffii.org}{7}{section.5}
\contentsline {section}{\numberline {6}Permanent URL of this Press Release}{7}{section.6}
\contentsline {section}{\numberline {7}Annotated Links}{7}{section.7}
