\contentsline {section}{\numberline {1}Wirkungsstudien und Gesamtdarstellungen}{1}{section.1}
\contentsline {section}{\numberline {2}EU-Politik}{2}{section.2}
\contentsline {section}{\numberline {3}Vom EPA Erteilte Softwarepatente}{2}{section.3}
\contentsline {section}{\numberline {4}Patentgerichtsentscheidungen}{2}{section.4}
\contentsline {section}{\numberline {5}H\"{a}ufig zitierte Rechtstexte}{2}{section.5}
\contentsline {section}{\numberline {6}Stellungnahmen und Presseartikel}{2}{section.6}
\contentsline {section}{\numberline {7}Fragen, Aufgaben, Wie Sie helfen k\"{o}nnen}{2}{section.7}
