\relax 
\ifx\hyper@anchor\@undefined
\global \let \oldcontentsline\contentsline
\gdef \contentsline#1#2#3#4{\oldcontentsline{#1}{#2}{#3}}
\global \let \oldnewlabel\newlabel
\gdef \newlabel#1#2{\newlabelxx{#1}#2}
\gdef \newlabelxx#1#2#3#4#5#6{\oldnewlabel{#1}{{#2}{#3}}}
\AtEndDocument{\let \contentsline\oldcontentsline
\let \newlabel\oldnewlabel}
\else
\global \let \hyper@last\relax 
\fi

\@writefile{toc}{\contentsline {section}{\numberline {1}Wirkungsstudien und Gesamtdarstellungen}{1}{section.1}}
\newlabel{sisku}{{1}{1}{Wirkungsstudien und Gesamtdarstellungen\relax }{section.1}{}}
\@writefile{toc}{\contentsline {section}{\numberline {2}EU-Politik}{2}{section.2}}
\newlabel{polit}{{2}{2}{EU-Politik\relax }{section.2}{}}
\@writefile{toc}{\contentsline {section}{\numberline {3}Vom EPA Erteilte Softwarepatente}{2}{section.3}}
\newlabel{pat}{{3}{2}{Vom EPA Erteilte Softwarepatente\relax }{section.3}{}}
\@writefile{toc}{\contentsline {section}{\numberline {4}Patentgerichtsentscheidungen}{2}{section.4}}
\newlabel{epa}{{4}{2}{Patentgerichtsentscheidungen\relax }{section.4}{}}
\@writefile{toc}{\contentsline {section}{\numberline {5}H\"{a}ufig zitierte Rechtstexte}{2}{section.5}}
\newlabel{jur}{{5}{2}{H\"{a}ufig zitierte Rechtstexte\relax }{section.5}{}}
\@writefile{toc}{\contentsline {section}{\numberline {6}Stellungnahmen und Presseartikel}{2}{section.6}}
\newlabel{xatra}{{6}{2}{Stellungnahmen und Presseartikel\relax }{section.6}{}}
\@writefile{toc}{\contentsline {section}{\numberline {7}Fragen, Aufgaben, Wie Sie helfen k\"{o}nnen}{2}{section.7}}
\newlabel{tasks}{{7}{2}{Fragen, Aufgaben, Wie Sie helfen k\"{o}nnen\relax }{section.7}{}}
