\relax 
\@writefile{toc}{\contentsline {section}{\numberline {1}DG XV\ (Noteboom, Mueller, Ravillard)}{2}}
\newlabel{dg15}{{1}{2}}
\@writefile{toc}{\contentsline {section}{\numberline {2}EuroLinux\ (Smets)}{2}}
\newlabel{eulux}{{2}{2}}
\@writefile{toc}{\contentsline {section}{\numberline {3}DG XV\ (Noteboom)}{3}}
\newlabel{dg152}{{3}{3}}
\@writefile{toc}{\contentsline {section}{\numberline {4}SuSE\ (Pilch)}{3}}
\newlabel{suse}{{4}{3}}
\@writefile{toc}{\contentsline {section}{\numberline {5}DG XV\ (Noteboom)}{4}}
\newlabel{dg153}{{5}{4}}
\@writefile{toc}{\contentsline {section}{\numberline {6}Infomatec\ (Perlzweig)}{4}}
\newlabel{itec}{{6}{4}}
\@writefile{toc}{\contentsline {section}{\numberline {7}Prosa\ (Didone)}{5}}
\newlabel{prosa}{{7}{5}}
\@writefile{toc}{\contentsline {section}{\numberline {8}Linux-Verband\ (Siepman)}{5}}
\newlabel{live}{{8}{5}}
\@writefile{toc}{\contentsline {section}{\numberline {9}Net Presenter\ (Hoen)}{6}}
\newlabel{netp}{{9}{6}}
\@writefile{toc}{\contentsline {section}{\numberline {10}EuroLinux\ (Smets)}{6}}
\newlabel{eulx2}{{10}{6}}
\@writefile{toc}{\contentsline {section}{\numberline {11}DG XV\ (Noteboom)}{7}}
\newlabel{dg154}{{11}{7}}
\@writefile{toc}{\contentsline {section}{\numberline {12}Side talks}{7}}
\newlabel{flank}{{12}{7}}
\@writefile{toc}{\contentsline {subsection}{\numberline {12.1}Inventive step not an obstacle}{7}}
\newlabel{inv}{{12.1}{7}}
\@writefile{toc}{\contentsline {subsection}{\numberline {12.2}Patent organisations want to make programs patentable}{7}}
\newlabel{epc}{{12.2}{7}}
\@writefile{toc}{\contentsline {subsection}{\numberline {12.3}Utility directive may be changed}{7}}
\newlabel{util}{{12.3}{7}}
\@writefile{toc}{\contentsline {subsection}{\numberline {12.4}``Equality'' with Hardware or with Books?}{8}}
\newlabel{egal}{{12.4}{8}}
\@writefile{toc}{\contentsline {subsection}{\numberline {12.5}No more conferences, unless hosted by Eurolinux}{8}}
\newlabel{conf}{{12.5}{8}}
\@writefile{toc}{\contentsline {subsection}{\numberline {12.6}EU lawmakers reluctant to innovate}{8}}
\newlabel{euus}{{12.6}{8}}
