\contentsline {section}{\numberline {1}DG 15\ (Noteboom, M\newumlaut uller, Ravillard)}{2}
\contentsline {section}{\numberline {2}EuroLinux\ (Smets)}{2}
\contentsline {section}{\numberline {3}DG XV\ (Noteboom)}{3}
\contentsline {section}{\numberline {4}SuSE\ (Pilch)}{3}
\contentsline {section}{\numberline {5}DG XV\ (Noteboom)}{4}
\contentsline {section}{\numberline {6}Infomatec\ (Perlzweig)}{4}
\contentsline {section}{\numberline {7}Prosa\ (Didone)}{5}
\contentsline {section}{\numberline {8}Linux-Verband\ (Siepman)}{5}
\contentsline {section}{\numberline {9}Net Presenter\ (Hoen)}{6}
\contentsline {section}{\numberline {10}EuroLinux\ (Smets)}{6}
\contentsline {section}{\numberline {11}DG XV\ (Noteboom)}{7}
\contentsline {section}{\numberline {12}Nebengespr\newumlaut ache}{8}
\contentsline {subsection}{\numberline {12.1}Erfindungsh\newumlaut ohe kein Hindernis}{8}
\contentsline {subsection}{\numberline {12.2}Die Patentorganisationen sind f\newumlaut ur die Patentierung von Computerprogrammen}{8}
\contentsline {subsection}{\numberline {12.3}\newumlaut Anderung der Gebrauchsmusterdirektive nicht ausgeschlossen}{8}
\contentsline {subsection}{\numberline {12.4}``Gleichheit'' mit Hardware oder mit B\newumlaut uchern?}{8}
\contentsline {subsection}{\numberline {12.5}Keine weiteren Konferenzen, es sei den Eurolinux organisiert eine}{9}
\contentsline {subsection}{\numberline {12.6}Innovationsscheue EU-Gesetzgeber?}{9}
