\relax 
\@writefile{toc}{\contentsline {section}{\numberline {1}DG 15\ (Noteboom, M\newumlaut uller, Ravillard)}{2}}
\newlabel{dg15}{{1}{2}}
\@writefile{toc}{\contentsline {section}{\numberline {2}EuroLinux\ (Smets)}{2}}
\newlabel{eulux}{{2}{2}}
\@writefile{toc}{\contentsline {section}{\numberline {3}DG XV\ (Noteboom)}{3}}
\newlabel{dg152}{{3}{3}}
\@writefile{toc}{\contentsline {section}{\numberline {4}SuSE\ (Pilch)}{3}}
\newlabel{suse}{{4}{3}}
\@writefile{toc}{\contentsline {section}{\numberline {5}DG XV\ (Noteboom)}{4}}
\newlabel{dg153}{{5}{4}}
\@writefile{toc}{\contentsline {section}{\numberline {6}Infomatec\ (Perlzweig)}{4}}
\newlabel{itec}{{6}{4}}
\@writefile{toc}{\contentsline {section}{\numberline {7}Prosa\ (Didone)}{5}}
\newlabel{prosa}{{7}{5}}
\@writefile{toc}{\contentsline {section}{\numberline {8}Linux-Verband\ (Siepman)}{5}}
\newlabel{live}{{8}{5}}
\@writefile{toc}{\contentsline {section}{\numberline {9}Net Presenter\ (Hoen)}{6}}
\newlabel{netp}{{9}{6}}
\@writefile{toc}{\contentsline {section}{\numberline {10}EuroLinux\ (Smets)}{6}}
\newlabel{eulx2}{{10}{6}}
\@writefile{toc}{\contentsline {section}{\numberline {11}DG XV\ (Noteboom)}{7}}
\newlabel{dg154}{{11}{7}}
\@writefile{toc}{\contentsline {section}{\numberline {12}Nebengespr\newumlaut ache}{8}}
\newlabel{flank}{{12}{8}}
\@writefile{toc}{\contentsline {subsection}{\numberline {12.1}Erfindungsh\newumlaut ohe kein Hindernis}{8}}
\newlabel{inv}{{12.1}{8}}
\@writefile{toc}{\contentsline {subsection}{\numberline {12.2}Die Patentorganisationen sind f\newumlaut ur die Patentierung von Computerprogrammen}{8}}
\newlabel{epc}{{12.2}{8}}
\@writefile{toc}{\contentsline {subsection}{\numberline {12.3}\newumlaut Anderung der Gebrauchsmusterdirektive nicht ausgeschlossen}{8}}
\newlabel{util}{{12.3}{8}}
\@writefile{toc}{\contentsline {subsection}{\numberline {12.4}``Gleichheit'' mit Hardware oder mit B\newumlaut uchern?}{8}}
\newlabel{egal}{{12.4}{8}}
\@writefile{toc}{\contentsline {subsection}{\numberline {12.5}Keine weiteren Konferenzen, es sei den Eurolinux organisiert eine}{9}}
\newlabel{conf}{{12.5}{9}}
\@writefile{toc}{\contentsline {subsection}{\numberline {12.6}Innovationsscheue EU-Gesetzgeber?}{9}}
\newlabel{euus}{{12.6}{9}}
