\relax 
\ifx\hyper@anchor\@undefined
\global \let \oldcontentsline\contentsline
\gdef \contentsline#1#2#3#4{\oldcontentsline{#1}{#2}{#3}}
\global \let \oldnewlabel\newlabel
\gdef \newlabel#1#2{\newlabelxx{#1}#2}
\gdef \newlabelxx#1#2#3#4#5#6{\oldnewlabel{#1}{{#2}{#3}}}
\AtEndDocument{\let \contentsline\oldcontentsline
\let \newlabel\oldnewlabel}
\else
\global \let \hyper@last\relax 
\fi

\csname auxWARNINGii\endcsname {\typeout {-34- this file and other auxiliary files require to use the following}}
\csname auxWARNINGii\endcsname {\typeout {-34- LaTeX packages: french and babel!}}
\csname auxWARNINGii\endcsname {\typeout {-34- check \protect \usepackage \space or remove these files. Typesetting is aborted!} \stop }
\select@language{french}
\@writefile{toc}{\select@language{french}}
\@writefile{lof}{\select@language{french}}
\@writefile{lot}{\select@language{french}}
\select@language{french}
\@writefile{toc}{\select@language{french}}
\@writefile{lof}{\select@language{french}}
\@writefile{lot}{\select@language{french}}
\@writefile{toc}{\contentsline {section}{\numberline {1}\'{E}tudes d'Impacte et Introductions G\'{e}n\'{e}rales}{1}{section.0.1}}
\newlabel{sisku}{{1}{1}{\'{E}tudes d'Impacte et Introductions G\'{e}n\'{e}rales\relax }{section.0.1}{}}
\@writefile{toc}{\contentsline {section}{\numberline {2}Politique de l,UE}{1}{section.0.2}}
\newlabel{polit}{{2}{1}{Politique de l,UE\relax }{section.0.2}{}}
\@writefile{toc}{\contentsline {section}{\numberline {3}Brevets Logiciel Accord\'{e}s par l'OEB}{1}{section.0.3}}
\newlabel{pat}{{3}{1}{Brevets Logiciel Accord\'{e}s par l'OEB\relax }{section.0.3}{}}
\@writefile{toc}{\contentsline {section}{\numberline {4}D\'{e}cisions Court Brevet}{2}{section.0.4}}
\newlabel{epa}{{4}{2}{D\'{e}cisions Court Brevet\relax }{section.0.4}{}}
\@writefile{toc}{\contentsline {section}{\numberline {5}Textes L\'{e}gaux Cit\'{e}s Fr\'{e}quemment}{2}{section.0.5}}
\newlabel{jur}{{5}{2}{Textes L\'{e}gaux Cit\'{e}s Fr\'{e}quemment\relax }{section.0.5}{}}
\@writefile{toc}{\contentsline {section}{\numberline {6}Prises de Position et Articles}{2}{section.0.6}}
\newlabel{xatra}{{6}{2}{Prises de Position et Articles\relax }{section.0.6}{}}
\@writefile{toc}{\contentsline {section}{\numberline {7}Questions, Choses a faires, Comment vous pouvez aider}{2}{section.0.7}}
\newlabel{tasks}{{7}{2}{Questions, Choses a faires, Comment vous pouvez aider\relax }{section.0.7}{}}
