\select@language {french}
\select@language {french}
\contentsline {section}{\numberline {1}\'{E}tudes d'Impacte et Introductions G\'{e}n\'{e}rales}{1}{section.0.1}
\contentsline {section}{\numberline {2}Politique de l,UE}{1}{section.0.2}
\contentsline {section}{\numberline {3}Brevets Logiciel Accord\'{e}s par l'OEB}{1}{section.0.3}
\contentsline {section}{\numberline {4}D\'{e}cisions Court Brevet}{2}{section.0.4}
\contentsline {section}{\numberline {5}Textes L\'{e}gaux Cit\'{e}s Fr\'{e}quemment}{2}{section.0.5}
\contentsline {section}{\numberline {6}Prises de Position et Articles}{2}{section.0.6}
\contentsline {section}{\numberline {7}Questions, Choses a faires, Comment vous pouvez aider}{2}{section.0.7}
