\relax 
\@writefile{toc}{\contentsline {section}{\numberline {1}Wann sind Patente legitim und n\newumlaut utzlich?}{2}}
\newlabel{krit}{{1}{2}}
\@writefile{toc}{\contentsline {section}{\numberline {2}Wege zur Legitimit\newumlaut at von Softwarepatenten}{2}}
\newlabel{legi}{{2}{2}}
\@writefile{toc}{\contentsline {subsection}{\numberline {2.1}Mi\ss {}st\newumlaut ande}{2}}
\newlabel{lmis}{{2.1}{2}}
\@writefile{toc}{\contentsline {subsubsection}{\numberline {2.1.1}Gummibegriff ``Erfindungsh\newumlaut ohe''}{2}}
\newlabel{lminv}{{2.1.1}{2}}
\@writefile{toc}{\contentsline {subsubsection}{\numberline {2.1.2}Neuheit in der Praxis schwer nachpr\newumlaut ufbar}{3}}
\newlabel{lmnov}{{2.1.2}{3}}
\@writefile{toc}{\contentsline {subsection}{\numberline {2.2}L\newumlaut osungsvorschl\newumlaut age}{3}}
\newlabel{lsol}{{2.2}{3}}
\@writefile{toc}{\contentsline {subsubsection}{\numberline {2.2.1}Offener Wettbewerb der L\newumlaut osungsanbieter}{3}}
\newlabel{lsinv}{{2.2.1}{3}}
\@writefile{toc}{\contentsline {subsubsection}{\numberline {2.2.2}Stand der Technik mit digitalem Zeitstempel archivieren}{4}}
\newlabel{lsnov}{{2.2.2}{4}}
\@writefile{toc}{\contentsline {section}{\numberline {3}Wege zur volkswirtschaftlichen Ausgewogenheit von Softwarepatenten}{4}}
\newlabel{verh}{{3}{4}}
\@writefile{toc}{\contentsline {subsection}{\numberline {3.1}Mi\ss {}st\newumlaut ande}{4}}
\newlabel{vmis}{{3.1}{4}}
\@writefile{toc}{\contentsline {subsubsection}{\numberline {3.1.1}Softwarepatente f\newumlaut ordern Rechtsunsicherheit}{5}}
\newlabel{runs}{{3.1.1}{5}}
\@writefile{toc}{\contentsline {subsubsection}{\numberline {3.1.2}Softwarepatente f\newumlaut ordern Geheimhaltung}{5}}
\newlabel{gehm}{{3.1.2}{5}}
\@writefile{toc}{\contentsline {subsubsection}{\numberline {3.1.3}Softwarepatente machen den Anwender erpressbar}{5}}
\newlabel{wahl}{{3.1.3}{5}}
\@writefile{toc}{\contentsline {subsubsection}{\numberline {3.1.4}Softwarepatente f\newumlaut ordern Monopole und zerst\newumlaut oren ihren eigenen Markt}{5}}
\newlabel{plat}{{3.1.4}{5}}
\@writefile{toc}{\contentsline {subsubsection}{\numberline {3.1.5}Softwarepatente behindern den Informationsfluss}{6}}
\newlabel{komm}{{3.1.5}{6}}
\@writefile{toc}{\contentsline {subsubsection}{\numberline {3.1.6}Softwarepatente etablieren die Herrschaft von Nicht-Fachleuten}{6}}
\newlabel{jahr}{{3.1.6}{6}}
\@writefile{toc}{\contentsline {subsubsection}{\numberline {3.1.7}Patent auf ``Automobil'' bis zum Jahr 2199?}{6}}
\newlabel{auto}{{3.1.7}{6}}
\@writefile{toc}{\contentsline {subsection}{\numberline {3.2}L\newumlaut osungsvorschl\newumlaut age}{6}}
\newlabel{vsol}{{3.2}{6}}
\@writefile{toc}{\contentsline {subsubsection}{\numberline {3.2.1}Transparente Lizenzbedingungen, Verwertungsgesellschaft}{6}}
\newlabel{egal}{{3.2.1}{6}}
\@writefile{toc}{\contentsline {subsubsection}{\numberline {3.2.2}Freiheit der Implementierung}{7}}
\newlabel{impl}{{3.2.2}{7}}
\@writefile{toc}{\contentsline {subsubsection}{\numberline {3.2.3}Freiheit der Weiterverteilung}{7}}
\newlabel{dist}{{3.2.3}{7}}
\@writefile{toc}{\contentsline {subsubsection}{\numberline {3.2.4}Geb\newumlaut uhreneinzug durch Schl\newumlaut usselsystem}{7}}
\newlabel{klav}{{3.2.4}{7}}
\@writefile{toc}{\contentsline {subsubsection}{\numberline {3.2.5}Strafe nur nach Warnung}{7}}
\newlabel{bew}{{3.2.5}{7}}
\@writefile{toc}{\contentsline {subsubsection}{\numberline {3.2.6}Dekompilierungsverbote aufheben}{7}}
\newlabel{deko}{{3.2.6}{7}}
\@writefile{toc}{\contentsline {subsubsection}{\numberline {3.2.7}Entscheiden, ob mit offenen oder mit geschlossenen Karten gespielt werden soll}{8}}
\newlabel{open}{{3.2.7}{8}}
\@writefile{toc}{\contentsline {subsubsection}{\numberline {3.2.8}Eigentumsrechte nur auf propriet\newumlaut are Gegenst\newumlaut ande anwenden}{8}}
\newlabel{prop}{{3.2.8}{8}}
\@writefile{toc}{\contentsline {subsubsection}{\numberline {3.2.9}Geltungszeitraum reduzieren}{8}}
\newlabel{zeit}{{3.2.9}{8}}
\@writefile{toc}{\contentsline {subsubsection}{\numberline {3.2.10}Die Fach\newumlaut offentlichkeit als Richter einbeziehen}{8}}
\newlabel{peer}{{3.2.10}{8}}
\@writefile{toc}{\contentsline {subsubsection}{\numberline {3.2.11}Verantwortung f\newumlaut ur Kosten propriet\newumlaut arer Standards regeln}{8}}
\newlabel{oeff}{{3.2.11}{8}}
\@writefile{toc}{\contentsline {section}{\numberline {4}Vertragsdickicht blockiert die Wege}{8}}
\newlabel{far}{{4}{8}}
