\relax 
\@writefile{toc}{\contentsline {section}{\numberline {1}Sehr geehrter Herr van Miert!}{1}}
\newlabel{alv}{{1}{1}}
\@writefile{toc}{\contentsline {section}{\numberline {2}Mit freundlichen Gr\newumlaut u\ss {}en}{3}}
\newlabel{mfg}{{2}{3}}
