\relax 
\catcode`:\active
\catcode`;\active
\catcode`!\active
\catcode`?\active
\select@language{frenchb}
\@writefile{toc}{\select@language{frenchb}}
\@writefile{lof}{\select@language{frenchb}}
\@writefile{lot}{\select@language{frenchb}}
\@writefile{toc}{\contentsline {section}{\numberline {1}Monsieur,}{1}}
\newlabel{alv}{{1}{1}}
\@writefile{toc}{\contentsline {section}{\numberline {2}Sinc\`{e}res salutations}{3}}
\newlabel{mfg}{{2}{3}}
