\relax 
\select@language{italian}
\@writefile{toc}{\select@language{italian}}
\@writefile{lof}{\select@language{italian}}
\@writefile{lot}{\select@language{italian}}
\@writefile{toc}{\contentsline {section}{\numberline {1}Egregio Signore,}{1}}
\newlabel{alv}{{1}{1}}
\@writefile{toc}{\contentsline {section}{\numberline {2}Distinti saluti}{3}}
\newlabel{mfg}{{2}{3}}
