\relax 
\@writefile{toc}{\contentsline {section}{\numberline {1}Dear Sir!}{1}}
\newlabel{alv}{{1}{1}}
\@writefile{toc}{\contentsline {section}{\numberline {2}Sincerely yours}{3}}
\newlabel{mfg}{{2}{3}}
