\relax 
\ifx\hyper@anchor\@undefined
\global \let \oldcontentsline\contentsline
\gdef \contentsline#1#2#3#4{\oldcontentsline{#1}{#2}{#3}}
\global \let \oldnewlabel\newlabel
\gdef \newlabel#1#2{\newlabelxx{#1}#2}
\gdef \newlabelxx#1#2#3#4#5#6{\oldnewlabel{#1}{{#2}{#3}}}
\AtEndDocument{\let \contentsline\oldcontentsline
\let \newlabel\oldnewlabel}
\else
\global \let \hyper@last\relax 
\fi

\newlabel{stat}{{}{3}{Zahlen\relax }{section*.1}{}}
\newlabel{ref}{{}{3}{Verweise\relax }{section*.2}{}}
\newlabel{prini}{{}{3}{\"Uber Eurolinux - www.eurolinux.org\relax }{section*.3}{}}
\newlabel{press}{{}{4}{Pressekontakt\relax }{section*.4}{}}
\newlabel{url}{{}{4}{Permanente Netzadresse dieser Presseerkl\"arung\relax }{section*.5}{}}
\newlabel{leg}{{}{4}{Paragrabrakadabra\relax }{section*.6}{}}
