\relax 
\ifx\hyper@anchor\@undefined
\global \let \oldcontentsline\contentsline
\gdef \contentsline#1#2#3#4{\oldcontentsline{#1}{#2}{#3}}
\global \let \oldnewlabel\newlabel
\gdef \newlabel#1#2{\newlabelxx{#1}#2}
\gdef \newlabelxx#1#2#3#4#5#6{\oldnewlabel{#1}{{#2}{#3}}}
\AtEndDocument{\let \contentsline\oldcontentsline
\let \newlabel\oldnewlabel}
\else
\global \let \hyper@last\relax 
\fi

\newlabel{stat}{{}{2}{Figures\relax }{section*.1}{}}
\newlabel{ref}{{}{3}{References\relax }{section*.2}{}}
\newlabel{prini}{{}{3}{About EuroLinux - www.eurolinux.org\relax }{section*.3}{}}
\newlabel{press}{{}{3}{Press Contacts\relax }{section*.4}{}}
\newlabel{url}{{}{3}{Permanent URL for this PR\relax }{section*.5}{}}
\newlabel{leg}{{}{4}{Legalese\relax }{section*.6}{}}
