\relax 
\ifx\hyper@anchor\@undefined
\global \let \oldcontentsline\contentsline
\gdef \contentsline#1#2#3#4{\oldcontentsline{#1}{#2}{#3}}
\global \let \oldnewlabel\newlabel
\gdef \newlabel#1#2{\newlabelxx{#1}#2}
\gdef \newlabelxx#1#2#3#4#5#6{\oldnewlabel{#1}{{#2}{#3}}}
\AtEndDocument{\let \contentsline\oldcontentsline
\let \newlabel\oldnewlabel}
\else
\global \let \hyper@last\relax 
\fi

\@writefile{toc}{\contentsline {section}{\numberline {1}Impact Studies and Overviews}{1}{section.1}}
\newlabel{sisku}{{1}{1}{Impact Studies and Overviews\relax }{section.1}{}}
\@writefile{toc}{\contentsline {section}{\numberline {2}EU Policy}{2}{section.2}}
\newlabel{polit}{{2}{2}{EU Policy\relax }{section.2}{}}
\@writefile{toc}{\contentsline {section}{\numberline {3}Software Patents granted by the EPO}{2}{section.3}}
\newlabel{pat}{{3}{2}{Software Patents granted by the EPO\relax }{section.3}{}}
\@writefile{toc}{\contentsline {section}{\numberline {4}Patent Court Rulings}{2}{section.4}}
\newlabel{epa}{{4}{2}{Patent Court Rulings\relax }{section.4}{}}
\@writefile{toc}{\contentsline {section}{\numberline {5}Frequently Cited Legal Texts}{2}{section.5}}
\newlabel{jur}{{5}{2}{Frequently Cited Legal Texts\relax }{section.5}{}}
\@writefile{toc}{\contentsline {section}{\numberline {6}Statements and Press Articles}{2}{section.6}}
\newlabel{xatra}{{6}{2}{Statements and Press Articles\relax }{section.6}{}}
\@writefile{toc}{\contentsline {section}{\numberline {7}Questions, Things To Do, How you can Help}{2}{section.7}}
\newlabel{tasks}{{7}{2}{Questions, Things To Do, How you can Help\relax }{section.7}{}}
