\contentsline {section}{\numberline {1}Impact Studies and Overviews}{1}{section.1}
\contentsline {section}{\numberline {2}EU Policy}{2}{section.2}
\contentsline {section}{\numberline {3}Software Patents granted by the EPO}{2}{section.3}
\contentsline {section}{\numberline {4}Patent Court Rulings}{2}{section.4}
\contentsline {section}{\numberline {5}Frequently Cited Legal Texts}{2}{section.5}
\contentsline {section}{\numberline {6}Statements and Press Articles}{2}{section.6}
\contentsline {section}{\numberline {7}Questions, Things To Do, How you can Help}{2}{section.7}
