\select@language {french}
\select@language {french}
\contentsline {section}{\numberline {1}Brevets Logiciel Accord\'{e}s par l'OEB}{1}{section.0.1}
\contentsline {section}{\numberline {2}Prises de Position et Articles}{1}{section.0.2}
