\relax 
\ifx\hyper@anchor\@undefined
\global \let \oldcontentsline\contentsline
\gdef \contentsline#1#2#3#4{\oldcontentsline{#1}{#2}{#3}}
\global \let \oldnewlabel\newlabel
\gdef \newlabel#1#2{\newlabelxx{#1}#2}
\gdef \newlabelxx#1#2#3#4#5#6{\oldnewlabel{#1}{{#2}{#3}}}
\AtEndDocument{\let \contentsline\oldcontentsline
\let \newlabel\oldnewlabel}
\else
\global \let \hyper@last\relax 
\fi

\@writefile{toc}{\contentsline {section}{\numberline {1}Software Patents granted by the EPO}{1}{section.1}}
\newlabel{pat}{{1}{1}{Software Patents granted by the EPO\relax }{section.1}{}}
\@writefile{toc}{\contentsline {section}{\numberline {2}Statements and Press Articles}{1}{section.2}}
\newlabel{xatra}{{2}{1}{Statements and Press Articles\relax }{section.2}{}}
