\contentsline {section}{\numberline {1}Does TRIPS require software patents?}{1}
\contentsline {section}{\numberline {2}TRIPS Article 10: Computer Programs and Compilations of Data}{2}
\contentsline {section}{\numberline {3}TRIPS Article 27: Patentable Subject Matter}{2}
