\contentsline {chapter}{\numberline {1}Tabellarische Auflistung}{4}{chapter.1}
\contentsline {chapter}{\numberline {2}Kein Grund eine schlecht verfasste Richtlinie zu akzeptieren.}{6}{chapter.2}
\contentsline {chapter}{\numberline {3}Kommentierte Verweise}{7}{chapter.3}
