\BOOKMARK [0][-]{chapter.1}{Tabellarische Auflistung}{}
\BOOKMARK [0][-]{chapter.2}{Kein Grund eine schlecht verfasste Richtlinie zu akzeptieren.}{}
\BOOKMARK [0][-]{chapter.3}{Kommentierte Verweise}{}
