\relax 
\ifx\hyper@anchor\@undefined
\global \let \oldcontentsline\contentsline
\gdef \contentsline#1#2#3#4{\oldcontentsline{#1}{#2}{#3}}
\global \let \oldnewlabel\newlabel
\gdef \newlabel#1#2{\newlabelxx{#1}#2}
\gdef \newlabelxx#1#2#3#4#5#6{\oldnewlabel{#1}{{#2}{#3}}}
\AtEndDocument{\let \contentsline\oldcontentsline
\let \newlabel\oldnewlabel}
\else
\global \let \hyper@last\relax 
\fi

\@writefile{toc}{\contentsline {chapter}{\numberline {1}Tabellarische Auflistung}{4}{chapter.1}}
\@writefile{lof}{\addvspace {10\p@ }}
\@writefile{lot}{\addvspace {10\p@ }}
\newlabel{kond}{{1}{5}{Tabellarische Auflistung\relax }{chapter.1}{}}
\@writefile{toc}{\contentsline {chapter}{\numberline {2}Kein Grund eine schlecht verfasste Richtlinie zu akzeptieren.}{6}{chapter.2}}
\@writefile{lof}{\addvspace {10\p@ }}
\@writefile{lot}{\addvspace {10\p@ }}
\newlabel{ratio}{{2}{6}{Kein Grund eine schlecht verfasste Richtlinie zu akzeptieren}{chapter.2}{}}
\@writefile{toc}{\contentsline {chapter}{\numberline {3}Kommentierte Verweise}{7}{chapter.3}}
\@writefile{lof}{\addvspace {10\p@ }}
\@writefile{lot}{\addvspace {10\p@ }}
\newlabel{links}{{3}{7}{Kommentierte Verweise\relax }{chapter.3}{}}
