\contentsline {chapter}{\numberline {1}Tabular Listing}{4}{chapter.1}
\contentsline {chapter}{\numberline {2}No reason to accept a poorly written directive}{6}{chapter.2}
\contentsline {chapter}{\numberline {3}Annotated Links}{7}{chapter.3}
