\select@language {spanish}
\contentsline {chapter}{\numberline {1}Listado Tabular}{4}{chapter.1}
\contentsline {chapter}{\numberline {2}Ninguna raz\'{o}n para aceptar una directiva pobremente redactada}{6}{chapter.2}
\contentsline {chapter}{\numberline {3}Annotated Links}{7}{chapter.3}
