\select@language {french}
\select@language {french}
\contentsline {chapter}{\numberline {1}Liste}{4}{chapter.1}
\contentsline {chapter}{\numberline {2}Pourquoi rejeter une mauvaise directive}{6}{chapter.2}
\contentsline {chapter}{\numberline {3}Liens Annot\'{e}s}{7}{chapter.3}
