\relax 
\ifx\hyper@anchor\@undefined
\global \let \oldcontentsline\contentsline
\gdef \contentsline#1#2#3#4{\oldcontentsline{#1}{#2}{#3}}
\global \let \oldnewlabel\newlabel
\gdef \newlabel#1#2{\newlabelxx{#1}#2}
\gdef \newlabelxx#1#2#3#4#5#6{\oldnewlabel{#1}{{#2}{#3}}}
\AtEndDocument{\let \contentsline\oldcontentsline
\let \newlabel\oldnewlabel}
\else
\global \let \hyper@last\relax 
\fi

\@writefile{toc}{\contentsline {chapter}{\numberline {1}introduction}{4}{chapter.1}}
\@writefile{lof}{\addvspace {10\p@ }}
\@writefile{lot}{\addvspace {10\p@ }}
\newlabel{intro}{{1}{4}{introduction\relax }{chapter.1}{}}
\@writefile{toc}{\contentsline {chapter}{\numberline {2}Plooij's Initial Draft: Preface}{5}{chapter.2}}
\@writefile{lof}{\addvspace {10\p@ }}
\@writefile{lot}{\addvspace {10\p@ }}
\newlabel{plooj}{{2}{5}{Plooij's Initial Draft: Preface\relax }{chapter.2}{}}
\@writefile{toc}{\contentsline {chapter}{\numberline {3}Preamble Amendments and Lack Thereof}{7}{chapter.3}}
\@writefile{lof}{\addvspace {10\p@ }}
\@writefile{lot}{\addvspace {10\p@ }}
\newlabel{ploam}{{3}{7}{Preamble Amendments and Lack Thereof\relax }{chapter.3}{}}
\@writefile{toc}{\contentsline {chapter}{\numberline {4}Amendments to Articles}{8}{chapter.4}}
\@writefile{lof}{\addvspace {10\p@ }}
\@writefile{lot}{\addvspace {10\p@ }}
\newlabel{artam}{{4}{8}{Amendments to Articles\relax }{chapter.4}{}}
\@writefile{toc}{\contentsline {chapter}{\numberline {5}Amendments to Plooij's Amendments}{13}{chapter.5}}
\@writefile{lof}{\addvspace {10\p@ }}
\@writefile{lot}{\addvspace {10\p@ }}
\newlabel{amam}{{5}{13}{Amendments to Plooij's Amendments\relax }{chapter.5}{}}
\@writefile{toc}{\contentsline {chapter}{\numberline {6}Annotated Links}{15}{chapter.6}}
\@writefile{lof}{\addvspace {10\p@ }}
\@writefile{lot}{\addvspace {10\p@ }}
\newlabel{links}{{6}{15}{Annotated Links\relax }{chapter.6}{}}
