\contentsline {chapter}{\numberline {1}introduction}{4}{chapter.1}
\contentsline {chapter}{\numberline {2}Plooij's Initial Draft: Preface}{5}{chapter.2}
\contentsline {chapter}{\numberline {3}Preamble Amendments and Lack Thereof}{7}{chapter.3}
\contentsline {chapter}{\numberline {4}Amendments to Articles}{8}{chapter.4}
\contentsline {chapter}{\numberline {5}Amendments to Plooij's Amendments}{13}{chapter.5}
\contentsline {chapter}{\numberline {6}Annotated Links}{15}{chapter.6}
