; -*- coding: utf-8; srcfile:// -*-

                                  <EntPE>
   PARLEMENT EUROPÉEN</EntPE>

                                    1999
                                    
                                [Image5.gif]
                                    
                                    2004
   
                                <Commission>
   {ITRE}Commission de l'industrie, du commerce extérieur, de la
   recherche et de l'énergie</Commission>

   <Date>
   {04/02/2003}4 février 2003</Date> PE 321.981/<RangeAM>11-46</RangeAM> 

   AMENDEMENTS
   <RangeAM>11-46</RangeAM> 

   <
   TitreType>Projet d'avis</TitreType> (PE 321.981)

   <
   Rapporteur>Elly Plooij-van Gorsel</Rapporteur>

   <Titre>
   on the proposal for a Directive of the European Parliament and of the
   Council on the patentability of computer-implemented
   inventions</Titre>

   <TitreRecueil>
   (COM(2002) 92 - C5-0082/2002 - 2002/0047(COD))</TitreRecueil>

                      Text proposed by the Commission


                          Amendements du Parlement

                         <RepeatBlock-Amend><Amend>
   Amendement déposé par <Members>Danielle Auroi, Marco Cappato</Members>

                        Amendement <NumAm>11</NumAm>

                                 <Article>
   Considérant 7 bis (nouveau)</Article>

   (7 bis) Dans sa résolution (publiée au JO C 378 du 29.12.2000, p. 95)
   sur une décision de l'Office européen des brevets concernant la
   délivrance du brevet n o EP 695 351, le 8 décembre 1999, le Parlement
   européen a demandé la révision des règles de fonctionnement de
   l'Office de façon à garantir que cet organisme puisse publiquement
   rendre des comptes dans l'exercice de ses fonctions.
                                      
                                          Or. <Original>{FR}fr</Original>

                             <OptDel></OptDel>
   
                               Justification

   <OptDelPrev>
   L'Office européen des brevets n'est pas une institution de l'Union
   européenne, et la question de sa responsabilité a été soulevée par le
   passé par le Parlement européen.</OptDelPrev>

                                  </Amend>
   <Amend>Amendement déposé par <Members>Gilles Savary, Erika Mann,Olga
   Zrihen</Members>

                        Amendement <NumAm>12</NumAm>

                                 <Article>
   Considérant 7 bis (nouveau)</Article>

   (7 bis) Le Parlement européen a, à plusieurs reprises, demandé que
   l'Office Européen des Brevets révise ses règles de fonctionnement et
   que cet organisme soit contrôlé publiquement dans l'exercice de ces
   fonctions. A cet égard, il serait particulièrement opportun de
   remettre en cause la pratique qui amène l'Office Européen des Brevets
   à se rétribuer sur les brevets qu'il délivre, dans la mesure où cette
   pratique nuit au caractère public de l'institution.
                                      
                                          Or. <Original>{FR}fr</Original>

                             <OptDel></OptDel>
   
                               Justification

   <OptDelPrev>
   Le Parlement européen a, à plusieurs reprises dans diverses
   résolutions, souligné que les pratiques de l'Office Européen des
   Brevets devaient être réformées.</OptDelPrev>

                              </Amend><Amend>
   Amendement déposé par <Members>Gilles Savary, Erika Mann,Olga
   Zrihen</Members>

                        Amendement <NumAm>13</NumAm>

                                 <Article>
   Considérant 7 ter (nouveau)</Article>

   (7 ter) Les logiciels, d'une part, jouent un rôle important dans de
   nombreuses industries et constituent d'autre part une forme
   fondamentale de création et d'expression. Les logiciels constituent
   aussi un domaine d'ingénierie spécialisée et une activité humaine
   fondamentale, avec plus de 10 millions de développeurs professionnels
   dans le monde et des dizaines de millions de personnes qui créent des
   logiciels à un titre ou à un autre. Les développeurs indépendants et
   les petites sociétés jouent un rôle fondamental dans l'innovation en
   cette matière. Il s'ensuit que les moyens utilisés pour stimuler
   l'investissement dans les industries à forte intensité logicielle ne
   doivent pas conduire à mettre en danger la capacité de tous à devenir
   des créateurs actif et usagers innovants de logiciels et qu'en
   particulier l! ! es brevets ne doivent pas permettre la monopolisation
   des outils d'expression, de création de diffusion et d'échange des
   informations et des connaissances.
                                      
                                          Or. <Original>{FR}fr</Original>

                             <OptDel></OptDel>
   
                               Justification

   <OptDelPrev>
   Se justifie de lui-même.</OptDelPrev>

                              </Amend><Amend>
   Amendement déposé par <Members>Danielle Auroi, Marco Cappato</Members>

                        Amendement <NumAm>14</NumAm>

                                 <Article>
   Considérant 11</Article>

   (11) Bien que les inventions mises en oeuvre par ordinateur soient
   considérées comme appartenant à un domaine technique, elles devraient,
   comme toutes les inventions, apporter une contribution technique à
   l'état de la technique pour répondre au critère de l'activité
   inventive.
                                      
   Supprimer

                                          Or. <Original>{FR}fr</Original>

                             <OptDel></OptDel>
   
                               Justification

   <OptDelPrev>
   Cet amendement est présenté dans un souci de logique avec l'amendement
   4 de la rapporteure. La nature technique des inventions mises en
   oeuvre par ordinateur doit être prouvée, et non tenue pour acquise.
   </OptDelPrev>

                              </Amend><Amend>
   Amendement déposé par <Members>Gilles Savary, Erika Mann ,Olga Zrihen,
   Carlos Westendorp y Cabeza</Members>

                        Amendement <NumAm>15</NumAm>

                                 <Article>
   Considérant 11</Article>

   (11) Bien que les inventions mises en oeuvre par ordinateur soient
   considérées comme appartenant à un domaine technique, elles devraient,
   comme toutes les inventions, apporter une contribution technique à
   l'état de la technique pour répondre au critère de l'activité
   inventive.
                                      
   Supprimer
   
                                          Or. <Original>{FR}fr</Original>

                             <OptDel></OptDel>
   
                               Justification

   <OptDelPrev>
   Ce considérant est ambigu. Comme le souligne le rapporteur, dans
   l'ensemble de son rapport, on ne peut pas considérer que les
   inventions mises en oeuvre par ordinateur soient par définition de
   nature technique ou appartiennent nécessairement à un domaine
   technique. La contribution technique des inventions mises en oeuvre
   par ordinateur doit être prouvée au cas par cas. </OptDelPrev>

                              </Amend><Amend>
   Amendement déposé par <Members>Luis Berenguer Fuster</Members>

                        Amendement <NumAm>16</NumAm>

                                 <Article>
   Recital 11</Article>

   (11) Although computer-implemented inventions are considered to belong
   to a field of technology, in order to involve an inventive step, in
   common with inventions in general, they should make a technical
   contribution to the state of art
                                      
   Deleted
   
                                          Or. <Original>{EN}en</Original>

                             <OptDel></OptDel>
   
                               Justification

   <OptDelPrev>
   The technical nature of computer-implemented inventions has to be
   proved, and not taken for granted. This amendment is in line with
   amendment 4 of Article 3 of the draft opinion of Mrs Elly Plooj-van
   Gorsel as well as the one of Mr Rocard.</OptDelPrev>

   </Amend>

                                  <Amend>
   Amendement déposé par <Members>Danielle Auroi, Marco Cappato,
   </Members>

                        Amendement <NumAm>17</NumAm>

                                 <Article>
   Considérant 13</Article>

   (13) Une procédure définie ou une séquence d'actions exécutées sur un
   appareil tel qu'un ordinateur, peut apporter une contribution
   technique à l'état de la technique et constituer ainsi une invention
   brevetable.
   Par contre, un algorithme défini sans référence à un environnement
   physique ne présente pas un caractère technique et ne peut donc
   constituer une invention brevetable.

   (13) Une procédure définie ou une séquence d'actions exécutées sur un
   appareil tel qu'un ordinateur, peut contribuer à la connaissance des
   relations de cause à effet impliquant des forces contrôlables de la
   nature et constituer ainsi une invention brevetable. Par contre, un
   algorithme ou un programme d'ordinateur, que les entités symboliques
   dont il est composé puissent être interprétées comme faisant référence
   à un environnement physique ou non,
   ne présente pas un caractère technique et ne peut donc constituer une
   invention brevetable.

                                          Or. <Original>{FR}fr</Original>

                             <OptDel></OptDel>
   
                               Justification

   <OptDelPrev>
   La première phrase pourrait être interprétée comme le fait que des «
   séquences d'actions » autrement non brevetables puissent l'être pour
   autant qu'elles soient exécutées par un ordinateur. La technicité
   d'une invention implémentable par ordinateur ne réside pas dans le
   fait qu'un ordinateur soit utilisé, mais dans le fait qu'elle met en
   oeuvre l'utilisation de forces contrôlables de la nature pour obtenir
   un effet technique distinct de ceux mis en oeuvre pour le traitement
   de l'information par le programme d'ordinateur. La directive traite
   des inventions mises en oeuvre par ordinateur, mais les programmes
   d'ordinateurs eux-mêmes ne sont pas des inventions, puisque ils
   n'appartiennent pas au monde physique et ils sont protégés par le
   droit d'auteur. ! ! </OptDelPrev>

                              </Amend><Amend>
   Amendement déposé par <Members>Gilles Savary, Erika Mann ,Olga Zrihen,
   Carlos Westendorp y Cabeza</Members>

                        Amendement <NumAm>18</NumAm>

                                 <Article>
   Considérant 13</Article>

   (13) Une procédure définie ou une séquence d'actions exécutées sur un
   appareil tel qu'
   un ordinateur, peut apporter une contribution technique à l'état de la
   technique et constituer ainsi une invention brevetable. Par contre, un
   algorithme défini sans référence à un environnement physique ne
   présente pas un caractère technique et ne peut donc constituer une
   invention brevetable.

   (13) Une procédure définie ou une séquence d'actions exécutées avec
   l'aide d
   'un ordinateur, peut contribuer à la connaissance des relations de
   cause à effet impliquant des forces contrôlables de la nature et
   constituer ainsi une invention brevetable. Par contre, un algorithme
   ou un programme d'ordinateur ne présente pas un caractère technique et
   ne peut donc constituer une invention brevetable, que les entités
   symboliques dont le programme ou l'algorithme est composé puissent
   être interprétées comme faisant référence à un environnement physique
   ou non.

                                          Or. <Original>{FR}fr</Original>

                             <OptDel></OptDel>
   
                               Justification

   <OptDelPrev>
   La première phrase de ce considérant est ambiguë, dans la mesure où
   elle pourrait être interprétée comme permettant la brevetabilité des
   "séquences d'actions" à partir du moment où elles sont exécutées par
   un ordinateur, alors que, par ailleurs, en elles -mêmes, elles
   seraient non brevetables. 

   Comme le rapporteur dans son projet d'avis du 19.12.2002, il importe
   de rappeler que la technicité (et la nouveauté) d'une invention mise
   en oeuvre par ordinateur ne réside pas dans le fait qu'un ordinateur
   soit utilisé, mais dans le fait que cette invention met en oeuvre
   l'utilisation de forces contrôlables de la nature pour obtenir un
   effet technique distinct de ceux mis en oeuvre pour le traitement de
   l'information par le programme d'ordinateur. La directive traite des
   inventions mises en oeuvre par ordinateur, mais les programmes
   d'ordinateurs eux-mêmes ne sont pas des inventions dans la mesure où
   ils n'appartiennent pas au monde physique. Il importe que le
   législateur dessine clairement la frontière entre ce qui peut être
   considéré comme brevetable et ce qui ne peut pas l'être.

   </OptDelPrev>

   </Amend>

                                  <Amend>
   Amendement déposé par <Members>Danielle Auroi, Marco Cappato,
   </Members>

                        Amendement <NumAm>19</NumAm>

                                 <Article>
   Article 2, lettre a)</Article>

   (a) "invention mise en oeuvre par ordinateur" désigne toute invention
   dont l'exécution implique l'utilisation d'un ordinateur, d'un réseau
   informatique ou d'autre appareil programmable et présentant une ou
   plusieurs caractéristiques à première vue nouvelles qui sont réalisées
   totalement ou en partie par un ou plusieurs programmes d'ordinateurs ;

   (a) « invention mise en oeuvre par ordinateur » désigne toute
   invention susceptible d'application industrielle dont l'exécution
   implique l'utilisation d'un ordinateur, d'un réseau informatique ou
   d'autre appareil programmable et présentant une ou plusieurs
   caractéristiques à première vue nouvelles constituant une contribution
   technique, ainsi que d'autres caractéristiques nouvelles ou non
   réalisées totalement ou en partie par un ou plusieurs programmes
   d'ordinateurs;

                                          Or. <Original>{FR}fr</Original>

                             <OptDel></OptDel>
   
                               Justification

   <OptDelPrev>
   La définition initiale de la brevetabilité est trop large. En
   particulier, une invention implémentable par ordinateur ne devrait pas
   être considérée brevetable au seul fait qu'un ordinateur est utilisé,
   ou que le programme qui s'exécute sur un appareil programmable non
   nouveau soit nouveau. Une contribution technique est requise.
   </OptDelPrev>

   </Amend>

                                  <Amend>
   Amendement déposé par <Members>Angelika Niebler, </Members>

                        Amendement <NumAm>20</NumAm>

                                 <Article>
   Artikel 2, letter (a)</Article>

   (a) "Computerimplementierte Erfindung" ist jede Erfindung, zu deren
   Ausführung ein Computer, ein Computernetz oder eine sonstige
   programmierbare Vorrichtung eingesetzt wird und die auf den ersten
   Blick mindestens ein neuartiges
   Merkmal aufweist, das ganz oder teilweise mit einem oder mehreren
   Computerprogrammen realisiert wird.

   (a) "Computerimplementierte Erfindung" ist jede Erfindung, zu deren
   Ausführung ein Computer, ein Computernetz oder eine sonstige
   programmierbare Vorrichtung eingesetzt wird und die ein Merkmal
   aufweist, das ganz oder teilweise mit einem oder mehreren
   Computerprogrammen realisiert wird.

                                          Or. <Original>{DE}de</Original>

                             <OptDel></OptDel>
   
                               Justification

   <OptDelPrev>
   Das Erfordernis, dass die Neuartigkeit einer Erfindung bereits auf den
   ersten Blick sichtbar ist, führt bei der Anmeldung zu Unsicherheiten
   und sollte vielmehr im Laufe der Prüfung behandelt werden.
   </OptDelPrev>

                              </Amend><Amend>
   Amendement déposé par <Members>Gilles Savary, Erika Mann, Olga Zrihen,
   Carlos Westendorp</Members>

                        Amendement <NumAm>21</NumAm>

                                 <Article>
   Article 2, lettre (a)</Article>

   (a) "invention mise en oeuvre par ordinateur" désigne toute invention
   dont l'exécution implique l'utilisation d'un ordinateur, d'un réseau
   informatique ou d'autre appareil programmable et présentant une ou
   plusieurs caractéristiques à première vue nouvelles qui sont réalisées
   totalement ou en partie par un ou plusieurs programmes d'ordinateurs ;

   (a) "invention mise en oeuvre par ordinateur" désigne toute invention
   susceptible d'application industrielle et dont l'exécution implique
   l'utilisation d'un ordinateur, d'un réseau informatique ou d'autre
   appareil programmable et présentant une ou plusieurs caractéristiques
   nouvelles constituant une contribution technique, ainsi que d'autres
   caractéristiques nouvelles ou non
   réalisées totalement ou en partie par un ou plusieurs programmes
   d'ordinateurs ;

                                          Or. <Original>{FR}fr</Original>

                             <OptDel></OptDel>
   
                               Justification

   <OptDelPrev>
   Reprend et précise l'amendement 2 du rapporteur. Une contribution
   technique est requise pour que l'invention soit brevetable. Toutefois,
   il convient de préciser que cette contribution technique doit exister
   en soi, du fait de ses effets sur les forces contrôlables de la
   nature, pour que l'invention soit brevetable. La contribution
   technique ne peut être liée à la seule utilisation d'un ordinateur,
   l'ordinateur n'étant qu'un moyen au service de l'invention et ce que
   l'ordinateur utilisé soit nouveau ou non. Le critère pertinent n'est
   donc pas celui de l'utilisation d'un ordinateur, qui n'est qu'un moyen
   au service de l'invention, </OptDelPrev>

                              </Amend><Amend>
   Amendement déposé par <Members>Dominique Vlasto</Members>

                        Amendement <NumAm>22</NumAm>

                                 <Article>
   Article 2, lettre (b)</Article>

   b) « contribution technique » désigne une contribution à l'état de la
   technique dans un domaine technique, qui n'est pas évidente pour une
   personne du métier.

   b) « contribution technique » désigne une contribution à l'état de la
   technique dans un domaine technique,

                                          Or. <Original>{FR}fr</Original>

                             <OptDel></OptDel>
   
                               Justification

   <OptDelPrev>
   La référence au caractère non évident appartient à l'appréciation de
   l'inventivité telle qu'indiquée dans l'article 4 paragraphes 1 et 2,
   pas à la définition de la contribution technique.</OptDelPrev>

                              </Amend><Amend>
   Amendement déposé par <Members>Danielle Auroi, Marco Cappato,
   </Members>

                        Amendement <NumAm>23</NumAm>

                                 <Article>
   Article 2, lettre b) bis (nouveau)</Article>

   (b bis) « domaine technique » désigne un domaine industriel
   d'application nécessitant l'utilisation de forces contrôlables de la
   nature pour obtenir des résultats prévisibles. « Technique » signifie
   « appartenant à un domaine technique ». L'utilisation de forces de la
   nature pour contrôler des effets physiques au delà de la
   représentation de l'information appartient à un domaine technique. La
   production, la manipulation, le traitement, la distribution et la
   présentation de l'information n'appartiennent pas à un domaine
   technique, même si des dispositifs techniques sont utilisés dans ce
   but.
                                      
                                          Or. <Original>{FR}fr</Original>

                             <OptDel></OptDel>
   
                               Justification

   <OptDelPrev>
   Le terme « domaine technique », bien que cité à plusieurs endroits du
   projet de directive, n'était pas défini. Le fait qu'un appareil
   programmable utilise des effets physiques pour traiter l'information
   ne doit pas être utilisé pour autoriser le brevetage du programme
   s'exécutant sur un tel appareil. </OptDelPrev>

                              </Amend><Amend>
   Amendement déposé par <Members>Gilles Savary, Erika Mann, Olga Zrihen,
   Carlos Westendorp</Members>

                        Amendement <NumAm>24</NumAm>

                                 <Article>
   Article 2, lettre (b) bis (nouveau)</Article>

   (b bis) « domaine technique » désigne un domaine industriel
   d'application nécessitant l'utilisation de forces contrôlables de la
   nature pour obtenir des résultats prévisibles. « Technique » signifie
   « appartenant à un domaine technique ». L'utilisation de forces de la
   nature pour contrôler des effets physiques au delà de la
   représentation de l'information appartient à un domaine technique. La
   production, la manipulation, le traitement, la distribution et la
   présentation de l'information n'appartiennent pas à un domaine
   technique, même si des dispositifs techniques sont utilisés dans ce
   but.
                                      
                                          Or. <Original>{FR}fr</Original>

                             <OptDel></OptDel>
   
                               Justification

   <OptDelPrev>
   Le terme « domaine technique », bien que cité à l'article 2.b de la
   proposition de la Commission européenne n'est pas défini dans la
   Directive . 

   En cohérence avec les amendements du rapporteur et ceux présentés par
   les présents signataires, il importe de rappeler que le caractère
   brevetable d'une invention doit être liée à la contribution technique
   qu'elle apporte. et non au fait qu'elle repose sur l'utilisation d'un
   appareil programmable, tel qu'un ordinateur générique. Les effets
   physiques de l'invention doivent pouvoir être mesurés en terme de
   contribution technique dans le domaine matériel, c'est à dire dans le
   domaine des forces contrôlables de la nature. Le fait qu'une invention
   utilise des effets physiques (à l'intérieur d'un ordinateur par
   exemple) pour traiter l'information n'est pas u critère suffisant pour
   permettre le brevetage du programme exécuté par cet appareil.
   </OptDelPrev>

                              </Amend><Amend>
   Amendement déposé par <Members>Luis Berenguer Fuster</Members>

                        Amendement <NumAm>25</NumAm>

                                 <Article>
   Article 2, letter b) bis (new)</Article>

                                   (b bis)
   "technical field" means an industrial application domain requiring the
   use of controllable forces of nature to achieve predictable results.
   "Technical" means belonging to a technical field.
     
   
   The use of forces of nature to control physical effects beyond the
   representation of information belongs to a technical field. The
   production, handling, processing, and presentation of information does
   not belong to a technical field, even if technical devices are used
   for that purpose.
                                 
                                          Or. <Original>{EN}en</Original>

                             <OptDel></OptDel>
   
                               Justification

   <OptDelPrev>
   The term "technical field", although referred to in several places of
   the Directive, was not defined. The fact that a programmable
   apparatus, such as generic computer, makes use of physical effects in
   order to process information should not be used to allow patent
   protection to the program running on such an apparatus.</OptDelPrev>

                              </Amend><Amend>
   Amendement déposé par <Members>Angelika Niebler</Members>

                        Amendement <NumAm>26</NumAm>

                                 <Article>
   Artikel 3</Article>

   Die Mitgliedstaaten stellen sicher, dass eine computerimplementierte
   Erfindung als einem Gebiet der Technik zugehörig gilt.
                                      
   Streichen
   
                                          Or. <Original>{DE}de</Original>

                             <OptDel></OptDel>
   
                               Justification

   <OptDelPrev>
   Artikel 3 ist vor dem Hintergrund der in Art. 2 (b) und Artikel 4
   genannten Voraussetzungen einer Patentierbarkeit
   computerimplementierter Erfindungen überflüssig. </OptDelPrev>

                              </Amend><Amend>
   Amendement déposé par <Members>Angelika Niebler</Members>

                        Amendement <NumAm>27</NumAm>

                                 <Article>
   Artikel 4, paragraph 1</Article>

   1. Die Mitgliedstaaten stellen sicher, dass
   eine computerimplementierte Erfindung patentierbar ist, sofern sie
   gewerblich anwendbar und neu ist und auf einer erfinderischen
   Tätigkeit beruht. 

   1. Damit
   eine computerimplementierte Erfindung patentierbar ist, muss sie neu
   sein, auf einer erfinderischen Tätigkeit beruhen und gewerblich
   anwendbar sein. Eine erfinderische Tätigkeit liegt nur vor, wenn die
   computerimplementierte Erfindung einen technischen Beitrag leistet.

                                          Or. <Original>{DE}de</Original>

                             <OptDel></OptDel>
   
                               Justification

   <OptDelPrev>
   Dieser Änderungsantrag dient der Klarstellung.</OptDelPrev>

   </Amend>

                                  <Amend>
   Amendement déposé par <Members>Danielle Auroi, Marco Cappato</Members>

                        Amendement <NumAm>28</NumAm>

                                 <Article>
   Article 4, paragraphe 1</Article>

   1. Les États membres veillent à ce qu'une invention mise en oeuvre par
   ordinateur soit brevetable à la condition qu'elle soit susceptible
   d'application industrielle, qu'elle soit nouvelle et qu'elle implique
   une activité inventive.

   1. Les États membres veillent à ce qu'une invention mise en oeuvre par
   ordinateur soit brevetable à la condition qu'elle soit susceptible
   d'application industrielle, qu'elle soit nouvelle, qu'elle implique
   une activité inventive et qu'elle appartienne à un domaine technique
   .

                                          Or. <Original>{FR}fr</Original>

                             <OptDel></OptDel>
   
                               Justification

   <OptDelPrev>
   L'Article 4.1 doit être cohérent avec le nouvel Article
   2.</OptDelPrev>

                              </Amend><Amend>
   Amendement déposé par <Members>Luis Berenguer Fuster</Members>

                        Amendement <NumAm>29</NumAm>

                                 <Article>
   Article 4, paragraphe 1</Article>

   1. Los Estados miembros garantizarán que las invenciones implementadas
   en ordenador sean patentables a condición de que sean nuevas, supongan
   una actividad inventiva y sean susceptibles de aplicación industrial.

   1. Los Estados miembros garantizarán que las invenciones implementadas
   en ordenador no sean patentables "per se", y solamente puedan serlo en
   la medida que constituyan una contribución técnica.

                                          Or. <Original>{ES}es</Original>

                             <OptDel></OptDel>
   
                               Justification

   <OptDelPrev>
   Debe aclararse que los programas de ordenador no son patentables "per
   se". </OptDelPrev>

   </Amend>

                                  <Amend>
   Amendement déposé par <Members>Angelika Niebler</Members>

                        Amendement <NumAm>30</NumAm>

                                 <Article>
   Artikel 4, paragraph 2</Article>

   2. Die Mitgliedstaaten stellen sicher, dass die Voraussetzung der
   erfinderischen Tätigkeit nur erfüllt ist, wenn eine
   computerimplementierte Erfindung einen technischen Beitrag leistet.
                                      
   Streichen
   
                                          Or. <Original>{DE}de</Original>

                             <OptDel></OptDel>
   
                               Justification

   <OptDelPrev>
   Dieser Änderungsantrag dient der Klarstellung.</OptDelPrev>

   </Amend>

                                  <Amend>
   Amendement déposé par <Members>Angelika Niebler</Members>

                        Amendement <NumAm>31</NumAm>

                                 <Article>
   Artikel 4, paragraph 3</Article>

   3. Bei der Ermittlung des technischen Beitrags wird beurteilt,
   inwieweit sich der Gegenstand des Patentanspruchs in seiner
   Gesamtheit, der sowohl technische als auch nichttechnische Merkmalen
   umfassen kann, vom Stand der Technik abhebt.
                                      
   Streichen
   
                                          Or. <Original>{DE}de</Original>

                             <OptDel></OptDel>
   
                               Justification

   <OptDelPrev>
   Dieser Änderungsantrag dient der Klarstellung.</OptDelPrev>

   </Amend>


                                  <Amend>
   Amendement déposé par <Members>Danielle Auroi, Marco Cappato</Members>

                        Amendement <NumAm>32</NumAm>

                                 <Article>
   Article 4, paragraphe 3</Article>

   3. La contribution technique est évaluée en prenant en considération
   la différence entre l'objet de la revendication de brevet considéré
   dans son ensemble, dont les éléments peuvent comprendre des
   caractéristiques techniques et non techniques, et l'état de la
   technique.

   3. La contribution technique est évaluée en prenant en considération
   la différence entre l'objet des caractéristiques techniques
   de la revendication de brevet considérées dans leur ensemble, et
   l'état de la technique.

                                          Or. <Original>{FR}fr</Original>

                             <OptDel></OptDel>
   
                               Justification

   <OptDelPrev>
   Garantir que les conditions de nouveauté et d'activité inventive
   concernent les caractéristiques techniques, faute de quoi tout
   logiciel nouveau s'exécutant sur un dispositif technique non nouveau
   pourrait être brevetable. </OptDelPrev>

                              </Amend><Amend>
   Amendement déposé par <Members>Gilles Savary, Erika Mann, Olga Zrihen,
   Carlos Westendorp</Members>

                        Amendement <NumAm>33</NumAm>

                                 <Article>
   Article 4, paragraphe 3</Article>

   3. La contribution technique est évaluée
   en prenant en considération la différence entre l'objet de la
   revendication de brevet considéré dans son ensemble, dont les éléments
   peuvent comprendre des caractéristiques techniques et non techniques,
   et l'état de la technique.

   3. Le caractère notable de
   la contribution technique est évalué en prenant en considération la
   différence entre les éléments techniques inclus dans l'objet de la
   revendication du brevet considéré et l'état de la technique .

                                          Or. <Original>{FR}fr</Original>

                             <OptDel></OptDel>
   
                               Justification

   <OptDelPrev>
   Reprend la première partie de l'amendement 7 du rapporteur (avis du 19
   décembre) mais supprime l'expression "dans son ensemble" afin de lever
   toute ambiguïté. 

   Il importe en effet de rappeler que les conditions de nouveauté et
   d'activité inventive concernent les seules caractéristiques
   techniques, faute de quoi il existe le danger que tout logiciel
   nouveau s'exécutant sur un dispositif technique non nouveau soit
   brevetable.
   </OptDelPrev>

                              </Amend><Amend>
   Amendement déposé par <Members>Angelika Niebler</Members>

                        Amendement <NumAm>34</NumAm>

                                 <Article>
   Artikel 4a (neu)</Article>

                    4a. Ausnahmen von der Patentierbarkeit
     
   
   Ein technischer Betrag ist nicht gegeben, wenn die
   computerimplementierte Erfindung lediglich den Gebrauch eines
   Computers oder einer anderen Vorrichtung vorsieht. Folglich sind
   Erfindungen, die Geschäfts-, mathematische oder andere Methoden, mit
   Hilfe eines Computerprogramms umsetzen und keinen technischen Effekt
   hervorrufen, der über die normalen physikalischen Interaktionen
   zwischen Programm und Computer, Netzwerk oder anderer Vorrichtung
   hinausgeht, nicht patentierbar.
                  
                                          Or. <Original>{DE}de</Original>

                             <OptDel></OptDel>
   
                               Justification

   <OptDelPrev>
   Es soll verhindert werden, dass reine Geschäftsmethoden, normale
   Computerprogramme sowie mathematische oder sonstige Methoden
   patentiert werden können. </OptDelPrev>

                              </Amend><Amend>
   Amendement déposé par <Members>Malcolm Harbour</Members>

                        Amendement <NumAm>35</NumAm>

                                 <Article>
   Article 5</Article>

   Member States shall ensure that a computer-implemented invention may
   be claimed as a product, that is as a programmed computer, a
   programmed computer network or other programmed apparatus, or as a
   process carried out by such a computer, computer network or apparatus
   through the execution of software.

   Member States shall ensure that a computer-implemented invention may
   be claimed as a product, that is as a programmed computer, a
   programmed computer network or other programmed apparatus, or a
   computer program stored on a carrier or supplied by signal, 
   or as a process carried out by such a computer, computer network or
   apparatus through the execution of software.

                                          Or. <Original>{EN}en</Original>

                             <OptDel></OptDel>
   
                               Justification

   <OptDelPrev>
   The European Patent Office and some national courts (e. g. the German
   Bundesgerichthof) already allow program product claims. The
   Commission's Proposal would curtail this practice and create further
   problems. Indeed, the current wording of Article 5 of the Proposal
   would provide product-patent protection for a computer-implemented
   invention only when an infringer combines the computer-program
   invention with hardware to form a "programmed computer, a programmed
   computer network or other programmed apparatus". That means in
   practice that only users will directly infringe the patent as they are
   implementing the invention in a computer, a computer network or
   another apparatus while the manufacturers and distributors will escape
   direct infringement by manufacturing or distributing a disk containing
   the computer-implemented invention. Such outcome is not desirable.

   The change of wording proposed in this amendment avoids the pitfalls
   of the Commission's Proposal and allows the Directive to remain in
   line with the case law of the European Patent Office and of some
   Member States.
   </OptDelPrev>

                              </Amend><Amend>
   Amendement déposé par <Members>Angelika Niebler</Members>

                        Amendement <NumAm>36</NumAm>

                                 <Article>
   Artikel 5</Article>

   Die Mitgliedstaaten stellen sicher, dass auf eine
   computerimplementierte Erfindung entweder ein Erzeugnisanspruch
   erhoben werden kann, wenn es sich um einen programmierten Computer,
   ein programmiertes Computernetz oder eine sonstige programmierte
   Vorrichtung handelt, oder aber ein Verfahrensanspruch, wenn es sich um
   ein Verfahren handelt, das von einem Computer, einem Computernetz oder
   einer sonstigen Vorrichtung durch Ausführung von Software verwirklicht
   wird.
                                      
   1.
   Die Mitgliedstaaten stellen sicher, dass auf eine
   computerimplementierte Erfindung entweder ein Erzeugnisanspruch
   erhoben werden kann, wenn es sich um einen programmierten Computer,
   ein programmiertes Computernetz oder eine sonstige programmierte
   Vorrichtung handelt, oder aber ein Verfahrensanspruch, wenn es sich um
   ein Verfahren handelt, das von einem Computer, einem Computernetz oder
   einer sonstigen Vorrichtung durch Ausführung von Software verwirklicht
   wird.
     
   
   2. Ein Patentanspruch auf ein Computerprogramm an sich oder auf ein
   auf einem Träger gespeichertes Computerprogramm, ist nicht zulässig,
   es sein denn, das Programm führt, sobald es auf einem Computer, auf
   einem programmierten Computernetzwerk oder einer sonstigen
   programmierten Vorrichtung installiert und ausgeführt wird, zu einem
   Produkt oder einem Prozess, der unter den in Absatz 1 genannten
   Patentanspruch fällt.
                                      
                                          Or. <Original>{DE}de</Original>

                             <OptDel></OptDel>
   
                               Justification

   <OptDelPrev>
   Die vorgeschlagene Änderung dient der Klarstellung, dass
   Softwareprogramme als solche nur patentrechtlich geschützt sein
   sollen, soweit sie über die Programmierung hinaus einen technischen
   Beitrag leisten.</OptDelPrev>

                              </Amend><Amend>
   Amendement déposé par <Members>Gilles Savary, Erika Mann, Olga Zrihen,
   Carlos Westendorp</Members>

                        Amendement <NumAm>37</NumAm>

                                 <Article>
   Article 5, lettre (a)</Article>

   Les États membres veillent à ce qu'une invention mise en oeuvre par
   ordinateur puisse être revendiquée en tant que produit, c'est-à-dire
   en tant qu'ordinateur 
   programmé, réseau informatique programmé ou autre appareil programmé
   ou en tant que procédé,
   réalisé par un tel ordinateur, réseau d'ordinateur ou autre appareil à
   travers l'exécution d'un programme. 
   
   (a)
   Les États membres veillent à ce qu'une invention mise en oeuvre par
   ordinateur ne puisse être revendiquée qu'en tant que produit,
   c'est-à-dire en tant qu'appareil programmé, ou en tant que procédé
   technique de production.

                                          Or. <Original>{FR}fr</Original>

                             <OptDel></OptDel>
   
                               Justification

   <OptDelPrev>
   Reprend l'amendement 9 du rapporteur ( avis du 19 décembre 2002) mais
   en précise les points a et b.

   Au point a , il importe de garantir que la production de pure
   information ne puisse être assimilée à un procédé de production. Le
   mot anglais "process" étant traduit en français invariablement par
   production. Il s'agit avant tout d'une clarification linguistique.

   Au point b, par souci de clarification , « production, manipulation,
   traitement et présentation » ont été ajoutés, pour prendre en compte
   les cas revendications de brevets de méthodes commerciales
   (c'est-à-dire en fait de traitement de l'information) qui existent aux
   États-Unis et ne devraient pas exister dans l'Union Européenne. De
   même, « même lorsque des dispositifs techniques sont utilisés dans ce
   but » a été ajouté, afin de garantir que l'exécution sur quelque
   appareil de programmes que ce soit, ne contribuent à aucun processus
   technique, ne puisse être considéré comme brevetable. Sinon, tout
   logiciel générique s'exécutant sur un appareil programmable possédant
   des caractéristiques nouvelles pourrait être brevetable, ce qui est
   explicitement interdit par la Convention Européenne des Brevets d! ! e
   1973, comme indiqué par ailleurs dans le Considérant 7 de la
   proposition de la Commission européenne.
   </OptDelPrev>

                              </Amend><Amend>
   Amendement déposé par <Members>Danielle Auroi, Marco Cappato</Members>

                        Amendement <NumAm>38</NumAm>

                                 <Article>
   Article 5, lettre a)</Article>

   Les États membres veillent à ce qu'une invention mise en oeuvre par
   ordinateur puisse être revendiquée en tant que produit, c'est-à-dire
   en tant qu'ordinateur programmé, réseau informatique programmé ou
   autre appareil programmé ou en tant que procédé, réalisé par un tel
   ordinateur, réseau d'ordinateur ou autre appareil à travers
   l'exécution d'un programme.
                                      
   (a)
   Les États membres veillent à ce qu'une invention mise en oeuvre par
   ordinateur
   ne puisse être revendiquée qu'en tant que produit, c'est-à-dire en
   tant qu'appareil programmé, ou en tant que procédé technique de
   production.

                                          Or. <Original>{FR}fr</Original>

                             <OptDel></OptDel>
   
                               Justification

   <OptDelPrev>
   Cet amendement clarifie l'amendement 9 de la rapporteure. Le terme «
   technique » a été ajouté, afin de garantir que la production de pure
   information ne puisse être assimilée à un procédé de production.
   </OptDelPrev>

                              </Amend><Amend>
   Amendement déposé par <Members>Gilles Savary, Erika Mann, Olga Zrihen,
   Carlos Westendorp</Members>

                        Amendement <NumAm>39</NumAm>

                                 <Article>
   Article 5, lettre (b) (nouveau)</Article>

     
   
   (b) Les États membres veillent à ce que la production, la
   manipulation, le traitement et la présentation d'informations, sous
   quelque forme que ce soit, ne puisse jamais constituer une contrefaçon
   de brevet, directe ou indirecte, même lorsque des dispositifs
   techniques sont utilisés dans ce but. .
                                      
                                          Or. <Original>{FR}fr</Original>

                             <OptDel></OptDel>
   
                               Justification

   <OptDelPrev>
   Reprend l'amendement 9 du rapporteur ( avis du 19 décembre 2002) mais
   en précise les points a et b.

   Au point a , il importe de garantir que la production de pure
   information ne puisse être assimilée à un procédé de production. Le
   mot anglais "process" étant traduit en français invariablement par
   production. Il s'agit avant tout d'une clarification linguistique.

   Au point b, par souci de clarification , « production, manipulation,
   traitement et présentation » ont été ajoutés, pour prendre en compte
   les cas revendications de brevets de méthodes commerciales
   (c'est-à-dire en fait de traitement de l'information) qui existent aux
   États-Unis et ne devraient pas exister dans l'Union Européenne. De
   même, « même lorsque des dispositifs techniques sont utilisés dans ce
   but » a été ajouté, afin de garantir que l'exécution sur quelque
   appareil de programmes que ce soit, ne contribuent à aucun processus
   technique, ne puisse être considéré comme brevetable. Sinon, tout
   logiciel générique s'exécutant sur un appareil programmable possédant
   des caractéristiques nouvelles pourrait être brevetable, ce qui est
   explicitement interdit par la Convention Européenne des Brevets d! ! e
   1973, comme indiqué par ailleurs dans le Considérant 7 de la
   proposition de la Commission européenne.
   </OptDelPrev>

   </Amend>


                                  <Amend>
   Amendement déposé par <Members>Danielle Auroi, Marco Cappato,
   </Members>

                        Amendement <NumAm>40</NumAm>

                                 <Article>
   Article 5, lettre (b) (nouveau)</Article>

   (b) Les États membres veillent à ce que la production, la
   manipulation, le traitement, la distribution et la présentation de
   l'information, sous quelque forme que ce soit, ne puisse jamais
   constituer une contrefaçon de brevet, directe ou indirecte, même
   lorsque des dispositifs techniques sont utilisés dans ce but.
                                      
                                          Or. <Original>{FR}fr</Original>

                             <OptDel></OptDel>
   
                               Justification

   <OptDelPrev>
   Les termes « Production, manipulation, traitement et présentation »
   prennent en compte plus de cas revendications de brevets de méthodes
   commerciales (c'est-à-dire en fait de traitement de l'information) qui
   existent aux États-Unis et ne devraient pas exister dans l'Union
   Européenne. De même, « même lorsque des dispositifs techniques sont
   utilisés dans ce but » a été ajouté, afin de garantir que l'exécution
   sur quelque appareil que ce soit de programmes qui ne contribuent à
   aucun procédé technique ne puisse être brevetable. Sinon, tout
   logiciel générique s'exécutant sur un appareil programmable possédant
   des caractéristiques nouvelles pourrait être brevetable, ce qui est
   explicitement interdit par la Convention Européenne des Brevets de
   1973, comm! ! e indiqué dans le Considérant 7. </OptDelPrev>

                              </Amend><Amend>
   Amendement déposé par <Members>Malcolm Harbour</Members>

                        Amendement <NumAm>41</NumAm>

                                 <Article>
   Article 6</Article>

   Acts permitted under Directive 91/250/EEC on the legal protection of
   computer programs by copyright, in particular provisions thereof
   relating to decompilation and interoperability, or the provisions
   concerning semiconductor topographies or trade marks, shall not be
   affected through the protection granted by patents for inventions
   within the scope of this Directive.
   
   The rights conferred by patents granted for interventions within the
   scope of this Directive shall not affect acts permitted under
   Directive 91/250/EEC on the legal protection of computer programs by
   copyright, in partiuclar those acts described and limited in Articles
   5(2), 5(3) and 6.
                                      
                                          Or. <Original>{EN}en</Original>

                             <OptDel></OptDel>
   
                               Justification

   <OptDelPrev>
   The Directive 91/250 on the legal protection of computer programs by
   copyright permits the lawful users to perform certain acts that would
   otherwise fall under copyright, and in particular the acts
   "indispensable to obtain the information necessary to achieve the
   interoperability of an independently created computer program with
   other programs", if precise conditions are met. The Directive 91/250
   establishes a careful balance between the interests of the copyright
   holder and the interests of parties seeking to develop interoperable
   programs. The proposed Directive on patentability of computer
   implemented inventions should not disrupt this balance. The proposed
   amendment to Article 6 has the value of providing greater clarity than
   the more general wording in the Commission proposed text by specifying
   the relevant provisions of Directive 91/250.</OptDel! ! Prev>

                              </Amend><Amend>
   Amendement déposé par <Members>Dominique Vlasto</Members>

                        Amendement <NumAm>42</NumAm>

                                 <Article>
   Article 6</Article>

   Les actes permis en vertu de la directive 91/250/CEE concernant la
   protection juridique des programmes d'ordinateur par un droit
   d'auteur, notamment les dispositions particulières relatives à la
   décompilation et à l'interopérabilité ou les dispositions concernant
   les topographies des semi-conducteurs ou les marques, ne sont pas
   affectés par la protection octroyée par les brevets d'invention dans
   le cadre de la présente directive.

   Les actes permis à titre d'exception
   en vertu des articles 5 et 6 de la directive 91/250/CEE concernant la
   protection juridique des programmes d'ordinateur par un droit
   d'auteur, notamment les dispositions particulières relatives à la
   décompilation et à l'interopérabilité ou les dispositions concernant
   les topographies des semi-conducteurs ou les marques, ne sont pas
   affectés par la protection octroyée par les brevets d'invention dans
   le cadre de la présente directive.

                                          Or. <Original>{FR}fr</Original>

                             <OptDel></OptDel>
   
                               Justification

   <OptDelPrev>
   Des brevets ne devraient pas restreindre la flexibilité procurée par
   des exceptions particulière à la portée normale du droit d'auteur
   appliquées aux programmes d'ordinateur, cependant cela ne doit être
   que dans la stricte limite de ces exceptions telles que précisées aux
   articles 5 et 6 de la directive 91/250/CEE.</OptDelPrev>

                              </Amend><Amend>
   Amendement déposé par <Members>Angelika Niebler</Members>

                        Amendement <NumAm>43</NumAm>

                                 <Article>
   Artikel 7</Article>

   Die Kommission beobachtet, wie sich computerimplementierte Erfindungen
   auf die Innovationstätigkeit und den Wettbewerb in Europa und weltweit
   sowie auf die europäischen Unternehmen und den elektronischen
   Geschäftsverkehr auswirken
                                     .

   Die Kommission beobachtet, wie sich der Patentschutz hinsichtlich 
   computerimplementierter Erfindungen auf die Innovationstätigkeit und
   den Wettbewerb in Europa und weltweit sowie auf die europäischen
   Unternehmen und den elektronischen Geschäftsverkehr auswirk
   t

                                          Or. <Original>{DE}de</Original>

                             <OptDel></OptDel>
   
                               Justification

   <OptDelPrev>
   Nicht die Erteilung des Patents an sich, sondern die Verfolgung des
   Patentschutzes seitens der Patentinhaber wird zeigen, welche
   Auswirkungen Patente computerimplementierter Erfindungen auf die
   Innovationstätigkeit und den Wettbewerb haben.</OptDelPrev>

   </Amend>

                                  <Amend>
   Amendement déposé par <Members>Danielle Auroi, Marco Cappato,
   </Members>

                        Amendement <NumAm>44</NumAm>

                                 <Article>
   Article 8, lettre c) bis (nouveau)</Article>

   (c bis) si les pouvoirs délégués à l'Office européen des brevets sont
   compatibles avec les exigences liées à l'harmonisation de la
   législation de l'Union européenne, ainsi qu'avec les principes de
   transparence et de responsabilité.
                                      
                                          Or. <Original>{FR}fr</Original>

                             <OptDel></OptDel>
   
                               Justification

   <OptDelPrev>
   xxx</OptDelPrev>

   </Amend>


                                  <Amend>
   Amendement déposé par <Members>Angelika Niebler</Members>

                        Amendement <NumAm>45</NumAm>

                                 <Article>
   Artikel 8, lettre (b) et (c)</Article>

   (b) die Angemessenheit der Regeln für die Festlegung der
   Patentierbarkeitsanforderungen, insbesondere im Hinblick auf die
   Neuheit, die erfinderische Tätigkeit und den eigentlichen
   Patentanspruch, und

   (b) die Angemessenheit der Regeln für die Festlegung der
   Patentierbarkeitsanforderungen, insbesondere im Hinblick auf die
   Neuheit, die erfinderische Tätigkeit und den eigentlichen
   Patentanspruch,

   (c) etwaige Schwierigkeiten, die in Mitgliedstaaten aufgetreten sind,
   in denen Erfindungen vor Patenterteilung nicht auf Neuheit und
   Erfindungshöhe geprüft werden, und etwaige Schritte, die unternommen
   werden sollten, um diese Schwierigkeiten zu beseitigen.

   (c) etwaige Schwierigkeiten, die in Mitgliedstaaten aufgetreten sind,
   in denen Erfindungen vor Patenterteilung nicht auf Neuheit und
   Erfindungshöhe geprüft werden, und etwaige Schritte, die unternommen
   werden sollten, um diese Schwierigkeiten zu beseitigen,
   und

                                          Or. <Original>{DE}de</Original>

                             <OptDel></OptDel>
   
                               Justification

   <OptDelPrev>
   Der Bericht der Kommission sollte auch auf etwaige Schwierigkeiten
   eingehen, die im Hinblick auf das Verhältnis zwischen dem Patentschutz
   durch computerimplementierte Erfindungen und dem Schutz von
   Computerprogrammen durch das Urheberrecht, wie es die Richtlinie
   91/250/EG vorsieht, aufgetreten sind. </OptDelPrev>

                              </Amend><Amend>
   Amendement déposé par <Members>Angelika Niebler</Members>

                        Amendement <NumAm>46</NumAm>

                                 <Article>
   Artikel 8, lettre c bis (neu)</Article>

     
   
   (c bis) etwaige Schwierigkeiten, in Hinblick auf das Verhältnis
   zwischen dem Schutz durch Patente auf computerimplementierte
   Erfindungen und dem Schutz von Computerprogrammen durch das
   Urheberrecht, wie es die Richtlinie 91/250/EG vorsieht, aufgetreten
   sind.
                                      
                                          Or. <Original>{DE}de</Original>

                             <OptDel></OptDel>
   
                               Justification

   <OptDelPrev>
   Der Bericht der Kommission sollte auch auf etwaige Schwierigkeiten
   eingehen, die im Hinblick auf das Verhältnis zwischen dem Patentschutz
   durch computerimplementierte Erfindungen und dem Schutz von
   Computerprogrammen durch das Urheberrecht, wie es die Richtlinie
   91/250/EG vorsieht, aufgetreten sind. </OptDelPrev>

   </Amend>
