\relax 
\ifx\hyper@anchor\@undefined
\global \let \oldcontentsline\contentsline
\gdef \contentsline#1#2#3#4{\oldcontentsline{#1}{#2}{#3}}
\global \let \oldnewlabel\newlabel
\gdef \newlabel#1#2{\newlabelxx{#1}#2}
\gdef \newlabelxx#1#2#3#4#5#6{\oldnewlabel{#1}{{#2}{#3}}}
\AtEndDocument{\let \contentsline\oldcontentsline
\let \newlabel\oldnewlabel}
\else
\global \let \hyper@last\relax 
\fi

\@writefile{toc}{\contentsline {section}{\numberline {1}The Problem: Dangerous Patentability Legislation in Brussels}{2}{section.1}}
\newlabel{prob}{{1}{2}{The Problem: Dangerous Patentability Legislation in Brussels\relax }{section.1}{}}
\@writefile{toc}{\contentsline {section}{\numberline {2}Project Managers, Partners and Sponsors}{4}{section.2}}
\newlabel{porg}{{2}{4}{Project Managers, Partners and Sponsors\relax }{section.2}{}}
\@writefile{toc}{\contentsline {section}{\numberline {3}How we will organise the work}{5}{section.3}}
\newlabel{meth}{{3}{5}{How we will organise the work\relax }{section.3}{}}
\@writefile{toc}{\contentsline {section}{\numberline {4}Hierarchy of Action Items}{5}{section.4}}
\newlabel{solv}{{4}{5}{Hierarchy of Action Items\relax }{section.4}{}}
\@writefile{toc}{\contentsline {subsection}{\numberline {4.1}Regular Work Meetings at the EuroParl}{5}{subsection.4.1}}
\newlabel{eupa}{{4.1}{5}{Regular Work Meetings at the EuroParl\relax }{subsection.4.1}{}}
\@writefile{toc}{\contentsline {subsection}{\numberline {4.2}Work Meetings at National Parliaments}{6}{subsection.4.2}}
\newlabel{depa}{{4.2}{6}{Work Meetings at National Parliaments\relax }{subsection.4.2}{}}
\@writefile{toc}{\contentsline {subsection}{\numberline {4.3}Patent Documentation}{7}{subsection.4.3}}
\newlabel{dokw}{{4.3}{7}{Patent Documentation\relax }{subsection.4.3}{}}
\@writefile{toc}{\contentsline {subsection}{\numberline {4.4}Awareness-Raising with Special Industry Audiences}{8}{subsection.4.4}}
\newlabel{pres}{{4.4}{8}{Awareness-Raising with Special Industry Audiences\relax }{subsection.4.4}{}}
\@writefile{toc}{\contentsline {subsection}{\numberline {4.5}Classified Directory of European Software Expertise}{9}{subsection.4.5}}
\newlabel{bdir}{{4.5}{9}{Classified Directory of European Software Expertise\relax }{subsection.4.5}{}}
\@writefile{toc}{\contentsline {subsection}{\numberline {4.6}Influencing Jurisdiction by Exemplary Lawsuits}{9}{subsection.4.6}}
\newlabel{eur}{{4.6}{9}{Influencing Jurisdiction by Exemplary Lawsuits\relax }{subsection.4.6}{}}
\@writefile{toc}{\contentsline {section}{\numberline {5}Budget Summary}{10}{section.5}}
\newlabel{budg}{{5}{10}{Budget Summary\relax }{section.5}{}}
\@writefile{toc}{\contentsline {section}{\numberline {6}Annotated Links}{10}{section.6}}
\newlabel{links}{{6}{10}{Annotated Links\relax }{section.6}{}}
