\contentsline {section}{\numberline {1}Verfahren f\"{u}r gesch\"{a}ftliche T\"{a}tigkeiten und mathematische Methoden?}{2}{section.1}
\contentsline {section}{\numberline {2}Software-Patent-Anmeldungen im Feldbus-, Intranet-, Internet-Umfeld}{5}{section.2}
\contentsline {section}{\numberline {3}Software-Patent-Anmeldungen f\"{u}r kleinere Software-Bausteine, -Konzepte}{6}{section.3}
