\relax 
\ifx\hyper@anchor\@undefined
\global \let \oldcontentsline\contentsline
\gdef \contentsline#1#2#3#4{\oldcontentsline{#1}{#2}{#3}}
\global \let \oldnewlabel\newlabel
\gdef \newlabel#1#2{\newlabelxx{#1}#2}
\gdef \newlabelxx#1#2#3#4#5#6{\oldnewlabel{#1}{{#2}{#3}}}
\AtEndDocument{\let \contentsline\oldcontentsline
\let \newlabel\oldnewlabel}
\else
\global \let \hyper@last\relax 
\fi

\@writefile{toc}{\contentsline {section}{\numberline {1}Verfahren f\"{u}r gesch\"{a}ftliche T\"{a}tigkeiten und mathematische Methoden?}{2}{section.1}}
\newlabel{bizm}{{1}{2}{Verfahren f\"{u}r gesch\"{a}ftliche T\"{a}tigkeiten und mathematische Methoden?\relax }{section.1}{}}
\@writefile{toc}{\contentsline {section}{\numberline {2}Software-Patent-Anmeldungen im Feldbus-, Intranet-, Internet-Umfeld}{5}{section.2}}
\newlabel{feld}{{2}{5}{Software-Patent-Anmeldungen im Feldbus-, Intranet-, Internet-Umfeld\relax }{section.2}{}}
\@writefile{toc}{\contentsline {section}{\numberline {3}Software-Patent-Anmeldungen f\"{u}r kleinere Software-Bausteine, -Konzepte}{6}{section.3}}
\newlabel{mikr}{{3}{6}{Software-Patent-Anmeldungen f\"{u}r kleinere Software-Bausteine, -Konzepte\relax }{section.3}{}}
