\contentsline {section}{\numberline {1}Methods for doing business and mathematical methods?}{2}{section.1}
\contentsline {section}{\numberline {2}software patent applications in the field bus, intranet and internet area}{5}{section.2}
\contentsline {section}{\numberline {3}Software patent applications for small software modules, elements and concepts}{6}{section.3}
