\relax 
\ifx\hyper@anchor\@undefined
\global \let \oldcontentsline\contentsline
\gdef \contentsline#1#2#3#4{\oldcontentsline{#1}{#2}{#3}}
\global \let \oldnewlabel\newlabel
\gdef \newlabel#1#2{\newlabelxx{#1}#2}
\gdef \newlabelxx#1#2#3#4#5#6{\oldnewlabel{#1}{{#2}{#3}}}
\AtEndDocument{\let \contentsline\oldcontentsline
\let \newlabel\oldnewlabel}
\else
\global \let \hyper@last\relax 
\fi

\@writefile{toc}{\contentsline {section}{\numberline {1}Methods for doing business and mathematical methods?}{2}{section.1}}
\newlabel{bizm}{{1}{2}{Methods for doing business and mathematical methods?\relax }{section.1}{}}
\@writefile{toc}{\contentsline {section}{\numberline {2}software patent applications in the field bus, intranet and internet area}{5}{section.2}}
\newlabel{feld}{{2}{5}{software patent applications in the field bus, intranet and internet area\relax }{section.2}{}}
\@writefile{toc}{\contentsline {section}{\numberline {3}Software patent applications for small software modules, elements and concepts}{6}{section.3}}
\newlabel{mikr}{{3}{6}{Software patent applications for small software modules, elements and concepts\relax }{section.3}{}}
