\relax 
\ifx\hyper@anchor\@undefined
\global \let \oldcontentsline\contentsline
\gdef \contentsline#1#2#3#4{\oldcontentsline{#1}{#2}{#3}}
\global \let \oldnewlabel\newlabel
\gdef \newlabel#1#2{\newlabelxx{#1}#2}
\gdef \newlabelxx#1#2#3#4#5#6{\oldnewlabel{#1}{{#2}{#3}}}
\AtEndDocument{\let \contentsline\oldcontentsline
\let \newlabel\oldnewlabel}
\else
\global \let \hyper@last\relax 
\fi

\@writefile{toc}{\contentsline {section}{\numberline {1}When and Where -- Practical Information}{2}{section.1}}
\newlabel{selmokca}{{1}{2}{When and Where -- Practical Information\relax }{section.1}{}}
\newlabel{steci}{{1}{2}{When and Where -- Practical Information\relax }{section.1}{}}
\newlabel{jecta}{{1}{2}{When and Where -- Practical Information\relax }{section.1}{}}
\@writefile{toc}{\contentsline {section}{\numberline {2}Subjects for Panels \& Workshops}{2}{section.2}}
\newlabel{selcasnu}{{2}{2}{Subjects for Panels \& Workshops\relax }{section.2}{}}
\@writefile{toc}{\contentsline {subsection}{\numberline {2.1}Specialised Panels (Day 1)}{2}{subsection.2.1}}
\newlabel{steci}{{2.1}{2}{Specialised Panels (Day 1)\relax }{subsection.2.1}{}}
\@writefile{toc}{\contentsline {subsubsection}{\numberline {2.1.1}Recent developments in patent granting, licensing and litigation}{2}{subsubsection.2.1.1}}
\newlabel{xrani}{{2.1.1}{2}{Recent developments in patent granting, licensing and litigation\relax }{subsubsection.2.1.1}{}}
\@writefile{toc}{\contentsline {subsubsection}{\numberline {2.1.2}Patent Strategies of Companies, Universities and other Players in the Private and Public Sector}{2}{subsubsection.2.1.2}}
\newlabel{skal}{{2.1.2}{2}{Patent Strategies of Companies, Universities and other Players in the Private and Public Sector\relax }{subsubsection.2.1.2}{}}
\@writefile{toc}{\contentsline {subsubsection}{\numberline {2.1.3}Patent Risk Assessment, ``Patent Insurance'' and Rules for Public Procurement of Microsoft vs Free Software Solutions}{3}{subsubsection.2.1.3}}
\newlabel{patins}{{2.1.3}{3}{Patent Risk Assessment, ``Patent Insurance'' and Rules for Public Procurement of Microsoft vs Free Software Solutions\relax }{subsubsection.2.1.3}{}}
\@writefile{toc}{\contentsline {subsubsection}{\numberline {2.1.4}The Software Patent Directive and Software Procurement Decisions in Public Administrations}{3}{subsubsection.2.1.4}}
\newlabel{limux}{{2.1.4}{3}{The Software Patent Directive and Software Procurement Decisions in Public Administrations\relax }{subsubsection.2.1.4}{}}
\@writefile{toc}{\contentsline {subsubsection}{\numberline {2.1.5}In search of the ``Good Patent'' for a ``Computer-Implemented Invention''}{3}{subsubsection.2.1.5}}
\newlabel{bonpat}{{2.1.5}{3}{In search of the ``Good Patent'' for a ``Computer-Implemented Invention''\relax }{subsubsection.2.1.5}{}}
\@writefile{toc}{\contentsline {subsection}{\numberline {2.2}Political Panels (Day 2)}{3}{subsection.2.2}}
\newlabel{jecta}{{2.2}{3}{Political Panels (Day 2)\relax }{subsection.2.2}{}}
\@writefile{toc}{\contentsline {subsubsection}{\numberline {2.2.1}Software Patent Directive -- the Legislative's vs the Executive's Version}{3}{subsubsection.2.2.1}}
\newlabel{consparl}{{2.2.1}{3}{Software Patent Directive -- the Legislative's vs the Executive's Version\relax }{subsubsection.2.2.1}{}}
\@writefile{toc}{\contentsline {subsubsection}{\numberline {2.2.2}Toward a Copyright-Based Paradigm of Industrial Property?}{3}{subsubsection.2.2.2}}
\newlabel{indprop}{{2.2.2}{3}{Toward a Copyright-Based Paradigm of Industrial Property?\relax }{subsubsection.2.2.2}{}}
\@writefile{toc}{\contentsline {subsubsection}{\numberline {2.2.3}Toward more Legitmate Lawmaking Processes in the EU}{4}{subsubsection.2.2.3}}
\newlabel{eudem}{{2.2.3}{4}{Toward more Legitmate Lawmaking Processes in the EU\relax }{subsubsection.2.2.3}{}}
\gdef\scr@tpo@lst{0}
