\contentsline {chapter}{\numberline {1}Petition to the European Parliament}{4}{chapter.1}
\contentsline {chapter}{\numberline {2}Signatories}{5}{chapter.2}
\contentsline {chapter}{\numberline {3}Annotated Links}{7}{chapter.3}
