\relax 
\ifx\hyper@anchor\@undefined
\global \let \oldcontentsline\contentsline
\gdef \contentsline#1#2#3#4{\oldcontentsline{#1}{#2}{#3}}
\global \let \oldnewlabel\newlabel
\gdef \newlabel#1#2{\newlabelxx{#1}#2}
\gdef \newlabelxx#1#2#3#4#5#6{\oldnewlabel{#1}{{#2}{#3}}}
\AtEndDocument{\let \contentsline\oldcontentsline
\let \newlabel\oldnewlabel}
\else
\global \let \hyper@last\relax 
\fi

\csname auxWARNINGii\endcsname {\typeout {-34- this file and other auxiliary files require to use the following}}
\csname auxWARNINGii\endcsname {\typeout {-34- LaTeX packages: french and babel!}}
\csname auxWARNINGii\endcsname {\typeout {-34- check \protect \usepackage \space or remove these files. Typesetting is aborted!} \stop }
\select@language{french}
\@writefile{toc}{\select@language{french}}
\@writefile{lof}{\select@language{french}}
\@writefile{lot}{\select@language{french}}
\select@language{french}
\@writefile{toc}{\select@language{french}}
\@writefile{lof}{\select@language{french}}
\@writefile{lot}{\select@language{french}}
\@writefile{toc}{\contentsline {section}{\numberline {1}Der Wirtschaftspolitische Wille des Gesetzgebers}{3}{section.0.1}}
\newlabel{bundpol}{{1}{3}{Der Wirtschaftspolitische Wille des Gesetzgebers\relax }{section.0.1}{}}
\@writefile{toc}{\contentsline {section}{\numberline {2}Der Wirtschaftspolitische Wille der Patentbewegung}{3}{section.0.2}}
\newlabel{bghwpol}{{2}{3}{Der Wirtschaftspolitische Wille der Patentbewegung\relax }{section.0.2}{}}
\@writefile{toc}{\contentsline {section}{\numberline {3}Weitere Lekt\"{u}re}{4}{section.0.3}}
\newlabel{ref}{{3}{4}{Weitere Lekt\"{u}re\relax }{section.0.3}{}}
