\relax 
\ifx\hyper@anchor\@undefined
\global \let \oldcontentsline\contentsline
\gdef \contentsline#1#2#3#4{\oldcontentsline{#1}{#2}{#3}}
\global \let \oldnewlabel\newlabel
\gdef \newlabel#1#2{\newlabelxx{#1}#2}
\gdef \newlabelxx#1#2#3#4#5#6{\oldnewlabel{#1}{{#2}{#3}}}
\AtEndDocument{\let \contentsline\oldcontentsline
\let \newlabel\oldnewlabel}
\else
\global \let \hyper@last\relax 
\fi

\@writefile{toc}{\contentsline {section}{\numberline {1}Der Wirtschaftspolitische Wille des Gesetzgebers}{3}{section.1}}
\newlabel{bundpol}{{1}{3}{Der Wirtschaftspolitische Wille des Gesetzgebers\relax }{section.1}{}}
\@writefile{toc}{\contentsline {section}{\numberline {2}Der Wirtschaftspolitische Wille der Patentbewegung}{3}{section.2}}
\newlabel{bghwpol}{{2}{3}{Der Wirtschaftspolitische Wille der Patentbewegung\relax }{section.2}{}}
