\BOOKMARK [1][-]{section.1}{Der Wirtschaftspolitische Wille des Gesetzgebers}{}
\BOOKMARK [1][-]{section.2}{Der Wirtschaftspolitische Wille der Patentbewegung}{}
\BOOKMARK [1][-]{section.3}{Weitere Lekt\374re}{}
