\contentsline {section}{\numberline {1}Achtergrondinformatie}{2}{section.1}
\contentsline {section}{\numberline {2}koppelingen met voetnoten}{3}{section.2}
\contentsline {section}{\numberline {3}Media Contacten}{5}{section.3}
\contentsline {section}{\numberline {4}Permanente URL van dit Persbericht}{5}{section.4}
