\BOOKMARK [1][-]{section.1}{Hintergr\374nde}{}
\BOOKMARK [1][-]{section.2}{Kommentierte Verweise}{}
\BOOKMARK [1][-]{section.3}{Medienkontakte}{}
\BOOKMARK [1][-]{section.4}{Permanente Netzadresse dieser Presseerkl\344rung}{}
