\select@language {portuguese}
\contentsline {section}{\numberline {1}Mais informa\c {c}\~{o}es}{2}{section.1}
\contentsline {section}{\numberline {2}Links Anotados}{3}{section.2}
\contentsline {section}{\numberline {3}Contactos para os M\'{e}dia}{4}{section.3}
\contentsline {section}{\numberline {4}URL Permanente deste Comunicado de Imprensa}{4}{section.4}
