\relax 
\catcode`"\active
\ifx\hyper@anchor\@undefined
\global \let \oldcontentsline\contentsline
\gdef \contentsline#1#2#3#4{\oldcontentsline{#1}{#2}{#3}}
\global \let \oldnewlabel\newlabel
\gdef \newlabel#1#2{\newlabelxx{#1}#2}
\gdef \newlabelxx#1#2#3#4#5#6{\oldnewlabel{#1}{{#2}{#3}}}
\AtEndDocument{\let \contentsline\oldcontentsline
\let \newlabel\oldnewlabel}
\else
\global \let \hyper@last\relax 
\fi

\select@language{catalan}
\@writefile{toc}{\select@language{catalan}}
\@writefile{lof}{\select@language{catalan}}
\@writefile{lot}{\select@language{catalan}}
\@writefile{toc}{\contentsline {section}{\numberline {1}Backgrounds}{2}{section.1}}
\newlabel{bakgr}{{1}{2}{Backgrounds\relax }{section.1}{}}
\@writefile{toc}{\contentsline {section}{\numberline {2}Enlla\c {c}os anotats}{3}{section.2}}
\newlabel{links}{{2}{3}{Enlla\c {c}os anotats\relax }{section.2}{}}
\@writefile{toc}{\contentsline {section}{\numberline {3}Media Contacts}{4}{section.3}}
\newlabel{media}{{3}{4}{Media Contacts\relax }{section.3}{}}
\@writefile{toc}{\contentsline {section}{\numberline {4}Permanent URL of this Press Release}{4}{section.4}}
\newlabel{url}{{4}{4}{Permanent URL of this Press Release\relax }{section.4}{}}
