\relax 
\catcode`"\active
\ifx\hyper@anchor\@undefined
\global \let \oldcontentsline\contentsline
\gdef \contentsline#1#2#3#4{\oldcontentsline{#1}{#2}{#3}}
\global \let \oldnewlabel\newlabel
\gdef \newlabel#1#2{\newlabelxx{#1}#2}
\gdef \newlabelxx#1#2#3#4#5#6{\oldnewlabel{#1}{{#2}{#3}}}
\AtEndDocument{\let \contentsline\oldcontentsline
\let \newlabel\oldnewlabel}
\else
\global \let \hyper@last\relax 
\fi

\select@language{portuguese}
\@writefile{toc}{\select@language{portuguese}}
\@writefile{lof}{\select@language{portuguese}}
\@writefile{lot}{\select@language{portuguese}}
\@writefile{toc}{\contentsline {section}{\numberline {1}Mais informa\c {c}\~{o}es}{2}{section.1}}
\newlabel{bakgr}{{1}{2}{Mais informa\c {c}\~{o}es\relax }{section.1}{}}
\@writefile{toc}{\contentsline {section}{\numberline {2}Links Anotados}{3}{section.2}}
\newlabel{links}{{2}{3}{Links Anotados\relax }{section.2}{}}
\@writefile{toc}{\contentsline {section}{\numberline {3}Contactos para os M\'{e}dia}{4}{section.3}}
\newlabel{media}{{3}{4}{Contactos para os M\'{e}dia\relax }{section.3}{}}
\@writefile{toc}{\contentsline {section}{\numberline {4}URL Permanente deste Comunicado de Imprensa}{4}{section.4}}
\newlabel{url}{{4}{4}{URL Permanente deste Comunicado de Imprensa\relax }{section.4}{}}
