\select@language {spanish}
\contentsline {section}{\numberline {1}Backgrounds}{2}{section.1}
\contentsline {section}{\numberline {2}Annotated Links}{3}{section.2}
\contentsline {section}{\numberline {3}Media Contacts}{4}{section.3}
\contentsline {section}{\numberline {4}Permanent URL of this Press Release}{5}{section.4}
