\contentsline {section}{\numberline {1}Hintergr\"{u}nde}{2}{section.1}
\contentsline {section}{\numberline {2}Kommentierte Verweise}{2}{section.2}
\contentsline {section}{\numberline {3}Medienkontakte}{4}{section.3}
\contentsline {section}{\numberline {4}Permanente Netzadresse dieser Presseerkl\"{a}rung}{5}{section.4}
