\BOOKMARK [1][-]{section.1}{Backgrounds}{}
\BOOKMARK [1][-]{section.2}{Annotated Links}{}
\BOOKMARK [1][-]{section.3}{Media Contacts}{}
\BOOKMARK [1][-]{section.4}{Permanent URL of this Press Release}{}
