\relax 
\ifx\hyper@anchor\@undefined
\global \let \oldcontentsline\contentsline
\gdef \contentsline#1#2#3#4{\oldcontentsline{#1}{#2}{#3}}
\global \let \oldnewlabel\newlabel
\gdef \newlabel#1#2{\newlabelxx{#1}#2}
\gdef \newlabelxx#1#2#3#4#5#6{\oldnewlabel{#1}{{#2}{#3}}}
\AtEndDocument{\let \contentsline\oldcontentsline
\let \newlabel\oldnewlabel}
\else
\global \let \hyper@last\relax 
\fi

\@writefile{toc}{\contentsline {section}{\numberline {1}Achtergrondinformatie}{2}{section.1}}
\newlabel{bakgr}{{1}{2}{Achtergrondinformatie\relax }{section.1}{}}
\@writefile{toc}{\contentsline {section}{\numberline {2}koppelingen met voetnoten}{3}{section.2}}
\newlabel{links}{{2}{3}{koppelingen met voetnoten\relax }{section.2}{}}
\@writefile{toc}{\contentsline {section}{\numberline {3}Media Contacten}{5}{section.3}}
\newlabel{media}{{3}{5}{Media Contacten\relax }{section.3}{}}
\@writefile{toc}{\contentsline {section}{\numberline {4}Permanente URL van dit Persbericht}{5}{section.4}}
\newlabel{url}{{4}{5}{Permanente URL van dit Persbericht\relax }{section.4}{}}
