\select@language {french}
\select@language {french}
\contentsline {section}{\numberline {1}Contexte}{2}{section.0.1}
\contentsline {section}{\numberline {2}Liens Annot\'{e}s}{2}{section.0.2}
\contentsline {section}{\numberline {3}Contacts presse}{4}{section.0.3}
\contentsline {section}{\numberline {4}URL permanente de ce Communiqu\'{e} de Presse}{5}{section.0.4}
