\relax 
\ifx\hyper@anchor\@undefined
\global \let \oldcontentsline\contentsline
\gdef \contentsline#1#2#3#4{\oldcontentsline{#1}{#2}{#3}}
\global \let \oldnewlabel\newlabel
\gdef \newlabel#1#2{\newlabelxx{#1}#2}
\gdef \newlabelxx#1#2#3#4#5#6{\oldnewlabel{#1}{{#2}{#3}}}
\AtEndDocument{\let \contentsline\oldcontentsline
\let \newlabel\oldnewlabel}
\else
\global \let \hyper@last\relax 
\fi

\@writefile{toc}{\contentsline {chapter}{\numberline {1}The Text}{4}{chapter.1}}
\@writefile{lof}{\addvspace {10\p@ }}
\@writefile{lot}{\addvspace {10\p@ }}
\newlabel{text}{{1}{4}{The Text\relax }{chapter.1}{}}
\@writefile{toc}{\contentsline {section}{\numberline {1.1}Why do we need a directive?}{4}{section.1.1}}
\newlabel{whyneed}{{1.1}{4}{Why do we need a directive?\relax }{section.1.1}{}}
\@writefile{toc}{\contentsline {section}{\numberline {1.2}What will the Directive achieve?}{5}{section.1.2}}
\newlabel{achieve}{{1.2}{5}{What will the Directive achieve?\relax }{section.1.2}{}}
\@writefile{toc}{\contentsline {section}{\numberline {1.3}What the Directive would NOT do}{5}{section.1.3}}
\newlabel{notdo}{{1.3}{5}{What the Directive would NOT do\relax }{section.1.3}{}}
\@writefile{toc}{\contentsline {section}{\numberline {1.4}What the Directive would do}{5}{section.1.4}}
\newlabel{yesdo}{{1.4}{5}{What the Directive would do\relax }{section.1.4}{}}
\@writefile{toc}{\contentsline {section}{\numberline {1.5}Why are so many people worried about this directive?}{7}{section.1.5}}
\newlabel{worry}{{1.5}{7}{Why are so many people worried about this directive?\relax }{section.1.5}{}}
\@writefile{toc}{\contentsline {section}{\numberline {1.6}UK Gov't Calls for Bans on Publication of Patent Descriptions}{7}{section.1.6}}
\newlabel{prog}{{1.6}{7}{UK Gov't Calls for Bans on Publication of Patent Descriptions\relax }{section.1.6}{}}
\@writefile{toc}{\contentsline {section}{\numberline {1.7}UK Government Calls for Bans on Conversion betweeen Data Formats}{8}{section.1.7}}
\newlabel{itop}{{1.7}{8}{UK Government Calls for Bans on Conversion betweeen Data Formats\relax }{section.1.7}{}}
\@writefile{toc}{\contentsline {section}{\numberline {1.8}Examples of what can currently be patented and what cannot}{8}{section.1.8}}
\newlabel{exem}{{1.8}{8}{Examples of what can currently be patented and what cannot\relax }{section.1.8}{}}
\@writefile{toc}{\contentsline {chapter}{\numberline {2}Annotated Links}{10}{chapter.2}}
\@writefile{lof}{\addvspace {10\p@ }}
\@writefile{lot}{\addvspace {10\p@ }}
\newlabel{links}{{2}{10}{Annotated Links\relax }{chapter.2}{}}
