\relax 
\ifx\hyper@anchor\@undefined
\global \let \oldcontentsline\contentsline
\gdef \contentsline#1#2#3#4{\oldcontentsline{#1}{#2}{#3}}
\global \let \oldnewlabel\newlabel
\gdef \newlabel#1#2{\newlabelxx{#1}#2}
\gdef \newlabelxx#1#2#3#4#5#6{\oldnewlabel{#1}{{#2}{#3}}}
\AtEndDocument{\let \contentsline\oldcontentsline
\let \newlabel\oldnewlabel}
\else
\global \let \hyper@last\relax 
\fi

\@writefile{toc}{\contentsline {section}{\numberline {1}A Program as Such}{2}{section.1}}
\newlabel{aprog}{{1}{2}{A Program as Such\relax }{section.1}{}}
\@writefile{toc}{\contentsline {subsection}{\numberline {1.1}The Objective Subject of Invention}{4}{subsection.1.1}}
\newlabel{obj}{{1.1}{4}{The Objective Subject of Invention\relax }{subsection.1.1}{}}
\@writefile{toc}{\contentsline {subsection}{\numberline {1.2}Inventions Must be Solutions}{4}{subsection.1.2}}
\newlabel{ivsol}{{1.2}{4}{Inventions Must be Solutions\relax }{subsection.1.2}{}}
\@writefile{toc}{\contentsline {section}{\numberline {2}The Technical Character}{5}{section.2}}
\newlabel{tech}{{2}{5}{The Technical Character\relax }{section.2}{}}
\@writefile{toc}{\contentsline {subsection}{\numberline {2.1}The Basic Assumption}{6}{subsection.2.1}}
\newlabel{basasum}{{2.1}{6}{The Basic Assumption\relax }{subsection.2.1}{}}
\@writefile{toc}{\contentsline {subsection}{\numberline {2.2}The Reversal Conclusion}{6}{subsection.2.2}}
\newlabel{revk}{{2.2}{6}{The Reversal Conclusion\relax }{subsection.2.2}{}}
\@writefile{toc}{\contentsline {subsection}{\numberline {2.3}Exclusion also of Technical Theories}{6}{subsection.2.3}}
\newlabel{exk}{{2.3}{6}{Exclusion also of Technical Theories\relax }{subsection.2.3}{}}
\@writefile{toc}{\contentsline {subsection}{\numberline {2.4}Technicity of Computer Programmes}{7}{subsection.2.4}}
\newlabel{progtech}{{2.4}{7}{Technicity of Computer Programmes\relax }{subsection.2.4}{}}
\@writefile{toc}{\contentsline {section}{\numberline {3}The technicity concept}{8}{section.3}}
\newlabel{technik}{{3}{8}{The technicity concept\relax }{section.3}{}}
\@writefile{toc}{\contentsline {subsection}{\numberline {3.1}The ``Language Analysis'' and ``Logic Verification'' cases}{8}{subsection.3.1}}
\newlabel{spraver}{{3.1}{8}{The ``Language Analysis'' and ``Logic Verification'' cases\relax }{subsection.3.1}{}}
\@writefile{toc}{\contentsline {subsection}{\numberline {3.2}The Bell}{9}{subsection.3.2}}
\newlabel{glocke}{{3.2}{9}{The Bell\relax }{subsection.3.2}{}}
\@writefile{toc}{\contentsline {subsection}{\numberline {3.3}Additional Technical Effect}{10}{subsection.3.3}}
\newlabel{furtech}{{3.3}{10}{Additional Technical Effect\relax }{subsection.3.3}{}}
\@writefile{toc}{\contentsline {subsection}{\numberline {3.4}Programmes for the Description of Hardware}{10}{subsection.3.4}}
\newlabel{hardes}{{3.4}{10}{Programmes for the Description of Hardware\relax }{subsection.3.4}{}}
\@writefile{toc}{\contentsline {subsection}{\numberline {3.5}Borders of the Technicity concept}{10}{subsection.3.5}}
\newlabel{techlim}{{3.5}{10}{Borders of the Technicity concept\relax }{subsection.3.5}{}}
\@writefile{toc}{\contentsline {section}{\numberline {4}The Objective Subject of Protection}{11}{section.4}}
\newlabel{protsub}{{4}{11}{The Objective Subject of Protection\relax }{section.4}{}}
\@writefile{toc}{\contentsline {section}{\numberline {5}The Exclusion Catalogue as Legal Disclaimer}{12}{section.5}}
\newlabel{diskl}{{5}{12}{The Exclusion Catalogue as Legal Disclaimer\relax }{section.5}{}}
\@writefile{toc}{\contentsline {section}{\numberline {6}Source Code in the Patent Claim}{13}{section.6}}
\newlabel{srcclm}{{6}{13}{Source Code in the Patent Claim\relax }{section.6}{}}
\@writefile{toc}{\contentsline {section}{\numberline {7}Concluding Remark}{14}{section.7}}
\newlabel{fin}{{7}{14}{Concluding Remark\relax }{section.7}{}}
