\BOOKMARK [1][-]{section.1}{A Programme as Such}{}
\BOOKMARK [2][-]{subsection.1.1}{The Objective Subject of Invention}{section.1}
\BOOKMARK [2][-]{subsection.1.2}{Inventions Must be Solutions}{section.1}
\BOOKMARK [1][-]{section.2}{The Technical Character}{}
\BOOKMARK [2][-]{subsection.2.1}{The Basic Assumption}{section.2}
\BOOKMARK [2][-]{subsection.2.2}{The Reversal Conclusion}{section.2}
\BOOKMARK [2][-]{subsection.2.3}{Exclusion also of Technical Theories}{section.2}
\BOOKMARK [2][-]{subsection.2.4}{Technicity of Computer Programmes}{section.2}
\BOOKMARK [1][-]{section.3}{The technicity concept}{}
\BOOKMARK [2][-]{subsection.3.1}{The ``Language Analysis'' and ``Logic Verification'' cases}{section.3}
\BOOKMARK [2][-]{subsection.3.2}{The Bell}{section.3}
\BOOKMARK [2][-]{subsection.3.3}{Additional Technical Effect}{section.3}
\BOOKMARK [2][-]{subsection.3.4}{Programmes for the Description of Hardware}{section.3}
\BOOKMARK [2][-]{subsection.3.5}{Borders of the Technicity concept}{section.3}
\BOOKMARK [1][-]{section.4}{The Objective Subject of Protection}{}
\BOOKMARK [1][-]{section.5}{The Exclusion Catalogue as Legal Disclaimer}{}
\BOOKMARK [1][-]{section.6}{Source Code in the Patent Claim}{}
\BOOKMARK [1][-]{section.7}{Concluding Remark}{}
