\relax 
\ifx\hyper@anchor\@undefined
\global \let \oldcontentsline\contentsline
\gdef \contentsline#1#2#3#4{\oldcontentsline{#1}{#2}{#3}}
\global \let \oldnewlabel\newlabel
\gdef \newlabel#1#2{\newlabelxx{#1}#2}
\gdef \newlabelxx#1#2#3#4#5#6{\oldnewlabel{#1}{{#2}{#3}}}
\AtEndDocument{\let \contentsline\oldcontentsline
\let \newlabel\oldnewlabel}
\else
\global \let \hyper@last\relax 
\fi

\newlabel{aprog}{{1}{1}{A Programme as Such\label {aprog}\relax }{section.1}{}}
\@writefile{toc}{\contentsline {section}{\numberline {1}A Programme as Such}{1}{section.1}}
\newlabel{obj}{{1.1}{3}{The Objective Subject of Invention\label {obj}\relax }{subsection.1.1}{}}
\@writefile{toc}{\contentsline {subsection}{\numberline {1.1}The Objective Subject of Invention}{3}{subsection.1.1}}
\newlabel{ivsol}{{1.2}{3}{Inventions Must be Solutions\label {ivsol}\relax }{subsection.1.2}{}}
\@writefile{toc}{\contentsline {subsection}{\numberline {1.2}Inventions Must be Solutions}{3}{subsection.1.2}}
\newlabel{tech}{{2}{4}{The Technical Character\label {tech}\relax }{section.2}{}}
\@writefile{toc}{\contentsline {section}{\numberline {2}The Technical Character}{4}{section.2}}
\newlabel{basasum}{{2.1}{5}{The Basic Assumption\label {basasum}\relax }{subsection.2.1}{}}
\@writefile{toc}{\contentsline {subsection}{\numberline {2.1}The Basic Assumption}{5}{subsection.2.1}}
\newlabel{revk}{{2.2}{5}{The Reversal Conclusion\label {revk}\relax }{subsection.2.2}{}}
\@writefile{toc}{\contentsline {subsection}{\numberline {2.2}The Reversal Conclusion}{5}{subsection.2.2}}
\newlabel{exk}{{2.3}{5}{Exclusion also of Technical Theories\label {exk}\relax }{subsection.2.3}{}}
\@writefile{toc}{\contentsline {subsection}{\numberline {2.3}Exclusion also of Technical Theories}{5}{subsection.2.3}}
\newlabel{progtech}{{2.4}{6}{Technicity of Computer Programmes\label {progtech}\relax }{subsection.2.4}{}}
\@writefile{toc}{\contentsline {subsection}{\numberline {2.4}Technicity of Computer Programmes}{6}{subsection.2.4}}
\newlabel{technik}{{3}{7}{The technicity concept\label {technik}\relax }{section.3}{}}
\@writefile{toc}{\contentsline {section}{\numberline {3}The technicity concept}{7}{section.3}}
\newlabel{spraver}{{3.1}{7}{The ``Language Analysis'' and ``Logic Verification'' cases\label {spraver}\relax }{subsection.3.1}{}}
\@writefile{toc}{\contentsline {subsection}{\numberline {3.1}The ``Language Analysis'' and ``Logic Verification'' cases}{7}{subsection.3.1}}
\newlabel{glocke}{{3.2}{8}{The Bell\label {glocke}\relax }{subsection.3.2}{}}
\@writefile{toc}{\contentsline {subsection}{\numberline {3.2}The Bell}{8}{subsection.3.2}}
\newlabel{furtech}{{3.3}{9}{Additional Technical Effect\label {furtech}\relax }{subsection.3.3}{}}
\@writefile{toc}{\contentsline {subsection}{\numberline {3.3}Additional Technical Effect}{9}{subsection.3.3}}
\newlabel{hardes}{{3.4}{9}{Programmes for the Description of Hardware\label {hardes}\relax }{subsection.3.4}{}}
\@writefile{toc}{\contentsline {subsection}{\numberline {3.4}Programmes for the Description of Hardware}{9}{subsection.3.4}}
\newlabel{techlim}{{3.5}{9}{Borders of the Technicity concept\label {techlim}\relax }{subsection.3.5}{}}
\@writefile{toc}{\contentsline {subsection}{\numberline {3.5}Borders of the Technicity concept}{9}{subsection.3.5}}
\newlabel{protsub}{{4}{10}{The Objective Subject of Protection\label {protsub}\relax }{section.4}{}}
\@writefile{toc}{\contentsline {section}{\numberline {4}The Objective Subject of Protection}{10}{section.4}}
\newlabel{diskl}{{5}{11}{The Exclusion Catalogue as Legal Disclaimer\label {diskl}\relax }{section.5}{}}
\@writefile{toc}{\contentsline {section}{\numberline {5}The Exclusion Catalogue as Legal Disclaimer}{11}{section.5}}
\newlabel{srcclm}{{6}{12}{Source Code in the Patent Claim\label {srcclm}\relax }{section.6}{}}
\@writefile{toc}{\contentsline {section}{\numberline {6}Source Code in the Patent Claim}{12}{section.6}}
\newlabel{fin}{{7}{13}{Concluding Remark\label {fin}\relax }{section.7}{}}
\@writefile{toc}{\contentsline {section}{\numberline {7}Concluding Remark}{13}{section.7}}
