\contentsline {section}{\numberline {1}introduction}{1}{section.1}
\contentsline {section}{\numberline {2}FFII/Eurolinux Message to the Conference}{3}{section.2}
\contentsline {section}{\numberline {3}Short Biography of Hartmut Pilch}{8}{section.3}
\contentsline {section}{\numberline {4}Registration Form Data}{8}{section.4}
\contentsline {section}{\numberline {5}Speaker's Note}{9}{section.5}
