\BOOKMARK [1][-]{section.1}{inleiding}{}
\BOOKMARK [1][-]{section.2}{FFII/Eurolinux Message to the Conference}{}
\BOOKMARK [1][-]{section.3}{Short Biography of Hartmut Pilch}{}
\BOOKMARK [1][-]{section.4}{Registration Form Data}{}
\BOOKMARK [1][-]{section.5}{Speaker's Note}{}
