\relax 
\ifx\hyper@anchor\@undefined
\global \let \oldcontentsline\contentsline
\gdef \contentsline#1#2#3#4{\oldcontentsline{#1}{#2}{#3}}
\global \let \oldnewlabel\newlabel
\gdef \newlabel#1#2{\newlabelxx{#1}#2}
\gdef \newlabelxx#1#2#3#4#5#6{\oldnewlabel{#1}{{#2}{#3}}}
\AtEndDocument{\let \contentsline\oldcontentsline
\let \newlabel\oldnewlabel}
\else
\global \let \hyper@last\relax 
\fi

\@writefile{toc}{\contentsline {section}{\numberline {1}introduction}{1}{section.1}}
\newlabel{intro}{{1}{1}{introduction\relax }{section.1}{}}
\@writefile{toc}{\contentsline {section}{\numberline {2}FFII/Eurolinux Message to the Conference}{3}{section.2}}
\newlabel{mesg}{{2}{3}{FFII/Eurolinux Message to the Conference\relax }{section.2}{}}
\@writefile{toc}{\contentsline {section}{\numberline {3}Short Biography of Hartmut Pilch}{8}{section.3}}
\newlabel{phmbio}{{3}{8}{Short Biography of Hartmut Pilch\relax }{section.3}{}}
\@writefile{toc}{\contentsline {section}{\numberline {4}Registration Form Data}{8}{section.4}}
\newlabel{regform}{{4}{8}{Registration Form Data\relax }{section.4}{}}
\@writefile{toc}{\contentsline {section}{\numberline {5}Speaker's Note}{9}{section.5}}
\newlabel{spknote}{{5}{9}{Speaker's Note\relax }{section.5}{}}
