\BOOKMARK [1][-]{section.0.1}{introduction}{}
\BOOKMARK [1][-]{section.0.2}{FFII/Eurolinux Message to the Conference}{}
\BOOKMARK [1][-]{section.0.3}{Short Biography of Hartmut Pilch}{}
\BOOKMARK [1][-]{section.0.4}{Registration Form Data}{}
\BOOKMARK [1][-]{section.0.5}{Speaker's Note}{}
