\relax 
\ifx\hyper@anchor\@undefined
\global \let \oldcontentsline\contentsline
\gdef \contentsline#1#2#3#4{\oldcontentsline{#1}{#2}{#3}}
\global \let \oldnewlabel\newlabel
\gdef \newlabel#1#2{\newlabelxx{#1}#2}
\gdef \newlabelxx#1#2#3#4#5#6{\oldnewlabel{#1}{{#2}{#3}}}
\AtEndDocument{\let \contentsline\oldcontentsline
\let \newlabel\oldnewlabel}
\else
\global \let \hyper@last\relax 
\fi

\csname auxWARNINGii\endcsname {\typeout {-34- this file and other auxiliary files require to use the following}}
\csname auxWARNINGii\endcsname {\typeout {-34- LaTeX packages: french and babel!}}
\csname auxWARNINGii\endcsname {\typeout {-34- check \protect \usepackage \space or remove these files. Typesetting is aborted!} \stop }
\select@language{french}
\@writefile{toc}{\select@language{french}}
\@writefile{lof}{\select@language{french}}
\@writefile{lot}{\select@language{french}}
\select@language{french}
\@writefile{toc}{\select@language{french}}
\@writefile{lof}{\select@language{french}}
\@writefile{lot}{\select@language{french}}
\@writefile{toc}{\contentsline {section}{\numberline {1}introduction}{1}{section.0.1}}
\newlabel{intro}{{1}{1}{introduction\relax }{section.0.1}{}}
\@writefile{toc}{\contentsline {section}{\numberline {2}FFII/Eurolinux Message to the Conference}{3}{section.0.2}}
\newlabel{mesg}{{2}{3}{FFII/Eurolinux Message to the Conference\relax }{section.0.2}{}}
\@writefile{toc}{\contentsline {section}{\numberline {3}Short Biography of Hartmut Pilch}{8}{section.0.3}}
\newlabel{phmbio}{{3}{8}{Short Biography of Hartmut Pilch\relax }{section.0.3}{}}
\@writefile{toc}{\contentsline {section}{\numberline {4}Registration Form Data}{8}{section.0.4}}
\newlabel{regform}{{4}{8}{Registration Form Data\relax }{section.0.4}{}}
\@writefile{toc}{\contentsline {section}{\numberline {5}Speaker's Note}{8}{section.0.5}}
\newlabel{spknote}{{5}{8}{Speaker's Note\relax }{section.0.5}{}}
