\relax 
\ifx\hyper@anchor\@undefined
\global \let \oldcontentsline\contentsline
\gdef \contentsline#1#2#3#4{\oldcontentsline{#1}{#2}{#3}}
\global \let \oldnewlabel\newlabel
\gdef \newlabel#1#2{\newlabelxx{#1}#2}
\gdef \newlabelxx#1#2#3#4#5#6{\oldnewlabel{#1}{{#2}{#3}}}
\AtEndDocument{\let \contentsline\oldcontentsline
\let \newlabel\oldnewlabel}
\else
\global \let \hyper@last\relax 
\fi

\csname auxWARNINGii\endcsname {\typeout {-34- this file and other auxiliary files require to use the following}}
\csname auxWARNINGii\endcsname {\typeout {-34- LaTeX packages: french and babel!}}
\csname auxWARNINGii\endcsname {\typeout {-34- check \protect \usepackage \space or remove these files. Typesetting is aborted!} \stop }
\select@language{french}
\@writefile{toc}{\select@language{french}}
\@writefile{lof}{\select@language{french}}
\@writefile{lot}{\select@language{french}}
\select@language{french}
\@writefile{toc}{\select@language{french}}
\@writefile{lof}{\select@language{french}}
\@writefile{lot}{\select@language{french}}
\@writefile{toc}{\contentsline {section}{\numberline {1}D\'{e}fense du droit de l'auteur \`{a} la libre publication de ses oeuvres informatiques.}{2}{section.0.1}}
\newlabel{urh}{{1}{2}{D\'{e}fense du droit de l'auteur \`{a} la libre publication de ses oeuvres informatiques}{section.0.1}{}}
\@writefile{toc}{\contentsline {section}{\numberline {2}D\'{e}fense de l'acc\`{e}s libre aux normes de la communication publique}{2}{section.0.2}}
\newlabel{iop}{{2}{2}{D\'{e}fense de l'acc\`{e}s libre aux normes de la communication publique\relax }{section.0.2}{}}
\@writefile{toc}{\contentsline {section}{\numberline {3}Pr\'{e}ciser les crit\`{e}res de brevetabilit\'{e}}{2}{section.0.3}}
\newlabel{tex}{{3}{2}{Pr\'{e}ciser les crit\`{e}res de brevetabilit\'{e}\relax }{section.0.3}{}}
\@writefile{toc}{\contentsline {section}{\numberline {4}Pour un traitement adapt\'{e} de l'aide \`{a} l'innovation informatique. }{3}{section.0.4}}
\newlabel{suigen}{{4}{3}{Pour un traitement adapt\'{e} de l'aide \`{a} l'innovation informatique. \relax }{section.0.4}{}}
\@writefile{toc}{\contentsline {section}{\numberline {5}Contre une bureaucratisation excessive, et pour l'internationalisation des questions de brevets}{3}{section.0.5}}
\newlabel{debur}{{5}{3}{Contre une bureaucratisation excessive, et pour l'internationalisation des questions de brevets\relax }{section.0.5}{}}
\global\@altsecnumformattrue
