\relax 
\ifx\hyper@anchor\@undefined
\global \let \oldcontentsline\contentsline
\gdef \contentsline#1#2#3#4{\oldcontentsline{#1}{#2}{#3}}
\global \let \oldnewlabel\newlabel
\gdef \newlabel#1#2{\newlabelxx{#1}#2}
\gdef \newlabelxx#1#2#3#4#5#6{\oldnewlabel{#1}{{#2}{#3}}}
\AtEndDocument{\let \contentsline\oldcontentsline
\let \newlabel\oldnewlabel}
\else
\global \let \hyper@last\relax 
\fi

\@writefile{toc}{\contentsline {chapter}{\numberline {A}Verteiler dieses Briefes}{7}{appendix.A}}
\@writefile{lof}{\addvspace {10\p@ }}
\@writefile{lot}{\addvspace {10\p@ }}
\newlabel{adresar}{{A}{7}{Verteiler dieses Briefes\relax }{appendix.A}{}}
\@writefile{toc}{\contentsline {chapter}{\numberline {B}Stellungnahmen von Politikern zur Softwarepatentierung}{9}{appendix.B}}
\@writefile{lof}{\addvspace {10\p@ }}
\@writefile{lot}{\addvspace {10\p@ }}
\newlabel{politist}{{B}{9}{Stellungnahmen von Politikern zur Softwarepatentierung\relax }{appendix.B}{}}
\@writefile{toc}{\contentsline {section}{\numberline {B.1}Ausschuss der Regionen der Europ\"aischen Union}{9}{section.B.1}}
\newlabel{regikom}{{B.1}{9}{Ausschuss der Regionen der Europ\"aischen Union\relax }{section.B.1}{}}
\@writefile{toc}{\contentsline {section}{\numberline {B.2}Bundestagsfraktion B\"undnis 90/Die Gr\"unen}{9}{section.B.2}}
\newlabel{wolf}{{B.2}{9}{Bundestagsfraktion B\"undnis 90/Die Gr\"unen\relax }{section.B.2}{}}
\@writefile{toc}{\contentsline {section}{\numberline {B.3}J\"org Tauss, MdB (SPD), Vorsitzender des Parlamentarischen Unterausschusses f\"ur die Neuen Medien}{10}{section.B.3}}
\newlabel{tauss}{{B.3}{10}{J\"org Tauss, MdB (SPD), Vorsitzender des Parlamentarischen Unterausschusses f\"ur die Neuen Medien\relax }{section.B.3}{}}
\@writefile{toc}{\contentsline {section}{\numberline {B.4}Bundestagsfraktion der FDP}{11}{section.B.4}}
\newlabel{fdp}{{B.4}{11}{Bundestagsfraktion der FDP\relax }{section.B.4}{}}
\@writefile{toc}{\contentsline {section}{\numberline {B.5}Bundestagsfraktion der CDU/CSU}{11}{section.B.5}}
\newlabel{cducsu}{{B.5}{11}{Bundestagsfraktion der CDU/CSU\relax }{section.B.5}{}}
\@writefile{toc}{\contentsline {section}{\numberline {B.6}Dr.\ med.\ Wolfgang Wodarg, MdB (SPD)}{12}{section.B.6}}
\newlabel{wodarg}{{B.6}{12}{Dr.\ med.\ Wolfgang Wodarg, MdB (SPD)\relax }{section.B.6}{}}
\@writefile{toc}{\contentsline {section}{\numberline {B.7}Herta D\"aubler-Gmelin, Bundesministerin der Justiz}{13}{section.B.7}}
\newlabel{herta}{{B.7}{13}{Herta D\"aubler-Gmelin, Bundesministerin der Justiz\relax }{section.B.7}{}}
\@writefile{toc}{\contentsline {section}{\numberline {B.8}Christian Pierret, Industrieminister Frankreichs}{13}{section.B.8}}
\newlabel{pierret}{{B.8}{13}{Christian Pierret, Industrieminister Frankreichs\relax }{section.B.8}{}}
\@writefile{toc}{\contentsline {section}{\numberline {B.9}Jean-Yves Le D\'eaut, Abgeordneter der Moselregion in der Franz\"osischen Nationalversammlung (PS)}{13}{section.B.9}}
\newlabel{ledeaut}{{B.9}{13}{Jean-Yves Le D\'eaut, Abgeordneter der Moselregion in der Franz\"osischen Nationalversammlung (PS)\relax }{section.B.9}{}}
\@writefile{toc}{\contentsline {chapter}{\numberline {C}Presseerkl\"arung des FFII zum EPA-Basisvorschlag}{15}{appendix.C}}
\@writefile{lof}{\addvspace {10\p@ }}
\@writefile{lot}{\addvspace {10\p@ }}
\newlabel{ffiipe}{{C}{15}{Presseerkl\"arung des FFII zum EPA-Basisvorschlag\relax }{appendix.C}{}}
\@writefile{toc}{\contentsline {chapter}{\numberline {D}Eurolinux-Petition}{18}{appendix.D}}
\@writefile{lof}{\addvspace {10\p@ }}
\@writefile{lot}{\addvspace {10\p@ }}
\newlabel{euluxpet}{{D}{18}{Eurolinux-Petition\relax }{appendix.D}{}}
\@writefile{toc}{\contentsline {chapter}{\numberline {E}Europ\"aische Softwarepatente: Einige Musterexemplare}{19}{appendix.E}}
\@writefile{lof}{\addvspace {10\p@ }}
\@writefile{lot}{\addvspace {10\p@ }}
\newlabel{mupli}{{E}{19}{Europ\"aische Softwarepatente: Einige Musterexemplare\relax }{appendix.E}{}}
\@writefile{toc}{\contentsline {chapter}{\numberline {F}Das EP\"U und die Grenzen der Patentierbarkeit}{23}{appendix.F}}
\@writefile{lof}{\addvspace {10\p@ }}
\@writefile{lot}{\addvspace {10\p@ }}
\newlabel{techinv}{{F}{23}{Das EP\"U und die Grenzen der Patentierbarkeit\relax }{appendix.F}{}}
\@writefile{toc}{\contentsline {section}{\numberline {F.1}Wortlaut von Art 52 EP\"U und $\S  $1 PatG}{23}{section.F.1}}
\@writefile{toc}{\contentsline {section}{\numberline {F.2}BGH-Beschluss Dispositionsprogramm (1976): warum es sich verbietet, den Technikbegriff \"uber den Umweg der Computerprogramme aufzuweichen}{23}{section.F.2}}
\newlabel{dispo76}{{F.2}{23}{BGH-Beschluss Dispositionsprogramm (1976): warum es sich verbietet, den Technikbegriff \"uber den Umweg der Computerprogramme aufzuweichen\relax }{section.F.2}{}}
\@writefile{toc}{\contentsline {section}{\numberline {F.3}BGH-Beschluss Walzstabteilung (1980): eine auf technischem Gebiet anwendbare Organisations- und Rechenregel ist noch immer keine technische Erfindung}{24}{section.F.3}}
\@writefile{toc}{\contentsline {section}{\numberline {F.4}Grunds\"atzliches aus dem ``Lehrbuch des Patentrechts'' Kra{\ss }er 1986}{25}{section.F.4}}
\newlabel{krasser}{{F.4}{25}{Grunds\"atzliches aus dem ``Lehrbuch des Patentrechts'' Kra{\ss }er 1986\relax }{section.F.4}{}}
\@writefile{toc}{\contentsline {section}{\numberline {F.5}Vorschlag f\"ur eine Gesetzesregel \"uber die Grenzen der Patentierbarkeit}{28}{section.F.5}}
\newlabel{javni}{{F.5}{28}{Vorschlag f\"ur eine Gesetzesregel \"uber die Grenzen der Patentierbarkeit\relax }{section.F.5}{}}
\@writefile{toc}{\contentsline {chapter}{\numberline {G}Logische Ideen: ``Niemandsland des geistigen Eigentums'' oder ``Drittes Paradigma''?}{30}{appendix.G}}
\@writefile{lof}{\addvspace {10\p@ }}
\@writefile{lot}{\addvspace {10\p@ }}
\newlabel{softsuigen}{{G}{30}{Logische Ideen: ``Niemandsland des geistigen Eigentums'' oder ``Drittes Paradigma''?\relax }{appendix.G}{}}
\@writefile{toc}{\contentsline {chapter}{\numberline {H}TRIPS: kein Fallstrick f\"ur Software}{31}{appendix.H}}
\@writefile{lof}{\addvspace {10\p@ }}
\@writefile{lot}{\addvspace {10\p@ }}
\newlabel{trips}{{H}{31}{TRIPS: kein Fallstrick f\"ur Software\relax }{appendix.H}{}}
\@writefile{toc}{\contentsline {chapter}{\numberline {I}Wissenschaftliche Fachliteratur}{32}{appendix.I}}
\@writefile{lof}{\addvspace {10\p@ }}
\@writefile{lot}{\addvspace {10\p@ }}
\newlabel{scistud}{{I}{32}{Wissenschaftliche Fachliteratur\relax }{appendix.I}{}}
\@writefile{toc}{\contentsline {section}{\numberline {I.1}Konzeptionelle Unvertr\"aglichkeit zwischen Patentwesen und Informatik}{32}{section.I.1}}
\newlabel{koncept}{{I.1}{32}{Konzeptionelle Unvertr\"aglichkeit zwischen Patentwesen und Informatik\relax }{section.I.1}{}}
\@writefile{toc}{\contentsline {subsection}{\numberline {I.1.1}The Impact of Granting Patents for Information Innovations}{32}{subsection.I.1.1}}
\newlabel{impact}{{I.1.1}{32}{The Impact of Granting Patents for Information Innovations\relax }{subsection.I.1.1}{}}
\@writefile{toc}{\contentsline {subsection}{\numberline {I.1.2}Abstraction orientated property of software and its relation to patentability}{33}{subsection.I.1.2}}
\newlabel{tamai}{{I.1.2}{33}{Abstraction orientated property of software and its relation to patentability\relax }{subsection.I.1.2}{}}
\@writefile{toc}{\contentsline {subsection}{\numberline {I.1.3}The Models are broken, the models are broken!}{33}{subsection.I.1.3}}
\newlabel{newell}{{I.1.3}{33}{The Models are broken, the models are broken!\relax }{subsection.I.1.3}{}}
\@writefile{toc}{\contentsline {subsection}{\numberline {I.1.4}Anarchism Triumphant: Free Software and the Death of Copyright}{34}{subsection.I.1.4}}
\newlabel{moglen}{{I.1.4}{34}{Anarchism Triumphant: Free Software and the Death of Copyright\relax }{subsection.I.1.4}{}}
\@writefile{toc}{\contentsline {section}{\numberline {I.2}Pl\"adoyers f\"ur eine Trennung in Patentwesen und Sui-Generis-Systeme}{34}{section.I.2}}
\newlabel{suigen}{{I.2}{34}{Pl\"adoyers f\"ur eine Trennung in Patentwesen und Sui-Generis-Systeme\relax }{section.I.2}{}}
\@writefile{toc}{\contentsline {subsection}{\numberline {I.2.1}Needed: A New System of Intellectual Property Rights}{34}{subsection.I.2.1}}
\newlabel{thurow}{{I.2.1}{34}{Needed: A New System of Intellectual Property Rights\relax }{subsection.I.2.1}{}}
\@writefile{toc}{\contentsline {subsection}{\numberline {I.2.2}Patent Protection for Modern Technologies}{34}{subsection.I.2.2}}
\newlabel{kingston}{{I.2.2}{34}{Patent Protection for Modern Technologies\relax }{subsection.I.2.2}{}}
\@writefile{toc}{\contentsline {subsection}{\numberline {I.2.3}Toward a Third Intellectual Property Paradigm}{34}{subsection.I.2.3}}
\newlabel{ippar3}{{I.2.3}{34}{Toward a Third Intellectual Property Paradigm\relax }{subsection.I.2.3}{}}
\@writefile{toc}{\contentsline {subsection}{\numberline {I.2.4}Acceptable protection of software intellectual property}{35}{subsection.I.2.4}}
\newlabel{effyoz}{{I.2.4}{35}{Acceptable protection of software intellectual property\relax }{subsection.I.2.4}{}}
\@writefile{toc}{\contentsline {section}{\numberline {I.3}Leistungsbeurteilungen des Patentsystems}{35}{section.I.3}}
\newlabel{patleist}{{I.3}{35}{Leistungsbeurteilungen des Patentsystems\relax }{section.I.3}{}}
\@writefile{toc}{\contentsline {subsection}{\numberline {I.3.1}The Patent Examination System is Intellectually Corrupt}{35}{subsection.I.3.1}}
\newlabel{aharonian}{{I.3.1}{35}{The Patent Examination System is Intellectually Corrupt\relax }{subsection.I.3.1}{}}
\@writefile{toc}{\contentsline {subsection}{\numberline {I.3.2}Comparative Study under Trilateral Project 24.2}{35}{subsection.I.3.2}}
\newlabel{saikine}{{I.3.2}{35}{Comparative Study under Trilateral Project 24.2\relax }{subsection.I.3.2}{}}
\@writefile{toc}{\contentsline {section}{\numberline {I.4}\"Okonomische Analysen}{36}{section.I.4}}
\newlabel{patekon}{{I.4}{36}{\"Okonomische Analysen\relax }{section.I.4}{}}
\@writefile{toc}{\contentsline {subsection}{\numberline {I.4.1}The benefits and costs of strong patent protection}{36}{subsection.I.4.1}}
\newlabel{strongpat}{{I.4.1}{36}{The benefits and costs of strong patent protection\relax }{subsection.I.4.1}{}}
\@writefile{toc}{\contentsline {subsection}{\numberline {I.4.2}The Patent Paradox Revisited}{36}{subsection.I.4.2}}
\newlabel{paradox}{{I.4.2}{36}{The Patent Paradox Revisited\relax }{subsection.I.4.2}{}}
\@writefile{toc}{\contentsline {subsection}{\numberline {I.4.3}Sequential Innovation, Patents, and Imitation}{36}{subsection.I.4.3}}
\newlabel{seqinnov}{{I.4.3}{36}{Sequential Innovation, Patents, and Imitation\relax }{subsection.I.4.3}{}}
\@writefile{toc}{\contentsline {subsection}{\numberline {I.4.4}Software Useright: Solving Inconsistencies of Software Patents}{37}{subsection.I.4.4}}
\newlabel{useright}{{I.4.4}{37}{Software Useright: Solving Inconsistencies of Software Patents\relax }{subsection.I.4.4}{}}
\@writefile{toc}{\contentsline {subsection}{\numberline {I.4.5}Software Patents Tangle the Web}{37}{subsection.I.4.5}}
\newlabel{shulman}{{I.4.5}{37}{Software Patents Tangle the Web\relax }{subsection.I.4.5}{}}
\@writefile{toc}{\contentsline {subsection}{\numberline {I.4.6}Stimuler la concurrence et l'innovation}{37}{subsection.I.4.6}}
\newlabel{stimul}{{I.4.6}{37}{Stimuler la concurrence et l'innovation\relax }{subsection.I.4.6}{}}
\@writefile{toc}{\contentsline {section}{\numberline {I.5}Juristische Analysen}{38}{section.I.5}}
\newlabel{jurstud}{{I.5}{38}{Juristische Analysen\relax }{section.I.5}{}}
\@writefile{toc}{\contentsline {subsection}{\numberline {I.5.1}Technik, Datenverarbeitung und Patentrecht}{38}{subsection.I.5.1}}
\newlabel{kolle77}{{I.5.1}{38}{Technik, Datenverarbeitung und Patentrecht\relax }{subsection.I.5.1}{}}
\@writefile{toc}{\contentsline {subsection}{\numberline {I.5.2}BPatG-Urteil ``Suche fehlerhafter Zeichenketten''}{38}{subsection.I.5.2}}
\newlabel{bpatg}{{I.5.2}{38}{BPatG-Urteil ``Suche fehlerhafter Zeichenketten''\relax }{subsection.I.5.2}{}}
\@writefile{toc}{\contentsline {subsection}{\numberline {I.5.3}Computersoftware und Patentrecht}{39}{subsection.I.5.3}}
\newlabel{twin}{{I.5.3}{39}{Computersoftware und Patentrecht\relax }{subsection.I.5.3}{}}
\@writefile{toc}{\contentsline {subsection}{\numberline {I.5.4}Ruimere octrooi\"ering van computerprogramma's}{40}{subsection.I.5.4}}
\newlabel{iter}{{I.5.4}{40}{Ruimere octrooi\"ering van computerprogramma's\relax }{subsection.I.5.4}{}}
\global\@altsecnumformattrue
\@writefile{toc}{\contentsline {subsection}{\numberline {I.5.5}La ``r\'eservation'' du logiciel par le droit des brevets}{41}{subsection.I.5.5}}
\newlabel{lamy}{{I.5.5}{41}{La ``r\'eservation'' du logiciel par le droit des brevets\relax }{subsection.I.5.5}{}}
