\relax 
\ifx\hyper@anchor\@undefined
\global \let \oldcontentsline\contentsline
\gdef \contentsline#1#2#3#4{\oldcontentsline{#1}{#2}{#3}}
\global \let \oldnewlabel\newlabel
\gdef \newlabel#1#2{\newlabelxx{#1}#2}
\gdef \newlabelxx#1#2#3#4#5#6{\oldnewlabel{#1}{{#2}{#3}}}
\AtEndDocument{\let \contentsline\oldcontentsline
\let \newlabel\oldnewlabel}
\else
\global \let \hyper@last\relax 
\fi

\@writefile{toc}{\contentsline {section}{\numberline {1}Right to Publish one's own information works}{2}{section.1}}
\newlabel{urh}{{1}{2}{Right to Publish one's own information works\relax }{section.1}{}}
\@writefile{toc}{\contentsline {section}{\numberline {2}Right of Free Access to Standards of Public Communication}{2}{section.2}}
\newlabel{iop}{{2}{2}{Right of Free Access to Standards of Public Communication\relax }{section.2}{}}
\@writefile{toc}{\contentsline {section}{\numberline {3}Clarification of the criteria of patentability}{2}{section.3}}
\newlabel{tex}{{3}{2}{Clarification of the criteria of patentability\relax }{section.3}{}}
\@writefile{toc}{\contentsline {section}{\numberline {4}Adequate Stimulation of Informational Innovation}{3}{section.4}}
\newlabel{suigen}{{4}{3}{Adequate Stimulation of Informational Innovation\relax }{section.4}{}}
\@writefile{toc}{\contentsline {section}{\numberline {5}Debureaucratisation of the Patent System}{3}{section.5}}
\newlabel{debur}{{5}{3}{Debureaucratisation of the Patent System\relax }{section.5}{}}
\global\@altsecnumformattrue
