\relax 
\ifx\hyper@anchor\@undefined
\global \let \oldcontentsline\contentsline
\gdef \contentsline#1#2#3#4{\oldcontentsline{#1}{#2}{#3}}
\global \let \oldnewlabel\newlabel
\gdef \newlabel#1#2{\newlabelxx{#1}#2}
\gdef \newlabelxx#1#2#3#4#5#6{\oldnewlabel{#1}{{#2}{#3}}}
\AtEndDocument{\let \contentsline\oldcontentsline
\let \newlabel\oldnewlabel}
\else
\global \let \hyper@last\relax 
\fi

\@writefile{toc}{\contentsline {section}{\numberline {1}Recht auf Ver\"{o}ffentlichung von eigenen Informationswerken}{2}{section.1}}
\newlabel{urh}{{1}{2}{Recht auf Ver\"{o}ffentlichung von eigenen Informationswerken\relax }{section.1}{}}
\@writefile{toc}{\contentsline {section}{\numberline {2}Recht auf freien Zugang zu Normen der \"{O}ffentlichen Kommunikation}{2}{section.2}}
\newlabel{iop}{{2}{2}{Recht auf freien Zugang zu Normen der \"{O}ffentlichen Kommunikation\relax }{section.2}{}}
\@writefile{toc}{\contentsline {section}{\numberline {3}Pr\"{a}zisierung der Patentierbarkeitskriterien}{2}{section.3}}
\newlabel{tex}{{3}{2}{Pr\"{a}zisierung der Patentierbarkeitskriterien\relax }{section.3}{}}
\@writefile{toc}{\contentsline {section}{\numberline {4}Sachgerechte F\"{o}rderung informationeller Innovationen}{3}{section.4}}
\newlabel{suigen}{{4}{3}{Sachgerechte F\"{o}rderung informationeller Innovationen\relax }{section.4}{}}
\@writefile{toc}{\contentsline {section}{\numberline {5}Entb\"{u}rokratisierung, Internationalisierung und demokratische Kontrolle des Patentwesens}{3}{section.5}}
\newlabel{debur}{{5}{3}{Entb\"{u}rokratisierung, Internationalisierung und demokratische Kontrolle des Patentwesens\relax }{section.5}{}}
