\contentsline {section}{\numberline {1}Right to Publish one's own information works}{2}{section.1}
\contentsline {section}{\numberline {2}Right of Free Access to Standards of Public Communication}{2}{section.2}
\contentsline {section}{\numberline {3}Clarification of the criteria of patentability}{2}{section.3}
\contentsline {section}{\numberline {4}Adequate Stimulation of Informational Innovation}{3}{section.4}
\contentsline {section}{\numberline {5}Debureaucratisation of the Patent System}{3}{section.5}
