\contentsline {section}{\numberline {1}Recht auf Ver\"{o}ffentlichung von eigenen Informationswerken}{2}{section.1}
\contentsline {section}{\numberline {2}Recht auf freien Zugang zu Normen der \"{O}ffentlichen Kommunikation}{2}{section.2}
\contentsline {section}{\numberline {3}Pr\"{a}zisierung der Patentierbarkeitskriterien}{2}{section.3}
\contentsline {section}{\numberline {4}Sachgerechte F\"{o}rderung informationeller Innovationen}{3}{section.4}
\contentsline {section}{\numberline {5}Entb\"{u}rokratisierung, Internationalisierung und demokratische Kontrolle des Patentwesens}{3}{section.5}
