\relax 
\ifx\hyper@anchor\@undefined
\global \let \oldcontentsline\contentsline
\gdef \contentsline#1#2#3#4{\oldcontentsline{#1}{#2}{#3}}
\global \let \oldnewlabel\newlabel
\gdef \newlabel#1#2{\newlabelxx{#1}#2}
\gdef \newlabelxx#1#2#3#4#5#6{\oldnewlabel{#1}{{#2}{#3}}}
\AtEndDocument{\let \contentsline\oldcontentsline
\let \newlabel\oldnewlabel}
\else
\global \let \hyper@last\relax 
\fi

\@writefile{toc}{\contentsline {section}{\numberline {1}Weltkonzerne-Patentabteilungen erheben ``liberalstes'' Patentsystem zum ``Standard''}{2}{section.1}}
\newlabel{std}{{1}{2}{Weltkonzerne-Patentabteilungen erheben ``liberalstes'' Patentsystem zum ``Standard''\relax }{section.1}{}}
\@writefile{toc}{\contentsline {section}{\numberline {2}Patentgesetzgeber st\"{a}rken ihre eigene Stellung}{3}{section.2}}
\newlabel{exp}{{2}{3}{Patentgesetzgeber st\"{a}rken ihre eigene Stellung\relax }{section.2}{}}
\@writefile{toc}{\contentsline {section}{\numberline {3}Patent\"{a}mter und Gerichte an der Perspektive des Patentanmelders ausgerichtet}{3}{section.3}}
\newlabel{pel}{{3}{3}{Patent\"{a}mter und Gerichte an der Perspektive des Patentanmelders ausgerichtet\relax }{section.3}{}}
\@writefile{toc}{\contentsline {section}{\numberline {4}Patent-Goldrausch und konjunkturelle Strohfeuer}{4}{section.4}}
\newlabel{lnd}{{4}{4}{Patent-Goldrausch und konjunkturelle Strohfeuer\relax }{section.4}{}}
\@writefile{toc}{\contentsline {section}{\numberline {5}Schnellballsystem beg\"{u}nstigt Initiator}{5}{section.5}}
\newlabel{neg}{{5}{5}{Schnellballsystem beg\"{u}nstigt Initiator\relax }{section.5}{}}
\@writefile{toc}{\contentsline {section}{\numberline {6}Abkapselung der Patentwelt, Geistige Inzucht, Formalisierung des Rechtsdenkens}{5}{section.6}}
\newlabel{frm}{{6}{5}{Abkapselung der Patentwelt, Geistige Inzucht, Formalisierung des Rechtsdenkens\relax }{section.6}{}}
\@writefile{toc}{\contentsline {section}{\numberline {7}Ersch\"{o}pfung der erfinderischen Ressourcen}{6}{section.7}}
\newlabel{exh}{{7}{6}{Ersch\"{o}pfung der erfinderischen Ressourcen\relax }{section.7}{}}
\@writefile{toc}{\contentsline {section}{\numberline {8}Kommentierte Verweise}{7}{section.8}}
\newlabel{links}{{8}{7}{Kommentierte Verweise\relax }{section.8}{}}
\gdef\scr@tpo@lst{0}
