\BOOKMARK [1][-]{section.1}{Weltkonzerne-Patentabteilungen erheben ``liberalstes'' Patentsystem zum ``Standard''}{}
\BOOKMARK [1][-]{section.2}{Patentgesetzgeber st\344rken ihre eigene Stellung}{}
\BOOKMARK [1][-]{section.3}{Patent\344mter und Gerichte an der Perspektive des Patentanmelders ausgerichtet}{}
\BOOKMARK [1][-]{section.4}{Patent-Goldrausch und konjunkturelle Strohfeuer}{}
\BOOKMARK [1][-]{section.5}{Schnellballsystem beg\374nstigt Initiator}{}
\BOOKMARK [1][-]{section.6}{Abkapselung der Patentwelt, Geistige Inzucht, Formalisierung des Rechtsdenkens}{}
\BOOKMARK [1][-]{section.7}{Ersch\366pfung der erfinderischen Ressourcen}{}
\BOOKMARK [1][-]{section.8}{Kommentierte Verweise}{}
