\BOOKMARK [1][-]{section.1}{corporate patent departments ``standardising on'' the most ``liberal'' patent system}{}
\BOOKMARK [1][-]{section.2}{patent legislators reinforcing their social position}{}
\BOOKMARK [1][-]{section.3}{patent offices and courts biased to the applicant's perspective}{}
\BOOKMARK [1][-]{section.4}{patent gold-rush as pre-election doping}{}
\BOOKMARK [1][-]{section.5}{snowball scheme benefitting first mover}{}
\BOOKMARK [1][-]{section.6}{Seclusion of the Patent World, In-breeding and Formalisation of Patent Law Doctrines}{}
\BOOKMARK [1][-]{section.7}{Exhaustion of Inventive Ressources}{}
\BOOKMARK [1][-]{section.8}{Annotated Links}{}
