\contentsline {section}{\numberline {1}Weltkonzerne-Patentabteilungen erheben ``liberalstes'' Patentsystem zum ``Standard''}{2}{section.1}
\contentsline {section}{\numberline {2}Patentgesetzgeber st\"{a}rken ihre eigene Stellung}{3}{section.2}
\contentsline {section}{\numberline {3}Patent\"{a}mter und Gerichte an der Perspektive des Patentanmelders ausgerichtet}{3}{section.3}
\contentsline {section}{\numberline {4}Patent-Goldrausch und konjunkturelle Strohfeuer}{4}{section.4}
\contentsline {section}{\numberline {5}Schnellballsystem beg\"{u}nstigt Initiator}{5}{section.5}
\contentsline {section}{\numberline {6}Abkapselung der Patentwelt, Geistige Inzucht, Formalisierung des Rechtsdenkens}{5}{section.6}
\contentsline {section}{\numberline {7}Ersch\"{o}pfung der erfinderischen Ressourcen}{6}{section.7}
\contentsline {section}{\numberline {8}Kommentierte Verweise}{7}{section.8}
