\relax 
\ifx\hyper@anchor\@undefined
\global \let \oldcontentsline\contentsline
\gdef \contentsline#1#2#3#4{\oldcontentsline{#1}{#2}{#3}}
\global \let \oldnewlabel\newlabel
\gdef \newlabel#1#2{\newlabelxx{#1}#2}
\gdef \newlabelxx#1#2#3#4#5#6{\oldnewlabel{#1}{{#2}{#3}}}
\AtEndDocument{\let \contentsline\oldcontentsline
\let \newlabel\oldnewlabel}
\else
\global \let \hyper@last\relax 
\fi

\@writefile{toc}{\contentsline {section}{\numberline {1}corporate patent departments ``standardising on'' the most ``liberal'' patent system}{2}{section.1}}
\newlabel{std}{{1}{2}{corporate patent departments ``standardising on'' the most ``liberal'' patent system\relax }{section.1}{}}
\@writefile{toc}{\contentsline {section}{\numberline {2}patent legislators reinforcing their social position}{3}{section.2}}
\newlabel{exp}{{2}{3}{patent legislators reinforcing their social position\relax }{section.2}{}}
\@writefile{toc}{\contentsline {section}{\numberline {3}patent offices and courts biased to the applicant's perspective}{3}{section.3}}
\newlabel{pel}{{3}{3}{patent offices and courts biased to the applicant's perspective\relax }{section.3}{}}
\@writefile{toc}{\contentsline {section}{\numberline {4}patent gold-rush as pre-election doping}{4}{section.4}}
\newlabel{lnd}{{4}{4}{patent gold-rush as pre-election doping\relax }{section.4}{}}
\@writefile{toc}{\contentsline {section}{\numberline {5}snowball scheme benefitting first mover}{5}{section.5}}
\newlabel{neg}{{5}{5}{snowball scheme benefitting first mover\relax }{section.5}{}}
\@writefile{toc}{\contentsline {section}{\numberline {6}Seclusion of the Patent World, In-breeding and Formalisation of Patent Law Doctrines}{5}{section.6}}
\newlabel{frm}{{6}{5}{Seclusion of the Patent World, In-breeding and Formalisation of Patent Law Doctrines\relax }{section.6}{}}
\@writefile{toc}{\contentsline {section}{\numberline {7}Exhaustion of Inventive Ressources}{6}{section.7}}
\newlabel{exh}{{7}{6}{Exhaustion of Inventive Ressources\relax }{section.7}{}}
\@writefile{toc}{\contentsline {section}{\numberline {8}Annotated Links}{7}{section.8}}
\newlabel{links}{{8}{7}{Annotated Links\relax }{section.8}{}}
\gdef\scr@tpo@lst{0}
