\contentsline {section}{\numberline {1}corporate patent departments ``standardising on'' the most ``liberal'' patent system}{2}{section.1}
\contentsline {section}{\numberline {2}patent legislators reinforcing their social position}{3}{section.2}
\contentsline {section}{\numberline {3}patent offices and courts biased to the applicant's perspective}{3}{section.3}
\contentsline {section}{\numberline {4}patent gold-rush as pre-election doping}{4}{section.4}
\contentsline {section}{\numberline {5}snowball scheme benefitting first mover}{5}{section.5}
\contentsline {section}{\numberline {6}Seclusion of the Patent World, In-breeding and Formalisation of Patent Law Doctrines}{5}{section.6}
\contentsline {section}{\numberline {7}Exhaustion of Inventive Ressources}{6}{section.7}
\contentsline {section}{\numberline {8}Annotated Links}{7}{section.8}
