\relax 
\ifx\hyper@anchor\@undefined
\global \let \oldcontentsline\contentsline
\gdef \contentsline#1#2#3#4{\oldcontentsline{#1}{#2}{#3}}
\global \let \oldnewlabel\newlabel
\gdef \newlabel#1#2{\newlabelxx{#1}#2}
\gdef \newlabelxx#1#2#3#4#5#6{\oldnewlabel{#1}{{#2}{#3}}}
\AtEndDocument{\let \contentsline\oldcontentsline
\let \newlabel\oldnewlabel}
\else
\global \let \hyper@last\relax 
\fi

\@writefile{toc}{\contentsline {section}{\numberline {1}We zijn bezorgd omdat}{1}{section.1}}
\newlabel{prob}{{1}{1}{We zijn bezorgd omdat\relax }{section.1}{}}
\@writefile{toc}{\contentsline {section}{\numberline {2}Om deze redenen bevelen wij het volgende aan}{2}{section.2}}
\newlabel{solv}{{2}{2}{Om deze redenen bevelen wij het volgende aan\relax }{section.2}{}}
