\relax 
\catcode`"\active
\ifx\hyper@anchor\@undefined
\global \let \oldcontentsline\contentsline
\gdef \contentsline#1#2#3#4{\oldcontentsline{#1}{#2}{#3}}
\global \let \oldnewlabel\newlabel
\gdef \newlabel#1#2{\newlabelxx{#1}#2}
\gdef \newlabelxx#1#2#3#4#5#6{\oldnewlabel{#1}{{#2}{#3}}}
\AtEndDocument{\let \contentsline\oldcontentsline
\let \newlabel\oldnewlabel}
\else
\global \let \hyper@last\relax 
\fi

\select@language{catalan}
\@writefile{toc}{\select@language{catalan}}
\@writefile{lof}{\select@language{catalan}}
\@writefile{lot}{\select@language{catalan}}
\@writefile{toc}{\contentsline {section}{\numberline {1}Ens preocupa que}{2}{section.1}}
\newlabel{prob}{{1}{2}{Ens preocupa que\relax }{section.1}{}}
\@writefile{toc}{\contentsline {section}{\numberline {2}Per aquestes raons recomanem el seg\@umlaut {u}ent:}{2}{section.2}}
\newlabel{solv}{{2}{2}{Per aquestes raons recomanem el seg\"{u}ent:\relax }{section.2}{}}
