\contentsline {section}{\numberline {1}Inhalt}{1}{section.1}
\contentsline {section}{\numberline {2}Briefe aus anderen Quellen}{4}{section.2}
\contentsline {section}{\numberline {3}Fragen, Aufgaben, Wie Sie helfen k\"{o}nnen}{4}{section.3}
