\contentsline {section}{\numberline {1}Contents}{1}{section.1}
\contentsline {section}{\numberline {2}Letters from other sources}{4}{section.2}
\contentsline {section}{\numberline {3}Questions, Things To Do, How you can Help}{4}{section.3}
