\select@language {french}
\select@language {french}
\contentsline {section}{\numberline {1}Contenu}{1}{section.0.1}
\contentsline {section}{\numberline {2}Autre Lettres}{3}{section.0.2}
\contentsline {section}{\numberline {3}Questions, Choses a faires, Comment vous pouvez aider}{3}{section.0.3}
