\contentsline {section}{\numberline {1}Bad chances in defensive patenting}{2}{section.1}
\contentsline {section}{\numberline {2}Good chances in prior art warfare}{2}{section.2}
\contentsline {section}{\numberline {3}``Defensive Publishing'' No Thank You!}{3}{section.3}
\contentsline {section}{\numberline {4}Timestamping proprietary development also helps}{5}{section.4}
\contentsline {section}{\numberline {5}What needs to be done}{5}{section.5}
\contentsline {section}{\numberline {6}Further Reading}{6}{section.6}
