\relax 
\ifx\hyper@anchor\@undefined
\global \let \oldcontentsline\contentsline
\gdef \contentsline#1#2#3#4{\oldcontentsline{#1}{#2}{#3}}
\global \let \oldnewlabel\newlabel
\gdef \newlabel#1#2{\newlabelxx{#1}#2}
\gdef \newlabelxx#1#2#3#4#5#6{\oldnewlabel{#1}{{#2}{#3}}}
\AtEndDocument{\let \contentsline\oldcontentsline
\let \newlabel\oldnewlabel}
\else
\global \let \hyper@last\relax 
\fi

\@writefile{toc}{\contentsline {section}{\numberline {1}Bad chances in defensive patenting}{2}{section.1}}
\newlabel{def}{{1}{2}{Bad chances in defensive patenting\relax }{section.1}{}}
\@writefile{toc}{\contentsline {section}{\numberline {2}Good chances in prior art warfare}{2}{section.2}}
\newlabel{prio}{{2}{2}{Good chances in prior art warfare\relax }{section.2}{}}
\@writefile{toc}{\contentsline {section}{\numberline {3}``Defensive Publishing'' No Thank You!}{3}{section.3}}
\newlabel{pror}{{3}{3}{``Defensive Publishing'' No Thank You!\relax }{section.3}{}}
\@writefile{toc}{\contentsline {section}{\numberline {4}Timestamping proprietary development also helps}{5}{section.4}}
\newlabel{prius}{{4}{5}{Timestamping proprietary development also helps\relax }{section.4}{}}
\@writefile{toc}{\contentsline {section}{\numberline {5}What needs to be done}{5}{section.5}}
\newlabel{kionfar}{{5}{5}{What needs to be done\relax }{section.5}{}}
\@writefile{toc}{\contentsline {section}{\numberline {6}Further Reading}{6}{section.6}}
\newlabel{etc}{{6}{6}{Further Reading\relax }{section.6}{}}
\gdef\scr@tpo@lst{0}
