\relax 
\ifx\hyper@anchor\@undefined
\global \let \oldcontentsline\contentsline
\gdef \contentsline#1#2#3#4{\oldcontentsline{#1}{#2}{#3}}
\global \let \oldnewlabel\newlabel
\gdef \newlabel#1#2{\newlabelxx{#1}#2}
\gdef \newlabelxx#1#2#3#4#5#6{\oldnewlabel{#1}{{#2}{#3}}}
\AtEndDocument{\let \contentsline\oldcontentsline
\let \newlabel\oldnewlabel}
\else
\global \let \hyper@last\relax 
\fi

\@writefile{toc}{\contentsline {section}{\numberline {1}Schlechte Karten beim Defensiven Patentieren}{2}{section.1}}
\newlabel{def}{{1}{2}{Schlechte Karten beim Defensiven Patentieren\relax }{section.1}{}}
\@writefile{toc}{\contentsline {section}{\numberline {2}Gute Karten beim Nutzen vorbekannter Technik}{3}{section.2}}
\newlabel{prio}{{2}{3}{Gute Karten beim Nutzen vorbekannter Technik\relax }{section.2}{}}
\@writefile{toc}{\contentsline {section}{\numberline {3}``Defensives Ver\"{o}ffentlichen'' Nein Danke!}{3}{section.3}}
\newlabel{pror}{{3}{3}{``Defensives Ver\"{o}ffentlichen'' Nein Danke!\relax }{section.3}{}}
\@writefile{toc}{\contentsline {section}{\numberline {4}Zeitstempelung propriet\"{a}rer Entwicklung hilft auch}{6}{section.4}}
\newlabel{prius}{{4}{6}{Zeitstempelung propriet\"{a}rer Entwicklung hilft auch\relax }{section.4}{}}
\@writefile{toc}{\contentsline {section}{\numberline {5}Was zu tun ist}{6}{section.5}}
\newlabel{kionfar}{{5}{6}{Was zu tun ist\relax }{section.5}{}}
\@writefile{toc}{\contentsline {section}{\numberline {6}Weitere Lekt\"{u}re}{7}{section.6}}
\newlabel{etc}{{6}{7}{Weitere Lekt\"{u}re\relax }{section.6}{}}
\gdef\scr@tpo@lst{0}
