\contentsline {section}{\numberline {1}Schlechte Karten beim Defensiven Patentieren}{2}{section.1}
\contentsline {section}{\numberline {2}Gute Karten beim Nutzen vorbekannter Technik}{3}{section.2}
\contentsline {section}{\numberline {3}``Defensives Ver\"{o}ffentlichen'' Nein Danke!}{3}{section.3}
\contentsline {section}{\numberline {4}Zeitstempelung propriet\"{a}rer Entwicklung hilft auch}{6}{section.4}
\contentsline {section}{\numberline {5}Was zu tun ist}{6}{section.5}
\contentsline {section}{\numberline {6}Weitere Lekt\"{u}re}{7}{section.6}
