\relax 
\catcode`.\active
\catcode`\.=12
\catcode`"\active
\catcode`<\active
\catcode`>\active
\es@quoting
\ifx\hyper@anchor\@undefined
\global \let \oldcontentsline\contentsline
\gdef \contentsline#1#2#3#4{\oldcontentsline{#1}{#2}{#3}}
\global \let \oldnewlabel\newlabel
\gdef \newlabel#1#2{\newlabelxx{#1}#2}
\gdef \newlabelxx#1#2#3#4#5#6{\oldnewlabel{#1}{{#2}{#3}}}
\AtEndDocument{\let \contentsline\oldcontentsline
\let \newlabel\oldnewlabel}
\else
\global \let \hyper@last\relax 
\fi

\select@language{spanish}
\@writefile{toc}{\select@language{spanish}}
\@writefile{lof}{\select@language{spanish}}
\@writefile{lot}{\select@language{spanish}}
\@writefile{toc}{\contentsline {chapter}{\numberline {1}The Text}{4}{chapter.1}}
\@writefile{lof}{\addvspace {10\p@ }}
\@writefile{lot}{\addvspace {10\p@ }}
\newlabel{text}{{1}{4}{The Text\relax }{chapter.1}{}}
\newlabel{ftn1}{{1}{6}{The Text\relax }{chapter.1}{}}
\newlabel{ftn2}{{1}{6}{The Text\relax }{chapter.1}{}}
\newlabel{ftn3}{{1}{6}{The Text\relax }{Hfootnote.2}{}}
\newlabel{ftn4}{{1}{6}{The Text\relax }{Hfootnote.2}{}}
\newlabel{ftn5}{{1}{6}{The Text\relax }{Hfootnote.2}{}}
\newlabel{ftn6}{{1}{6}{The Text\relax }{Hfootnote.2}{}}
\newlabel{ftn7}{{1}{6}{The Text\relax }{Hfootnote.2}{}}
\newlabel{ftn8}{{3}{6}{The Text\relax }{Hfootnote.4}{}}
\@writefile{toc}{\contentsline {chapter}{\numberline {2}Annotated Links}{7}{chapter.2}}
\@writefile{lof}{\addvspace {10\p@ }}
\@writefile{lot}{\addvspace {10\p@ }}
\newlabel{links}{{2}{7}{Annotated Links\relax }{chapter.2}{}}
