\relax 
\catcode`"\active
\ifx\hyper@anchor\@undefined
\global \let \oldcontentsline\contentsline
\gdef \contentsline#1#2#3#4{\oldcontentsline{#1}{#2}{#3}}
\global \let \oldnewlabel\newlabel
\gdef \newlabel#1#2{\newlabelxx{#1}#2}
\gdef \newlabelxx#1#2#3#4#5#6{\oldnewlabel{#1}{{#2}{#3}}}
\AtEndDocument{\let \contentsline\oldcontentsline
\let \newlabel\oldnewlabel}
\else
\global \let \hyper@last\relax 
\fi

\select@language{catalan}
\@writefile{toc}{\select@language{catalan}}
\@writefile{lof}{\select@language{catalan}}
\@writefile{lot}{\select@language{catalan}}
\@writefile{toc}{\contentsline {chapter}{\numberline {1}El text}{4}{chapter.1}}
\@writefile{lof}{\addvspace {10\p@ }}
\@writefile{lot}{\addvspace {10\p@ }}
\newlabel{text}{{1}{4}{El text\relax }{chapter.1}{}}
\newlabel{ftn1}{{1}{6}{El text\relax }{chapter.1}{}}
\newlabel{ftn2}{{1}{6}{El text\relax }{chapter.1}{}}
\newlabel{ftn3}{{1}{6}{El text\relax }{Hfootnote.2}{}}
\newlabel{ftn4}{{1}{6}{El text\relax }{Hfootnote.2}{}}
\newlabel{ftn5}{{1}{6}{El text\relax }{Hfootnote.2}{}}
\newlabel{ftn6}{{1}{6}{El text\relax }{Hfootnote.2}{}}
\newlabel{ftn7}{{1}{6}{El text\relax }{Hfootnote.2}{}}
\newlabel{ftn8}{{3}{6}{El text\relax }{Hfootnote.4}{}}
\@writefile{toc}{\contentsline {chapter}{\numberline {2}Enlla\c {c}os anotats}{7}{chapter.2}}
\@writefile{lof}{\addvspace {10\p@ }}
\@writefile{lot}{\addvspace {10\p@ }}
\newlabel{links}{{2}{7}{Enlla\c {c}os anotats\relax }{chapter.2}{}}
