\relax 
\catcode`:\active
\catcode`;\active
\catcode`!\active
\catcode`?\active
\ifx\hyper@anchor\@undefined
\global \let \oldcontentsline\contentsline
\gdef \contentsline#1#2#3#4{\oldcontentsline{#1}{#2}{#3}}
\global \let \oldnewlabel\newlabel
\gdef \newlabel#1#2{\newlabelxx{#1}#2}
\gdef \newlabelxx#1#2#3#4#5#6{\oldnewlabel{#1}{{#2}{#3}}}
\AtEndDocument{\let \contentsline\oldcontentsline
\let \newlabel\oldnewlabel}
\else
\global \let \hyper@last\relax 
\fi

\select@language{french}
\@writefile{toc}{\select@language{french}}
\@writefile{lof}{\select@language{french}}
\@writefile{lot}{\select@language{french}}
\@writefile{toc}{\contentsline {chapter}{\numberline {1}Le texte}{4}{chapter.1}}
\@writefile{lof}{\addvspace {10\p@ }}
\@writefile{lot}{\addvspace {10\p@ }}
\newlabel{text}{{1}{4}{Le texte\relax }{chapter.1}{}}
\newlabel{ftn1}{{1}{6}{Le texte\relax }{chapter.1}{}}
\newlabel{ftn2}{{1}{6}{Le texte\relax }{chapter.1}{}}
\newlabel{ftn3}{{1}{6}{Le texte\relax }{Hfootnote.1}{}}
\newlabel{ftn4}{{1}{6}{Le texte\relax }{Hfootnote.1}{}}
\newlabel{ftn5}{{1}{6}{Le texte\relax }{Hfootnote.1}{}}
\newlabel{ftn6}{{1}{6}{Le texte\relax }{Hfootnote.1}{}}
\newlabel{ftn7}{{1}{6}{Le texte\relax }{Hfootnote.1}{}}
\newlabel{ftn8}{{1}{6}{Le texte\relax }{Hfootnote.3}{}}
\@writefile{toc}{\contentsline {chapter}{\numberline {2}Liens annot\'{e}s}{7}{chapter.2}}
\@writefile{lof}{\addvspace {10\p@ }}
\@writefile{lot}{\addvspace {10\p@ }}
\newlabel{links}{{2}{7}{Liens annot\'{e}s\relax }{chapter.2}{}}
\gdef\scr@tpo@lst{0}
