\relax 
\catcode`:\active
\catcode`;\active
\catcode`!\active
\catcode`?\active
\ifx\hyper@anchor\@undefined
\global \let \oldcontentsline\contentsline
\gdef \contentsline#1#2#3#4{\oldcontentsline{#1}{#2}{#3}}
\global \let \oldnewlabel\newlabel
\gdef \newlabel#1#2{\newlabelxx{#1}#2}
\gdef \newlabelxx#1#2#3#4#5#6{\oldnewlabel{#1}{{#2}{#3}}}
\AtEndDocument{\let \contentsline\oldcontentsline
\let \newlabel\oldnewlabel}
\else
\global \let \hyper@last\relax 
\fi

\select@language{french}
\@writefile{toc}{\select@language{french}}
\@writefile{lof}{\select@language{french}}
\@writefile{lot}{\select@language{french}}
\@writefile{toc}{\contentsline {section}{\numberline {1}Quelques exemples de brevets}{2}{section.1}}
\newlabel{comp}{{1}{2}{Quelques exemples de brevets\relax }{section.1}{}}
\@writefile{toc}{\contentsline {section}{\numberline {2}Revendications Exemplaires}{4}{section.2}}
\newlabel{clms}{{2}{4}{Revendications Exemplaires\relax }{section.2}{}}
\@writefile{toc}{\contentsline {section}{\numberline {3}Questions auxquelles chaque brevet doit r\'{e}pondre}{5}{section.3}}
\newlabel{kver}{{3}{5}{Questions auxquelles chaque brevet doit r\'{e}pondre\relax }{section.3}{}}
\@writefile{toc}{\contentsline {subsection}{\numberline {3.1}Clart\'{e}}{5}{subsection.3.1}}
\newlabel{klar}{{3.1}{5}{Clart\'{e}\relax }{subsection.3.1}{}}
\@writefile{toc}{\contentsline {subsection}{\numberline {3.2}D\'{e}sirabilit\'{e} du Resultat}{5}{subsection.3.2}}
\newlabel{ekvec}{{3.2}{5}{D\'{e}sirabilit\'{e} du Resultat\relax }{subsection.3.2}{}}
\@writefile{toc}{\contentsline {section}{\numberline {4}Tableau comparatif}{5}{section.4}}
\newlabel{tab}{{4}{5}{Tableau comparatif\relax }{section.4}{}}
\@writefile{toc}{\contentsline {section}{\numberline {5}Candidats \`{a} essayer: Propositions de loi de CEC/BSA, FFII/Eurolinux et d'autres}{6}{section.5}}
\newlabel{test}{{5}{6}{Candidats \`{a} essayer: Propositions de loi de CEC/BSA, FFII/Eurolinux et d'autres\relax }{section.5}{}}
\@writefile{toc}{\contentsline {section}{\numberline {6}Liens annot\'{e}s}{9}{section.6}}
\newlabel{links}{{6}{9}{Liens annot\'{e}s\relax }{section.6}{}}
\gdef\scr@tpo@lst{0}
