\contentsline {section}{\numberline {1}Einige Beispielpatente}{2}{section.1}
\contentsline {section}{\numberline {2}Beispiel-Anspr\"{u}che}{4}{section.2}
\contentsline {section}{\numberline {3}Fragen, die f\"{u}r jedes Patent zu beantworten sind}{5}{section.3}
\contentsline {subsection}{\numberline {3.1}Klarheit}{5}{subsection.3.1}
\contentsline {subsection}{\numberline {3.2}Angemessenheit}{5}{subsection.3.2}
\contentsline {section}{\numberline {4}Vergleichstabelle}{5}{section.4}
\contentsline {section}{\numberline {5}Zu pr\"{u}fende Kandidaten: Gesetzesvorschl\"{a}ge von EUK/BSA, FFII/Eurolinux u.a.}{6}{section.5}
\contentsline {section}{\numberline {6}Kommentierte Verweise}{8}{section.6}
