\contentsline {section}{\numberline {1}Some sample patents}{2}{section.1}
\contentsline {section}{\numberline {2}Sample Claims}{4}{section.2}
\contentsline {section}{\numberline {3}Questions to be answered for each}{5}{section.3}
\contentsline {subsection}{\numberline {3.1}Clarity}{5}{subsection.3.1}
\contentsline {subsection}{\numberline {3.2}Adequacy}{5}{subsection.3.2}
\contentsline {section}{\numberline {4}Comparison Table}{5}{section.4}
\contentsline {section}{\numberline {5}Legislation candidates to be tested}{6}{section.5}
\contentsline {section}{\numberline {6}Annotated Links}{8}{section.6}
