\BOOKMARK [1][-]{section.1}{Some sample patents}{}
\BOOKMARK [1][-]{section.2}{Sample Claims}{}
\BOOKMARK [1][-]{section.3}{Questions to be answered for each}{}
\BOOKMARK [2][-]{subsection.3.1}{Clarity}{section.3}
\BOOKMARK [2][-]{subsection.3.2}{Adequacy}{section.3}
\BOOKMARK [1][-]{section.4}{Comparison Table}{}
\BOOKMARK [1][-]{section.5}{Legislation candidates to be tested}{}
\BOOKMARK [1][-]{section.6}{Annotated Links}{}
