\relax 
\ifx\hyper@anchor\@undefined
\global \let \oldcontentsline\contentsline
\gdef \contentsline#1#2#3#4{\oldcontentsline{#1}{#2}{#3}}
\global \let \oldnewlabel\newlabel
\gdef \newlabel#1#2{\newlabelxx{#1}#2}
\gdef \newlabelxx#1#2#3#4#5#6{\oldnewlabel{#1}{{#2}{#3}}}
\AtEndDocument{\let \contentsline\oldcontentsline
\let \newlabel\oldnewlabel}
\else
\global \let \hyper@last\relax 
\fi

\@writefile{toc}{\contentsline {section}{\numberline {1}Einige Beispielpatente}{2}{section.1}}
\newlabel{comp}{{1}{2}{Einige Beispielpatente\relax }{section.1}{}}
\@writefile{toc}{\contentsline {section}{\numberline {2}Beispiel-Anspr\"{u}che}{4}{section.2}}
\newlabel{clms}{{2}{4}{Beispiel-Anspr\"{u}che\relax }{section.2}{}}
\@writefile{toc}{\contentsline {section}{\numberline {3}Fragen, die f\"{u}r jedes Patent zu beantworten sind}{5}{section.3}}
\newlabel{kver}{{3}{5}{Fragen, die f\"{u}r jedes Patent zu beantworten sind\relax }{section.3}{}}
\@writefile{toc}{\contentsline {subsection}{\numberline {3.1}Klarheit}{5}{subsection.3.1}}
\newlabel{klar}{{3.1}{5}{Klarheit\relax }{subsection.3.1}{}}
\@writefile{toc}{\contentsline {subsection}{\numberline {3.2}Angemessenheit}{5}{subsection.3.2}}
\newlabel{ekvec}{{3.2}{5}{Angemessenheit\relax }{subsection.3.2}{}}
\@writefile{toc}{\contentsline {section}{\numberline {4}Vergleichstabelle}{5}{section.4}}
\newlabel{tab}{{4}{5}{Vergleichstabelle\relax }{section.4}{}}
\@writefile{toc}{\contentsline {section}{\numberline {5}Zu pr\"{u}fende Kandidaten: Gesetzesvorschl\"{a}ge von EUK/BSA, FFII/Eurolinux u.a.}{6}{section.5}}
\newlabel{test}{{5}{6}{Zu pr\"{u}fende Kandidaten: Gesetzesvorschl\"{a}ge von EUK/BSA, FFII/Eurolinux u.a}{section.5}{}}
\@writefile{toc}{\contentsline {section}{\numberline {6}Kommentierte Verweise}{8}{section.6}}
\newlabel{links}{{6}{8}{Kommentierte Verweise\relax }{section.6}{}}
\gdef\scr@tpo@lst{0}
