\relax 
\catcode`"\active
\ifx\hyper@anchor\@undefined
\global \let \oldcontentsline\contentsline
\gdef \contentsline#1#2#3#4{\oldcontentsline{#1}{#2}{#3}}
\global \let \oldnewlabel\newlabel
\gdef \newlabel#1#2{\newlabelxx{#1}#2}
\gdef \newlabelxx#1#2#3#4#5#6{\oldnewlabel{#1}{{#2}{#3}}}
\AtEndDocument{\let \contentsline\oldcontentsline
\let \newlabel\oldnewlabel}
\else
\global \let \hyper@last\relax 
\fi

\select@language{catalan}
\@writefile{toc}{\select@language{catalan}}
\@writefile{lof}{\select@language{catalan}}
\@writefile{lot}{\select@language{catalan}}
\@writefile{toc}{\contentsline {section}{\numberline {1}Algunes mostres de patents}{2}{section.1}}
\newlabel{comp}{{1}{2}{Algunes mostres de patents\relax }{section.1}{}}
\@writefile{toc}{\contentsline {section}{\numberline {2}Sample Claims}{4}{section.2}}
\newlabel{clms}{{2}{4}{Sample Claims\relax }{section.2}{}}
\@writefile{toc}{\contentsline {section}{\numberline {3}Preguntes per respondre per cada}{5}{section.3}}
\newlabel{kver}{{3}{5}{Preguntes per respondre per cada\relax }{section.3}{}}
\@writefile{toc}{\contentsline {subsection}{\numberline {3.1}Clarity}{5}{subsection.3.1}}
\newlabel{klar}{{3.1}{5}{Clarity\relax }{subsection.3.1}{}}
\@writefile{toc}{\contentsline {subsection}{\numberline {3.2}Adequacy}{5}{subsection.3.2}}
\newlabel{ekvec}{{3.2}{5}{Adequacy\relax }{subsection.3.2}{}}
\@writefile{toc}{\contentsline {section}{\numberline {4}Comparison Table}{5}{section.4}}
\newlabel{tab}{{4}{5}{Comparison Table\relax }{section.4}{}}
\@writefile{toc}{\contentsline {section}{\numberline {5}Legislacions candidates a ser assajades}{6}{section.5}}
\newlabel{test}{{5}{6}{Legislacions candidates a ser assajades\relax }{section.5}{}}
\@writefile{toc}{\contentsline {section}{\numberline {6}Enlla\c {c}os anotats}{8}{section.6}}
\newlabel{links}{{6}{8}{Enlla\c {c}os anotats\relax }{section.6}{}}
\gdef\scr@tpo@lst{0}
