\select@language {french}
\contentsline {section}{\numberline {1}Quelques exemples de brevets}{2}{section.1}
\contentsline {section}{\numberline {2}Revendications Exemplaires}{4}{section.2}
\contentsline {section}{\numberline {3}Questions auxquelles chaque brevet doit r\'{e}pondre}{5}{section.3}
\contentsline {subsection}{\numberline {3.1}Clart\'{e}}{5}{subsection.3.1}
\contentsline {subsection}{\numberline {3.2}D\'{e}sirabilit\'{e} du Resultat}{5}{subsection.3.2}
\contentsline {section}{\numberline {4}Tableau comparatif}{5}{section.4}
\contentsline {section}{\numberline {5}Candidats \`{a} essayer: Propositions de loi de CEC/BSA, FFII/Eurolinux et d'autres}{6}{section.5}
\contentsline {section}{\numberline {6}Liens annot\'{e}s}{9}{section.6}
