\contentsline {section}{\numberline {1}Warum Freie Software die Welt bewegt}{1}{section.1}
\contentsline {section}{\numberline {2}Wo die Infosph\"{a}re politische Hilfe braucht}{3}{section.2}
\contentsline {subsection}{\numberline {2.1}Offizielle Anerkennung des Wertes freier Information}{3}{subsection.2.1}
\contentsline {subsection}{\numberline {2.2}Offenheitszertifizierung}{3}{subsection.2.2}
\contentsline {subsection}{\numberline {2.3}Keine Patentierbarkeit von Information oder Leben}{4}{subsection.2.3}
