\relax 
\catcode`"\active
\ifx\hyper@anchor\@undefined
\global \let \oldcontentsline\contentsline
\gdef \contentsline#1#2#3#4{\oldcontentsline{#1}{#2}{#3}}
\global \let \oldnewlabel\newlabel
\gdef \newlabel#1#2{\newlabelxx{#1}#2}
\gdef \newlabelxx#1#2#3#4#5#6{\oldnewlabel{#1}{{#2}{#3}}}
\AtEndDocument{\let \contentsline\oldcontentsline
\let \newlabel\oldnewlabel}
\else
\global \let \hyper@last\relax 
\fi

\select@language{catalan}
\@writefile{toc}{\select@language{catalan}}
\@writefile{lof}{\select@language{catalan}}
\@writefile{lot}{\select@language{catalan}}
\@writefile{toc}{\contentsline {chapter}{\numberline {1}Die Anfrage}{4}{chapter.1}}
\@writefile{lof}{\addvspace {10\p@ }}
\@writefile{lot}{\addvspace {10\p@ }}
\newlabel{anfr}{{1}{4}{Die Anfrage\relax }{chapter.1}{}}
\@writefile{toc}{\contentsline {chapter}{\numberline {2}Die Antwort aus dem BMJ}{8}{chapter.2}}
\@writefile{lof}{\addvspace {10\p@ }}
\@writefile{lot}{\addvspace {10\p@ }}
\newlabel{antw}{{2}{8}{Die Antwort aus dem BMJ\relax }{chapter.2}{}}
\@writefile{toc}{\contentsline {section}{\numberline {2.1}1. Frage}{8}{section.2.1}}
\newlabel{frage1}{{2.1}{8}{1. Frage\relax }{section.2.1}{}}
\@writefile{toc}{\contentsline {section}{\numberline {2.2}2. Frage}{8}{section.2.2}}
\newlabel{frage2}{{2.2}{8}{2. Frage\relax }{section.2.2}{}}
\@writefile{toc}{\contentsline {section}{\numberline {2.3}3. Frage}{9}{section.2.3}}
\newlabel{frage3}{{2.3}{9}{3. Frage\relax }{section.2.3}{}}
\@writefile{toc}{\contentsline {section}{\numberline {2.4}4. Frage}{9}{section.2.4}}
\newlabel{frage4}{{2.4}{9}{4. Frage\relax }{section.2.4}{}}
\@writefile{toc}{\contentsline {chapter}{\numberline {3}Enlla\c {c}os anotats}{10}{chapter.3}}
\@writefile{lof}{\addvspace {10\p@ }}
\@writefile{lot}{\addvspace {10\p@ }}
\newlabel{links}{{3}{10}{Enlla\c {c}os anotats\relax }{chapter.3}{}}
