\BOOKMARK [0][-]{chapter.1}{Die Anfrage}{}
\BOOKMARK [0][-]{chapter.2}{Die Antwort aus dem BMJ}{}
\BOOKMARK [1][-]{section.2.1}{1. Frage}{chapter.2}
\BOOKMARK [1][-]{section.2.2}{2. Frage}{chapter.2}
\BOOKMARK [1][-]{section.2.3}{3. Frage}{chapter.2}
\BOOKMARK [1][-]{section.2.4}{4. Frage}{chapter.2}
\BOOKMARK [0][-]{chapter.3}{Enlla\347os anotats}{}
