\relax 
\ifx\hyper@anchor\@undefined
\global \let \oldcontentsline\contentsline
\gdef \contentsline#1#2#3#4{\oldcontentsline{#1}{#2}{#3}}
\global \let \oldnewlabel\newlabel
\gdef \newlabel#1#2{\newlabelxx{#1}#2}
\gdef \newlabelxx#1#2#3#4#5#6{\oldnewlabel{#1}{{#2}{#3}}}
\AtEndDocument{\let \contentsline\oldcontentsline
\let \newlabel\oldnewlabel}
\else
\global \let \hyper@last\relax 
\fi

\csname auxWARNINGii\endcsname {\typeout {-34- this file and other auxiliary files require to use the following}}
\csname auxWARNINGii\endcsname {\typeout {-34- LaTeX packages: french and babel!}}
\csname auxWARNINGii\endcsname {\typeout {-34- check \protect \usepackage \space or remove these files. Typesetting is aborted!} \stop }
\select@language{french}
\@writefile{toc}{\select@language{french}}
\@writefile{lof}{\select@language{french}}
\@writefile{lot}{\select@language{french}}
\select@language{french}
\@writefile{toc}{\select@language{french}}
\@writefile{lof}{\select@language{french}}
\@writefile{lot}{\select@language{french}}
\@writefile{toc}{\contentsline {chapter}{\numberline {1}Die Anfrage}{4}{chapter.1}}
\@writefile{lof}{\addvspace {10\p@ }}
\@writefile{lot}{\addvspace {10\p@ }}
\newlabel{anfr}{{1}{4}{Die Anfrage\relax }{chapter.1}{}}
\@writefile{toc}{\contentsline {chapter}{\numberline {2}Die Antwort aus dem BMJ}{7}{chapter.2}}
\@writefile{lof}{\addvspace {10\p@ }}
\@writefile{lot}{\addvspace {10\p@ }}
\newlabel{antw}{{2}{7}{Die Antwort aus dem BMJ\relax }{chapter.2}{}}
\@writefile{toc}{\contentsline {section}{\numberline {2.1}1. Frage}{7}{section.2.1}}
\newlabel{frage1}{{2.1}{7}{1. Frage\relax }{section.2.1}{}}
\@writefile{toc}{\contentsline {section}{\numberline {2.2}2. Frage}{7}{section.2.2}}
\newlabel{frage2}{{2.2}{7}{2. Frage\relax }{section.2.2}{}}
\@writefile{toc}{\contentsline {section}{\numberline {2.3}3. Frage}{8}{section.2.3}}
\newlabel{frage3}{{2.3}{8}{3. Frage\relax }{section.2.3}{}}
\@writefile{toc}{\contentsline {section}{\numberline {2.4}4. Frage}{8}{section.2.4}}
\newlabel{frage4}{{2.4}{8}{4. Frage\relax }{section.2.4}{}}
\@writefile{toc}{\contentsline {chapter}{\numberline {3}Liens Annot\'{e}s}{9}{chapter.3}}
\@writefile{lof}{\addvspace {10\p@ }}
\@writefile{lot}{\addvspace {10\p@ }}
\newlabel{links}{{3}{9}{Liens Annot\'{e}s\relax }{chapter.3}{}}
