\contentsline {chapter}{\numberline {1}Die Anfrage}{4}{chapter.1}
\contentsline {chapter}{\numberline {2}Die Antwort aus dem BMJ}{8}{chapter.2}
\contentsline {section}{\numberline {2.1}1. Frage}{8}{section.2.1}
\contentsline {section}{\numberline {2.2}. }{8}{section.2.2}
\contentsline {section}{\numberline {2.3}. }{9}{section.2.3}
\contentsline {section}{\numberline {2.4}. }{9}{section.2.4}
\contentsline {chapter}{\numberline {3}Kommentierte Verweise}{10}{chapter.3}
