\contentsline {section}{\numberline {1}Hintergr\"{u}nde}{2}{section.1}
\contentsline {section}{\numberline {2}Annotated Links}{4}{section.2}
\contentsline {section}{\numberline {3}Medienkontakte}{6}{section.3}
\contentsline {section}{\numberline {4}\"{U}ber den FFII -- www.ffii.org}{6}{section.4}
\contentsline {section}{\numberline {5}Permanente Netzadresse dieser Presseerkl\"{a}rung}{6}{section.5}
