\contentsline {section}{\numberline {1}Backgrounds}{2}{section.1}
\contentsline {section}{\numberline {2}Annotated Links}{3}{section.2}
\contentsline {section}{\numberline {3}Media contacts}{6}{section.3}
\contentsline {section}{\numberline {4}About the FFII -- www.ffii.org}{6}{section.4}
\contentsline {section}{\numberline {5}Permanent URL of this Press Release}{6}{section.5}
