\relax 
\ifx\hyper@anchor\@undefined
\global \let \oldcontentsline\contentsline
\gdef \contentsline#1#2#3#4{\oldcontentsline{#1}{#2}{#3}}
\global \let \oldnewlabel\newlabel
\gdef \newlabel#1#2{\newlabelxx{#1}#2}
\gdef \newlabelxx#1#2#3#4#5#6{\oldnewlabel{#1}{{#2}{#3}}}
\AtEndDocument{\let \contentsline\oldcontentsline
\let \newlabel\oldnewlabel}
\else
\global \let \hyper@last\relax 
\fi

\@writefile{toc}{\contentsline {section}{\numberline {1}Backgrounds}{2}{section.1}}
\newlabel{bakgr}{{1}{2}{Backgrounds\relax }{section.1}{}}
\@writefile{toc}{\contentsline {section}{\numberline {2}Annotated Links}{3}{section.2}}
\newlabel{links}{{2}{3}{Annotated Links\relax }{section.2}{}}
\@writefile{toc}{\contentsline {section}{\numberline {3}Media contacts}{6}{section.3}}
\newlabel{media}{{3}{6}{Media contacts\relax }{section.3}{}}
\@writefile{toc}{\contentsline {section}{\numberline {4}About the FFII -- www.ffii.org}{6}{section.4}}
\newlabel{ffii}{{4}{6}{About the FFII -- www.ffii.org\relax }{section.4}{}}
\@writefile{toc}{\contentsline {section}{\numberline {5}Permanent URL of this Press Release}{6}{section.5}}
\newlabel{url}{{5}{6}{Permanent URL of this Press Release\relax }{section.5}{}}
\gdef\scr@tpo@lst{0}
