\BOOKMARK [1][-]{section.1}{Backgrounds}{}
\BOOKMARK [1][-]{section.2}{Annotated Links}{}
\BOOKMARK [1][-]{section.3}{Media contacts}{}
\BOOKMARK [1][-]{section.4}{About the FFII -- www.ffii.org}{}
\BOOKMARK [1][-]{section.5}{Permanent URL of this Press Release}{}
