\relax 
\ifx\hyper@anchor\@undefined
\global \let \oldcontentsline\contentsline
\gdef \contentsline#1#2#3#4{\oldcontentsline{#1}{#2}{#3}}
\global \let \oldnewlabel\newlabel
\gdef \newlabel#1#2{\newlabelxx{#1}#2}
\gdef \newlabelxx#1#2#3#4#5#6{\oldnewlabel{#1}{{#2}{#3}}}
\AtEndDocument{\let \contentsline\oldcontentsline
\let \newlabel\oldnewlabel}
\else
\global \let \hyper@last\relax 
\fi

\@writefile{toc}{\contentsline {section}{\numberline {1}Hintergr\"{u}nde}{2}{section.1}}
\newlabel{bakgr}{{1}{2}{Hintergr\"{u}nde\relax }{section.1}{}}
\@writefile{toc}{\contentsline {section}{\numberline {2}Annotated Links}{4}{section.2}}
\newlabel{links}{{2}{4}{Annotated Links\relax }{section.2}{}}
\@writefile{toc}{\contentsline {section}{\numberline {3}Medienkontakte}{6}{section.3}}
\newlabel{media}{{3}{6}{Medienkontakte\relax }{section.3}{}}
\@writefile{toc}{\contentsline {section}{\numberline {4}\"{U}ber den FFII -- www.ffii.org}{6}{section.4}}
\newlabel{ffii}{{4}{6}{\"{U}ber den FFII -- www.ffii.org\relax }{section.4}{}}
\@writefile{toc}{\contentsline {section}{\numberline {5}Permanente Netzadresse dieser Presseerkl\"{a}rung}{6}{section.5}}
\newlabel{url}{{5}{6}{Permanente Netzadresse dieser Presseerkl\"{a}rung\relax }{section.5}{}}
\gdef\scr@tpo@lst{0}
