\relax 
\ifx\hyper@anchor\@undefined
\global \let \oldcontentsline\contentsline
\gdef \contentsline#1#2#3#4{\oldcontentsline{#1}{#2}{#3}}
\global \let \oldnewlabel\newlabel
\gdef \newlabel#1#2{\newlabelxx{#1}#2}
\gdef \newlabelxx#1#2#3#4#5#6{\oldnewlabel{#1}{{#2}{#3}}}
\AtEndDocument{\let \contentsline\oldcontentsline
\let \newlabel\oldnewlabel}
\else
\global \let \hyper@last\relax 
\fi

\@writefile{toc}{\contentsline {chapter}{\numberline {1}Das Entscheidungsverfahren}{4}{chapter.1}}
\@writefile{lof}{\addvspace {10\p@ }}
\@writefile{lot}{\addvspace {10\p@ }}
\newlabel{kode}{{1}{4}{Das Entscheidungsverfahren\relax }{chapter.1}{}}
\@writefile{toc}{\contentsline {chapter}{\numberline {2}Schedule}{5}{chapter.2}}
\@writefile{lof}{\addvspace {10\p@ }}
\@writefile{lot}{\addvspace {10\p@ }}
\newlabel{sched}{{2}{5}{Schedule\relax }{chapter.2}{}}
\@writefile{toc}{\contentsline {chapter}{\numberline {3}concerned europarl commissions}{6}{chapter.3}}
\@writefile{lof}{\addvspace {10\p@ }}
\@writefile{lot}{\addvspace {10\p@ }}
\newlabel{comm}{{3}{6}{concerned europarl commissions\relax }{chapter.3}{}}
\@writefile{toc}{\contentsline {chapter}{\numberline {4}Parties}{7}{chapter.4}}
\@writefile{lof}{\addvspace {10\p@ }}
\@writefile{lot}{\addvspace {10\p@ }}
\newlabel{part}{{4}{7}{Parties\relax }{chapter.4}{}}
\@writefile{toc}{\contentsline {chapter}{\numberline {5}Setting up Inquiry Commissions}{8}{chapter.5}}
\@writefile{lof}{\addvspace {10\p@ }}
\@writefile{lot}{\addvspace {10\p@ }}
\newlabel{enquet}{{5}{8}{Setting up Inquiry Commissions\relax }{chapter.5}{}}
\@writefile{toc}{\contentsline {chapter}{\numberline {6}Einfluss nationaler Parlamente}{9}{chapter.6}}
\@writefile{lof}{\addvspace {10\p@ }}
\@writefile{lot}{\addvspace {10\p@ }}
\newlabel{ceunat}{{6}{9}{Einfluss nationaler Parlamente\relax }{chapter.6}{}}
\@writefile{toc}{\contentsline {chapter}{\numberline {7}Kommentierte Verweise}{10}{chapter.7}}
\@writefile{lof}{\addvspace {10\p@ }}
\@writefile{lot}{\addvspace {10\p@ }}
\newlabel{links}{{7}{10}{Kommentierte Verweise\relax }{chapter.7}{}}
\@writefile{toc}{\contentsline {chapter}{\numberline {8}Fragen, Aufgaben, Wie Sie helfen k\"{o}nnen}{14}{chapter.8}}
\@writefile{lof}{\addvspace {10\p@ }}
\@writefile{lot}{\addvspace {10\p@ }}
\newlabel{tasks}{{8}{14}{Fragen, Aufgaben, Wie Sie helfen k\"{o}nnen\relax }{chapter.8}{}}
