\relax 
\ifx\hyper@anchor\@undefined
\global \let \oldcontentsline\contentsline
\gdef \contentsline#1#2#3#4{\oldcontentsline{#1}{#2}{#3}}
\global \let \oldnewlabel\newlabel
\gdef \newlabel#1#2{\newlabelxx{#1}#2}
\gdef \newlabelxx#1#2#3#4#5#6{\oldnewlabel{#1}{{#2}{#3}}}
\AtEndDocument{\let \contentsline\oldcontentsline
\let \newlabel\oldnewlabel}
\else
\global \let \hyper@last\relax 
\fi

\csname auxWARNINGii\endcsname {\typeout {-34- this file and other auxiliary files require to use the following}}
\csname auxWARNINGii\endcsname {\typeout {-34- LaTeX packages: french and babel!}}
\csname auxWARNINGii\endcsname {\typeout {-34- check \protect \usepackage \space or remove these files. Typesetting is aborted!} \stop }
\select@language{french}
\@writefile{toc}{\select@language{french}}
\@writefile{lof}{\select@language{french}}
\@writefile{lot}{\select@language{french}}
\select@language{french}
\@writefile{toc}{\select@language{french}}
\@writefile{lof}{\select@language{french}}
\@writefile{lot}{\select@language{french}}
\@writefile{toc}{\contentsline {chapter}{\numberline {1}The Legislation Procedure}{4}{chapter.1}}
\@writefile{lof}{\addvspace {10\p@ }}
\@writefile{lot}{\addvspace {10\p@ }}
\newlabel{kode}{{1}{4}{The Legislation Procedure\relax }{chapter.1}{}}
\@writefile{toc}{\contentsline {chapter}{\numberline {2}Schedule}{5}{chapter.2}}
\@writefile{lof}{\addvspace {10\p@ }}
\@writefile{lot}{\addvspace {10\p@ }}
\newlabel{sched}{{2}{5}{Schedule\relax }{chapter.2}{}}
\@writefile{toc}{\contentsline {chapter}{\numberline {3}concerned europarl commissions}{6}{chapter.3}}
\@writefile{lof}{\addvspace {10\p@ }}
\@writefile{lot}{\addvspace {10\p@ }}
\newlabel{comm}{{3}{6}{concerned europarl commissions\relax }{chapter.3}{}}
\@writefile{toc}{\contentsline {chapter}{\numberline {4}Parties}{7}{chapter.4}}
\@writefile{lof}{\addvspace {10\p@ }}
\@writefile{lot}{\addvspace {10\p@ }}
\newlabel{part}{{4}{7}{Parties\relax }{chapter.4}{}}
\@writefile{toc}{\contentsline {chapter}{\numberline {5}Setting up Inquiry Commissions}{8}{chapter.5}}
\@writefile{lof}{\addvspace {10\p@ }}
\@writefile{lot}{\addvspace {10\p@ }}
\newlabel{enquet}{{5}{8}{Setting up Inquiry Commissions\relax }{chapter.5}{}}
\@writefile{toc}{\contentsline {chapter}{\numberline {6}Influence de Parlaments Nationaux}{9}{chapter.6}}
\@writefile{lof}{\addvspace {10\p@ }}
\@writefile{lot}{\addvspace {10\p@ }}
\newlabel{ceunat}{{6}{9}{Influence de Parlaments Nationaux\relax }{chapter.6}{}}
\@writefile{toc}{\contentsline {chapter}{\numberline {7}Liens Annot\'{e}s}{10}{chapter.7}}
\@writefile{lof}{\addvspace {10\p@ }}
\@writefile{lot}{\addvspace {10\p@ }}
\newlabel{links}{{7}{10}{Liens Annot\'{e}s\relax }{chapter.7}{}}
\@writefile{toc}{\contentsline {chapter}{\numberline {8}Questions, Choses \`{a} faires, Comment vous pouvez aider}{14}{chapter.8}}
\@writefile{lof}{\addvspace {10\p@ }}
\@writefile{lot}{\addvspace {10\p@ }}
\newlabel{tasks}{{8}{14}{Questions, Choses \`{a} faires, Comment vous pouvez aider\relax }{chapter.8}{}}
