\contentsline {chapter}{\numberline {1}Das Entscheidungsverfahren}{4}{chapter.1}
\contentsline {chapter}{\numberline {2}Schedule}{5}{chapter.2}
\contentsline {chapter}{\numberline {3}concerned europarl commissions}{6}{chapter.3}
\contentsline {chapter}{\numberline {4}Parties}{7}{chapter.4}
\contentsline {chapter}{\numberline {5}Setting up Inquiry Commissions}{8}{chapter.5}
\contentsline {chapter}{\numberline {6}Einfluss nationaler Parlamente}{9}{chapter.6}
\contentsline {chapter}{\numberline {7}Kommentierte Verweise}{10}{chapter.7}
\contentsline {chapter}{\numberline {8}Fragen, Aufgaben, Wie Sie helfen k\"{o}nnen}{14}{chapter.8}
