\select@language {french}
\select@language {french}
\contentsline {chapter}{\numberline {1}The Legislation Procedure}{4}{chapter.1}
\contentsline {chapter}{\numberline {2}Schedule}{5}{chapter.2}
\contentsline {chapter}{\numberline {3}concerned europarl commissions}{6}{chapter.3}
\contentsline {chapter}{\numberline {4}Parties}{7}{chapter.4}
\contentsline {chapter}{\numberline {5}Setting up Inquiry Commissions}{8}{chapter.5}
\contentsline {chapter}{\numberline {6}Influence de Parlaments Nationaux}{9}{chapter.6}
\contentsline {chapter}{\numberline {7}Liens Annot\'{e}s}{10}{chapter.7}
\contentsline {chapter}{\numberline {8}Questions, Choses \`{a} faires, Comment vous pouvez aider}{14}{chapter.8}
