\BOOKMARK [0][-]{chapter.1}{Schedule}{}
\BOOKMARK [0][-]{chapter.2}{Concerned europarl commissions}{}
\BOOKMARK [0][-]{chapter.3}{Parties}{}
\BOOKMARK [0][-]{chapter.4}{Setting up Inquiry Commissions}{}
