\relax 
\ifx\hyper@anchor\@undefined
\global \let \oldcontentsline\contentsline
\gdef \contentsline#1#2#3#4{\oldcontentsline{#1}{#2}{#3}}
\global \let \oldnewlabel\newlabel
\gdef \newlabel#1#2{\newlabelxx{#1}#2}
\gdef \newlabelxx#1#2#3#4#5#6{\oldnewlabel{#1}{{#2}{#3}}}
\AtEndDocument{\let \contentsline\oldcontentsline
\let \newlabel\oldnewlabel}
\else
\global \let \hyper@last\relax 
\fi

\@writefile{toc}{\contentsline {chapter}{\numberline {1}Schedule}{4}{chapter.1}}
\@writefile{lof}{\addvspace {10\p@ }}
\@writefile{lot}{\addvspace {10\p@ }}
\newlabel{sched}{{1}{4}{Schedule\label {sched}\relax }{chapter.1}{}}
\@writefile{toc}{\contentsline {chapter}{\numberline {2}Concerned europarl commissions}{5}{chapter.2}}
\@writefile{lof}{\addvspace {10\p@ }}
\@writefile{lot}{\addvspace {10\p@ }}
\newlabel{comm}{{2}{5}{Concerned europarl commissions\label {comm}\relax }{chapter.2}{}}
\@writefile{toc}{\contentsline {chapter}{\numberline {3}Parties}{6}{chapter.3}}
\@writefile{lof}{\addvspace {10\p@ }}
\@writefile{lot}{\addvspace {10\p@ }}
\newlabel{part}{{3}{6}{Parties\label {part}\relax }{chapter.3}{}}
\@writefile{toc}{\contentsline {chapter}{\numberline {4}Setting up Inquiry Commissions}{7}{chapter.4}}
\@writefile{lof}{\addvspace {10\p@ }}
\@writefile{lot}{\addvspace {10\p@ }}
\newlabel{enquet}{{4}{7}{Setting up Inquiry Commissions\label {enquet}\relax }{chapter.4}{}}
