\relax 
\ifx\hyper@anchor\@undefined
\global \let \oldcontentsline\contentsline
\gdef \contentsline#1#2#3#4{\oldcontentsline{#1}{#2}{#3}}
\global \let \oldnewlabel\newlabel
\gdef \newlabel#1#2{\newlabelxx{#1}#2}
\gdef \newlabelxx#1#2#3#4#5#6{\oldnewlabel{#1}{{#2}{#3}}}
\AtEndDocument{\let \contentsline\oldcontentsline
\let \newlabel\oldnewlabel}
\else
\global \let \hyper@last\relax 
\fi

\newlabel{ukinno031218}{{1}{5}{UK Gov't publishes innovation policy report\label {ukinno031218}\relax }{section.1}{}}
\@writefile{toc}{\contentsline {section}{\numberline {1}UK Gov't publishes innovation policy report}{5}{section.1}}
\newlabel{ukinno031218}{{1}{5}{UK Gov't publishes innovation policy report\label {ukinno031218}\relax }{section.1}{}}
\newlabel{bswk031216}{{2}{6}{Business Week on European Parliament's vote: leftists erasing billions in intellectual property\label {bswk031216}\relax }{section.2}{}}
\@writefile{toc}{\contentsline {section}{\numberline {2}Business Week on European Parliament's vote: leftists erasing billions in intellectual property}{6}{section.2}}
\newlabel{bswk031216}{{2}{6}{Business Week on European Parliament's vote: leftists erasing billions in intellectual property\label {bswk031216}\relax }{section.2}{}}
\newlabel{optima031216}{{3}{6}{Optima suing Roxio for CD writing algorithm\label {optima031216}\relax }{section.3}{}}
\@writefile{toc}{\contentsline {section}{\numberline {3}Optima suing Roxio for CD writing algorithm}{6}{section.3}}
\newlabel{optima031216}{{3}{6}{Optima suing Roxio for CD writing algorithm\label {optima031216}\relax }{section.3}{}}
\newlabel{intel031211}{{4}{6}{Intel chairman: patent system unfit for information age\label {intel031211}\relax }{section.4}{}}
\@writefile{toc}{\contentsline {section}{\numberline {4}Intel chairman: patent system unfit for information age}{6}{section.4}}
\newlabel{intel031211}{{4}{6}{Intel chairman: patent system unfit for information age\label {intel031211}\relax }{section.4}{}}
\newlabel{mice031210}{{5}{6}{Microsoft-sponsored study: software industry needs patents\label {mice031210}\relax }{section.5}{}}
\@writefile{toc}{\contentsline {section}{\numberline {5}Microsoft-sponsored study: software industry needs patents}{6}{section.5}}
\newlabel{mice031210}{{5}{6}{Microsoft-sponsored study: software industry needs patents\label {mice031210}\relax }{section.5}{}}
\newlabel{msfat031209}{{6}{7}{Microsoft takes out patents on FAT\label {msfat031209}\relax }{section.6}{}}
\@writefile{toc}{\contentsline {section}{\numberline {6}Microsoft takes out patents on FAT}{7}{section.6}}
\newlabel{msfat031209}{{6}{7}{Microsoft takes out patents on FAT\label {msfat031209}\relax }{section.6}{}}
\newlabel{libdem031208}{{7}{7}{UK Libdem Youth demands strong position against software patents\label {libdem031208}\relax }{section.7}{}}
\@writefile{toc}{\contentsline {section}{\numberline {7}UK Libdem Youth demands strong position against software patents}{7}{section.7}}
\newlabel{libdem031208}{{7}{7}{UK Libdem Youth demands strong position against software patents\label {libdem031208}\relax }{section.7}{}}
\newlabel{cecua031207}{{8}{7}{CECUA paper in favor of unlimited patentability\label {cecua031207}\relax }{section.8}{}}
\@writefile{toc}{\contentsline {section}{\numberline {8}CECUA paper in favor of unlimited patentability}{7}{section.8}}
\newlabel{cecua031207}{{8}{7}{CECUA paper in favor of unlimited patentability\label {cecua031207}\relax }{section.8}{}}
\newlabel{cwdk031202}{{9}{8}{Danish Campaign against Europarl Amendments\label {cwdk031202}\relax }{section.9}{}}
\@writefile{toc}{\contentsline {section}{\numberline {9}Danish Campaign against Europarl Amendments}{8}{section.9}}
\newlabel{cwdk031202}{{9}{8}{Danish Campaign against Europarl Amendments\label {cwdk031202}\relax }{section.9}{}}
\newlabel{eukpt031201}{{10}{8}{New EU rules on anticompetitive patent licensing\label {eukpt031201}\relax }{section.10}{}}
\@writefile{toc}{\contentsline {section}{\numberline {10}New EU rules on anticompetitive patent licensing}{8}{section.10}}
\newlabel{eukpt031201}{{10}{8}{New EU rules on anticompetitive patent licensing\label {eukpt031201}\relax }{section.10}{}}
\newlabel{entemp031201}{{11}{8}{Irish presidency schedule\label {entemp031201}\relax }{section.11}{}}
\@writefile{toc}{\contentsline {section}{\numberline {11}Irish presidency schedule}{8}{section.11}}
\newlabel{entemp031201}{{11}{8}{Irish presidency schedule\label {entemp031201}\relax }{section.11}{}}
\newlabel{msspx031201}{{12}{8}{MS to pay 62 mn usd in patent damages to SPX for Netmeeting\label {msspx031201}\relax }{section.12}{}}
\@writefile{toc}{\contentsline {section}{\numberline {12}MS to pay 62 mn usd in patent damages to SPX for Netmeeting}{8}{section.12}}
\newlabel{msspx031201}{{12}{8}{MS to pay 62 mn usd in patent damages to SPX for Netmeeting\label {msspx031201}\relax }{section.12}{}}
