\relax 
\ifx\hyper@anchor\@undefined
\global \let \oldcontentsline\contentsline
\gdef \contentsline#1#2#3#4{\oldcontentsline{#1}{#2}{#3}}
\global \let \oldnewlabel\newlabel
\gdef \newlabel#1#2{\newlabelxx{#1}#2}
\gdef \newlabelxx#1#2#3#4#5#6{\oldnewlabel{#1}{{#2}{#3}}}
\AtEndDocument{\let \contentsline\oldcontentsline
\let \newlabel\oldnewlabel}
\else
\global \let \hyper@last\relax 
\fi

\newlabel{ukinno031218}{{}{1}{UK Gov't publishes innovation policy report\label {ukinno031218}\relax }{section*.2}{}}
\newlabel{ukinno031218}{{}{2}{UK Gov't publishes innovation policy report\label {ukinno031218}\relax }{section*.3}{}}
\newlabel{bswk031216}{{}{2}{Business Week on European Parliament's vote: leftists erasing billions in intellectual property\label {bswk031216}\relax }{section*.3}{}}
\newlabel{bswk031216}{{}{2}{Business Week on European Parliament's vote: leftists erasing billions in intellectual property\label {bswk031216}\relax }{section*.4}{}}
\newlabel{optima031216}{{}{2}{Optima suing Roxio for CD writing algorithm\label {optima031216}\relax }{section*.4}{}}
\newlabel{optima031216}{{}{2}{Optima suing Roxio for CD writing algorithm\label {optima031216}\relax }{section*.5}{}}
\newlabel{intel031211}{{}{2}{Intel chairman: patent system unfit for information age\label {intel031211}\relax }{section*.5}{}}
\newlabel{intel031211}{{}{2}{Intel chairman: patent system unfit for information age\label {intel031211}\relax }{section*.6}{}}
\newlabel{mice031210}{{}{2}{Microsoft-sponsored study: software industry needs patents\label {mice031210}\relax }{section*.6}{}}
\newlabel{mice031210}{{}{3}{Microsoft-sponsored study: software industry needs patents\label {mice031210}\relax }{section*.7}{}}
\newlabel{msfat031209}{{}{3}{Microsoft takes out patents on FAT\label {msfat031209}\relax }{section*.7}{}}
\newlabel{msfat031209}{{}{3}{Microsoft takes out patents on FAT\label {msfat031209}\relax }{section*.8}{}}
\newlabel{libdem031208}{{}{3}{UK Libdem Youth demands strong position against software patents\label {libdem031208}\relax }{section*.8}{}}
\newlabel{libdem031208}{{}{3}{UK Libdem Youth demands strong position against software patents\label {libdem031208}\relax }{section*.9}{}}
\newlabel{cecua031207}{{}{3}{CECUA paper in favor of unlimited patentability\label {cecua031207}\relax }{section*.9}{}}
\newlabel{cecua031207}{{}{3}{CECUA paper in favor of unlimited patentability\label {cecua031207}\relax }{section*.10}{}}
\newlabel{cwdk031202}{{}{4}{Danish Campaign against Europarl Amendments\label {cwdk031202}\relax }{section*.10}{}}
\newlabel{cwdk031202}{{}{4}{Danish Campaign against Europarl Amendments\label {cwdk031202}\relax }{section*.11}{}}
\newlabel{eukpt031201}{{}{4}{New EU rules on anticompetitive patent licensing\label {eukpt031201}\relax }{section*.11}{}}
\newlabel{eukpt031201}{{}{4}{New EU rules on anticompetitive patent licensing\label {eukpt031201}\relax }{section*.12}{}}
\newlabel{entemp031201}{{}{4}{Irish presidency schedule\label {entemp031201}\relax }{section*.12}{}}
\newlabel{entemp031201}{{}{4}{Irish presidency schedule\label {entemp031201}\relax }{section*.13}{}}
\newlabel{msspx031201}{{}{4}{MS to pay 62 mn usd in patent damages to SPX for Netmeeting\label {msspx031201}\relax }{section*.13}{}}
\newlabel{msspx031201}{{}{4}{MS to pay 62 mn usd in patent damages to SPX for Netmeeting\label {msspx031201}\relax }{section*.14}{}}
