\BOOKMARK [1][-]{section.1}{UK Gov't publishes innovation policy report}{}
\BOOKMARK [1][-]{section.2}{Business Week on European Parliament's vote: leftists erasing billions in intellectual property}{}
\BOOKMARK [1][-]{section.3}{Optima suing Roxio for CD writing algorithm}{}
\BOOKMARK [1][-]{section.4}{Intel chairman: patent system unfit for information age}{}
\BOOKMARK [1][-]{section.5}{Microsoft-sponsored study: software industry needs patents}{}
\BOOKMARK [1][-]{section.6}{Microsoft takes out patents on FAT}{}
\BOOKMARK [1][-]{section.7}{UK Libdem Youth demands strong position against software patents}{}
\BOOKMARK [1][-]{section.8}{CECUA paper in favor of unlimited patentability}{}
\BOOKMARK [1][-]{section.9}{Danish Campaign against Europarl Amendments}{}
\BOOKMARK [1][-]{section.10}{New EU rules on anticompetitive patent licensing}{}
\BOOKMARK [1][-]{section.11}{Irish presidency schedule}{}
\BOOKMARK [1][-]{section.12}{MS to pay 62 mn usd in patent damages to SPX for Netmeeting}{}
