\relax 
\ifx\hyper@anchor\@undefined
\global \let \oldcontentsline\contentsline
\gdef \contentsline#1#2#3#4{\oldcontentsline{#1}{#2}{#3}}
\global \let \oldnewlabel\newlabel
\gdef \newlabel#1#2{\newlabelxx{#1}#2}
\gdef \newlabelxx#1#2#3#4#5#6{\oldnewlabel{#1}{{#2}{#3}}}
\AtEndDocument{\let \contentsline\oldcontentsline
\let \newlabel\oldnewlabel}
\else
\global \let \hyper@last\relax 
\fi

\newlabel{diff}{{1}{2}{Why are these debates so difficult?\label {diff}\relax }{section.1}{}}
\@writefile{toc}{\contentsline {section}{\numberline {1}Why are these debates so difficult?}{2}{section.1}}
\newlabel{beyo}{{2}{3}{What is beyond patents?\label {beyo}\relax }{section.2}{}}
\@writefile{toc}{\contentsline {section}{\numberline {2}What is beyond patents?}{3}{section.2}}
\newlabel{swspec}{{3}{4}{What is special in software?\label {swspec}\relax }{section.3}{}}
\@writefile{toc}{\contentsline {section}{\numberline {3}What is special in software?}{4}{section.3}}
\newlabel{suigh}{{4}{5}{The first sui generis software law proposal 1965.\label {suigh}\relax }{section.4}{}}
\@writefile{toc}{\contentsline {section}{\numberline {4}The first sui generis software law proposal 1965.}{5}{section.4}}
\newlabel{wipw}{{5}{5}{WIPO work 1974-1985\label {wipw}\relax }{section.5}{}}
\@writefile{toc}{\contentsline {section}{\numberline {5}WIPO work 1974-1985}{5}{section.5}}
\newlabel{sofr}{{6}{6}{Software copyright 1980-1994\label {sofr}\relax }{section.6}{}}
\@writefile{toc}{\contentsline {section}{\numberline {6}Software copyright 1980-1994}{6}{section.6}}
\newlabel{chip}{{7}{6}{Chip Protection 1984-1989\label {chip}\relax }{section.7}{}}
\@writefile{toc}{\contentsline {section}{\numberline {7}Chip Protection 1984-1989}{6}{section.7}}
\newlabel{manif}{{8}{7}{Manifesto 1994\label {manif}\relax }{section.8}{}}
\@writefile{toc}{\contentsline {section}{\numberline {8}Manifesto 1994}{7}{section.8}}
\newlabel{pal96}{{9}{8}{Software Act by Mark Paley 1996\label {pal96}\relax }{section.9}{}}
\@writefile{toc}{\contentsline {section}{\numberline {9}Software Act by Mark Paley 1996}{8}{section.9}}
\newlabel{chissg}{{10}{8}{Chip sui generis and software sui generis\label {chissg}\relax }{section.10}{}}
\@writefile{toc}{\contentsline {section}{\numberline {10}Chip sui generis and software sui generis}{8}{section.10}}
\newlabel{grep}{{11}{9}{Green Paper on the Patent System in Europe and other actions of the European Commission 1997-2001\label {grep}\relax }{section.11}{}}
\@writefile{toc}{\contentsline {section}{\numberline {11}Green Paper on the Patent System in Europe and other actions of the European Commission 1997-2001}{9}{section.11}}
\newlabel{whad}{{12}{9}{What can be done\label {whad}\relax }{section.12}{}}
\@writefile{toc}{\contentsline {section}{\numberline {12}What can be done}{9}{section.12}}
\newlabel{tab1}{{13}{10}{Table 1. Options of sui generis software law\label {tab1}\relax }{section.13}{}}
\@writefile{toc}{\contentsline {section}{\numberline {13}Table 1. Options of sui generis software law}{10}{section.13}}
\newlabel{tab2}{{14}{10}{Table 2 Amendments to the European Patent Convention (after November 2000)\label {tab2}\relax }{section.14}{}}
\@writefile{toc}{\contentsline {section}{\numberline {14}Table 2 Amendments to the European Patent Convention (after November 2000)}{10}{section.14}}
\newlabel{refn}{{15}{11}{References\label {refn}\relax }{section.15}{}}
\@writefile{toc}{\contentsline {section}{\numberline {15}References}{11}{section.15}}
