\relax 
\ifx\hyper@anchor\@undefined
\global \let \oldcontentsline\contentsline
\gdef \contentsline#1#2#3#4{\oldcontentsline{#1}{#2}{#3}}
\global \let \oldnewlabel\newlabel
\gdef \newlabel#1#2{\newlabelxx{#1}#2}
\gdef \newlabelxx#1#2#3#4#5#6{\oldnewlabel{#1}{{#2}{#3}}}
\AtEndDocument{\let \contentsline\oldcontentsline
\let \newlabel\oldnewlabel}
\else
\global \let \hyper@last\relax 
\fi

\@writefile{toc}{\contentsline {section}{\numberline {1}Why are these debates so difficult?}{3}{section.1}}
\newlabel{diff}{{1}{3}{Why are these debates so difficult?\relax }{section.1}{}}
\@writefile{toc}{\contentsline {section}{\numberline {2}What is beyond patents?}{3}{section.2}}
\newlabel{beyo}{{2}{3}{What is beyond patents?\relax }{section.2}{}}
\@writefile{toc}{\contentsline {section}{\numberline {3}What is special in software?}{4}{section.3}}
\newlabel{swspec}{{3}{4}{What is special in software?\relax }{section.3}{}}
\@writefile{toc}{\contentsline {section}{\numberline {4}The first sui generis software law proposal 1965.}{5}{section.4}}
\newlabel{suigh}{{4}{5}{The first sui generis software law proposal 1965}{section.4}{}}
\@writefile{toc}{\contentsline {section}{\numberline {5}WIPO work 1974-1985}{5}{section.5}}
\newlabel{wipw}{{5}{5}{WIPO work 1974-1985\relax }{section.5}{}}
\@writefile{toc}{\contentsline {section}{\numberline {6}Software copyright 1980-1994}{6}{section.6}}
\newlabel{sofr}{{6}{6}{Software copyright 1980-1994\relax }{section.6}{}}
\@writefile{toc}{\contentsline {section}{\numberline {7}Chip Protection 1984-1989}{6}{section.7}}
\newlabel{chip}{{7}{6}{Chip Protection 1984-1989\relax }{section.7}{}}
\@writefile{toc}{\contentsline {section}{\numberline {8}Manifesto 1994}{7}{section.8}}
\newlabel{manif}{{8}{7}{Manifesto 1994\relax }{section.8}{}}
\@writefile{toc}{\contentsline {section}{\numberline {9}Software Act by Mark Paley 1996}{8}{section.9}}
\newlabel{pal96}{{9}{8}{Software Act by Mark Paley 1996\relax }{section.9}{}}
\@writefile{toc}{\contentsline {section}{\numberline {10}Chip sui generis and software sui generis}{8}{section.10}}
\newlabel{chissg}{{10}{8}{Chip sui generis and software sui generis\relax }{section.10}{}}
\@writefile{toc}{\contentsline {section}{\numberline {11}Green Paper on the Patent System in Europe and other actions of the European Commission 1997-2001}{9}{section.11}}
\newlabel{grep}{{11}{9}{Green Paper on the Patent System in Europe and other actions of the European Commission 1997-2001\relax }{section.11}{}}
\@writefile{toc}{\contentsline {section}{\numberline {12}What can be done}{9}{section.12}}
\newlabel{whad}{{12}{9}{What can be done\relax }{section.12}{}}
\@writefile{toc}{\contentsline {section}{\numberline {13}Table 1. Options of sui generis software law}{10}{section.13}}
\newlabel{tab1}{{13}{10}{Table 1. Options of sui generis software law\relax }{section.13}{}}
\@writefile{toc}{\contentsline {section}{\numberline {14}Table 2 Amendments to the European Patent Convention (after November 2000)}{11}{section.14}}
\newlabel{tab2}{{14}{11}{Table 2 Amendments to the European Patent Convention (after November 2000)\relax }{section.14}{}}
\@writefile{toc}{\contentsline {section}{\numberline {15}References}{12}{section.15}}
\newlabel{refn}{{15}{12}{References\relax }{section.15}{}}
