\contentsline {section}{\numberline {1}details}{2}{section.1}
\contentsline {section}{\numberline {2}koppelingen met voetnoten}{3}{section.2}
\contentsline {section}{\numberline {3}contact}{6}{section.3}
\contentsline {section}{\numberline {4}Permanente link naar deze persmededeling}{7}{section.4}
