\BOOKMARK [1][-]{section.1}{details}{}
\BOOKMARK [1][-]{section.2}{koppelingen met voetnoten}{}
\BOOKMARK [1][-]{section.3}{contact}{}
\BOOKMARK [1][-]{section.4}{Permanente link naar deze persmededeling}{}
