\contentsline {section}{\numberline {1}Patentfrieden im IT-Bereich 1980 durch USA aufgek\"{u}ndigt}{2}{section.1}
\contentsline {section}{\numberline {2}IT-Normierung ein globaler Kampfschauplatz, f\"{u}r den Siemens r\"{u}sten muss}{3}{section.2}
\contentsline {section}{\numberline {3}Siemens treibt Amerikanisierung der deutschen Erteilungspraxis voran}{5}{section.3}
