\relax 
\ifx\hyper@anchor\@undefined
\global \let \oldcontentsline\contentsline
\gdef \contentsline#1#2#3#4{\oldcontentsline{#1}{#2}{#3}}
\global \let \oldnewlabel\newlabel
\gdef \newlabel#1#2{\newlabelxx{#1}#2}
\gdef \newlabelxx#1#2#3#4#5#6{\oldnewlabel{#1}{{#2}{#3}}}
\AtEndDocument{\let \contentsline\oldcontentsline
\let \newlabel\oldnewlabel}
\else
\global \let \hyper@last\relax 
\fi

\@writefile{toc}{\contentsline {section}{\numberline {1}Patentfrieden im IT-Bereich 1980 durch USA aufgek\"{u}ndigt}{2}{section.1}}
\newlabel{patpac}{{1}{2}{Patentfrieden im IT-Bereich 1980 durch USA aufgek\"{u}ndigt\relax }{section.1}{}}
\@writefile{toc}{\contentsline {section}{\numberline {2}IT-Normierung ein globaler Kampfschauplatz, f\"{u}r den Siemens r\"{u}sten muss}{3}{section.2}}
\newlabel{norm}{{2}{3}{IT-Normierung ein globaler Kampfschauplatz, f\"{u}r den Siemens r\"{u}sten muss\relax }{section.2}{}}
\@writefile{toc}{\contentsline {section}{\numberline {3}Siemens treibt Amerikanisierung der deutschen Erteilungspraxis voran}{5}{section.3}}
\newlabel{etend}{{3}{5}{Siemens treibt Amerikanisierung der deutschen Erteilungspraxis voran\relax }{section.3}{}}
\gdef\scr@tpo@lst{0}
