\contentsline {section}{\numberline {1}Zeit und Ort}{1}{section.1}
\contentsline {section}{\numberline {2}Programm}{2}{section.2}
\contentsline {section}{\numberline {3}Kommentierte Verweise}{4}{section.3}
