\select@language {french}
\select@language {french}
\contentsline {section}{\numberline {1}Temp et Lieu}{2}{section.0.1}
\contentsline {section}{\numberline {2}Programme}{2}{section.0.2}
\contentsline {section}{\numberline {3}Liens Annot\'{e}s}{4}{section.0.3}
