\relax 
\ifx\hyper@anchor\@undefined
\global \let \oldcontentsline\contentsline
\gdef \contentsline#1#2#3#4{\oldcontentsline{#1}{#2}{#3}}
\global \let \oldnewlabel\newlabel
\gdef \newlabel#1#2{\newlabelxx{#1}#2}
\gdef \newlabelxx#1#2#3#4#5#6{\oldnewlabel{#1}{{#2}{#3}}}
\AtEndDocument{\let \contentsline\oldcontentsline
\let \newlabel\oldnewlabel}
\else
\global \let \hyper@last\relax 
\fi

\@writefile{toc}{\contentsline {section}{\numberline {1}Announcement, Schedule}{2}{section.1}}
\newlabel{anonc}{{1}{2}{Announcement, Schedule\relax }{section.1}{}}
\@writefile{toc}{\contentsline {section}{\numberline {2}Morning Session}{2}{section.2}}
\newlabel{maten}{{2}{2}{Morning Session\relax }{section.2}{}}
\@writefile{toc}{\contentsline {subsection}{\numberline {2.1}Marco Ricolfi (chairman)}{2}{subsection.2.1}}
\newlabel{mricolfi}{{2.1}{2}{Marco Ricolfi (chairman)\relax }{subsection.2.1}{}}
\@writefile{toc}{\contentsline {subsection}{\numberline {2.2}Paolo Peveraro (Turin City Council)}{2}{subsection.2.2}}
\newlabel{ppeveraro}{{2.2}{2}{Paolo Peveraro (Turin City Council)\relax }{subsection.2.2}{}}
\@writefile{toc}{\contentsline {subsection}{\numberline {2.3}Roberto Castello, WIPO}{2}{subsection.2.3}}
\newlabel{rcastello}{{2.3}{2}{Roberto Castello, WIPO\relax }{subsection.2.3}{}}
\@writefile{toc}{\contentsline {subsection}{\numberline {2.4}Antonio Alberquerque, Brazilian Government}{2}{subsection.2.4}}
\newlabel{aalberq}{{2.4}{2}{Antonio Alberquerque, Brazilian Government\relax }{subsection.2.4}{}}
\@writefile{toc}{\contentsline {subsection}{\numberline {2.5}Georg Greve (FSF Europe)}{3}{subsection.2.5}}
\newlabel{ggreve}{{2.5}{3}{Georg Greve (FSF Europe)\relax }{subsection.2.5}{}}
\@writefile{toc}{\contentsline {subsection}{\numberline {2.6}Sven Bostyn, law professor, Maastricht}{3}{subsection.2.6}}
\newlabel{sbostyn}{{2.6}{3}{Sven Bostyn, law professor, Maastricht\relax }{subsection.2.6}{}}
\@writefile{toc}{\contentsline {section}{\numberline {3}Afternoon Session}{4}{section.3}}
\newlabel{pomer}{{3}{4}{Afternoon Session\relax }{section.3}{}}
\@writefile{toc}{\contentsline {subsection}{\numberline {3.1}Luigi Mansani (Lovells lawyer)}{4}{subsection.3.1}}
\newlabel{lmansani}{{3.1}{4}{Luigi Mansani (Lovells lawyer)\relax }{subsection.3.1}{}}
\@writefile{toc}{\contentsline {subsection}{\numberline {3.2}Mario Calderini (economist)}{4}{subsection.3.2}}
\newlabel{mcalderini}{{3.2}{4}{Mario Calderini (economist)\relax }{subsection.3.2}{}}
\@writefile{toc}{\contentsline {subsection}{\numberline {3.3}Enrique Chaparro (Argentina)}{5}{subsection.3.3}}
\newlabel{echaparro}{{3.3}{5}{Enrique Chaparro (Argentina)\relax }{subsection.3.3}{}}
\@writefile{toc}{\contentsline {subsection}{\numberline {3.4}Alex Macfie, FFII, UK}{6}{subsection.3.4}}
\newlabel{amacfie}{{3.4}{6}{Alex Macfie, FFII, UK\relax }{subsection.3.4}{}}
\@writefile{toc}{\contentsline {subsection}{\numberline {3.5}Marco Cuircina: course administrator}{6}{subsection.3.5}}
\newlabel{cuircina}{{3.5}{6}{Marco Cuircina: course administrator\relax }{subsection.3.5}{}}
\gdef\scr@tpo@lst{0}
