\relax 
\ifx\hyper@anchor\@undefined
\global \let \oldcontentsline\contentsline
\gdef \contentsline#1#2#3#4{\oldcontentsline{#1}{#2}{#3}}
\global \let \oldnewlabel\newlabel
\gdef \newlabel#1#2{\newlabelxx{#1}#2}
\gdef \newlabelxx#1#2#3#4#5#6{\oldnewlabel{#1}{{#2}{#3}}}
\AtEndDocument{\let \contentsline\oldcontentsline
\let \newlabel\oldnewlabel}
\else
\global \let \hyper@last\relax 
\fi

\@writefile{toc}{\contentsline {section}{\numberline {1}Parlamentarischer Kontrollausschuss Informationseigentum}{2}{section.1}}
\newlabel{kon}{{1}{2}{Parlamentarischer Kontrollausschuss Informationseigentum\relax }{section.1}{}}
\@writefile{toc}{\contentsline {section}{\numberline {2}Abschaffung der Lizenzgeb\"{u}hren}{3}{section.2}}
\newlabel{mon}{{2}{3}{Abschaffung der Lizenzgeb\"{u}hren\relax }{section.2}{}}
\@writefile{toc}{\contentsline {section}{\numberline {3}Neuer Zweck der Patent\"{a}mter}{3}{section.3}}
\newlabel{cel}{{3}{3}{Neuer Zweck der Patent\"{a}mter\relax }{section.3}{}}
\@writefile{toc}{\contentsline {section}{\numberline {4}Neuheitspr\"{u}fung}{3}{section.4}}
\newlabel{nov}{{4}{3}{Neuheitspr\"{u}fung\relax }{section.4}{}}
\@writefile{toc}{\contentsline {section}{\numberline {5}Erfindungsh\"{o}he-Pr\"{u}fung}{3}{section.5}}
\newlabel{inv}{{5}{3}{Erfindungsh\"{o}he-Pr\"{u}fung\relax }{section.5}{}}
\@writefile{toc}{\contentsline {section}{\numberline {6}Kl\"{a}rung des Begriffes ``Technizit\"{a}t''}{3}{section.6}}
\newlabel{tech}{{6}{3}{Kl\"{a}rung des Begriffes ``Technizit\"{a}t''\relax }{section.6}{}}
\@writefile{toc}{\contentsline {section}{\numberline {7}Geistiges Gemeineigentum und Allgemeinheitspatent}{4}{section.7}}
\newlabel{ind}{{7}{4}{Geistiges Gemeineigentum und Allgemeinheitspatent\relax }{section.7}{}}
\@writefile{toc}{\contentsline {section}{\numberline {8}\"{U}bersetzungsanforderungen}{4}{section.8}}
\newlabel{tra}{{8}{4}{\"{U}bersetzungsanforderungen\relax }{section.8}{}}
\@writefile{toc}{\contentsline {section}{\numberline {9}Weitere Ideen}{5}{section.9}}
\newlabel{etc}{{9}{5}{Weitere Ideen\relax }{section.9}{}}
\@writefile{toc}{\contentsline {subsection}{\numberline {9.1}Zwangslizenz f\"{u}r Teile von Normen oder komplexen Systemen}{5}{subsection.9.1}}
\newlabel{dev}{{9.1}{5}{Zwangslizenz f\"{u}r Teile von Normen oder komplexen Systemen\relax }{subsection.9.1}{}}
