\contentsline {section}{\numberline {1}Parlamentarischer Kontrollausschuss Informationseigentum}{2}{section.1}
\contentsline {section}{\numberline {2}Abschaffung der Lizenzgeb\"{u}hren}{3}{section.2}
\contentsline {section}{\numberline {3}Neuer Zweck der Patent\"{a}mter}{3}{section.3}
\contentsline {section}{\numberline {4}Neuheitspr\"{u}fung}{3}{section.4}
\contentsline {section}{\numberline {5}Erfindungsh\"{o}he-Pr\"{u}fung}{3}{section.5}
\contentsline {section}{\numberline {6}Kl\"{a}rung des Begriffes ``Technizit\"{a}t''}{4}{section.6}
\contentsline {section}{\numberline {7}Geistiges Gemeineigentum und Allgemeinheitspatent}{4}{section.7}
\contentsline {section}{\numberline {8}\"{U}bersetzungsanforderungen}{4}{section.8}
\contentsline {section}{\numberline {9}Weitere Ideen}{5}{section.9}
\contentsline {subsection}{\numberline {9.1}Zwangslizenz f\"{u}r Teile von Normen oder komplexen Systemen}{5}{subsection.9.1}
