\relax 
\ifx\hyper@anchor\@undefined
\global \let \oldcontentsline\contentsline
\gdef \contentsline#1#2#3#4{\oldcontentsline{#1}{#2}{#3}}
\global \let \oldnewlabel\newlabel
\gdef \newlabel#1#2{\newlabelxx{#1}#2}
\gdef \newlabelxx#1#2#3#4#5#6{\oldnewlabel{#1}{{#2}{#3}}}
\AtEndDocument{\let \contentsline\oldcontentsline
\let \newlabel\oldnewlabel}
\else
\global \let \hyper@last\relax 
\fi

\@writefile{toc}{\contentsline {section}{\numberline {1}Parlamentarischer Kontrollausschuss Informationseigentum}{2}{section.1}}
\newlabel{kon}{{1}{2}{Parlamentarischer Kontrollausschuss Informationseigentum\relax }{section.1}{}}
\@writefile{toc}{\contentsline {section}{\numberline {2}Abschaffung der Lizenzgeb\"{u}hren}{3}{section.2}}
\newlabel{mon}{{2}{3}{Abschaffung der Lizenzgeb\"{u}hren\relax }{section.2}{}}
\@writefile{toc}{\contentsline {section}{\numberline {3}New Purpose of the Patent Offices}{3}{section.3}}
\newlabel{cel}{{3}{3}{New Purpose of the Patent Offices\relax }{section.3}{}}
\@writefile{toc}{\contentsline {section}{\numberline {4}novelty check}{3}{section.4}}
\newlabel{nov}{{4}{3}{novelty check\relax }{section.4}{}}
\@writefile{toc}{\contentsline {section}{\numberline {5}inventivity check}{3}{section.5}}
\newlabel{inv}{{5}{3}{inventivity check\relax }{section.5}{}}
\@writefile{toc}{\contentsline {section}{\numberline {6}Definition of ``Technicity''}{3}{section.6}}
\newlabel{tech}{{6}{3}{Definition of ``Technicity''\relax }{section.6}{}}
\@writefile{toc}{\contentsline {section}{\numberline {7}Public Intellectual Property and Patentleft}{4}{section.7}}
\newlabel{ind}{{7}{4}{Public Intellectual Property and Patentleft\relax }{section.7}{}}
\@writefile{toc}{\contentsline {section}{\numberline {8}Translation Requirements}{4}{section.8}}
\newlabel{tra}{{8}{4}{Translation Requirements\relax }{section.8}{}}
\@writefile{toc}{\contentsline {section}{\numberline {9}Further Ideas}{5}{section.9}}
\newlabel{etc}{{9}{5}{Further Ideas\relax }{section.9}{}}
\@writefile{toc}{\contentsline {subsection}{\numberline {9.1}Compulsory License for Parts of Standards or Complex Systems}{5}{subsection.9.1}}
\newlabel{dev}{{9.1}{5}{Compulsory License for Parts of Standards or Complex Systems\relax }{subsection.9.1}{}}
