\contentsline {section}{\numberline {1}Parlamentarischer Kontrollausschuss Informationseigentum}{2}{section.1}
\contentsline {section}{\numberline {2}Abschaffung der Lizenzgeb\"{u}hren}{3}{section.2}
\contentsline {section}{\numberline {3}New Purpose of the Patent Offices}{3}{section.3}
\contentsline {section}{\numberline {4}novelty check}{3}{section.4}
\contentsline {section}{\numberline {5}inventivity check}{3}{section.5}
\contentsline {section}{\numberline {6}Definition of ``Technicity''}{3}{section.6}
\contentsline {section}{\numberline {7}Public Intellectual Property and Patentleft}{4}{section.7}
\contentsline {section}{\numberline {8}Translation Requirements}{4}{section.8}
\contentsline {section}{\numberline {9}Further Ideas}{5}{section.9}
\contentsline {subsection}{\numberline {9.1}Compulsory License for Parts of Standards or Complex Systems}{5}{subsection.9.1}
