\BOOKMARK [1][-]{section.1}{Parlamentarischer Kontrollausschuss Informationseigentum}{}
\BOOKMARK [1][-]{section.2}{Abschaffung der Lizenzgeb\374hren}{}
\BOOKMARK [1][-]{section.3}{New Purpose of the Patent Offices}{}
\BOOKMARK [1][-]{section.4}{novelty check}{}
\BOOKMARK [1][-]{section.5}{inventivity check}{}
\BOOKMARK [1][-]{section.6}{Definition of ``Technicity''}{}
\BOOKMARK [1][-]{section.7}{Public Intellectual Property and Patentleft}{}
\BOOKMARK [1][-]{section.8}{Translation Requirements}{}
\BOOKMARK [1][-]{section.9}{Further Ideas}{}
\BOOKMARK [2][-]{subsection.9.1}{Compulsory License for Parts of Standards or Complex Systems}{section.9}
