\contentsline {subsubsection}{\numberline {0.0.1}We zijn bezorgd omdat}{2}{subsubsection.0.0.1}
\contentsline {subsubsection}{\numberline {0.0.2}Om deze redenen dringen wij aan dat}{3}{subsubsection.0.0.2}
\contentsline {subsubsection}{\numberline {0.0.3}Ondertekenaars}{3}{subsubsection.0.0.3}
\contentsline {subsubsection}{\numberline {0.0.4}Bijlagen}{8}{subsubsection.0.0.4}
\contentsline {subsubsection}{\numberline {0.0.5}}{8}{subsubsection.0.0.5}
