\relax 
\ifx\hyper@anchor\@undefined
\global \let \oldcontentsline\contentsline
\gdef \contentsline#1#2#3#4{\oldcontentsline{#1}{#2}{#3}}
\global \let \oldnewlabel\newlabel
\gdef \newlabel#1#2{\newlabelxx{#1}#2}
\gdef \newlabelxx#1#2#3#4#5#6{\oldnewlabel{#1}{{#2}{#3}}}
\AtEndDocument{\let \contentsline\oldcontentsline
\let \newlabel\oldnewlabel}
\else
\global \let \hyper@last\relax 
\fi

\@writefile{toc}{\contentsline {subsubsection}{\numberline {0.0.1}We zijn bezorgd omdat}{2}{subsubsection.0.0.1}}
\newlabel{prob}{{0.0.1}{2}{We zijn bezorgd omdat\relax }{subsubsection.0.0.1}{}}
\@writefile{toc}{\contentsline {subsubsection}{\numberline {0.0.2}Om deze redenen dringen wij aan dat}{3}{subsubsection.0.0.2}}
\newlabel{solv}{{0.0.2}{3}{Om deze redenen dringen wij aan dat\relax }{subsubsection.0.0.2}{}}
\@writefile{toc}{\contentsline {subsubsection}{\numberline {0.0.3}Ondertekenaars}{3}{subsubsection.0.0.3}}
\newlabel{sign}{{0.0.3}{3}{Ondertekenaars\relax }{subsubsection.0.0.3}{}}
\@writefile{toc}{\contentsline {subsubsection}{\numberline {0.0.4}Bijlagen}{8}{subsubsection.0.0.4}}
\newlabel{annex}{{0.0.4}{8}{Bijlagen\relax }{subsubsection.0.0.4}{}}
\@writefile{toc}{\contentsline {subsubsection}{\numberline {0.0.5}}{8}{subsubsection.0.0.5}}
\newlabel{links}{{0.0.5}{8}{\relax }{subsubsection.0.0.5}{}}
\gdef\scr@tpo@lst{0}
