\relax 
\ifx\hyper@anchor\@undefined
\global \let \oldcontentsline\contentsline
\gdef \contentsline#1#2#3#4{\oldcontentsline{#1}{#2}{#3}}
\global \let \oldnewlabel\newlabel
\gdef \newlabel#1#2{\newlabelxx{#1}#2}
\gdef \newlabelxx#1#2#3#4#5#6{\oldnewlabel{#1}{{#2}{#3}}}
\AtEndDocument{\let \contentsline\oldcontentsline
\let \newlabel\oldnewlabel}
\else
\global \let \hyper@last\relax 
\fi

\@writefile{toc}{\contentsline {chapter}{\numberline {1}Pr\"{a}ambel}{4}{chapter.1}}
\@writefile{lof}{\addvspace {10\p@ }}
\@writefile{lot}{\addvspace {10\p@ }}
\newlabel{pream}{{1}{4}{Pr\"{a}ambel\relax }{chapter.1}{}}
\@writefile{toc}{\contentsline {chapter}{\numberline {2}Die Artikel}{12}{chapter.2}}
\@writefile{lof}{\addvspace {10\p@ }}
\@writefile{lot}{\addvspace {10\p@ }}
\newlabel{arts}{{2}{12}{Die Artikel\relax }{chapter.2}{}}
\newlabel{prop1}{{2}{12}{Die Artikel\relax }{chapter.2}{}}
\newlabel{prop2}{{2}{12}{Die Artikel\relax }{chapter.2}{}}
\newlabel{prop3}{{2}{13}{Die Artikel\relax }{Item.6}{}}
\newlabel{prop4}{{2}{13}{Die Artikel\relax }{Item.6}{}}
\newlabel{prop5}{{2}{14}{Die Artikel\relax }{Hfootnote.4}{}}
\newlabel{prop6}{{2}{16}{Die Artikel\relax }{Item.22}{}}
\newlabel{prop7}{{2}{16}{Die Artikel\relax }{Item.24}{}}
\newlabel{prop8}{{2}{17}{Die Artikel\relax }{Item.24}{}}
\newlabel{prop9}{{2}{18}{Die Artikel\relax }{Item.35}{}}
\newlabel{prop10}{{2}{18}{Die Artikel\relax }{Item.35}{}}
\@writefile{toc}{\contentsline {chapter}{\numberline {3}Kommentierte Verweise}{20}{chapter.3}}
\@writefile{lof}{\addvspace {10\p@ }}
\@writefile{lot}{\addvspace {10\p@ }}
\newlabel{links}{{3}{20}{Kommentierte Verweise\relax }{chapter.3}{}}
