\relax 
\ifx\hyper@anchor\@undefined
\global \let \oldcontentsline\contentsline
\gdef \contentsline#1#2#3#4{\oldcontentsline{#1}{#2}{#3}}
\global \let \oldnewlabel\newlabel
\gdef \newlabel#1#2{\newlabelxx{#1}#2}
\gdef \newlabelxx#1#2#3#4#5#6{\oldnewlabel{#1}{{#2}{#3}}}
\AtEndDocument{\let \contentsline\oldcontentsline
\let \newlabel\oldnewlabel}
\else
\global \let \hyper@last\relax 
\fi

\csname auxWARNINGii\endcsname {\typeout {-34- this file and other auxiliary files require to use the following}}
\csname auxWARNINGii\endcsname {\typeout {-34- LaTeX packages: french and babel!}}
\csname auxWARNINGii\endcsname {\typeout {-34- check \protect \usepackage \space or remove these files. Typesetting is aborted!} \stop }
\select@language{french}
\@writefile{toc}{\select@language{french}}
\@writefile{lof}{\select@language{french}}
\@writefile{lot}{\select@language{french}}
\select@language{french}
\@writefile{toc}{\select@language{french}}
\@writefile{lof}{\select@language{french}}
\@writefile{lot}{\select@language{french}}
\@writefile{toc}{\contentsline {chapter}{\numberline {1}Pr\'{e}ambule}{4}{chapter.1}}
\@writefile{lof}{\addvspace {10\p@ }}
\@writefile{lot}{\addvspace {10\p@ }}
\newlabel{pream}{{1}{4}{Pr\'{e}ambule\relax }{chapter.1}{}}
\@writefile{toc}{\contentsline {chapter}{\numberline {2}Les Articles}{12}{chapter.2}}
\@writefile{lof}{\addvspace {10\p@ }}
\@writefile{lot}{\addvspace {10\p@ }}
\newlabel{arts}{{2}{12}{Les Articles\relax }{chapter.2}{}}
\newlabel{prop1}{{2}{12}{Les Articles\relax }{chapter.2}{}}
\newlabel{prop2}{{2}{12}{Les Articles\relax }{chapter.2}{}}
\newlabel{prop3}{{2}{13}{Les Articles\relax }{Item.6}{}}
\newlabel{prop4}{{2}{13}{Les Articles\relax }{Item.6}{}}
\newlabel{prop5}{{2}{14}{Les Articles\relax }{Hfootnote.6}{}}
\newlabel{prop6}{{2}{15}{Les Articles\relax }{Item.22}{}}
\newlabel{prop7}{{2}{16}{Les Articles\relax }{Item.24}{}}
\newlabel{prop8}{{2}{16}{Les Articles\relax }{Item.24}{}}
\newlabel{prop9}{{2}{17}{Les Articles\relax }{Item.35}{}}
\newlabel{prop10}{{2}{18}{Les Articles\relax }{Item.35}{}}
\@writefile{toc}{\contentsline {chapter}{\numberline {3}Liens Annot\'{e}s}{19}{chapter.3}}
\@writefile{lof}{\addvspace {10\p@ }}
\@writefile{lot}{\addvspace {10\p@ }}
\newlabel{links}{{3}{19}{Liens Annot\'{e}s\relax }{chapter.3}{}}
