\contentsline {chapter}{\numberline {1}Pr\"{a}ambel}{4}{chapter.1}
\contentsline {chapter}{\numberline {2}Die Artikel}{12}{chapter.2}
\contentsline {chapter}{\numberline {3}Kommentierte Verweise}{20}{chapter.3}
