\contentsline {chapter}{\numberline {1}Einf\"{u}hrung}{4}{chapter.1}
\contentsline {chapter}{\numberline {2}Kommentierte Verweise}{6}{chapter.2}
\contentsline {chapter}{\numberline {3}Fragen, Aufgaben, Wie Sie helfen k\"{o}nnen}{9}{chapter.3}
