\select@language {french}
\select@language {french}
\contentsline {chapter}{\numberline {1}introduction}{4}{chapter.1}
\contentsline {chapter}{\numberline {2}Liens annot\'{e}s}{6}{chapter.2}
\contentsline {chapter}{\numberline {3}Questions, choses \`{a} faire, comment vous pouvez aider}{9}{chapter.3}
