\select@language {french}
\select@language {french}
\contentsline {section}{\numberline {1}details}{1}{section.0.1}
\contentsline {section}{\numberline {2}Liens Annot\'{e}s}{3}{section.0.2}
\contentsline {section}{\numberline {3}Contacte}{8}{section.0.3}
\contentsline {section}{\numberline {4}A propos de l'Alliance Eurolinux -- www.eurolinux.org}{8}{section.0.4}
\contentsline {section}{\numberline {5}A propos de la FFII -- www.ffii.org}{8}{section.0.5}
\contentsline {section}{\numberline {6}URL permanente de cette d\'{e}p\^{e}che}{8}{section.0.6}
