\relax 
\ifx\hyper@anchor\@undefined
\global \let \oldcontentsline\contentsline
\gdef \contentsline#1#2#3#4{\oldcontentsline{#1}{#2}{#3}}
\global \let \oldnewlabel\newlabel
\gdef \newlabel#1#2{\newlabelxx{#1}#2}
\gdef \newlabelxx#1#2#3#4#5#6{\oldnewlabel{#1}{{#2}{#3}}}
\AtEndDocument{\let \contentsline\oldcontentsline
\let \newlabel\oldnewlabel}
\else
\global \let \hyper@last\relax 
\fi

\csname auxWARNINGii\endcsname {\typeout {-34- this file and other auxiliary files require to use the following}}
\csname auxWARNINGii\endcsname {\typeout {-34- LaTeX packages: french and babel!}}
\csname auxWARNINGii\endcsname {\typeout {-34- check \protect \usepackage \space or remove these files. Typesetting is aborted!} \stop }
\select@language{french}
\@writefile{toc}{\select@language{french}}
\@writefile{lof}{\select@language{french}}
\@writefile{lot}{\select@language{french}}
\select@language{french}
\@writefile{toc}{\select@language{french}}
\@writefile{lof}{\select@language{french}}
\@writefile{lot}{\select@language{french}}
\@writefile{toc}{\contentsline {section}{\numberline {1}details}{1}{section.0.1}}
\newlabel{detal}{{1}{1}{details\relax }{section.0.1}{}}
\@writefile{toc}{\contentsline {section}{\numberline {2}Liens Annot\'{e}s}{3}{section.0.2}}
\newlabel{links}{{2}{3}{Liens Annot\'{e}s\relax }{section.0.2}{}}
\@writefile{toc}{\contentsline {section}{\numberline {3}Contacte}{8}{section.0.3}}
\newlabel{media}{{3}{8}{Contacte\relax }{section.0.3}{}}
\@writefile{toc}{\contentsline {section}{\numberline {4}A propos de l'Alliance Eurolinux -- www.eurolinux.org}{8}{section.0.4}}
\newlabel{eurolinux}{{4}{8}{A propos de l'Alliance Eurolinux -- www.eurolinux.org\relax }{section.0.4}{}}
\@writefile{toc}{\contentsline {section}{\numberline {5}A propos de la FFII -- www.ffii.org}{8}{section.0.5}}
\newlabel{ffii}{{5}{8}{A propos de la FFII -- www.ffii.org\relax }{section.0.5}{}}
\@writefile{toc}{\contentsline {section}{\numberline {6}URL permanente de cette d\'{e}p\^{e}che}{8}{section.0.6}}
\newlabel{url}{{6}{8}{URL permanente de cette d\'{e}p\^{e}che\relax }{section.0.6}{}}
