\relax 
\ifx\hyper@anchor\@undefined
\global \let \oldcontentsline\contentsline
\gdef \contentsline#1#2#3#4{\oldcontentsline{#1}{#2}{#3}}
\global \let \oldnewlabel\newlabel
\gdef \newlabel#1#2{\newlabelxx{#1}#2}
\gdef \newlabelxx#1#2#3#4#5#6{\oldnewlabel{#1}{{#2}{#3}}}
\AtEndDocument{\let \contentsline\oldcontentsline
\let \newlabel\oldnewlabel}
\else
\global \let \hyper@last\relax 
\fi

\@writefile{toc}{\contentsline {section}{\numberline {1}details}{2}{section.1}}
\newlabel{detal}{{1}{2}{details\relax }{section.1}{}}
\@writefile{toc}{\contentsline {section}{\numberline {2}Annotated Links}{4}{section.2}}
\newlabel{links}{{2}{4}{Annotated Links\relax }{section.2}{}}
\@writefile{toc}{\contentsline {section}{\numberline {3}contact}{9}{section.3}}
\newlabel{media}{{3}{9}{contact\relax }{section.3}{}}
\@writefile{toc}{\contentsline {section}{\numberline {4}Permanent URL of this Press Release}{9}{section.4}}
\newlabel{url}{{4}{9}{Permanent URL of this Press Release\relax }{section.4}{}}
