\contentsline {section}{\numberline {1}Einf\"{u}hrung}{1}{section.1}
\contentsline {section}{\numberline {2}Sustained presence in Brussels/Strasburg}{2}{section.2}
\contentsline {section}{\numberline {3}Conference in Brussels in April 2004}{3}{section.3}
\contentsline {section}{\numberline {4}National Campaigns}{3}{section.4}
\contentsline {section}{\numberline {5}Coordination Work, Process Rationalisation}{4}{section.5}
\contentsline {section}{\numberline {6}Patent Database Maintenance and Applications}{4}{section.6}
\contentsline {section}{\numberline {7}Kommentierte Verweise}{4}{section.7}
