\relax 
\ifx\hyper@anchor\@undefined
\global \let \oldcontentsline\contentsline
\gdef \contentsline#1#2#3#4{\oldcontentsline{#1}{#2}{#3}}
\global \let \oldnewlabel\newlabel
\gdef \newlabel#1#2{\newlabelxx{#1}#2}
\gdef \newlabelxx#1#2#3#4#5#6{\oldnewlabel{#1}{{#2}{#3}}}
\AtEndDocument{\let \contentsline\oldcontentsline
\let \newlabel\oldnewlabel}
\else
\global \let \hyper@last\relax 
\fi

\@writefile{toc}{\contentsline {section}{\numberline {1}Einf\"{u}hrung}{1}{section.1}}
\newlabel{intro}{{1}{1}{Einf\"{u}hrung\relax }{section.1}{}}
\@writefile{toc}{\contentsline {section}{\numberline {2}Sustained presence in Brussels/Strasburg}{2}{section.2}}
\newlabel{bxl}{{2}{2}{Sustained presence in Brussels/Strasburg\relax }{section.2}{}}
\@writefile{toc}{\contentsline {section}{\numberline {3}Conference in Brussels in April 2004}{3}{section.3}}
\newlabel{konf}{{3}{3}{Conference in Brussels in April 2004\relax }{section.3}{}}
\@writefile{toc}{\contentsline {section}{\numberline {4}National Campaigns}{3}{section.4}}
\newlabel{nac}{{4}{3}{National Campaigns\relax }{section.4}{}}
\@writefile{toc}{\contentsline {section}{\numberline {5}Coordination Work, Process Rationalisation}{4}{section.5}}
\newlabel{infra}{{5}{4}{Coordination Work, Process Rationalisation\relax }{section.5}{}}
\@writefile{toc}{\contentsline {section}{\numberline {6}Patent Database Maintenance and Applications}{4}{section.6}}
\newlabel{data}{{6}{4}{Patent Database Maintenance and Applications\relax }{section.6}{}}
\@writefile{toc}{\contentsline {section}{\numberline {7}Kommentierte Verweise}{4}{section.7}}
\newlabel{links}{{7}{4}{Kommentierte Verweise\relax }{section.7}{}}
