\select@language {french}
\contentsline {section}{\numberline {1}Needed: 8,000 eur for lobbyists in Brussels and Strasburg}{2}{section.1}
\contentsline {section}{\numberline {2}Needed: 4000 eur for lobbying the media}{3}{section.2}
\contentsline {section}{\numberline {3}Needed: Advertisement in European Voice et al}{4}{section.3}
