\relax 
\catcode`:\active
\catcode`;\active
\catcode`!\active
\catcode`?\active
\ifx\hyper@anchor\@undefined
\global \let \oldcontentsline\contentsline
\gdef \contentsline#1#2#3#4{\oldcontentsline{#1}{#2}{#3}}
\global \let \oldnewlabel\newlabel
\gdef \newlabel#1#2{\newlabelxx{#1}#2}
\gdef \newlabelxx#1#2#3#4#5#6{\oldnewlabel{#1}{{#2}{#3}}}
\AtEndDocument{\let \contentsline\oldcontentsline
\let \newlabel\oldnewlabel}
\else
\global \let \hyper@last\relax 
\fi

\select@language{french}
\@writefile{toc}{\select@language{french}}
\@writefile{lof}{\select@language{french}}
\@writefile{lot}{\select@language{french}}
\@writefile{toc}{\contentsline {section}{\numberline {1}Needed: 8,000 eur for lobbyists in Brussels and Strasburg}{2}{section.1}}
\newlabel{europarl}{{1}{2}{Needed: 8,000 eur for lobbyists in Brussels and Strasburg\relax }{section.1}{}}
\@writefile{toc}{\contentsline {section}{\numberline {2}Needed: 4000 eur for lobbying the media}{3}{section.2}}
\newlabel{media}{{2}{3}{Needed: 4000 eur for lobbying the media\relax }{section.2}{}}
\@writefile{toc}{\contentsline {section}{\numberline {3}Needed: Advertisement in European Voice et al}{4}{section.3}}
\newlabel{advert}{{3}{4}{Needed: Advertisement in European Voice et al\relax }{section.3}{}}
\gdef\scr@tpo@lst{0}
