\BOOKMARK [1][-]{section.1}{Needed: 8,000 eur for lobbyists in Brussels and Strasburg}{}
\BOOKMARK [1][-]{section.2}{Needed: 4000 eur for lobbying the media}{}
\BOOKMARK [1][-]{section.3}{Needed: Advertisement in European Voice et al}{}
