\relax 
\ifx\hyper@anchor\@undefined
\global \let \oldcontentsline\contentsline
\gdef \contentsline#1#2#3#4{\oldcontentsline{#1}{#2}{#3}}
\global \let \oldnewlabel\newlabel
\gdef \newlabel#1#2{\newlabelxx{#1}#2}
\gdef \newlabelxx#1#2#3#4#5#6{\oldnewlabel{#1}{{#2}{#3}}}
\AtEndDocument{\let \contentsline\oldcontentsline
\let \newlabel\oldnewlabel}
\else
\global \let \hyper@last\relax 
\fi

\@writefile{toc}{\contentsline {chapter}{\numberline {1}Folgendes bereitet uns Sorge}{5}{chapter.1}}
\@writefile{lof}{\addvspace {10\p@ }}
\@writefile{lot}{\addvspace {10\p@ }}
\newlabel{prob}{{1}{5}{Folgendes bereitet uns Sorge\relax }{chapter.1}{}}
\@writefile{toc}{\contentsline {chapter}{\numberline {2}Daher empfehlen wir folgende Ma{\ss }nahmen}{6}{chapter.2}}
\@writefile{lof}{\addvspace {10\p@ }}
\@writefile{lot}{\addvspace {10\p@ }}
\newlabel{solv}{{2}{6}{Daher empfehlen wir folgende Ma{\ss }nahmen\relax }{chapter.2}{}}
\@writefile{toc}{\contentsline {chapter}{\numberline {3}Unterzeichner}{8}{chapter.3}}
\@writefile{lof}{\addvspace {10\p@ }}
\@writefile{lot}{\addvspace {10\p@ }}
\newlabel{sign}{{3}{8}{Unterzeichner\relax }{chapter.3}{}}
\@writefile{toc}{\contentsline {chapter}{\numberline {A}Europ\"{a}ische Softwarepatente: Einige Musterexemplare}{11}{appendix.A}}
\@writefile{lof}{\addvspace {10\p@ }}
\@writefile{lot}{\addvspace {10\p@ }}
\newlabel{swpikmupli}{{A}{11}{Europ\"{a}ische Softwarepatente: Einige Musterexemplare\relax }{appendix.A}{}}
\@writefile{toc}{\contentsline {section}{\numberline {A.1}Ausstellungsst\"{u}cke}{11}{section.A.1}}
\newlabel{pag}{{A.1}{11}{Ausstellungsst\"{u}cke\relax }{section.A.1}{}}
\@writefile{toc}{\contentsline {section}{\numberline {A.2}Kandidaten}{19}{section.A.2}}
\newlabel{epat}{{A.2}{19}{Kandidaten\relax }{section.A.2}{}}
\@writefile{toc}{\contentsline {chapter}{\numberline {B}Softwarepatente in Aktion}{20}{appendix.B}}
\@writefile{lof}{\addvspace {10\p@ }}
\@writefile{lot}{\addvspace {10\p@ }}
\newlabel{swpikxrani}{{B}{20}{Softwarepatente in Aktion\relax }{appendix.B}{}}
\@writefile{toc}{\contentsline {section}{\numberline {B.1}Einige gut dokumentierte F\"{a}lle}{20}{section.B.1}}
\newlabel{kazoj}{{B.1}{20}{Einige gut dokumentierte F\"{a}lle\relax }{section.B.1}{}}
\@writefile{toc}{\contentsline {section}{\numberline {B.2}Kommentierte Verweise}{27}{section.B.2}}
\newlabel{links}{{B.2}{27}{Kommentierte Verweise\relax }{section.B.2}{}}
\@writefile{toc}{\contentsline {chapter}{\numberline {C}Zitate zur Frage der Patentierbarkeit von computer-implementierten Organisations- und Rechenregeln}{28}{appendix.C}}
\@writefile{lof}{\addvspace {10\p@ }}
\@writefile{lot}{\addvspace {10\p@ }}
\newlabel{swpatcusku}{{C}{28}{Zitate zur Frage der Patentierbarkeit von computer-implementierten Organisations- und Rechenregeln\relax }{appendix.C}{}}
\@writefile{toc}{\contentsline {section}{\numberline {C.1}Softwerker und Techniker}{28}{section.C.1}}
\newlabel{swpra}{{C.1}{28}{Softwerker und Techniker\relax }{section.C.1}{}}
\newlabel{reback0206}{{C.1}{29}{Softwerker und Techniker\relax }{Hfootnote.142}{}}
\newlabel{eubsa}{{C.1}{29}{Softwerker und Techniker\relax }{Hfootnote.143}{}}
\newlabel{uspto94-rms}{{C.1}{30}{Softwerker und Techniker\relax }{Hfootnote.144}{}}
\newlabel{haren01}{{C.1}{31}{Softwerker und Techniker\relax }{Hfootnote.146}{}}
\newlabel{ftc020228-cisco}{{C.1}{32}{Softwerker und Techniker\relax }{Hfootnote.147}{}}
\newlabel{cadence02}{{C.1}{32}{Softwerker und Techniker\relax }{Hfootnote.148}{}}
\newlabel{greenhall02}{{C.1}{33}{Softwerker und Techniker\relax }{Hfootnote.149}{}}
\newlabel{adobe94}{{C.1}{33}{Softwerker und Techniker\relax }{Hfootnote.150}{}}
\newlabel{kaplan02}{{C.1}{33}{Softwerker und Techniker\relax }{Hfootnote.151}{}}
\newlabel{oracle94}{{C.1}{34}{Softwerker und Techniker\relax }{Hfootnote.152}{}}
\newlabel{autodesk94}{{C.1}{35}{Softwerker und Techniker\relax }{Hfootnote.153}{}}
\newlabel{kapor94}{{C.1}{36}{Softwerker und Techniker\relax }{Hfootnote.154}{}}
\newlabel{bgates91}{{C.1}{36}{Softwerker und Techniker\relax }{Hfootnote.155}{}}
\newlabel{opera}{{C.1}{36}{Softwerker und Techniker\relax }{Hfootnote.155}{}}
\newlabel{linus02}{{C.1}{37}{Softwerker und Techniker\relax }{Hfootnote.155}{}}
\newlabel{advogato-asfpat}{{C.1}{37}{Softwerker und Techniker\relax }{Hfootnote.156}{}}
\@writefile{toc}{\contentsline {section}{\numberline {C.2}Rechtsgelehrte, Richter}{37}{section.C.2}}
\newlabel{iuris}{{C.2}{37}{Rechtsgelehrte, Richter\relax }{section.C.2}{}}
\newlabel{lamy98}{{C.2}{38}{Rechtsgelehrte, Richter\relax }{Hfootnote.157}{}}
\newlabel{dispo76}{{C.2}{39}{Rechtsgelehrte, Richter\relax }{Hfootnote.158}{}}
\newlabel{bgh-walzst80}{{C.2}{39}{Rechtsgelehrte, Richter\relax }{Hfootnote.163}{}}
\newlabel{kolle77}{{C.2}{42}{Rechtsgelehrte, Richter\relax }{Hfootnote.164}{}}
\newlabel{epo78}{{C.2}{43}{Rechtsgelehrte, Richter\relax }{Hfootnote.167}{}}
\newlabel{krasser86}{{C.2}{44}{Rechtsgelehrte, Richter\relax }{Hfootnote.168}{}}
\newlabel{lenz01}{{C.2}{45}{Rechtsgelehrte, Richter\relax }{Hfootnote.169}{}}
\newlabel{atlantic1882}{{C.2}{45}{Rechtsgelehrte, Richter\relax }{Hfootnote.169}{}}
\newlabel{stuber}{{C.2}{45}{Rechtsgelehrte, Richter\relax }{Hfootnote.169}{}}
\newlabel{kohler}{{C.2}{46}{Rechtsgelehrte, Richter\relax }{Hfootnote.170}{}}
\newlabel{folk}{{C.2}{46}{Rechtsgelehrte, Richter\relax }{Hfootnote.171}{}}
\newlabel{kinsella02}{{C.2}{46}{Rechtsgelehrte, Richter\relax }{Hfootnote.172}{}}
\@writefile{toc}{\contentsline {section}{\numberline {C.3}Wirtschaftswissenschaftler}{47}{section.C.3}}
\newlabel{ekon}{{C.3}{47}{Wirtschaftswissenschaftler\relax }{section.C.3}{}}
\newlabel{iprcommission0209}{{C.3}{47}{Wirtschaftswissenschaftler\relax }{Item.29}{}}
\newlabel{mopoko0207}{{C.3}{49}{Wirtschaftswissenschaftler\relax }{Hfootnote.177}{}}
\newlabel{shulman00}{{C.3}{49}{Wirtschaftswissenschaftler\relax }{Hfootnote.178}{}}
\newlabel{digidilem00}{{C.3}{49}{Wirtschaftswissenschaftler\relax }{Hfootnote.179}{}}
\newlabel{mandeville82}{{C.3}{50}{Wirtschaftswissenschaftler\relax }{Hfootnote.180}{}}
\newlabel{canada71}{{C.3}{50}{Wirtschaftswissenschaftler\relax }{Hfootnote.181}{}}
\newlabel{machlup58}{{C.3}{50}{Wirtschaftswissenschaftler\relax }{Hfootnote.182}{}}
\newlabel{penrose51}{{C.3}{51}{Wirtschaftswissenschaftler\relax }{Hfootnote.183}{}}
\newlabel{gran90}{{C.3}{51}{Wirtschaftswissenschaftler\relax }{Hfootnote.184}{}}
\newlabel{scotchmer90}{{C.3}{51}{Wirtschaftswissenschaftler\relax }{Hfootnote.185}{}}
\newlabel{wirth1866}{{C.3}{51}{Wirtschaftswissenschaftler\relax }{Hfootnote.186}{}}
\newlabel{polanyi44}{{C.3}{52}{Wirtschaftswissenschaftler\relax }{Hfootnote.187}{}}
\newlabel{mises49}{{C.3}{52}{Wirtschaftswissenschaftler\relax }{Hfootnote.188}{}}
\newlabel{hayek48}{{C.3}{52}{Wirtschaftswissenschaftler\relax }{Hfootnote.189}{}}
\newlabel{plant34}{{C.3}{52}{Wirtschaftswissenschaftler\relax }{Hfootnote.190}{}}
\@writefile{toc}{\contentsline {section}{\numberline {C.4}Mathematiker, Geisteswissenschaftler, Generalisten}{53}{section.C.4}}
\newlabel{filos}{{C.4}{53}{Mathematiker, Geisteswissenschaftler, Generalisten\relax }{section.C.4}{}}
\newlabel{newton}{{C.4}{53}{Mathematiker, Geisteswissenschaftler, Generalisten\relax }{section.C.4}{}}
\newlabel{jefferson}{{C.4}{53}{Mathematiker, Geisteswissenschaftler, Generalisten\relax }{Hfootnote.191}{}}
\newlabel{goethe}{{C.4}{53}{Mathematiker, Geisteswissenschaftler, Generalisten\relax }{Hfootnote.191}{}}
\@writefile{toc}{\contentsline {section}{\numberline {C.5}Politiker}{53}{section.C.5}}
\newlabel{polit}{{C.5}{53}{Politiker\relax }{section.C.5}{}}
\newlabel{esc0209}{{C.5}{54}{Politiker\relax }{section.C.5}{}}
\newlabel{cor}{{C.5}{55}{Politiker\relax }{Hfootnote.192}{}}
\newlabel{pstic}{{C.5}{55}{Politiker\relax }{Hfootnote.193}{}}
\newlabel{cheven}{{C.5}{56}{Politiker\relax }{Hfootnote.194}{}}
\newlabel{ledeaut}{{C.5}{57}{Politiker\relax }{Item.35}{}}
\newlabel{wolf}{{C.5}{58}{Politiker\relax }{Hfootnote.197}{}}
\newlabel{tauss}{{C.5}{58}{Politiker\relax }{Hfootnote.198}{}}
\newlabel{bruederle00}{{C.5}{59}{Politiker\relax }{Hfootnote.199}{}}
\newlabel{fdp01}{{C.5}{60}{Politiker\relax }{Hfootnote.200}{}}
\newlabel{mmayer}{{C.5}{61}{Politiker\relax }{Item.38}{}}
\newlabel{yepp}{{C.5}{61}{Politiker\relax }{Item.44}{}}
\newlabel{wodarg}{{C.5}{62}{Politiker\relax }{Item.44}{}}
\newlabel{dgmelin0010}{{C.5}{62}{Politiker\relax }{Item.44}{}}
\newlabel{dgmelin0103}{{C.5}{63}{Politiker\relax }{Hfootnote.206}{}}
\newlabel{hewitt01}{{C.5}{63}{Politiker\relax }{Hfootnote.206}{}}
\@writefile{toc}{\contentsline {section}{\numberline {C.6}Patentstrategen}{63}{section.C.6}}
\newlabel{patst}{{C.6}{63}{Patentstrategen\relax }{section.C.6}{}}
\newlabel{atnt00}{{C.6}{63}{Patentstrategen\relax }{Hfootnote.207}{}}
\newlabel{ibm90}{{C.6}{64}{Patentstrategen\relax }{Hfootnote.208}{}}
\newlabel{straus00}{{C.6}{64}{Patentstrategen\relax }{Hfootnote.209}{}}
\newlabel{the451-mundie010808}{{C.6}{64}{Patentstrategen\relax }{Hfootnote.210}{}}
\@writefile{toc}{\contentsline {section}{\numberline {C.7}Kommentierte Verweise}{64}{section.C.7}}
\newlabel{links}{{C.7}{64}{Kommentierte Verweise\relax }{section.C.7}{}}
\@writefile{toc}{\contentsline {section}{\numberline {C.8}Fragen, Aufgaben, Wie Sie helfen k\"{o}nnen}{64}{section.C.8}}
\newlabel{tasks}{{C.8}{64}{Fragen, Aufgaben, Wie Sie helfen k\"{o}nnen\relax }{section.C.8}{}}
\@writefile{toc}{\contentsline {chapter}{\numberline {D}Testsuite f\"{u}r die Gesetzgebung \"{u}ber die Grenzen der Patentierbarkeit}{65}{appendix.D}}
\@writefile{lof}{\addvspace {10\p@ }}
\@writefile{lot}{\addvspace {10\p@ }}
\newlabel{swpatmanri}{{D}{65}{Testsuite f\"{u}r die Gesetzgebung \"{u}ber die Grenzen der Patentierbarkeit\relax }{appendix.D}{}}
\@writefile{toc}{\contentsline {section}{\numberline {D.1}Einige Beispielpatente}{65}{section.D.1}}
\newlabel{comp}{{D.1}{65}{Einige Beispielpatente\relax }{section.D.1}{}}
\@writefile{toc}{\contentsline {section}{\numberline {D.2}Fragen, die f\"{u}r jedes Patent zu beantworten sind}{65}{section.D.2}}
\newlabel{kver}{{D.2}{65}{Fragen, die f\"{u}r jedes Patent zu beantworten sind\relax }{section.D.2}{}}
\@writefile{toc}{\contentsline {section}{\numberline {D.3}Vergleichstabelle}{66}{section.D.3}}
\newlabel{tab}{{D.3}{66}{Vergleichstabelle\relax }{section.D.3}{}}
\@writefile{toc}{\contentsline {section}{\numberline {D.4}Zu pr\"{u}fende Kandidaten: Gesetzesvorschl\"{a}ge von EUK/BSA, FFII/Eurolinux u.a.}{66}{section.D.4}}
\newlabel{test}{{D.4}{66}{Zu pr\"{u}fende Kandidaten: Gesetzesvorschl\"{a}ge von EUK/BSA, FFII/Eurolinux u.a}{section.D.4}{}}
\@writefile{toc}{\contentsline {chapter}{\numberline {E}Entw\"{u}rfe von BSA/EUK und EP\"{U}-basierter Gegenentwurf}{67}{appendix.E}}
\@writefile{lof}{\addvspace {10\p@ }}
\@writefile{lot}{\addvspace {10\p@ }}
\newlabel{eubsa-prop}{{E}{67}{Entw\"{u}rfe von BSA/EUK und EP\"{U}-basierter Gegenentwurf\relax }{appendix.E}{}}
\@writefile{toc}{\contentsline {section}{\numberline {E.1}Pr\"{a}ambel}{67}{section.E.1}}
\newlabel{pream}{{E.1}{67}{Pr\"{a}ambel\relax }{section.E.1}{}}
\@writefile{toc}{\contentsline {section}{\numberline {E.2}Die Artikel}{75}{section.E.2}}
\newlabel{arts}{{E.2}{75}{Die Artikel\relax }{section.E.2}{}}
\newlabel{prop1}{{E.2}{75}{Die Artikel\relax }{section.E.2}{}}
\newlabel{prop2}{{E.2}{75}{Die Artikel\relax }{section.E.2}{}}
\newlabel{prop3}{{E.2}{76}{Die Artikel\relax }{Item.55}{}}
\newlabel{prop4}{{E.2}{76}{Die Artikel\relax }{Item.55}{}}
\newlabel{prop5}{{E.2}{77}{Die Artikel\relax }{Hfootnote.223}{}}
\newlabel{prop6}{{E.2}{79}{Die Artikel\relax }{Item.70}{}}
\newlabel{prop7}{{E.2}{79}{Die Artikel\relax }{Item.72}{}}
\newlabel{prop8}{{E.2}{80}{Die Artikel\relax }{Item.72}{}}
\newlabel{prop9}{{E.2}{81}{Die Artikel\relax }{Item.78}{}}
\newlabel{prop10}{{E.2}{81}{Die Artikel\relax }{Item.78}{}}
\@writefile{toc}{\contentsline {section}{\numberline {E.3}Zugrundeliegende Erw\"{a}gungen}{82}{section.E.3}}
\newlabel{post}{{E.3}{82}{Zugrundeliegende Erw\"{a}gungen\relax }{section.E.3}{}}
\@writefile{toc}{\contentsline {section}{\numberline {E.4}Kommentierte Verweise}{83}{section.E.4}}
\newlabel{links}{{E.4}{83}{Kommentierte Verweise\relax }{section.E.4}{}}
\@writefile{toc}{\contentsline {chapter}{\numberline {F}Europ\"{a}isches Patentamt: Hoch \"{u}ber dem Gesetz}{84}{appendix.F}}
\@writefile{lof}{\addvspace {10\p@ }}
\@writefile{lot}{\addvspace {10\p@ }}
\newlabel{swpatepo}{{F}{84}{Europ\"{a}isches Patentamt: Hoch \"{u}ber dem Gesetz\relax }{appendix.F}{}}
\@writefile{toc}{\contentsline {section}{\numberline {F.1}Das EPA: eine besondere Rechtskonstruktion}{85}{section.F.1}}
\newlabel{intro}{{F.1}{85}{Das EPA: eine besondere Rechtskonstruktion\relax }{section.F.1}{}}
\@writefile{toc}{\contentsline {section}{\numberline {F.2}Aufl\"{o}sung des Erfindungsbegriff von Art 52 EP\"{U}}{85}{section.F.2}}
\newlabel{epc52}{{F.2}{85}{Aufl\"{o}sung des Erfindungsbegriff von Art 52 EP\"{U}\relax }{section.F.2}{}}
\@writefile{toc}{\contentsline {section}{\numberline {F.3}Missachtung der Patentierbarkeitsausnahmen von Art 53 EP\"{U}}{85}{section.F.3}}
\newlabel{epc53}{{F.3}{85}{Missachtung der Patentierbarkeitsausnahmen von Art 53 EP\"{U}\relax }{section.F.3}{}}
\@writefile{toc}{\contentsline {section}{\numberline {F.4}Aufweichung des Neuheitsbegriffs von Art 54 EP\"{U}}{85}{section.F.4}}
\newlabel{epc54}{{F.4}{85}{Aufweichung des Neuheitsbegriffs von Art 54 EP\"{U}\relax }{section.F.4}{}}
\@writefile{toc}{\contentsline {section}{\numberline {F.5}Formelle Sicht von Art 52 EP\"{U}: Niedrigste Erfindungsh\"{o}he der Welt}{86}{section.F.5}}
\newlabel{epc56}{{F.5}{86}{Formelle Sicht von Art 52 EP\"{U}: Niedrigste Erfindungsh\"{o}he der Welt\relax }{section.F.5}{}}
\@writefile{toc}{\contentsline {section}{\numberline {F.6}St\"{a}ndig sinkende Pr\"{u}fungsqualit\"{a}t}{86}{section.F.6}}
\newlabel{exam}{{F.6}{86}{St\"{a}ndig sinkende Pr\"{u}fungsqualit\"{a}t\relax }{section.F.6}{}}
\@writefile{toc}{\contentsline {section}{\numberline {F.7}BEST: schlechtestm\"{o}gliche Pr\"{u}fungsqualit\"{a}t, gesetzeswidrig eingef\"{u}hrt, 2000 legalisiert}{87}{section.F.7}}
\newlabel{best}{{F.7}{87}{BEST: schlechtestm\"{o}gliche Pr\"{u}fungsqualit\"{a}t, gesetzeswidrig eingef\"{u}hrt, 2000 legalisiert\relax }{section.F.7}{}}
\@writefile{toc}{\contentsline {section}{\numberline {F.8}Probleme der Neuheitsrecherche zunehmend komplex, EPA weit abgeschlagen}{88}{section.F.8}}
\newlabel{obje}{{F.8}{88}{Probleme der Neuheitsrecherche zunehmend komplex, EPA weit abgeschlagen\relax }{section.F.8}{}}
\@writefile{toc}{\contentsline {section}{\numberline {F.9}Rechtsfreier Raum, schlechtes Arbeitsklima}{88}{section.F.9}}
\newlabel{pers}{{F.9}{88}{Rechtsfreier Raum, schlechtes Arbeitsklima\relax }{section.F.9}{}}
\@writefile{toc}{\contentsline {section}{\numberline {F.10}Karrieren zwischen \"{U}berwachenden Organen und EPA}{89}{section.F.10}}
\newlabel{karr}{{F.10}{89}{Karrieren zwischen \"{U}berwachenden Organen und EPA\relax }{section.F.10}{}}
\@writefile{toc}{\contentsline {section}{\numberline {F.11}Unabh\"{a}ngigkeit der Beschwerdekammern nicht gew\"{a}hrleistet}{89}{section.F.11}}
\newlabel{kamm}{{F.11}{89}{Unabh\"{a}ngigkeit der Beschwerdekammern nicht gew\"{a}hrleistet\relax }{section.F.11}{}}
\@writefile{toc}{\contentsline {section}{\numberline {F.12}Vorenthaltung von Patentinformationen.}{90}{section.F.12}}
\newlabel{espa}{{F.12}{90}{Vorenthaltung von Patentinformationen}{section.F.12}{}}
\@writefile{toc}{\contentsline {section}{\numberline {F.13}Fragen, Aufgaben, Wie Sie helfen k\"{o}nnen}{90}{section.F.13}}
\newlabel{tasks}{{F.13}{90}{Fragen, Aufgaben, Wie Sie helfen k\"{o}nnen\relax }{section.F.13}{}}
