\relax 
\ifx\hyper@anchor\@undefined
\global \let \oldcontentsline\contentsline
\gdef \contentsline#1#2#3#4{\oldcontentsline{#1}{#2}{#3}}
\global \let \oldnewlabel\newlabel
\gdef \newlabel#1#2{\newlabelxx{#1}#2}
\gdef \newlabelxx#1#2#3#4#5#6{\oldnewlabel{#1}{{#2}{#3}}}
\AtEndDocument{\let \contentsline\oldcontentsline
\let \newlabel\oldnewlabel}
\else
\global \let \hyper@last\relax 
\fi

\csname auxWARNINGii\endcsname {\typeout {-34- this file and other auxiliary files require to use the following}}
\csname auxWARNINGii\endcsname {\typeout {-34- LaTeX packages: french and babel!}}
\csname auxWARNINGii\endcsname {\typeout {-34- check \protect \usepackage \space or remove these files. Typesetting is aborted!} \stop }
\select@language{french}
\@writefile{toc}{\select@language{french}}
\@writefile{lof}{\select@language{french}}
\@writefile{lot}{\select@language{french}}
\select@language{french}
\@writefile{toc}{\select@language{french}}
\@writefile{lof}{\select@language{french}}
\@writefile{lot}{\select@language{french}}
\@writefile{toc}{\contentsline {chapter}{\numberline {1}Nous sommes pr\'{e}occup\'{e}s par les faits suivants}{4}{chapter.1}}
\@writefile{lof}{\addvspace {10\p@ }}
\@writefile{lot}{\addvspace {10\p@ }}
\newlabel{prob}{{1}{4}{Nous sommes pr\'{e}occup\'{e}s par les faits suivants\relax }{chapter.1}{}}
\@writefile{toc}{\contentsline {chapter}{\numberline {2}Pour rem\'{e}dier \`{a} cela, nous proposons les mesures suivantes}{5}{chapter.2}}
\@writefile{lof}{\addvspace {10\p@ }}
\@writefile{lot}{\addvspace {10\p@ }}
\newlabel{solv}{{2}{5}{Pour rem\'{e}dier \`{a} cela, nous proposons les mesures suivantes\relax }{chapter.2}{}}
\@writefile{toc}{\contentsline {chapter}{\numberline {3}Signataires}{7}{chapter.3}}
\@writefile{lof}{\addvspace {10\p@ }}
\@writefile{lot}{\addvspace {10\p@ }}
\newlabel{sign}{{3}{7}{Signataires\relax }{chapter.3}{}}
\@writefile{toc}{\contentsline {chapter}{\numberline {A}Brevets Logiciels Europ\'{e}ens\@DP  Quelques \'{E}chantillons}{11}{appendix.A}}
\@writefile{lof}{\addvspace {10\p@ }}
\@writefile{lot}{\addvspace {10\p@ }}
\newlabel{swpikmupli}{{A}{11}{Brevets Logiciels Europ\'{e}ens: Quelques \'{E}chantillons\relax }{appendix.A}{}}
\@writefile{toc}{\contentsline {section}{\numberline {A.1}Exemplaire Exhibit\'{e}s}{11}{section.A.1}}
\newlabel{pag}{{A.1}{11}{Exemplaire Exhibit\'{e}s\relax }{section.A.1}{}}
\@writefile{toc}{\contentsline {section}{\numberline {A.2}Candidats}{17}{section.A.2}}
\newlabel{epat}{{A.2}{17}{Candidats\relax }{section.A.2}{}}
\@writefile{toc}{\contentsline {chapter}{\numberline {B}Brevets Logiciels en Action}{18}{appendix.B}}
\@writefile{lof}{\addvspace {10\p@ }}
\@writefile{lot}{\addvspace {10\p@ }}
\newlabel{swpikxrani}{{B}{18}{Brevets Logiciels en Action\relax }{appendix.B}{}}
\@writefile{toc}{\contentsline {section}{\numberline {B.1}Quelques Cas bien document\'{e}s}{18}{section.B.1}}
\newlabel{kazoj}{{B.1}{18}{Quelques Cas bien document\'{e}s\relax }{section.B.1}{}}
\@writefile{toc}{\contentsline {section}{\numberline {B.2}Liens Annot\'{e}s}{24}{section.B.2}}
\newlabel{links}{{B.2}{24}{Liens Annot\'{e}s\relax }{section.B.2}{}}
\@writefile{toc}{\contentsline {chapter}{\numberline {C}Citations sur la Question de la Brevetabilit\'{e} des R\`{e}gles d'Organisation et de Calcul}{25}{appendix.C}}
\@writefile{lof}{\addvspace {10\p@ }}
\@writefile{lot}{\addvspace {10\p@ }}
\newlabel{swpatcusku}{{C}{25}{Citations sur la Question de la Brevetabilit\'{e} des R\`{e}gles d'Organisation et de Calcul\relax }{appendix.C}{}}
\@writefile{toc}{\contentsline {section}{\numberline {C.1}Informaticiens et Techniciens}{25}{section.C.1}}
\newlabel{swpra}{{C.1}{25}{Informaticiens et Techniciens\relax }{section.C.1}{}}
\newlabel{reback0206}{{C.1}{26}{Informaticiens et Techniciens\relax }{Hfootnote.144}{}}
\newlabel{eubsa}{{C.1}{26}{Informaticiens et Techniciens\relax }{Hfootnote.145}{}}
\newlabel{uspto94-rms}{{C.1}{27}{Informaticiens et Techniciens\relax }{Hfootnote.146}{}}
\newlabel{haren01}{{C.1}{28}{Informaticiens et Techniciens\relax }{Hfootnote.148}{}}
\newlabel{ftc020228-cisco}{{C.1}{29}{Informaticiens et Techniciens\relax }{Hfootnote.149}{}}
\newlabel{cadence02}{{C.1}{29}{Informaticiens et Techniciens\relax }{Hfootnote.150}{}}
\newlabel{greenhall02}{{C.1}{29}{Informaticiens et Techniciens\relax }{Hfootnote.151}{}}
\newlabel{adobe94}{{C.1}{30}{Informaticiens et Techniciens\relax }{Hfootnote.152}{}}
\newlabel{kaplan02}{{C.1}{30}{Informaticiens et Techniciens\relax }{Hfootnote.153}{}}
\newlabel{oracle94}{{C.1}{31}{Informaticiens et Techniciens\relax }{Hfootnote.154}{}}
\newlabel{autodesk94}{{C.1}{32}{Informaticiens et Techniciens\relax }{Hfootnote.155}{}}
\newlabel{kapor94}{{C.1}{33}{Informaticiens et Techniciens\relax }{Hfootnote.156}{}}
\newlabel{bgates91}{{C.1}{33}{Informaticiens et Techniciens\relax }{Hfootnote.157}{}}
\newlabel{opera}{{C.1}{33}{Informaticiens et Techniciens\relax }{Hfootnote.157}{}}
\newlabel{linus02}{{C.1}{34}{Informaticiens et Techniciens\relax }{Hfootnote.157}{}}
\newlabel{advogato-asfpat}{{C.1}{34}{Informaticiens et Techniciens\relax }{Hfootnote.158}{}}
\@writefile{toc}{\contentsline {section}{\numberline {C.2}Experts en Droit, Juges}{34}{section.C.2}}
\newlabel{iuris}{{C.2}{34}{Experts en Droit, Juges\relax }{section.C.2}{}}
\newlabel{lamy98}{{C.2}{34}{Experts en Droit, Juges\relax }{Hfootnote.159}{}}
\newlabel{dispo76}{{C.2}{36}{Experts en Droit, Juges\relax }{Hfootnote.160}{}}
\newlabel{bgh-walzst80}{{C.2}{36}{Experts en Droit, Juges\relax }{Hfootnote.165}{}}
\newlabel{kolle77}{{C.2}{39}{Experts en Droit, Juges\relax }{Hfootnote.166}{}}
\newlabel{epo78}{{C.2}{40}{Experts en Droit, Juges\relax }{Hfootnote.169}{}}
\newlabel{krasser86}{{C.2}{41}{Experts en Droit, Juges\relax }{Hfootnote.170}{}}
\newlabel{lenz01}{{C.2}{42}{Experts en Droit, Juges\relax }{Hfootnote.171}{}}
\newlabel{atlantic1882}{{C.2}{42}{Experts en Droit, Juges\relax }{Hfootnote.171}{}}
\newlabel{stuber}{{C.2}{42}{Experts en Droit, Juges\relax }{Hfootnote.171}{}}
\newlabel{kohler}{{C.2}{43}{Experts en Droit, Juges\relax }{Hfootnote.172}{}}
\newlabel{folk}{{C.2}{43}{Experts en Droit, Juges\relax }{Hfootnote.173}{}}
\newlabel{kinsella02}{{C.2}{43}{Experts en Droit, Juges\relax }{Hfootnote.174}{}}
\@writefile{toc}{\contentsline {section}{\numberline {C.3}\'{E}conomistes}{43}{section.C.3}}
\newlabel{ekon}{{C.3}{43}{\'{E}conomistes\relax }{section.C.3}{}}
\newlabel{iprcommission0209}{{C.3}{44}{\'{E}conomistes\relax }{Item.29}{}}
\newlabel{mopoko0207}{{C.3}{45}{\'{E}conomistes\relax }{Hfootnote.179}{}}
\newlabel{shulman00}{{C.3}{46}{\'{E}conomistes\relax }{Hfootnote.180}{}}
\newlabel{digidilem00}{{C.3}{46}{\'{E}conomistes\relax }{Hfootnote.181}{}}
\newlabel{mandeville82}{{C.3}{46}{\'{E}conomistes\relax }{Hfootnote.182}{}}
\newlabel{canada71}{{C.3}{47}{\'{E}conomistes\relax }{Hfootnote.183}{}}
\newlabel{machlup58}{{C.3}{47}{\'{E}conomistes\relax }{Hfootnote.184}{}}
\newlabel{penrose51}{{C.3}{47}{\'{E}conomistes\relax }{Hfootnote.185}{}}
\newlabel{gran90}{{C.3}{47}{\'{E}conomistes\relax }{Hfootnote.186}{}}
\newlabel{scotchmer90}{{C.3}{48}{\'{E}conomistes\relax }{Hfootnote.187}{}}
\newlabel{wirth1866}{{C.3}{48}{\'{E}conomistes\relax }{Hfootnote.188}{}}
\newlabel{polanyi44}{{C.3}{48}{\'{E}conomistes\relax }{Hfootnote.189}{}}
\newlabel{mises49}{{C.3}{49}{\'{E}conomistes\relax }{Hfootnote.190}{}}
\newlabel{hayek48}{{C.3}{49}{\'{E}conomistes\relax }{Hfootnote.191}{}}
\newlabel{plant34}{{C.3}{49}{\'{E}conomistes\relax }{Hfootnote.192}{}}
\@writefile{toc}{\contentsline {section}{\numberline {C.4}Math\'{e}maticiens, Savants de la Pens\'{e}e, Intellectuels}{49}{section.C.4}}
\newlabel{filos}{{C.4}{49}{Math\'{e}maticiens, Savants de la Pens\'{e}e, Intellectuels\relax }{section.C.4}{}}
\newlabel{newton}{{C.4}{49}{Math\'{e}maticiens, Savants de la Pens\'{e}e, Intellectuels\relax }{section.C.4}{}}
\newlabel{jefferson}{{C.4}{49}{Math\'{e}maticiens, Savants de la Pens\'{e}e, Intellectuels\relax }{Hfootnote.193}{}}
\newlabel{goethe}{{C.4}{50}{Math\'{e}maticiens, Savants de la Pens\'{e}e, Intellectuels\relax }{Hfootnote.193}{}}
\@writefile{toc}{\contentsline {section}{\numberline {C.5}Politiciens}{50}{section.C.5}}
\newlabel{polit}{{C.5}{50}{Politiciens\relax }{section.C.5}{}}
\newlabel{esc0209}{{C.5}{50}{Politiciens\relax }{section.C.5}{}}
\newlabel{cor}{{C.5}{51}{Politiciens\relax }{Hfootnote.194}{}}
\newlabel{pstic}{{C.5}{52}{Politiciens\relax }{Hfootnote.195}{}}
\newlabel{cheven}{{C.5}{52}{Politiciens\relax }{Hfootnote.196}{}}
\newlabel{ledeaut}{{C.5}{53}{Politiciens\relax }{Item.35}{}}
\newlabel{wolf}{{C.5}{54}{Politiciens\relax }{Hfootnote.199}{}}
\newlabel{tauss}{{C.5}{55}{Politiciens\relax }{Hfootnote.200}{}}
\newlabel{bruederle00}{{C.5}{55}{Politiciens\relax }{Hfootnote.201}{}}
\newlabel{fdp01}{{C.5}{56}{Politiciens\relax }{Hfootnote.202}{}}
\newlabel{mmayer}{{C.5}{57}{Politiciens\relax }{Item.38}{}}
\newlabel{yepp}{{C.5}{57}{Politiciens\relax }{Item.44}{}}
\newlabel{wodarg}{{C.5}{58}{Politiciens\relax }{Item.44}{}}
\newlabel{dgmelin0010}{{C.5}{58}{Politiciens\relax }{Item.44}{}}
\newlabel{dgmelin0103}{{C.5}{59}{Politiciens\relax }{Hfootnote.208}{}}
\newlabel{hewitt01}{{C.5}{59}{Politiciens\relax }{Hfootnote.208}{}}
\@writefile{toc}{\contentsline {section}{\numberline {C.6}Strat\`{e}ges en Brevet}{59}{section.C.6}}
\newlabel{patst}{{C.6}{59}{Strat\`{e}ges en Brevet\relax }{section.C.6}{}}
\newlabel{atnt00}{{C.6}{59}{Strat\`{e}ges en Brevet\relax }{Hfootnote.209}{}}
\newlabel{ibm90}{{C.6}{60}{Strat\`{e}ges en Brevet\relax }{Hfootnote.210}{}}
\newlabel{straus00}{{C.6}{60}{Strat\`{e}ges en Brevet\relax }{Hfootnote.211}{}}
\newlabel{the451-mundie010808}{{C.6}{60}{Strat\`{e}ges en Brevet\relax }{Hfootnote.212}{}}
\@writefile{toc}{\contentsline {section}{\numberline {C.7}Liens Annot\'{e}s}{60}{section.C.7}}
\newlabel{links}{{C.7}{60}{Liens Annot\'{e}s\relax }{section.C.7}{}}
\@writefile{toc}{\contentsline {section}{\numberline {C.8}Questions, Choses a faires, Comment vous pouvez aider}{61}{section.C.8}}
\newlabel{tasks}{{C.8}{61}{Questions, Choses a faires, Comment vous pouvez aider\relax }{section.C.8}{}}
\@writefile{toc}{\contentsline {chapter}{\numberline {D}Ensemble de tests pour la l\'{e}gislation sur les limites de la brevetabilit\'{e}}{62}{appendix.D}}
\@writefile{lof}{\addvspace {10\p@ }}
\@writefile{lot}{\addvspace {10\p@ }}
\newlabel{swpatmanri}{{D}{62}{Ensemble de tests pour la l\'{e}gislation sur les limites de la brevetabilit\'{e}\relax }{appendix.D}{}}
\@writefile{toc}{\contentsline {section}{\numberline {D.1}Quelques exemples de brevets}{62}{section.D.1}}
\newlabel{comp}{{D.1}{62}{Quelques exemples de brevets\relax }{section.D.1}{}}
\@writefile{toc}{\contentsline {section}{\numberline {D.2}Questions auxquelles chaque brevet doit r\'{e}pondre}{62}{section.D.2}}
\newlabel{kver}{{D.2}{62}{Questions auxquelles chaque brevet doit r\'{e}pondre\relax }{section.D.2}{}}
\@writefile{toc}{\contentsline {section}{\numberline {D.3}Tableau comparatif}{63}{section.D.3}}
\newlabel{tab}{{D.3}{63}{Tableau comparatif\relax }{section.D.3}{}}
\@writefile{toc}{\contentsline {section}{\numberline {D.4}Candidats \`{a} essayer\@DP  Propositions de loi de CEC/BSA, FFII/Eurolinux et d'autres}{63}{section.D.4}}
\newlabel{test}{{D.4}{63}{Candidats \`{a} essayer: Propositions de loi de CEC/BSA, FFII/Eurolinux et d'autres\relax }{section.D.4}{}}
\@writefile{toc}{\contentsline {chapter}{\numberline {E}Proposition(s) BSA/CCE et Contre-Proposition Bas\'{e}e sur la CBE}{64}{appendix.E}}
\@writefile{lof}{\addvspace {10\p@ }}
\@writefile{lot}{\addvspace {10\p@ }}
\newlabel{eubsa-prop}{{E}{64}{Proposition(s) BSA/CCE et Contre-Proposition Bas\'{e}e sur la CBE\relax }{appendix.E}{}}
\@writefile{toc}{\contentsline {section}{\numberline {E.1}Pr\'{e}ambule}{64}{section.E.1}}
\newlabel{pream}{{E.1}{64}{Pr\'{e}ambule\relax }{section.E.1}{}}
\@writefile{toc}{\contentsline {section}{\numberline {E.2}Les Articles}{71}{section.E.2}}
\newlabel{arts}{{E.2}{71}{Les Articles\relax }{section.E.2}{}}
\newlabel{prop1}{{E.2}{71}{Les Articles\relax }{section.E.2}{}}
\newlabel{prop2}{{E.2}{72}{Les Articles\relax }{section.E.2}{}}
\newlabel{prop3}{{E.2}{72}{Les Articles\relax }{Item.55}{}}
\newlabel{prop4}{{E.2}{73}{Les Articles\relax }{Item.55}{}}
\newlabel{prop5}{{E.2}{74}{Les Articles\relax }{Hfootnote.229}{}}
\newlabel{prop6}{{E.2}{75}{Les Articles\relax }{Item.70}{}}
\newlabel{prop7}{{E.2}{76}{Les Articles\relax }{Item.72}{}}
\newlabel{prop8}{{E.2}{76}{Les Articles\relax }{Item.72}{}}
\newlabel{prop9}{{E.2}{77}{Les Articles\relax }{Item.78}{}}
\newlabel{prop10}{{E.2}{77}{Les Articles\relax }{Item.78}{}}
\@writefile{toc}{\contentsline {section}{\numberline {E.3}Remarques}{78}{section.E.3}}
\newlabel{post}{{E.3}{78}{Remarques\relax }{section.E.3}{}}
\@writefile{toc}{\contentsline {section}{\numberline {E.4}Liens Annot\'{e}s}{79}{section.E.4}}
\newlabel{links}{{E.4}{79}{Liens Annot\'{e}s\relax }{section.E.4}{}}
