\relax 
\ifx\hyper@anchor\@undefined
\global \let \oldcontentsline\contentsline
\gdef \contentsline#1#2#3#4{\oldcontentsline{#1}{#2}{#3}}
\global \let \oldnewlabel\newlabel
\gdef \newlabel#1#2{\newlabelxx{#1}#2}
\gdef \newlabelxx#1#2#3#4#5#6{\oldnewlabel{#1}{{#2}{#3}}}
\AtEndDocument{\let \contentsline\oldcontentsline
\let \newlabel\oldnewlabel}
\else
\global \let \hyper@last\relax 
\fi

\@writefile{toc}{\contentsline {chapter}{\numberline {1}We are concerned that}{5}{chapter.1}}
\@writefile{lof}{\addvspace {10\p@ }}
\@writefile{lot}{\addvspace {10\p@ }}
\newlabel{prob}{{1}{5}{We are concerned that\relax }{chapter.1}{}}
\@writefile{toc}{\contentsline {chapter}{\numberline {2}For these reasons we recommend the following:}{6}{chapter.2}}
\@writefile{lof}{\addvspace {10\p@ }}
\@writefile{lot}{\addvspace {10\p@ }}
\newlabel{solv}{{2}{6}{For these reasons we recommend the following:\relax }{chapter.2}{}}
\@writefile{toc}{\contentsline {chapter}{\numberline {3}Signatories}{8}{chapter.3}}
\@writefile{lof}{\addvspace {10\p@ }}
\@writefile{lot}{\addvspace {10\p@ }}
\newlabel{sign}{{3}{8}{Signatories\relax }{chapter.3}{}}
\@writefile{toc}{\contentsline {chapter}{\numberline {A}European Software Patents: Assorted Examples}{11}{appendix.A}}
\@writefile{lof}{\addvspace {10\p@ }}
\@writefile{lot}{\addvspace {10\p@ }}
\newlabel{swpikmupli}{{A}{11}{European Software Patents: Assorted Examples\relax }{appendix.A}{}}
\@writefile{toc}{\contentsline {section}{\numberline {A.1}Exhibited Specimens}{11}{section.A.1}}
\newlabel{pag}{{A.1}{11}{Exhibited Specimens\relax }{section.A.1}{}}
\@writefile{toc}{\contentsline {section}{\numberline {A.2}Candidates}{17}{section.A.2}}
\newlabel{epat}{{A.2}{17}{Candidates\relax }{section.A.2}{}}
\@writefile{toc}{\contentsline {chapter}{\numberline {B}Software Patents in Action}{18}{appendix.B}}
\@writefile{lof}{\addvspace {10\p@ }}
\@writefile{lot}{\addvspace {10\p@ }}
\newlabel{swpikxrani}{{B}{18}{Software Patents in Action\relax }{appendix.B}{}}
\@writefile{toc}{\contentsline {section}{\numberline {B.1}Some Well Documented Cases}{18}{section.B.1}}
\newlabel{kazoj}{{B.1}{18}{Some Well Documented Cases\relax }{section.B.1}{}}
\@writefile{toc}{\contentsline {section}{\numberline {B.2}Annotated Links}{25}{section.B.2}}
\newlabel{links}{{B.2}{25}{Annotated Links\relax }{section.B.2}{}}
\@writefile{toc}{\contentsline {chapter}{\numberline {C}Quotations on the question of the patentability of rules of organisation and calculation}{26}{appendix.C}}
\@writefile{lof}{\addvspace {10\p@ }}
\@writefile{lot}{\addvspace {10\p@ }}
\newlabel{swpatcusku}{{C}{26}{Quotations on the question of the patentability of rules of organisation and calculation\relax }{appendix.C}{}}
\@writefile{toc}{\contentsline {section}{\numberline {C.1}Software \& Technology Practitioners}{26}{section.C.1}}
\newlabel{swpra}{{C.1}{26}{Software \& Technology Practitioners\relax }{section.C.1}{}}
\newlabel{reback0206}{{C.1}{27}{Software \& Technology Practitioners\relax }{Hfootnote.142}{}}
\newlabel{eubsa}{{C.1}{27}{Software \& Technology Practitioners\relax }{Hfootnote.143}{}}
\newlabel{uspto94-rms}{{C.1}{28}{Software \& Technology Practitioners\relax }{Hfootnote.144}{}}
\newlabel{haren01}{{C.1}{29}{Software \& Technology Practitioners\relax }{Hfootnote.146}{}}
\newlabel{ftc020228-cisco}{{C.1}{29}{Software \& Technology Practitioners\relax }{Hfootnote.147}{}}
\newlabel{cadence02}{{C.1}{30}{Software \& Technology Practitioners\relax }{Hfootnote.148}{}}
\newlabel{greenhall02}{{C.1}{30}{Software \& Technology Practitioners\relax }{Hfootnote.149}{}}
\newlabel{adobe94}{{C.1}{31}{Software \& Technology Practitioners\relax }{Hfootnote.150}{}}
\newlabel{kaplan02}{{C.1}{31}{Software \& Technology Practitioners\relax }{Hfootnote.151}{}}
\newlabel{oracle94}{{C.1}{32}{Software \& Technology Practitioners\relax }{Hfootnote.152}{}}
\newlabel{autodesk94}{{C.1}{33}{Software \& Technology Practitioners\relax }{Hfootnote.153}{}}
\newlabel{kapor94}{{C.1}{34}{Software \& Technology Practitioners\relax }{Hfootnote.154}{}}
\newlabel{bgates91}{{C.1}{34}{Software \& Technology Practitioners\relax }{Hfootnote.155}{}}
\newlabel{opera}{{C.1}{34}{Software \& Technology Practitioners\relax }{Hfootnote.155}{}}
\newlabel{linus02}{{C.1}{35}{Software \& Technology Practitioners\relax }{Hfootnote.155}{}}
\newlabel{advogato-asfpat}{{C.1}{35}{Software \& Technology Practitioners\relax }{Hfootnote.156}{}}
\@writefile{toc}{\contentsline {section}{\numberline {C.2}Law Scholars, Judges, Patent Practitioners}{35}{section.C.2}}
\newlabel{iuris}{{C.2}{35}{Law Scholars, Judges, Patent Practitioners\relax }{section.C.2}{}}
\newlabel{lamy98}{{C.2}{36}{Law Scholars, Judges, Patent Practitioners\relax }{Hfootnote.157}{}}
\newlabel{dispo76}{{C.2}{37}{Law Scholars, Judges, Patent Practitioners\relax }{Hfootnote.158}{}}
\newlabel{bgh-walzst80}{{C.2}{37}{Law Scholars, Judges, Patent Practitioners\relax }{Hfootnote.163}{}}
\newlabel{kolle77}{{C.2}{40}{Law Scholars, Judges, Patent Practitioners\relax }{Hfootnote.164}{}}
\newlabel{epo78}{{C.2}{41}{Law Scholars, Judges, Patent Practitioners\relax }{Hfootnote.167}{}}
\newlabel{krasser86}{{C.2}{42}{Law Scholars, Judges, Patent Practitioners\relax }{Hfootnote.168}{}}
\newlabel{lenz01}{{C.2}{43}{Law Scholars, Judges, Patent Practitioners\relax }{Hfootnote.169}{}}
\newlabel{atlantic1882}{{C.2}{43}{Law Scholars, Judges, Patent Practitioners\relax }{Hfootnote.169}{}}
\newlabel{stuber}{{C.2}{43}{Law Scholars, Judges, Patent Practitioners\relax }{Hfootnote.169}{}}
\newlabel{kohler}{{C.2}{43}{Law Scholars, Judges, Patent Practitioners\relax }{Hfootnote.170}{}}
\newlabel{folk}{{C.2}{44}{Law Scholars, Judges, Patent Practitioners\relax }{Hfootnote.171}{}}
\newlabel{kinsella02}{{C.2}{44}{Law Scholars, Judges, Patent Practitioners\relax }{Hfootnote.172}{}}
\@writefile{toc}{\contentsline {section}{\numberline {C.3}Economists}{44}{section.C.3}}
\newlabel{ekon}{{C.3}{44}{Economists\relax }{section.C.3}{}}
\newlabel{iprcommission0209}{{C.3}{45}{Economists\relax }{Item.29}{}}
\newlabel{mopoko0207}{{C.3}{46}{Economists\relax }{Hfootnote.177}{}}
\newlabel{shulman00}{{C.3}{47}{Economists\relax }{Hfootnote.178}{}}
\newlabel{digidilem00}{{C.3}{47}{Economists\relax }{Hfootnote.179}{}}
\newlabel{mandeville82}{{C.3}{47}{Economists\relax }{Hfootnote.180}{}}
\newlabel{canada71}{{C.3}{48}{Economists\relax }{Hfootnote.181}{}}
\newlabel{machlup58}{{C.3}{48}{Economists\relax }{Hfootnote.182}{}}
\newlabel{penrose51}{{C.3}{48}{Economists\relax }{Hfootnote.183}{}}
\newlabel{gran90}{{C.3}{49}{Economists\relax }{Hfootnote.184}{}}
\newlabel{scotchmer90}{{C.3}{49}{Economists\relax }{Hfootnote.185}{}}
\newlabel{wirth1866}{{C.3}{49}{Economists\relax }{Hfootnote.186}{}}
\newlabel{polanyi44}{{C.3}{49}{Economists\relax }{Hfootnote.187}{}}
\newlabel{mises49}{{C.3}{50}{Economists\relax }{Hfootnote.188}{}}
\newlabel{hayek48}{{C.3}{50}{Economists\relax }{Hfootnote.189}{}}
\newlabel{plant34}{{C.3}{50}{Economists\relax }{Hfootnote.190}{}}
\@writefile{toc}{\contentsline {section}{\numberline {C.4}Mathematicians, Philosophers, Generalists}{50}{section.C.4}}
\newlabel{filos}{{C.4}{50}{Mathematicians, Philosophers, Generalists\relax }{section.C.4}{}}
\newlabel{newton}{{C.4}{50}{Mathematicians, Philosophers, Generalists\relax }{section.C.4}{}}
\newlabel{jefferson}{{C.4}{51}{Mathematicians, Philosophers, Generalists\relax }{Hfootnote.191}{}}
\newlabel{goethe}{{C.4}{51}{Mathematicians, Philosophers, Generalists\relax }{Hfootnote.191}{}}
\@writefile{toc}{\contentsline {section}{\numberline {C.5}Politicians}{51}{section.C.5}}
\newlabel{polit}{{C.5}{51}{Politicians\relax }{section.C.5}{}}
\newlabel{esc0209}{{C.5}{51}{Politicians\relax }{section.C.5}{}}
\newlabel{cor}{{C.5}{52}{Politicians\relax }{Hfootnote.192}{}}
\newlabel{pstic}{{C.5}{53}{Politicians\relax }{Hfootnote.193}{}}
\newlabel{cheven}{{C.5}{53}{Politicians\relax }{Hfootnote.194}{}}
\newlabel{ledeaut}{{C.5}{54}{Politicians\relax }{Item.35}{}}
\newlabel{wolf}{{C.5}{55}{Politicians\relax }{Hfootnote.197}{}}
\newlabel{tauss}{{C.5}{56}{Politicians\relax }{Hfootnote.198}{}}
\newlabel{bruederle00}{{C.5}{56}{Politicians\relax }{Hfootnote.199}{}}
\newlabel{fdp01}{{C.5}{57}{Politicians\relax }{Hfootnote.200}{}}
\newlabel{mmayer}{{C.5}{58}{Politicians\relax }{Item.38}{}}
\newlabel{yepp}{{C.5}{59}{Politicians\relax }{Item.44}{}}
\newlabel{wodarg}{{C.5}{59}{Politicians\relax }{Item.44}{}}
\newlabel{dgmelin0010}{{C.5}{59}{Politicians\relax }{Item.44}{}}
\newlabel{dgmelin0103}{{C.5}{60}{Politicians\relax }{Hfootnote.206}{}}
\newlabel{hewitt01}{{C.5}{60}{Politicians\relax }{Hfootnote.206}{}}
\@writefile{toc}{\contentsline {section}{\numberline {C.6}Patent strategists}{60}{section.C.6}}
\newlabel{patst}{{C.6}{60}{Patent strategists\relax }{section.C.6}{}}
\newlabel{atnt00}{{C.6}{60}{Patent strategists\relax }{Hfootnote.207}{}}
\newlabel{ibm90}{{C.6}{61}{Patent strategists\relax }{Hfootnote.208}{}}
\newlabel{straus00}{{C.6}{61}{Patent strategists\relax }{Hfootnote.209}{}}
\newlabel{the451-mundie010808}{{C.6}{61}{Patent strategists\relax }{Hfootnote.210}{}}
\@writefile{toc}{\contentsline {section}{\numberline {C.7}Annotated Links}{61}{section.C.7}}
\newlabel{links}{{C.7}{61}{Annotated Links\relax }{section.C.7}{}}
\@writefile{toc}{\contentsline {section}{\numberline {C.8}Questions, Things To Do, How you can Help}{61}{section.C.8}}
\newlabel{tasks}{{C.8}{61}{Questions, Things To Do, How you can Help\relax }{section.C.8}{}}
\@writefile{toc}{\contentsline {chapter}{\numberline {D}Patentability Legislation Benchmarking Test Suite}{62}{appendix.D}}
\@writefile{lof}{\addvspace {10\p@ }}
\@writefile{lot}{\addvspace {10\p@ }}
\newlabel{swpatmanri}{{D}{62}{Patentability Legislation Benchmarking Test Suite\relax }{appendix.D}{}}
\@writefile{toc}{\contentsline {section}{\numberline {D.1}Some sample patents}{62}{section.D.1}}
\newlabel{comp}{{D.1}{62}{Some sample patents\relax }{section.D.1}{}}
\@writefile{toc}{\contentsline {section}{\numberline {D.2}Questions to be answered for each}{62}{section.D.2}}
\newlabel{kver}{{D.2}{62}{Questions to be answered for each\relax }{section.D.2}{}}
\@writefile{toc}{\contentsline {section}{\numberline {D.3}Comparison Table}{63}{section.D.3}}
\newlabel{tab}{{D.3}{63}{Comparison Table\relax }{section.D.3}{}}
\@writefile{toc}{\contentsline {section}{\numberline {D.4}Legislation candidates to be tested}{63}{section.D.4}}
\newlabel{test}{{D.4}{63}{Legislation candidates to be tested\relax }{section.D.4}{}}
\@writefile{toc}{\contentsline {chapter}{\numberline {E}The BSA/CEC Proposal(s) and EPC-based Counter-Proposal}{64}{appendix.E}}
\@writefile{lof}{\addvspace {10\p@ }}
\@writefile{lot}{\addvspace {10\p@ }}
\newlabel{eubsa-prop}{{E}{64}{The BSA/CEC Proposal(s) and EPC-based Counter-Proposal\relax }{appendix.E}{}}
\@writefile{toc}{\contentsline {section}{\numberline {E.1}Preamble}{64}{section.E.1}}
\newlabel{pream}{{E.1}{64}{Preamble\relax }{section.E.1}{}}
\@writefile{toc}{\contentsline {section}{\numberline {E.2}The Articles}{71}{section.E.2}}
\newlabel{arts}{{E.2}{71}{The Articles\relax }{section.E.2}{}}
\newlabel{prop1}{{E.2}{71}{The Articles\relax }{section.E.2}{}}
\newlabel{prop2}{{E.2}{72}{The Articles\relax }{section.E.2}{}}
\newlabel{prop3}{{E.2}{72}{The Articles\relax }{Item.55}{}}
\newlabel{prop4}{{E.2}{73}{The Articles\relax }{Item.55}{}}
\newlabel{prop5}{{E.2}{74}{The Articles\relax }{Hfootnote.225}{}}
\newlabel{prop6}{{E.2}{75}{The Articles\relax }{Item.70}{}}
\newlabel{prop7}{{E.2}{76}{The Articles\relax }{Item.72}{}}
\newlabel{prop8}{{E.2}{76}{The Articles\relax }{Item.72}{}}
\newlabel{prop9}{{E.2}{77}{The Articles\relax }{Hfootnote.227}{}}
\newlabel{prop10}{{E.2}{77}{The Articles\relax }{Hfootnote.227}{}}
\@writefile{toc}{\contentsline {section}{\numberline {E.3}Rationale}{78}{section.E.3}}
\newlabel{post}{{E.3}{78}{Rationale\relax }{section.E.3}{}}
\@writefile{toc}{\contentsline {section}{\numberline {E.4}Annotated Links}{79}{section.E.4}}
\newlabel{links}{{E.4}{79}{Annotated Links\relax }{section.E.4}{}}
\@writefile{toc}{\contentsline {chapter}{\numberline {F}European Patent Office: High Above Legality}{80}{appendix.F}}
\@writefile{lof}{\addvspace {10\p@ }}
\@writefile{lot}{\addvspace {10\p@ }}
\newlabel{swpatepo}{{F}{80}{European Patent Office: High Above Legality\relax }{appendix.F}{}}
\@writefile{toc}{\contentsline {section}{\numberline {F.1}The special legal construction of the EPO}{81}{section.F.1}}
\newlabel{intro}{{F.1}{81}{The special legal construction of the EPO\relax }{section.F.1}{}}
\@writefile{toc}{\contentsline {section}{\numberline {F.2}Dissolving the invention concept of Art 52 EPC}{81}{section.F.2}}
\newlabel{epc52}{{F.2}{81}{Dissolving the invention concept of Art 52 EPC\relax }{section.F.2}{}}
\@writefile{toc}{\contentsline {section}{\numberline {F.3}Disrespecting the Exceptions of Art 53 EPC}{81}{section.F.3}}
\newlabel{epc53}{{F.3}{81}{Disrespecting the Exceptions of Art 53 EPC\relax }{section.F.3}{}}
\@writefile{toc}{\contentsline {section}{\numberline {F.4}Eroding the novelty concept of Art 54 EPC}{81}{section.F.4}}
\newlabel{epc54}{{F.4}{81}{Eroding the novelty concept of Art 54 EPC\relax }{section.F.4}{}}
\@writefile{toc}{\contentsline {section}{\numberline {F.5}Formal view of Art 56 EPC: Lowest Non-Obviousness Standards of the World}{82}{section.F.5}}
\newlabel{epc56}{{F.5}{82}{Formal view of Art 56 EPC: Lowest Non-Obviousness Standards of the World\relax }{section.F.5}{}}
\@writefile{toc}{\contentsline {section}{\numberline {F.6}Continuously deteriorating examination quality}{82}{section.F.6}}
\newlabel{exam}{{F.6}{82}{Continuously deteriorating examination quality\relax }{section.F.6}{}}
\@writefile{toc}{\contentsline {section}{\numberline {F.7}BEST: assured worst examination quality, illegally introduced, legalised in 2000}{83}{section.F.7}}
\newlabel{best}{{F.7}{83}{BEST: assured worst examination quality, illegally introduced, legalised in 2000\relax }{section.F.7}{}}
\@writefile{toc}{\contentsline {section}{\numberline {F.8}Novelty search problems increasingly complex, EPO lagging far behind}{84}{section.F.8}}
\newlabel{obje}{{F.8}{84}{Novelty search problems increasingly complex, EPO lagging far behind\relax }{section.F.8}{}}
\@writefile{toc}{\contentsline {section}{\numberline {F.9}Outlaw zone, poor working climate}{84}{section.F.9}}
\newlabel{pers}{{F.9}{84}{Outlaw zone, poor working climate\relax }{section.F.9}{}}
\@writefile{toc}{\contentsline {section}{\numberline {F.10}National controllers of the EPO aspiring for careers in EPO}{85}{section.F.10}}
\newlabel{karr}{{F.10}{85}{National controllers of the EPO aspiring for careers in EPO\relax }{section.F.10}{}}
\@writefile{toc}{\contentsline {section}{\numberline {F.11}EPO Boards of Appeal lack Independence}{85}{section.F.11}}
\newlabel{kamm}{{F.11}{85}{EPO Boards of Appeal lack Independence\relax }{section.F.11}{}}
\@writefile{toc}{\contentsline {section}{\numberline {F.12}Withholding Patent Information from the Public}{86}{section.F.12}}
\newlabel{espa}{{F.12}{86}{Withholding Patent Information from the Public\relax }{section.F.12}{}}
\@writefile{toc}{\contentsline {section}{\numberline {F.13}Questions, Things To Do, How you can Help}{86}{section.F.13}}
\newlabel{tasks}{{F.13}{86}{Questions, Things To Do, How you can Help\relax }{section.F.13}{}}
