\relax 
\ifx\hyper@anchor\@undefined
\global \let \oldcontentsline\contentsline
\gdef \contentsline#1#2#3#4{\oldcontentsline{#1}{#2}{#3}}
\global \let \oldnewlabel\newlabel
\gdef \newlabel#1#2{\newlabelxx{#1}#2}
\gdef \newlabelxx#1#2#3#4#5#6{\oldnewlabel{#1}{{#2}{#3}}}
\AtEndDocument{\let \contentsline\oldcontentsline
\let \newlabel\oldnewlabel}
\else
\global \let \hyper@last\relax 
\fi

\@writefile{toc}{\contentsline {chapter}{\numberline {1}Folgendes bereitet uns Sorge}{4}{chapter.1}}
\@writefile{lof}{\addvspace {10\p@ }}
\@writefile{lot}{\addvspace {10\p@ }}
\newlabel{prob}{{1}{4}{Folgendes bereitet uns Sorge\relax }{chapter.1}{}}
\@writefile{toc}{\contentsline {chapter}{\numberline {2}Daher empfehlen wir folgende Ma{\ss }nahmen}{5}{chapter.2}}
\@writefile{lof}{\addvspace {10\p@ }}
\@writefile{lot}{\addvspace {10\p@ }}
\newlabel{solv}{{2}{5}{Daher empfehlen wir folgende Ma{\ss }nahmen\relax }{chapter.2}{}}
\@writefile{toc}{\contentsline {chapter}{\numberline {3}Unterzeichner}{7}{chapter.3}}
\@writefile{lof}{\addvspace {10\p@ }}
\@writefile{lot}{\addvspace {10\p@ }}
\newlabel{sign}{{3}{7}{Unterzeichner\relax }{chapter.3}{}}
\@writefile{toc}{\contentsline {chapter}{\numberline {4}Aktualisierung 2003/09/24}{11}{chapter.4}}
\@writefile{lof}{\addvspace {10\p@ }}
\@writefile{lot}{\addvspace {10\p@ }}
\newlabel{plinov}{{4}{11}{Aktualisierung 2003/09/24\relax }{chapter.4}{}}
\@writefile{toc}{\contentsline {chapter}{\numberline {5}Fragen, Aufgaben, Wie Sie helfen k\"{o}nnen}{12}{chapter.5}}
\@writefile{lof}{\addvspace {10\p@ }}
\@writefile{lot}{\addvspace {10\p@ }}
\newlabel{tasks}{{5}{12}{Fragen, Aufgaben, Wie Sie helfen k\"{o}nnen\relax }{chapter.5}{}}
\@writefile{toc}{\contentsline {chapter}{\numberline {A}Europ\"{a}ische Softwarepatente: Einige Musterexemplare}{13}{appendix.A}}
\@writefile{lof}{\addvspace {10\p@ }}
\@writefile{lot}{\addvspace {10\p@ }}
\newlabel{swpikmupli}{{A}{13}{Europ\"{a}ische Softwarepatente: Einige Musterexemplare\relax }{appendix.A}{}}
\@writefile{toc}{\contentsline {section}{\numberline {A.1}Ausstellungsst\"{u}cke}{13}{section.A.1}}
\newlabel{pag}{{A.1}{13}{Ausstellungsst\"{u}cke\relax }{section.A.1}{}}
\@writefile{toc}{\contentsline {section}{\numberline {A.2}Kandidaten}{23}{section.A.2}}
\newlabel{epat}{{A.2}{23}{Kandidaten\relax }{section.A.2}{}}
\@writefile{toc}{\contentsline {section}{\numberline {A.3}Kommentierte Verweise}{23}{section.A.3}}
\newlabel{links}{{A.3}{23}{Kommentierte Verweise\relax }{section.A.3}{}}
\@writefile{toc}{\contentsline {chapter}{\numberline {B}Softwarepatente in Aktion}{25}{appendix.B}}
\@writefile{lof}{\addvspace {10\p@ }}
\@writefile{lot}{\addvspace {10\p@ }}
\newlabel{swpikxrani}{{B}{25}{Softwarepatente in Aktion\relax }{appendix.B}{}}
\@writefile{toc}{\contentsline {section}{\numberline {B.1}Einige gut dokumentierte F\"{a}lle}{25}{section.B.1}}
\newlabel{kazoj}{{B.1}{25}{Einige gut dokumentierte F\"{a}lle\relax }{section.B.1}{}}
\@writefile{toc}{\contentsline {section}{\numberline {B.2}Kommentierte Verweise}{35}{section.B.2}}
\newlabel{links}{{B.2}{35}{Kommentierte Verweise\relax }{section.B.2}{}}
\@writefile{toc}{\contentsline {chapter}{\numberline {C}Zitate zu Softwarepatenten}{37}{appendix.C}}
\@writefile{lof}{\addvspace {10\p@ }}
\@writefile{lot}{\addvspace {10\p@ }}
\newlabel{swpatcusku}{{C}{37}{Zitate zu Softwarepatenten\relax }{appendix.C}{}}
\@writefile{toc}{\contentsline {section}{\numberline {C.1}Kommentierte Verweise}{37}{section.C.1}}
\newlabel{links}{{C.1}{37}{Kommentierte Verweise\relax }{section.C.1}{}}
\@writefile{toc}{\contentsline {section}{\numberline {C.2}Fragen, Aufgaben, Wie Sie helfen k\"{o}nnen}{38}{section.C.2}}
\newlabel{tasks}{{C.2}{38}{Fragen, Aufgaben, Wie Sie helfen k\"{o}nnen\relax }{section.C.2}{}}
\@writefile{toc}{\contentsline {chapter}{\numberline {D}Testsuite f\"{u}r die Gesetzgebung \"{u}ber die Grenzen der Patentierbarkeit}{39}{appendix.D}}
\@writefile{lof}{\addvspace {10\p@ }}
\@writefile{lot}{\addvspace {10\p@ }}
\newlabel{swpatmanri}{{D}{39}{Testsuite f\"{u}r die Gesetzgebung \"{u}ber die Grenzen der Patentierbarkeit\relax }{appendix.D}{}}
\@writefile{toc}{\contentsline {section}{\numberline {D.1}Einige Beispielpatente}{39}{section.D.1}}
\newlabel{comp}{{D.1}{39}{Einige Beispielpatente\relax }{section.D.1}{}}
\@writefile{toc}{\contentsline {section}{\numberline {D.2}Beispiel-Anspr\"{u}che}{41}{section.D.2}}
\newlabel{clms}{{D.2}{41}{Beispiel-Anspr\"{u}che\relax }{section.D.2}{}}
\@writefile{toc}{\contentsline {section}{\numberline {D.3}Fragen, die f\"{u}r jedes Patent zu beantworten sind}{42}{section.D.3}}
\newlabel{kver}{{D.3}{42}{Fragen, die f\"{u}r jedes Patent zu beantworten sind\relax }{section.D.3}{}}
\@writefile{toc}{\contentsline {subsection}{\numberline {D.3.1}Klarheit}{42}{subsection.D.3.1}}
\newlabel{klar}{{D.3.1}{42}{Klarheit\relax }{subsection.D.3.1}{}}
\@writefile{toc}{\contentsline {subsection}{\numberline {D.3.2}Angemessenheit}{42}{subsection.D.3.2}}
\newlabel{ekvec}{{D.3.2}{42}{Angemessenheit\relax }{subsection.D.3.2}{}}
\@writefile{toc}{\contentsline {section}{\numberline {D.4}Vergleichstabelle}{42}{section.D.4}}
\newlabel{tab}{{D.4}{42}{Vergleichstabelle\relax }{section.D.4}{}}
\@writefile{toc}{\contentsline {section}{\numberline {D.5}Zu pr\"{u}fende Kandidaten: Gesetzesvorschl\"{a}ge von EUK/BSA, FFII/Eurolinux u.a.}{43}{section.D.5}}
\newlabel{test}{{D.5}{43}{Zu pr\"{u}fende Kandidaten: Gesetzesvorschl\"{a}ge von EUK/BSA, FFII/Eurolinux u.a}{section.D.5}{}}
\@writefile{toc}{\contentsline {section}{\numberline {D.6}Kommentierte Verweise}{46}{section.D.6}}
\newlabel{links}{{D.6}{46}{Kommentierte Verweise\relax }{section.D.6}{}}
\@writefile{toc}{\contentsline {chapter}{\numberline {E}\"{A}nderungsvorschl\"{a}ge zur Softwarepatentrichtlinie der EU}{47}{appendix.E}}
\@writefile{lof}{\addvspace {10\p@ }}
\@writefile{lot}{\addvspace {10\p@ }}
\newlabel{eubsa-prop}{{E}{47}{\"{A}nderungsvorschl\"{a}ge zur Softwarepatentrichtlinie der EU\relax }{appendix.E}{}}
\@writefile{toc}{\contentsline {section}{\numberline {E.1}Zugrundeliegende Erw\"{a}gungen}{47}{section.E.1}}
\newlabel{intro}{{E.1}{47}{Zugrundeliegende Erw\"{a}gungen\relax }{section.E.1}{}}
\@writefile{toc}{\contentsline {subsection}{\numberline {E.1.1}Wozu eine Richtlinie?}{47}{subsection.E.1.1}}
\newlabel{kial}{{E.1.1}{47}{Wozu eine Richtlinie?\relax }{subsection.E.1.1}{}}
\@writefile{toc}{\contentsline {subsubsection}{Ein einheitliches System harmonisieren?}{47}{section*.3}}
\newlabel{harmon}{{E.1.1}{47}{Ein einheitliches System harmonisieren?\relax }{section*.3}{}}
\@writefile{toc}{\contentsline {subsubsection}{Das Unaussprechliche Kl\"{a}ren?}{47}{section*.4}}
\newlabel{klarif}{{E.1.1}{47}{Das Unaussprechliche Kl\"{a}ren?\relax }{section*.4}{}}
\@writefile{toc}{\contentsline {subsubsection}{Der Kuhhandel zwischen EU und EPA}{48}{section*.5}}
\newlabel{euepo}{{E.1.1}{48}{Der Kuhhandel zwischen EU und EPA\relax }{section*.5}{}}
\@writefile{toc}{\contentsline {subsubsection}{G\"{u}ltige Gr\"{u}nde f\"{u}r eine Richtlinie}{48}{section*.6}}
\newlabel{valid}{{E.1.1}{48}{G\"{u}ltige Gr\"{u}nde f\"{u}r eine Richtlinie\relax }{section*.6}{}}
\@writefile{toc}{\contentsline {subsection}{\numberline {E.1.2}Kernschicht: die Technische Erfindung einz\"{a}unen, Art 52 EP\"{U} Bekr\"{a}ftigen}{49}{subsection.E.1.2}}
\newlabel{trans}{{E.1.2}{49}{Kernschicht: die Technische Erfindung einz\"{a}unen, Art 52 EP\"{U} Bekr\"{a}ftigen\relax }{subsection.E.1.2}{}}
\@writefile{toc}{\contentsline {subsubsection}{Negative Definition of ``Technical Invention'' in Art 52 EPC}{49}{section*.7}}
\newlabel{negadef}{{E.1.2}{49}{Negative Definition of ``Technical Invention'' in Art 52 EPC\relax }{section*.7}{}}
\@writefile{toc}{\contentsline {subsubsection}{\"{U}bersetzung von der Sprache des EP\"{U} in die Sprache des TRIPs-Vertrages}{49}{section*.8}}
\newlabel{trips}{{E.1.2}{49}{\"{U}bersetzung von der Sprache des EP\"{U} in die Sprache des TRIPs-Vertrages\relax }{section*.8}{}}
\@writefile{toc}{\contentsline {subsubsection}{\"{U}bersetzung von EP\"{U}-Sprache zur Meta-Sprache der Anspruchsformulierung}{50}{section*.9}}
\newlabel{patclm}{{E.1.2}{50}{\"{U}bersetzung von EP\"{U}-Sprache zur Meta-Sprache der Anspruchsformulierung\relax }{section*.9}{}}
\@writefile{toc}{\contentsline {subsubsection}{Eine gut umz\"{a}unte Grauzone}{50}{section*.10}}
\newlabel{fenced}{{E.1.2}{50}{Eine gut umz\"{a}unte Grauzone\relax }{section*.10}{}}
\@writefile{toc}{\contentsline {subsubsection}{``Computer-implementierten Erfindungen'' kann es nicht geben}{50}{section*.11}}
\newlabel{kompinv}{{E.1.2}{50}{``Computer-implementierten Erfindungen'' kann es nicht geben\relax }{section*.11}{}}
\@writefile{toc}{\contentsline {subsection}{\numberline {E.1.3}Erweiterungsschicht: einige Kl\"{a}rungen \"{u}ber die Anwendbarkeit von Patenten im Hinblick auf Informationsg\"{u}ter}{50}{subsection.E.1.3}}
\newlabel{periph}{{E.1.3}{50}{Erweiterungsschicht: einige Kl\"{a}rungen \"{u}ber die Anwendbarkeit von Patenten im Hinblick auf Informationsg\"{u}ter\relax }{subsection.E.1.3}{}}
\@writefile{toc}{\contentsline {subsection}{\numberline {E.1.4}Vollendungsschicht: die ``Technische Erfindung'' positiv definieren, den Bereich des Richterrechts eingrenzen}{51}{subsection.E.1.4}}
\newlabel{griz}{{E.1.4}{51}{Vollendungsschicht: die ``Technische Erfindung'' positiv definieren, den Bereich des Richterrechts eingrenzen\relax }{subsection.E.1.4}{}}
\@writefile{toc}{\contentsline {subsubsection}{Abstrakte Definition der ``Technischen Erfindung''}{51}{section*.12}}
\newlabel{absdef}{{E.1.4}{51}{Abstrakte Definition der ``Technischen Erfindung''\relax }{section*.12}{}}
\newlabel{invimpl}{{243}{51}{the invention which a claim discloses vs the scope of implementations which it forbids\relax }{section*.13}{}}
\@writefile{toc}{\contentsline {paragraph}{the invention which a claim discloses vs the scope of implementations which it forbids}{51}{section*.13}}
\newlabel{mensmat}{{243}{51}{Mind vs Matter\relax }{section*.14}{}}
\@writefile{toc}{\contentsline {paragraph}{Mind vs Matter}{51}{section*.14}}
