\BOOKMARK [0][-]{chapter.1}{Nous sommes pr\351occup\351s par les faits suivants}{}
\BOOKMARK [0][-]{chapter.2}{Pour rem\351dier \340 cela, nous proposons les mesures suivantes}{}
\BOOKMARK [0][-]{chapter.3}{Signataires}{}
\BOOKMARK [0][-]{chapter.4}{Mise \340 jour du 2003/09/24}{}
\BOOKMARK [0][-]{chapter.5}{Questions, choses \340 faire, comment vous pouvez aider}{}
\BOOKMARK [0][-]{appendix.A}{Brevets Logiciels Europ\351ens:= Quelques \311chantillons}{}
\BOOKMARK [1][-]{section.A.1}{Exemplaire Exhibit\351s}{appendix.A}
\BOOKMARK [1][-]{section.A.2}{Candidats}{appendix.A}
\BOOKMARK [1][-]{section.A.3}{Liens annot\351s}{appendix.A}
\BOOKMARK [0][-]{appendix.B}{Brevets Logiciels en Action}{}
\BOOKMARK [1][-]{section.B.1}{Quelques Cas bien document\351s}{appendix.B}
\BOOKMARK [1][-]{section.B.2}{Liens annot\351s}{appendix.B}
\BOOKMARK [0][-]{appendix.C}{Citations sur Brevets Logiciels}{}
\BOOKMARK [1][-]{section.C.1}{Liens annot\351s}{appendix.C}
\BOOKMARK [1][-]{section.C.2}{Questions, choses \340 faire, comment vous pouvez aider}{appendix.C}
\BOOKMARK [0][-]{appendix.D}{Ensemble de tests pour la l\351gislation sur les limites de la brevetabilit\351}{}
\BOOKMARK [1][-]{section.D.1}{Quelques exemples de brevets}{appendix.D}
\BOOKMARK [1][-]{section.D.2}{Revendications Exemplaires}{appendix.D}
\BOOKMARK [1][-]{section.D.3}{Questions auxquelles chaque brevet doit r\351pondre}{appendix.D}
\BOOKMARK [2][-]{subsection.D.3.1}{Clart\351}{section.D.3}
\BOOKMARK [2][-]{subsection.D.3.2}{D\351sirabilit\351 du Resultat}{section.D.3}
\BOOKMARK [1][-]{section.D.4}{Tableau comparatif}{appendix.D}
\BOOKMARK [1][-]{section.D.5}{Candidats \340 essayer:= Propositions de loi de CEC/BSA, FFII/Eurolinux et d'autres}{appendix.D}
\BOOKMARK [1][-]{section.D.6}{Liens Annot\351s}{appendix.D}
\BOOKMARK [0][-]{appendix.E}{Propos de Directive Brevets Logiciels et Contre-Propositions}{}
\BOOKMARK [1][-]{section.E.1}{Consid\351rations Soujacentes}{appendix.E}
\BOOKMARK [2][-]{subsection.E.1.1}{Pour quoi une Directive?}{section.E.1}
\BOOKMARK [2][-]{subsection.E.1.2}{Couche nucl\351aire:= Encadrer l'Invention Technique, R\351affirmer l'Article 52 CBE}{section.E.1}
\BOOKMARK [2][-]{subsection.E.1.3}{Couche d'Extensions:= Quelques Clarifications sur l'Assurabilit\351 des Brevets dans le contexte des biens informationels}{section.E.1}
\BOOKMARK [2][-]{subsection.E.1.4}{Couche de Compl\351tion:= Positivement D\351finir l'``Invention Technique'', limiter la gamme du ``droit des juges''}{section.E.1}
