\contentsline {chapter}{\numberline {1}Vi er alvorligt bekymrede over}{4}{chapter.1}
\contentsline {chapter}{\numberline {2}Derfor anbefaler vi at f\o {}lgende vedtages:}{5}{chapter.2}
\contentsline {chapter}{\numberline {3}Undertegnere}{7}{chapter.3}
\contentsline {chapter}{\numberline {4}Update of 2003/09/24}{11}{chapter.4}
\contentsline {chapter}{\numberline {5}Questions, Things To Do, How you can Help}{12}{chapter.5}
