\select@language {italian}
\contentsline {chapter}{\numberline {1}Siamo preoccupati dal fatto che}{4}{chapter.1}
\contentsline {chapter}{\numberline {2}Per queste ragioni, raccomandiamo ci\`{o} che segue:}{5}{chapter.2}
\contentsline {chapter}{\numberline {3}Firmatari}{7}{chapter.3}
\contentsline {chapter}{\numberline {4}Update of 2003/09/24}{11}{chapter.4}
\contentsline {chapter}{\numberline {5}Questions, Things To Do, How you can Help}{12}{chapter.5}
