\relax 
\ifx\hyper@anchor\@undefined
\global \let \oldcontentsline\contentsline
\gdef \contentsline#1#2#3#4{\oldcontentsline{#1}{#2}{#3}}
\global \let \oldnewlabel\newlabel
\gdef \newlabel#1#2{\newlabelxx{#1}#2}
\gdef \newlabelxx#1#2#3#4#5#6{\oldnewlabel{#1}{{#2}{#3}}}
\AtEndDocument{\let \contentsline\oldcontentsline
\let \newlabel\oldnewlabel}
\else
\global \let \hyper@last\relax 
\fi

\@writefile{toc}{\contentsline {chapter}{\numberline {1}We are concerned that}{4}{chapter.1}}
\@writefile{lof}{\addvspace {10\p@ }}
\@writefile{lot}{\addvspace {10\p@ }}
\newlabel{prob}{{1}{4}{We are concerned that\relax }{chapter.1}{}}
\@writefile{toc}{\contentsline {chapter}{\numberline {2}For these reasons we recommend the following:}{5}{chapter.2}}
\@writefile{lof}{\addvspace {10\p@ }}
\@writefile{lot}{\addvspace {10\p@ }}
\newlabel{solv}{{2}{5}{For these reasons we recommend the following:\relax }{chapter.2}{}}
\@writefile{toc}{\contentsline {chapter}{\numberline {3}Signatories}{7}{chapter.3}}
\@writefile{lof}{\addvspace {10\p@ }}
\@writefile{lot}{\addvspace {10\p@ }}
\newlabel{sign}{{3}{7}{Signatories\relax }{chapter.3}{}}
\@writefile{toc}{\contentsline {chapter}{\numberline {4}Update of 2003/09/24}{11}{chapter.4}}
\@writefile{lof}{\addvspace {10\p@ }}
\@writefile{lot}{\addvspace {10\p@ }}
\newlabel{plinov}{{4}{11}{Update of 2003/09/24\relax }{chapter.4}{}}
\@writefile{toc}{\contentsline {chapter}{\numberline {5}Questions, Things To Do, How you can Help}{12}{chapter.5}}
\@writefile{lof}{\addvspace {10\p@ }}
\@writefile{lot}{\addvspace {10\p@ }}
\newlabel{tasks}{{5}{12}{Questions, Things To Do, How you can Help\relax }{chapter.5}{}}
\@writefile{toc}{\contentsline {chapter}{\numberline {A}European Software Patents: Assorted Examples}{13}{appendix.A}}
\@writefile{lof}{\addvspace {10\p@ }}
\@writefile{lot}{\addvspace {10\p@ }}
\newlabel{swpikmupli}{{A}{13}{European Software Patents: Assorted Examples\relax }{appendix.A}{}}
\@writefile{toc}{\contentsline {section}{\numberline {A.1}Exhibited Specimens}{13}{section.A.1}}
\newlabel{pag}{{A.1}{13}{Exhibited Specimens\relax }{section.A.1}{}}
\@writefile{toc}{\contentsline {section}{\numberline {A.2}Candidates}{22}{section.A.2}}
\newlabel{epat}{{A.2}{22}{Candidates\relax }{section.A.2}{}}
\@writefile{toc}{\contentsline {section}{\numberline {A.3}Annotated Links}{22}{section.A.3}}
\newlabel{links}{{A.3}{22}{Annotated Links\relax }{section.A.3}{}}
\@writefile{toc}{\contentsline {chapter}{\numberline {B}Software Patents in Action}{23}{appendix.B}}
\@writefile{lof}{\addvspace {10\p@ }}
\@writefile{lot}{\addvspace {10\p@ }}
\newlabel{swpikxrani}{{B}{23}{Software Patents in Action\relax }{appendix.B}{}}
\@writefile{toc}{\contentsline {section}{\numberline {B.1}Some Well Documented Cases}{23}{section.B.1}}
\newlabel{kazoj}{{B.1}{23}{Some Well Documented Cases\relax }{section.B.1}{}}
\@writefile{toc}{\contentsline {section}{\numberline {B.2}Annotated Links}{32}{section.B.2}}
\newlabel{links}{{B.2}{32}{Annotated Links\relax }{section.B.2}{}}
\@writefile{toc}{\contentsline {chapter}{\numberline {C}Quotations on Software Patents}{34}{appendix.C}}
\@writefile{lof}{\addvspace {10\p@ }}
\@writefile{lot}{\addvspace {10\p@ }}
\newlabel{swpatcusku}{{C}{34}{Quotations on Software Patents\relax }{appendix.C}{}}
\@writefile{toc}{\contentsline {section}{\numberline {C.1}Annotated Links}{34}{section.C.1}}
\newlabel{links}{{C.1}{34}{Annotated Links\relax }{section.C.1}{}}
\@writefile{toc}{\contentsline {section}{\numberline {C.2}Questions, Things To Do, How you can Help}{35}{section.C.2}}
\newlabel{tasks}{{C.2}{35}{Questions, Things To Do, How you can Help\relax }{section.C.2}{}}
\@writefile{toc}{\contentsline {chapter}{\numberline {D}Patentability Legislation Benchmarking Test Suite}{36}{appendix.D}}
\@writefile{lof}{\addvspace {10\p@ }}
\@writefile{lot}{\addvspace {10\p@ }}
\newlabel{swpatmanri}{{D}{36}{Patentability Legislation Benchmarking Test Suite\relax }{appendix.D}{}}
\@writefile{toc}{\contentsline {section}{\numberline {D.1}Some sample patents}{36}{section.D.1}}
\newlabel{comp}{{D.1}{36}{Some sample patents\relax }{section.D.1}{}}
\@writefile{toc}{\contentsline {section}{\numberline {D.2}Sample Claims}{38}{section.D.2}}
\newlabel{clms}{{D.2}{38}{Sample Claims\relax }{section.D.2}{}}
\@writefile{toc}{\contentsline {section}{\numberline {D.3}Questions to be answered for each}{39}{section.D.3}}
\newlabel{kver}{{D.3}{39}{Questions to be answered for each\relax }{section.D.3}{}}
\@writefile{toc}{\contentsline {subsection}{\numberline {D.3.1}Clarity}{39}{subsection.D.3.1}}
\newlabel{klar}{{D.3.1}{39}{Clarity\relax }{subsection.D.3.1}{}}
\@writefile{toc}{\contentsline {subsection}{\numberline {D.3.2}Adequacy}{39}{subsection.D.3.2}}
\newlabel{ekvec}{{D.3.2}{39}{Adequacy\relax }{subsection.D.3.2}{}}
\@writefile{toc}{\contentsline {section}{\numberline {D.4}Comparison Table}{39}{section.D.4}}
\newlabel{tab}{{D.4}{39}{Comparison Table\relax }{section.D.4}{}}
\@writefile{toc}{\contentsline {section}{\numberline {D.5}Legislation candidates to be tested}{40}{section.D.5}}
\newlabel{test}{{D.5}{40}{Legislation candidates to be tested\relax }{section.D.5}{}}
\@writefile{toc}{\contentsline {section}{\numberline {D.6}Annotated Links}{42}{section.D.6}}
\newlabel{links}{{D.6}{42}{Annotated Links\relax }{section.D.6}{}}
\@writefile{toc}{\contentsline {chapter}{\numberline {E}EU Software Patent Directive Amendment Proposals}{43}{appendix.E}}
\@writefile{lof}{\addvspace {10\p@ }}
\@writefile{lot}{\addvspace {10\p@ }}
\newlabel{eubsa-prop}{{E}{43}{EU Software Patent Directive Amendment Proposals\relax }{appendix.E}{}}
\@writefile{toc}{\contentsline {section}{\numberline {E.1}Rationale}{43}{section.E.1}}
\newlabel{intro}{{E.1}{43}{Rationale\relax }{section.E.1}{}}
\@writefile{toc}{\contentsline {subsection}{\numberline {E.1.1}Why a directive?}{43}{subsection.E.1.1}}
\newlabel{kial}{{E.1.1}{43}{Why a directive?\relax }{subsection.E.1.1}{}}
\@writefile{toc}{\contentsline {subsubsection}{Harmonising a unified system?}{43}{section*.3}}
\newlabel{harmon}{{E.1.1}{43}{Harmonising a unified system?\relax }{section*.3}{}}
\@writefile{toc}{\contentsline {subsubsection}{Clarifying the Unspeakable?}{43}{section*.4}}
\newlabel{klarif}{{E.1.1}{43}{Clarifying the Unspeakable?\relax }{section*.4}{}}
\@writefile{toc}{\contentsline {subsubsection}{The political deal between EU and EPO}{44}{section*.5}}
\newlabel{euepo}{{E.1.1}{44}{The political deal between EU and EPO\relax }{section*.5}{}}
\@writefile{toc}{\contentsline {subsubsection}{Valid Reasons for a Directive}{44}{section*.6}}
\newlabel{valid}{{E.1.1}{44}{Valid Reasons for a Directive\relax }{section*.6}{}}
\@writefile{toc}{\contentsline {subsection}{\numberline {E.1.2}Core Layer: Fence in the Technical Invention, Reaffirm Art 52 EPC}{45}{subsection.E.1.2}}
\newlabel{trans}{{E.1.2}{45}{Core Layer: Fence in the Technical Invention, Reaffirm Art 52 EPC\relax }{subsection.E.1.2}{}}
\@writefile{toc}{\contentsline {subsubsection}{Negative Definition of ``Technical Invention'' in Art 52 EPC}{45}{section*.7}}
\newlabel{negadef}{{E.1.2}{45}{Negative Definition of ``Technical Invention'' in Art 52 EPC\relax }{section*.7}{}}
\@writefile{toc}{\contentsline {subsubsection}{Translating from EPC language to TRIPs language}{45}{section*.8}}
\newlabel{trips}{{E.1.2}{45}{Translating from EPC language to TRIPs language\relax }{section*.8}{}}
\@writefile{toc}{\contentsline {subsubsection}{Translating from EPC language to the Meta-Language of Claim-Writing}{45}{section*.9}}
\newlabel{patclm}{{E.1.2}{45}{Translating from EPC language to the Meta-Language of Claim-Writing\relax }{section*.9}{}}
\@writefile{toc}{\contentsline {subsubsection}{A well-fenced gray zone}{46}{section*.10}}
\newlabel{fenced}{{E.1.2}{46}{A well-fenced gray zone\relax }{section*.10}{}}
\@writefile{toc}{\contentsline {subsubsection}{No such thing as a ``Computer-Implemented Invention''}{46}{section*.11}}
\newlabel{kompinv}{{E.1.2}{46}{No such thing as a ``Computer-Implemented Invention''\relax }{section*.11}{}}
\@writefile{toc}{\contentsline {subsection}{\numberline {E.1.3}Extension Layer: Some Clarifications on enforcability of patents in the context of 