\contentsline {chapter}{\numberline {1}Vi \"{a}r allvarligt oroade \"{o}ver}{4}{chapter.1}
\contentsline {chapter}{\numberline {2}D\"{a}rf\"{o}r rekommenderar vi f\"{o}ljande \r a{}tg\"{a}rder:}{5}{chapter.2}
\contentsline {chapter}{\numberline {3}Undertecknare}{7}{chapter.3}
\contentsline {chapter}{\numberline {4}Update of 2003/09/24}{11}{chapter.4}
\contentsline {chapter}{\numberline {5}Questions, Things To Do, How you can Help}{12}{chapter.5}
