\relax 
\ifx\hyper@anchor\@undefined
\global \let \oldcontentsline\contentsline
\gdef \contentsline#1#2#3#4{\oldcontentsline{#1}{#2}{#3}}
\global \let \oldnewlabel\newlabel
\gdef \newlabel#1#2{\newlabelxx{#1}#2}
\gdef \newlabelxx#1#2#3#4#5#6{\oldnewlabel{#1}{{#2}{#3}}}
\AtEndDocument{\let \contentsline\oldcontentsline
\let \newlabel\oldnewlabel}
\else
\global \let \hyper@last\relax 
\fi

\csname auxWARNINGii\endcsname {\typeout {-34- this file and other auxiliary files require to use the following}}
\csname auxWARNINGii\endcsname {\typeout {-34- LaTeX packages: french and babel!}}
\csname auxWARNINGii\endcsname {\typeout {-34- check \protect \usepackage \space or remove these files. Typesetting is aborted!} \stop }
\select@language{french}
\@writefile{toc}{\select@language{french}}
\@writefile{lof}{\select@language{french}}
\@writefile{lot}{\select@language{french}}
\select@language{french}
\@writefile{toc}{\select@language{french}}
\@writefile{lof}{\select@language{french}}
\@writefile{lot}{\select@language{french}}
\@writefile{toc}{\contentsline {chapter}{\numberline {1}Nous sommes pr\'{e}occup\'{e}s par les faits suivants}{4}{chapter.1}}
\@writefile{lof}{\addvspace {10\p@ }}
\@writefile{lot}{\addvspace {10\p@ }}
\newlabel{prob}{{1}{4}{Nous sommes pr\'{e}occup\'{e}s par les faits suivants\relax }{chapter.1}{}}
\@writefile{toc}{\contentsline {chapter}{\numberline {2}Pour rem\'{e}dier \`{a} cela, nous proposons les mesures suivantes}{5}{chapter.2}}
\@writefile{lof}{\addvspace {10\p@ }}
\@writefile{lot}{\addvspace {10\p@ }}
\newlabel{solv}{{2}{5}{Pour rem\'{e}dier \`{a} cela, nous proposons les mesures suivantes\relax }{chapter.2}{}}
\@writefile{toc}{\contentsline {chapter}{\numberline {3}Signataires}{7}{chapter.3}}
\@writefile{lof}{\addvspace {10\p@ }}
\@writefile{lot}{\addvspace {10\p@ }}
\newlabel{sign}{{3}{7}{Signataires\relax }{chapter.3}{}}
\@writefile{toc}{\contentsline {chapter}{\numberline {4}Mise \`{a} jour du 2003/09/24}{12}{chapter.4}}
\@writefile{lof}{\addvspace {10\p@ }}
\@writefile{lot}{\addvspace {10\p@ }}
\newlabel{plinov}{{4}{12}{Mise \`{a} jour du 2003/09/24\relax }{chapter.4}{}}
\@writefile{toc}{\contentsline {chapter}{\numberline {5}Questions, choses \`{a} faire, comment vous pouvez aider}{13}{chapter.5}}
\@writefile{lof}{\addvspace {10\p@ }}
\@writefile{lot}{\addvspace {10\p@ }}
\newlabel{tasks}{{5}{13}{Questions, choses \`{a} faire, comment vous pouvez aider\relax }{chapter.5}{}}
\@writefile{toc}{\contentsline {chapter}{\numberline {A}Brevets Logiciels Europ\'{e}ens\@DP  Quelques \'{E}chantillons}{14}{appendix.A}}
\@writefile{lof}{\addvspace {10\p@ }}
\@writefile{lot}{\addvspace {10\p@ }}
\newlabel{swpikmupli}{{A}{14}{Brevets Logiciels Europ\'{e}ens: Quelques \'{E}chantillons\relax }{appendix.A}{}}
\@writefile{toc}{\contentsline {section}{\numberline {A.1}Exemplaire Exhibit\'{e}s}{14}{section.A.1}}
\newlabel{pag}{{A.1}{14}{Exemplaire Exhibit\'{e}s\relax }{section.A.1}{}}
\@writefile{toc}{\contentsline {section}{\numberline {A.2}Candidats}{23}{section.A.2}}
\newlabel{epat}{{A.2}{23}{Candidats\relax }{section.A.2}{}}
\@writefile{toc}{\contentsline {section}{\numberline {A.3}Liens annot\'{e}s}{23}{section.A.3}}
\newlabel{links}{{A.3}{23}{Liens annot\'{e}s\relax }{section.A.3}{}}
\@writefile{toc}{\contentsline {chapter}{\numberline {B}Brevets Logiciels en Action}{24}{appendix.B}}
\@writefile{lof}{\addvspace {10\p@ }}
\@writefile{lot}{\addvspace {10\p@ }}
\newlabel{swpikxrani}{{B}{24}{Brevets Logiciels en Action\relax }{appendix.B}{}}
\@writefile{toc}{\contentsline {section}{\numberline {B.1}Quelques Cas bien document\'{e}s}{24}{section.B.1}}
\newlabel{kazoj}{{B.1}{24}{Quelques Cas bien document\'{e}s\relax }{section.B.1}{}}
\@writefile{toc}{\contentsline {section}{\numberline {B.2}Liens annot\'{e}s}{33}{section.B.2}}
\newlabel{links}{{B.2}{33}{Liens annot\'{e}s\relax }{section.B.2}{}}
\@writefile{toc}{\contentsline {chapter}{\numberline {C}Citations sur Brevets Logiciels}{35}{appendix.C}}
\@writefile{lof}{\addvspace {10\p@ }}
\@writefile{lot}{\addvspace {10\p@ }}
\newlabel{swpatcusku}{{C}{35}{Citations sur Brevets Logiciels\relax }{appendix.C}{}}
\@writefile{toc}{\contentsline {section}{\numberline {C.1}Liens annot\'{e}s}{35}{section.C.1}}
\newlabel{links}{{C.1}{35}{Liens annot\'{e}s\relax }{section.C.1}{}}
\@writefile{toc}{\contentsline {section}{\numberline {C.2}Questions, choses \`{a} faire, comment vous pouvez aider}{36}{section.C.2}}
\newlabel{tasks}{{C.2}{36}{Questions, choses \`{a} faire, comment vous pouvez aider\relax }{section.C.2}{}}
\@writefile{toc}{\contentsline {chapter}{\numberline {D}Ensemble de tests pour la l\'{e}gislation sur les limites de la brevetabilit\'{e}}{37}{appendix.D}}
\@writefile{lof}{\addvspace {10\p@ }}
\@writefile{lot}{\addvspace {10\p@ }}
\newlabel{swpatmanri}{{D}{37}{Ensemble de tests pour la l\'{e}gislation sur les limites de la brevetabilit\'{e}\relax }{appendix.D}{}}
\@writefile{toc}{\contentsline {section}{\numberline {D.1}Quelques exemples de brevets}{37}{section.D.1}}
\newlabel{comp}{{D.1}{37}{Quelques exemples de brevets\relax }{section.D.1}{}}
\@writefile{toc}{\contentsline {section}{\numberline {D.2}Revendications Exemplaires}{39}{section.D.2}}
\newlabel{clms}{{D.2}{39}{Revendications Exemplaires\relax }{section.D.2}{}}
\@writefile{toc}{\contentsline {section}{\numberline {D.3}Questions auxquelles chaque brevet doit r\'{e}pondre}{40}{section.D.3}}
\newlabel{kver}{{D.3}{40}{Questions auxquelles chaque brevet doit r\'{e}pondre\relax }{section.D.3}{}}
\@writefile{toc}{\contentsline {subsection}{\numberline {D.3.1}Clart\'{e}}{40}{subsection.D.3.1}}
\newlabel{klar}{{D.3.1}{40}{Clart\'{e}\relax }{subsection.D.3.1}{}}
\@writefile{toc}{\contentsline {subsection}{\numberline {D.3.2}D\'{e}sirabilit\'{e} du Resultat}{40}{subsection.D.3.2}}
\newlabel{ekvec}{{D.3.2}{40}{D\'{e}sirabilit\'{e} du Resultat\relax }{subsection.D.3.2}{}}
\@writefile{toc}{\contentsline {section}{\numberline {D.4}Tableau comparatif}{40}{section.D.4}}
\newlabel{tab}{{D.4}{40}{Tableau comparatif\relax }{section.D.4}{}}
\@writefile{toc}{\contentsline {section}{\numberline {D.5}Candidats \`{a} essayer\@DP  Propositions de loi de CEC/BSA, FFII/Eurolinux et d'autres}{41}{section.D.5}}
\newlabel{test}{{D.5}{41}{Candidats \`{a} essayer: Propositions de loi de CEC/BSA, FFII/Eurolinux et d'autres\relax }{section.D.5}{}}
\@writefile{toc}{\contentsline {section}{\numberline {D.6}Liens Annot\'{e}s}{43}{section.D.6}}
\newlabel{links}{{D.6}{43}{Liens Annot\'{e}s\relax }{section.D.6}{}}
\@writefile{toc}{\contentsline {chapter}{\numberline {E}Propos de Directive Brevets Logiciels et Contre-Propositions}{44}{appendix.E}}
\@writefile{lof}{\addvspace {10\p@ }}
\@writefile{lot}{\addvspace {10\p@ }}
\newlabel{eubsa-prop}{{E}{44}{Propos de Directive Brevets Logiciels et Contre-Propositions\relax }{appendix.E}{}}
\@writefile{toc}{\contentsline {section}{\numberline {E.1}Consid\'{e}rations Soujacentes}{44}{section.E.1}}
\newlabel{intro}{{E.1}{44}{Consid\'{e}rations Soujacentes\relax }{section.E.1}{}}
\@writefile{toc}{\contentsline {subsection}{\numberline {E.1.1}Pour quoi une Directive\@PI }{44}{subsection.E.1.1}}
\newlabel{kial}{{E.1.1}{44}{Pour quoi une Directive?\relax }{subsection.E.1.1}{}}
\@writefile{toc}{\contentsline {subsubsection}{Harmoniser un Syst\`{e}me Unifi\'{e}\@PI }{44}{section*.3}}
\newlabel{harmon}{{E.1.1}{44}{Harmoniser un Syst\`{e}me Unifi\'{e}?\relax }{section*.3}{}}
\@writefile{toc}{\contentsline {subsubsection}{Clarifier l'Inpronon\c {c}able\@PI }{44}{section*.4}}
\newlabel{klarif}{{E.1.1}{44}{Clarifier l'Inpronon\c {c}able?\relax }{section*.4}{}}
\@writefile{toc}{\contentsline {subsubsection}{L'\'{e}change politique entre UE et OEB}{45}{section*.5}}
\newlabel{euepo}{{E.1.1}{45}{L'\'{e}change politique entre UE et OEB\relax }{section*.5}{}}
\@writefile{toc}{\contentsline {subsubsection}{Raisons Valides pour une Directive}{45}{section*.6}}
\newlabel{valid}{{E.1.1}{45}{Raisons Valides pour une Directive\relax }{section*.6}{}}
\@writefile{toc}{\contentsline {subsection}{\numberline {E.1.2}Couche nucl\'{e}aire\@DP  Encadrer l'Invention Technique, R\'{e}affirmer l'Article 52 CBE}{46}{subsection.E.1.2}}
\newlabel{trans}{{E.1.2}{46}{Couche nucl\'{e}aire: Encadrer l'Invention Technique, R\'{e}affirmer l'Article 52 CBE\relax }{subsection.E.1.2}{}}
\@writefile{toc}{\contentsline {subsubsection}{Negative Definition of ``Technical Invention'' in Art 52 EPC}{46}{section*.7}}
\newlabel{negadef}{{E.1.2}{46}{Negative Definition of ``Technical Invention'' in Art 52 EPC\relax }{section*.7}{}}
\@writefile{toc}{\contentsline {subsubsection}{Translating from EPC language to TRIPs language}{46}{section*.8}}
\newlabel{trips}{{E.1.2}{46}{Translating from EPC language to TRIPs language\relax }{section*.8}{}}
\@writefile{toc}{\contentsline {subsubsection}{Translating from EPC language to the Meta-Language of Claim-Writing}{46}{section*.9}}
\newlabel{patclm}{{E.1.2}{46}{Translating from EPC language to the Meta-Language of Claim-Writing\relax }{section*.9}{}}
\@writefile{toc}{\contentsline {subsubsection}{A well-fenced gray zone}{47}{section*.10}}
\newlabel{fenced}{{E.1.2}{47}{A well-fenced gray zone\relax }{section*.10}{}}
\@writefile{toc}{\contentsline {subsubsection}{Il ne peut pas y avoir des ``inventions mises en oevre par ordinateur''}{47}{section*.11}}
\newlabel{kompinv}{{E.1.2}{47}{Il ne peut pas y avoir des ``inventions mises en oevre par ordinateur''\relax }{section*.11}{}}
\@writefile{toc}{\contentsline {subsection}{\numberline {E.1.3}Couche d'Extensions\@DP  Quelques Clarifications sur l'Assurabilit\'{e} des Brevets dans le contexte des biens informationels}{47}{subsection.E.1.3}}
\newlabel{periph}{{E.1.3}{47}{Couche d'Extensions: Quelques Clarifications sur l'Assurabilit\'{e} des Brevets dans le contexte des biens informationels\relax }{subsection.E.1.3}{}}
\@writefile{toc}{\contentsline {subsection}{\numberline {E.1.4}Couche de Compl\'{e}tion\@DP  Positivement D\'{e}finir l'``Invention Technique'', limiter la gamme du ``droit des juges''}{48}{subsection.E.1.4}}
\newlabel{griz}{{E.1.4}{48}{Couche de Compl\'{e}tion: Positivement D\'{e}finir l'``Invention Technique'', limiter la gamme du ``droit des juges''\relax }{subsection.E.1.4}{}}
\@writefile{toc}{\contentsline {subsubsection}{Abstract Definition of Technical Invention}{48}{section*.12}}
\newlabel{absdef}{{E.1.4}{48}{Abstract Definition of Technical Invention\relax }{section*.12}{}}
\newlabel{invimpl}{{247}{48}{the invention which a claim discloses vs the scope of implementations which it forbids\relax }{section*.13}{}}
\@writefile{toc}{\contentsline {paragraph}{the invention which a claim discloses vs the scope of implementations which it forbids}{48}{section*.13}}
\newlabel{mensmat}{{247}{48}{Mind vs Matter\relax }{section*.14}{}}
\@writefile{toc}{\contentsline {paragraph}{Mind vs Matter}{48}{section*.14}}
\@writefile{toc}{\contentsline {subsubsection}{Categorial exclusions}{48}{section*.15}}
\newlabel{katexk}{{E.1.4}{48}{Categorial exclusions\relax }{section*.15}{}}
