\relax 
\ifx\hyper@anchor\@undefined
\global \let \oldcontentsline\contentsline
\gdef \contentsline#1#2#3#4{\oldcontentsline{#1}{#2}{#3}}
\global \let \oldnewlabel\newlabel
\gdef \newlabel#1#2{\newlabelxx{#1}#2}
\gdef \newlabelxx#1#2#3#4#5#6{\oldnewlabel{#1}{{#2}{#3}}}
\AtEndDocument{\let \contentsline\oldcontentsline
\let \newlabel\oldnewlabel}
\else
\global \let \hyper@last\relax 
\fi

\@writefile{toc}{\contentsline {chapter}{\numberline {1}Vi \"{a}r allvarligt oroade \"{o}ver}{4}{chapter.1}}
\@writefile{lof}{\addvspace {10\p@ }}
\@writefile{lot}{\addvspace {10\p@ }}
\newlabel{prob}{{1}{4}{Vi \"{a}r allvarligt oroade \"{o}ver\relax }{chapter.1}{}}
\@writefile{toc}{\contentsline {chapter}{\numberline {2}D\"{a}rf\"{o}r rekommenderar vi f\"{o}ljande \r a{}tg\"{a}rder:}{5}{chapter.2}}
\@writefile{lof}{\addvspace {10\p@ }}
\@writefile{lot}{\addvspace {10\p@ }}
\newlabel{solv}{{2}{5}{D\"{a}rf\"{o}r rekommenderar vi f\"{o}ljande \aa {}tg\"{a}rder:\relax }{chapter.2}{}}
\@writefile{toc}{\contentsline {chapter}{\numberline {3}Undertecknare}{7}{chapter.3}}
\@writefile{lof}{\addvspace {10\p@ }}
\@writefile{lot}{\addvspace {10\p@ }}
\newlabel{sign}{{3}{7}{Undertecknare\relax }{chapter.3}{}}
\@writefile{toc}{\contentsline {chapter}{\numberline {4}Update of 2003/09/24}{11}{chapter.4}}
\@writefile{lof}{\addvspace {10\p@ }}
\@writefile{lot}{\addvspace {10\p@ }}
\newlabel{plinov}{{4}{11}{Update of 2003/09/24\relax }{chapter.4}{}}
\@writefile{toc}{\contentsline {chapter}{\numberline {5}Questions, Things To Do, How you can Help}{12}{chapter.5}}
\@writefile{lof}{\addvspace {10\p@ }}
\@writefile{lot}{\addvspace {10\p@ }}
\newlabel{tasks}{{5}{12}{Questions, Things To Do, How you can Help\relax }{chapter.5}{}}
