\relax 
\catcode`"\active
\ifx\hyper@anchor\@undefined
\global \let \oldcontentsline\contentsline
\gdef \contentsline#1#2#3#4{\oldcontentsline{#1}{#2}{#3}}
\global \let \oldnewlabel\newlabel
\gdef \newlabel#1#2{\newlabelxx{#1}#2}
\gdef \newlabelxx#1#2#3#4#5#6{\oldnewlabel{#1}{{#2}{#3}}}
\AtEndDocument{\let \contentsline\oldcontentsline
\let \newlabel\oldnewlabel}
\else
\global \let \hyper@last\relax 
\fi

\select@language{catalan}
\@writefile{toc}{\select@language{catalan}}
\@writefile{lof}{\select@language{catalan}}
\@writefile{lot}{\select@language{catalan}}
\@writefile{toc}{\contentsline {chapter}{\numberline {1}Ens preocupa que}{4}{chapter.1}}
\@writefile{lof}{\addvspace {10\p@ }}
\@writefile{lot}{\addvspace {10\p@ }}
\newlabel{prob}{{1}{4}{Ens preocupa que\relax }{chapter.1}{}}
\@writefile{toc}{\contentsline {chapter}{\numberline {2}Per aquestes raons recomanem el seg\@umlaut {u}ent:}{5}{chapter.2}}
\@writefile{lof}{\addvspace {10\p@ }}
\@writefile{lot}{\addvspace {10\p@ }}
\newlabel{solv}{{2}{5}{Per aquestes raons recomanem el seg\"{u}ent:\relax }{chapter.2}{}}
\@writefile{toc}{\contentsline {chapter}{\numberline {3}Signataris}{7}{chapter.3}}
\@writefile{lof}{\addvspace {10\p@ }}
\@writefile{lot}{\addvspace {10\p@ }}
\newlabel{sign}{{3}{7}{Signataris\relax }{chapter.3}{}}
\@writefile{toc}{\contentsline {chapter}{\numberline {4}Update of 2003/09/24}{11}{chapter.4}}
\@writefile{lof}{\addvspace {10\p@ }}
\@writefile{lot}{\addvspace {10\p@ }}
\newlabel{plinov}{{4}{11}{Update of 2003/09/24\relax }{chapter.4}{}}
\@writefile{toc}{\contentsline {chapter}{\numberline {5}Preguntes, Coses a fer, Com podeu ajudar}{12}{chapter.5}}
\@writefile{lof}{\addvspace {10\p@ }}
\@writefile{lot}{\addvspace {10\p@ }}
\newlabel{tasks}{{5}{12}{Preguntes, Coses a fer, Com podeu ajudar\relax }{chapter.5}{}}
\@writefile{toc}{\contentsline {chapter}{\numberline {A}Patents Europees de Programari: Exemples Escollits}{13}{appendix.A}}
\@writefile{lof}{\addvspace {10\p@ }}
\@writefile{lot}{\addvspace {10\p@ }}
\newlabel{swpikmupli}{{A}{13}{Patents Europees de Programari: Exemples Escollits\relax }{appendix.A}{}}
\@writefile{toc}{\contentsline {section}{\numberline {A.1}Exhibited Specimens}{13}{section.A.1}}
\newlabel{pag}{{A.1}{13}{Exhibited Specimens\relax }{section.A.1}{}}
\@writefile{toc}{\contentsline {section}{\numberline {A.2}Candidates}{22}{section.A.2}}
\newlabel{epat}{{A.2}{22}{Candidates\relax }{section.A.2}{}}
\@writefile{toc}{\contentsline {section}{\numberline {A.3}Enlla\c {c}os anotats}{22}{section.A.3}}
\newlabel{links}{{A.3}{22}{Enlla\c {c}os anotats\relax }{section.A.3}{}}
\@writefile{toc}{\contentsline {chapter}{\numberline {B}Patents de Programari en Acci\'{o}}{23}{appendix.B}}
\@writefile{lof}{\addvspace {10\p@ }}
\@writefile{lot}{\addvspace {10\p@ }}
\newlabel{swpikxrani}{{B}{23}{Patents de Programari en Acci\'{o}\relax }{appendix.B}{}}
\@writefile{toc}{\contentsline {section}{\numberline {B.1}Some Well Documented Cases}{23}{section.B.1}}
\newlabel{kazoj}{{B.1}{23}{Some Well Documented Cases\relax }{section.B.1}{}}
\@writefile{toc}{\contentsline {section}{\numberline {B.2}Enlla\c {c}os anotats}{32}{section.B.2}}
\newlabel{links}{{B.2}{32}{Enlla\c {c}os anotats\relax }{section.B.2}{}}
\@writefile{toc}{\contentsline {chapter}{\numberline {C}Banc de proves de s\`{e}ries d'assaigs de legislaci\'{o} de patentabilitat}{34}{appendix.C}}
\@writefile{lof}{\addvspace {10\p@ }}
\@writefile{lot}{\addvspace {10\p@ }}
\newlabel{swpatmanri}{{C}{34}{Banc de proves de s\`{e}ries d'assaigs de legislaci\'{o} de patentabilitat\relax }{appendix.C}{}}
\@writefile{toc}{\contentsline {section}{\numberline {C.1}Algunes mostres de patents}{34}{section.C.1}}
\newlabel{comp}{{C.1}{34}{Algunes mostres de patents\relax }{section.C.1}{}}
\@writefile{toc}{\contentsline {section}{\numberline {C.2}Sample Claims}{36}{section.C.2}}
\newlabel{clms}{{C.2}{36}{Sample Claims\relax }{section.C.2}{}}
\@writefile{toc}{\contentsline {section}{\numberline {C.3}Preguntes per respondre per cada}{37}{section.C.3}}
\newlabel{kver}{{C.3}{37}{Preguntes per respondre per cada\relax }{section.C.3}{}}
\@writefile{toc}{\contentsline {subsection}{\numberline {C.3.1}Clarity}{37}{subsection.C.3.1}}
\newlabel{klar}{{C.3.1}{37}{Clarity\relax }{subsection.C.3.1}{}}
\@writefile{toc}{\contentsline {subsection}{\numberline {C.3.2}Adequacy}{37}{subsection.C.3.2}}
\newlabel{ekvec}{{C.3.2}{37}{Adequacy\relax }{subsection.C.3.2}{}}
\@writefile{toc}{\contentsline {section}{\numberline {C.4}Comparison Table}{37}{section.C.4}}
\newlabel{tab}{{C.4}{37}{Comparison Table\relax }{section.C.4}{}}
\@writefile{toc}{\contentsline {section}{\numberline {C.5}Legislacions candidates a ser assajades}{38}{section.C.5}}
\newlabel{test}{{C.5}{38}{Legislacions candidates a ser assajades\relax }{section.C.5}{}}
\@writefile{toc}{\contentsline {section}{\numberline {C.6}Enlla\c {c}os anotats}{40}{section.C.6}}
\newlabel{links}{{C.6}{40}{Enlla\c {c}os anotats\relax }{section.C.6}{}}
