\relax 
\ifx\hyper@anchor\@undefined
\global \let \oldcontentsline\contentsline
\gdef \contentsline#1#2#3#4{\oldcontentsline{#1}{#2}{#3}}
\global \let \oldnewlabel\newlabel
\gdef \newlabel#1#2{\newlabelxx{#1}#2}
\gdef \newlabelxx#1#2#3#4#5#6{\oldnewlabel{#1}{{#2}{#3}}}
\AtEndDocument{\let \contentsline\oldcontentsline
\let \newlabel\oldnewlabel}
\else
\global \let \hyper@last\relax 
\fi

\newlabel{prob}{{}{1}{Folgendes bereitet uns Sorge\label {prob}\relax }{}{}}
\newlabel{solv}{{}{2}{Daher empfehlen wir folgende Ma{\ss }nahmen\label {solv}\relax }{Item.5}{}}
\newlabel{sign}{{}{3}{Unterzeichner\label {sign}\relax }{Item.14}{}}
