\relax 
\ifx\hyper@anchor\@undefined
\global \let \oldcontentsline\contentsline
\gdef \contentsline#1#2#3#4{\oldcontentsline{#1}{#2}{#3}}
\global \let \oldnewlabel\newlabel
\gdef \newlabel#1#2{\newlabelxx{#1}#2}
\gdef \newlabelxx#1#2#3#4#5#6{\oldnewlabel{#1}{{#2}{#3}}}
\AtEndDocument{\let \contentsline\oldcontentsline
\let \newlabel\oldnewlabel}
\else
\global \let \hyper@last\relax 
\fi

\@writefile{toc}{\contentsline {chapter}{\numberline {1}Vi er alvorligt bekymrede over}{4}{chapter.1}}
\@writefile{lof}{\addvspace {10\p@ }}
\@writefile{lot}{\addvspace {10\p@ }}
\newlabel{prob}{{1}{4}{Vi er alvorligt bekymrede over\relax }{chapter.1}{}}
\@writefile{toc}{\contentsline {chapter}{\numberline {2}Derfor anbefaler vi at f\o {}lgende vedtages:}{5}{chapter.2}}
\@writefile{lof}{\addvspace {10\p@ }}
\@writefile{lot}{\addvspace {10\p@ }}
\newlabel{solv}{{2}{5}{Derfor anbefaler vi at f\o {}lgende vedtages:\relax }{chapter.2}{}}
\@writefile{toc}{\contentsline {chapter}{\numberline {3}Undertegnere}{7}{chapter.3}}
\@writefile{lof}{\addvspace {10\p@ }}
\@writefile{lot}{\addvspace {10\p@ }}
\newlabel{sign}{{3}{7}{Undertegnere\relax }{chapter.3}{}}
