\contentsline {chapter}{\numberline {1}Vi er alvorligt bekymrede over}{4}{chapter.1}
\contentsline {chapter}{\numberline {2}Derfor anbefaler vi at f\o {}lgende vedtages:}{5}{chapter.2}
\contentsline {chapter}{\numberline {3}Undertegnere}{7}{chapter.3}
