\select@language {spanish}
\contentsline {chapter}{\numberline {1}Nos preocupa que}{4}{chapter.1}
\contentsline {chapter}{\numberline {2}Por estas razones recomendamos lo siguiente:}{5}{chapter.2}
\contentsline {chapter}{\numberline {3}Signatories}{7}{chapter.3}
