\BOOKMARK [0][-]{chapter.1}{Ens preocupa que}{}
\BOOKMARK [0][-]{chapter.2}{Per aquestes raons recomanem el seg\374ent:}{}
\BOOKMARK [0][-]{chapter.3}{Signataris}{}
\BOOKMARK [0][-]{appendix.A}{Patents Europees de Programari: Exemples Escollits}{}
\BOOKMARK [1][-]{section.A.1}{Exhibited Specimens}{appendix.A}
\BOOKMARK [1][-]{section.A.2}{Candidates}{appendix.A}
\BOOKMARK [0][-]{appendix.B}{Patents de Programari en Acci\363}{}
\BOOKMARK [1][-]{section.B.1}{Some Well Documented Cases}{appendix.B}
\BOOKMARK [1][-]{section.B.2}{Enlla\347os anotats}{appendix.B}
\BOOKMARK [0][-]{appendix.C}{Banc de proves de s\350ries d'assaigs de legislaci\363 de patentabilitat}{}
\BOOKMARK [1][-]{section.C.1}{Algunes mostres de patents}{appendix.C}
\BOOKMARK [1][-]{section.C.2}{Preguntes per respondre per cada}{appendix.C}
\BOOKMARK [1][-]{section.C.3}{Comparison Table}{appendix.C}
\BOOKMARK [1][-]{section.C.4}{Legislacions candidates a ser assajades}{appendix.C}
