\relax 
\catcode`"\active
\ifx\hyper@anchor\@undefined
\global \let \oldcontentsline\contentsline
\gdef \contentsline#1#2#3#4{\oldcontentsline{#1}{#2}{#3}}
\global \let \oldnewlabel\newlabel
\gdef \newlabel#1#2{\newlabelxx{#1}#2}
\gdef \newlabelxx#1#2#3#4#5#6{\oldnewlabel{#1}{{#2}{#3}}}
\AtEndDocument{\let \contentsline\oldcontentsline
\let \newlabel\oldnewlabel}
\else
\global \let \hyper@last\relax 
\fi

\select@language{catalan}
\@writefile{toc}{\select@language{catalan}}
\@writefile{lof}{\select@language{catalan}}
\@writefile{lot}{\select@language{catalan}}
\@writefile{toc}{\contentsline {chapter}{\numberline {1}Ens preocupa que}{4}{chapter.1}}
\@writefile{lof}{\addvspace {10\p@ }}
\@writefile{lot}{\addvspace {10\p@ }}
\newlabel{prob}{{1}{4}{Ens preocupa que\relax }{chapter.1}{}}
\@writefile{toc}{\contentsline {chapter}{\numberline {2}Per aquestes raons recomanem el seg\@umlaut {u}ent:}{5}{chapter.2}}
\@writefile{lof}{\addvspace {10\p@ }}
\@writefile{lot}{\addvspace {10\p@ }}
\newlabel{solv}{{2}{5}{Per aquestes raons recomanem el seg\"{u}ent:\relax }{chapter.2}{}}
\@writefile{toc}{\contentsline {chapter}{\numberline {3}Signataris}{7}{chapter.3}}
\@writefile{lof}{\addvspace {10\p@ }}
\@writefile{lot}{\addvspace {10\p@ }}
\newlabel{sign}{{3}{7}{Signataris\relax }{chapter.3}{}}
\@writefile{toc}{\contentsline {chapter}{\numberline {A}Patents Europees de Programari: Exemples Escollits}{10}{appendix.A}}
\@writefile{lof}{\addvspace {10\p@ }}
\@writefile{lot}{\addvspace {10\p@ }}
\newlabel{swpikmupli}{{A}{10}{Patents Europees de Programari: Exemples Escollits\relax }{appendix.A}{}}
\@writefile{toc}{\contentsline {section}{\numberline {A.1}Exhibited Specimens}{10}{section.A.1}}
\newlabel{pag}{{A.1}{10}{Exhibited Specimens\relax }{section.A.1}{}}
\@writefile{toc}{\contentsline {section}{\numberline {A.2}Candidates}{16}{section.A.2}}
\newlabel{epat}{{A.2}{16}{Candidates\relax }{section.A.2}{}}
\@writefile{toc}{\contentsline {chapter}{\numberline {B}Patents de Programari en Acci\'{o}}{17}{appendix.B}}
\@writefile{lof}{\addvspace {10\p@ }}
\@writefile{lot}{\addvspace {10\p@ }}
\newlabel{swpikxrani}{{B}{17}{Patents de Programari en Acci\'{o}\relax }{appendix.B}{}}
\@writefile{toc}{\contentsline {section}{\numberline {B.1}Some Well Documented Cases}{17}{section.B.1}}
\newlabel{kazoj}{{B.1}{17}{Some Well Documented Cases\relax }{section.B.1}{}}
\@writefile{toc}{\contentsline {section}{\numberline {B.2}Enlla\c {c}os anotats}{24}{section.B.2}}
\newlabel{links}{{B.2}{24}{Enlla\c {c}os anotats\relax }{section.B.2}{}}
\@writefile{toc}{\contentsline {chapter}{\numberline {C}Banc de proves de s\`{e}ries d'assaigs de legislaci\'{o} de patentabilitat}{25}{appendix.C}}
\@writefile{lof}{\addvspace {10\p@ }}
\@writefile{lot}{\addvspace {10\p@ }}
\newlabel{swpatmanri}{{C}{25}{Banc de proves de s\`{e}ries d'assaigs de legislaci\'{o} de patentabilitat\relax }{appendix.C}{}}
\@writefile{toc}{\contentsline {section}{\numberline {C.1}Algunes mostres de patents}{25}{section.C.1}}
\newlabel{comp}{{C.1}{25}{Algunes mostres de patents\relax }{section.C.1}{}}
\@writefile{toc}{\contentsline {section}{\numberline {C.2}Preguntes per respondre per cada}{25}{section.C.2}}
\newlabel{kver}{{C.2}{25}{Preguntes per respondre per cada\relax }{section.C.2}{}}
\@writefile{toc}{\contentsline {section}{\numberline {C.3}Comparison Table}{26}{section.C.3}}
\newlabel{tab}{{C.3}{26}{Comparison Table\relax }{section.C.3}{}}
\@writefile{toc}{\contentsline {section}{\numberline {C.4}Legislacions candidates a ser assajades}{26}{section.C.4}}
\newlabel{test}{{C.4}{26}{Legislacions candidates a ser assajades\relax }{section.C.4}{}}
