\relax 
\catcode`.\active
\catcode`\.=12
\catcode`"\active
\catcode`<\active
\catcode`>\active
\es@quoting
\ifx\hyper@anchor\@undefined
\global \let \oldcontentsline\contentsline
\gdef \contentsline#1#2#3#4{\oldcontentsline{#1}{#2}{#3}}
\global \let \oldnewlabel\newlabel
\gdef \newlabel#1#2{\newlabelxx{#1}#2}
\gdef \newlabelxx#1#2#3#4#5#6{\oldnewlabel{#1}{{#2}{#3}}}
\AtEndDocument{\let \contentsline\oldcontentsline
\let \newlabel\oldnewlabel}
\else
\global \let \hyper@last\relax 
\fi

\select@language{spanish}
\@writefile{toc}{\select@language{spanish}}
\@writefile{lof}{\select@language{spanish}}
\@writefile{lot}{\select@language{spanish}}
\@writefile{toc}{\contentsline {chapter}{\numberline {1}Nos preocupa que}{4}{chapter.1}}
\@writefile{lof}{\addvspace {10\p@ }}
\@writefile{lot}{\addvspace {10\p@ }}
\newlabel{prob}{{1}{4}{Nos preocupa que\relax }{chapter.1}{}}
\@writefile{toc}{\contentsline {chapter}{\numberline {2}Por estas razones recomendamos lo siguiente:}{5}{chapter.2}}
\@writefile{lof}{\addvspace {10\p@ }}
\@writefile{lot}{\addvspace {10\p@ }}
\newlabel{solv}{{2}{5}{Por estas razones recomendamos lo siguiente:\relax }{chapter.2}{}}
\@writefile{toc}{\contentsline {chapter}{\numberline {3}Signatories}{7}{chapter.3}}
\@writefile{lof}{\addvspace {10\p@ }}
\@writefile{lot}{\addvspace {10\p@ }}
\newlabel{sign}{{3}{7}{Signatories\relax }{chapter.3}{}}
