\relax 
\ifx\hyper@anchor\@undefined
\global \let \oldcontentsline\contentsline
\gdef \contentsline#1#2#3#4{\oldcontentsline{#1}{#2}{#3}}
\global \let \oldnewlabel\newlabel
\gdef \newlabel#1#2{\newlabelxx{#1}#2}
\gdef \newlabelxx#1#2#3#4#5#6{\oldnewlabel{#1}{{#2}{#3}}}
\AtEndDocument{\let \contentsline\oldcontentsline
\let \newlabel\oldnewlabel}
\else
\global \let \hyper@last\relax 
\fi

\@writefile{toc}{\contentsline {section}{\numberline {1}Richtlinien f\"{u}r die Formpr\"{u}fung}{2}{section.1}}
\newlabel{form}{{1}{2}{Richtlinien f\"{u}r die Formpr\"{u}fung\relax }{section.1}{}}
\@writefile{toc}{\contentsline {section}{\numberline {2}Richtlinien f\"{u}r die Suche}{2}{section.2}}
\newlabel{serch}{{2}{2}{Richtlinien f\"{u}r die Suche\relax }{section.2}{}}
\@writefile{toc}{\contentsline {section}{\numberline {3}Richtlinien f\"{u}r die Sachpr\"{u}fung}{2}{section.3}}
\newlabel{subst}{{3}{2}{Richtlinien f\"{u}r die Sachpr\"{u}fung\relax }{section.3}{}}
\@writefile{toc}{\contentsline {subsection}{\numberline {3.1}Einf\"{u}hrung}{2}{subsection.3.1}}
\newlabel{intro}{{3.1}{2}{Einf\"{u}hrung\relax }{subsection.3.1}{}}
\@writefile{toc}{\contentsline {subsection}{\numberline {3.2}Inhalt der Europ\"{a}ischen Anmeldung (au{\ss }er den Anspr\"{u}chen)}{2}{subsection.3.2}}
\newlabel{cont}{{3.2}{2}{Inhalt der Europ\"{a}ischen Anmeldung (au{\ss }er den Anspr\"{u}chen)\relax }{subsection.3.2}{}}
\@writefile{toc}{\contentsline {subsection}{\numberline {3.3}Die Anspr\"{u}che}{2}{subsection.3.3}}
\newlabel{claims}{{3.3}{2}{Die Anspr\"{u}che\relax }{subsection.3.3}{}}
\@writefile{toc}{\contentsline {subsection}{\numberline {3.4}Patentierbarkeit}{2}{subsection.3.4}}
\newlabel{pat}{{3.4}{2}{Patentierbarkeit\relax }{subsection.3.4}{}}
\@writefile{toc}{\contentsline {subsubsection}{\numberline {3.4.1}Allgemeines: Art. 52}{2}{subsubsection.3.4.1}}
\newlabel{gen}{{3.4.1}{2}{Allgemeines: Art. 52\relax }{subsubsection.3.4.1}{}}
\newlabel{basreq}{{3.4.1}{2}{[Grundlegende Erfordernisse f\"{u}r die Patentierbarkeit]\relax }{section*.3}{}}
\@writefile{toc}{\contentsline {paragraph}{[Grundlegende Erfordernisse f\"{u}r die Patentierbarkeit]}{2}{section*.3}}
\newlabel{impreq}{{3.4.1}{3}{[Implizite Erfordernisse]\relax }{section*.4}{}}
\@writefile{toc}{\contentsline {paragraph}{[Implizite Erfordernisse]}{3}{section*.4}}
\newlabel{nonprog}{{3.4.1}{3}{[Kein Erfordernis der Fortschrittlichkeit oder N\"{u}tzlichkeit]\relax }{section*.5}{}}
\@writefile{toc}{\contentsline {paragraph}{[Kein Erfordernis der Fortschrittlichkeit oder N\"{u}tzlichkeit]}{3}{section*.5}}
\@writefile{toc}{\contentsline {subsubsection}{\numberline {3.4.2}Erfindungen}{4}{subsubsection.3.4.2}}
\newlabel{inv}{{3.4.2}{4}{Erfindungen\relax }{subsubsection.3.4.2}{}}
\newlabel{neglist}{{3.4.2}{4}{[Definition durch Ausschl\"{u}sse]: Art 52(2)\relax }{section*.6}{}}
\@writefile{toc}{\contentsline {paragraph}{[Definition durch Ausschl\"{u}sse]: Art 52(2)}{4}{section*.6}}
\newlabel{examregl}{{3.4.2}{6}{[Beurteile nicht den Anspruchswortlaut sondern den erfinderischen Beitrag als solchen]\relax }{section*.7}{}}
\@writefile{toc}{\contentsline {paragraph}{[Beurteile nicht den Anspruchswortlaut sondern den erfinderischen Beitrag als solchen]}{6}{section*.7}}
\@writefile{toc}{\contentsline {subsubsection}{\numberline {3.4.3}Ausnahmen von der Patentierbarkeit: Art. 53}{6}{subsubsection.3.4.3}}
\newlabel{exc}{{3.4.3}{6}{Ausnahmen von der Patentierbarkeit: Art. 53\relax }{subsubsection.3.4.3}{}}
\@writefile{toc}{\contentsline {subsubsection}{\numberline {3.4.4}Gewerbliche Anwendung: Art. 57}{6}{subsubsection.3.4.4}}
\newlabel{ind}{{3.4.4}{6}{Gewerbliche Anwendung: Art. 57\relax }{subsubsection.3.4.4}{}}
\@writefile{toc}{\contentsline {subsubsection}{\numberline {3.4.5}Neuheit; Stand der Technik}{7}{subsubsection.3.4.5}}
\newlabel{novel}{{3.4.5}{7}{Neuheit; Stand der Technik\relax }{subsubsection.3.4.5}{}}
\@writefile{toc}{\contentsline {subsubsection}{\numberline {3.4.6}Konflikt mit anderen europ\"{a}ischen Anmeldungen}{7}{subsubsection.3.4.6}}
\newlabel{eukfl}{{3.4.6}{7}{Konflikt mit anderen europ\"{a}ischen Anmeldungen\relax }{subsubsection.3.4.6}{}}
\@writefile{toc}{\contentsline {subsubsection}{\numberline {3.4.7}Neuheitspr\"{u}fung}{7}{subsubsection.3.4.7}}
\newlabel{nvtst}{{3.4.7}{7}{Neuheitspr\"{u}fung\relax }{subsubsection.3.4.7}{}}
\@writefile{toc}{\contentsline {subsubsection}{\numberline {3.4.8}Unsch\"{a}dliche Offenbarungen}{7}{subsubsection.3.4.8}}
\newlabel{npred}{{3.4.8}{7}{Unsch\"{a}dliche Offenbarungen\relax }{subsubsection.3.4.8}{}}
\@writefile{toc}{\contentsline {subsubsection}{\numberline {3.4.9}Erfinderische T\"{a}tigkeit}{7}{subsubsection.3.4.9}}
\newlabel{invst}{{3.4.9}{7}{Erfinderische T\"{a}tigkeit\relax }{subsubsection.3.4.9}{}}
\@writefile{toc}{\contentsline {subsection}{\numberline {3.5}Priorit\"{a}t}{7}{subsection.3.5}}
\newlabel{prior}{{3.5}{7}{Priorit\"{a}t\relax }{subsection.3.5}{}}
\@writefile{toc}{\contentsline {subsection}{\numberline {3.6}Pr\"{u}fungsprozedur}{7}{subsection.3.6}}
\newlabel{examp}{{3.6}{7}{Pr\"{u}fungsprozedur\relax }{subsection.3.6}{}}
\gdef\scr@tpo@lst{0}
