\relax 
\ifx\hyper@anchor\@undefined
\global \let \oldcontentsline\contentsline
\gdef \contentsline#1#2#3#4{\oldcontentsline{#1}{#2}{#3}}
\global \let \oldnewlabel\newlabel
\gdef \newlabel#1#2{\newlabelxx{#1}#2}
\gdef \newlabelxx#1#2#3#4#5#6{\oldnewlabel{#1}{{#2}{#3}}}
\AtEndDocument{\let \contentsline\oldcontentsline
\let \newlabel\oldnewlabel}
\else
\global \let \hyper@last\relax 
\fi

\@writefile{toc}{\contentsline {section}{\numberline {1}Guidelines for Formalities Examination}{2}{section.1}}
\newlabel{form}{{1}{2}{Guidelines for Formalities Examination\relax }{section.1}{}}
\@writefile{toc}{\contentsline {section}{\numberline {2}Guidelines for the Search}{2}{section.2}}
\newlabel{serch}{{2}{2}{Guidelines for the Search\relax }{section.2}{}}
\@writefile{toc}{\contentsline {section}{\numberline {3}Guidelines for Substantive Examination}{2}{section.3}}
\newlabel{subst}{{3}{2}{Guidelines for Substantive Examination\relax }{section.3}{}}
\@writefile{toc}{\contentsline {subsection}{\numberline {3.1}Introduction}{2}{subsection.3.1}}
\newlabel{intro}{{3.1}{2}{Introduction\relax }{subsection.3.1}{}}
\@writefile{toc}{\contentsline {subsection}{\numberline {3.2}Content of European Application (other than claims)}{2}{subsection.3.2}}
\newlabel{cont}{{3.2}{2}{Content of European Application (other than claims)\relax }{subsection.3.2}{}}
\@writefile{toc}{\contentsline {subsection}{\numberline {3.3}The Claims}{2}{subsection.3.3}}
\newlabel{claims}{{3.3}{2}{The Claims\relax }{subsection.3.3}{}}
\@writefile{toc}{\contentsline {subsection}{\numberline {3.4}Patentability}{2}{subsection.3.4}}
\newlabel{pat}{{3.4}{2}{Patentability\relax }{subsection.3.4}{}}
\@writefile{toc}{\contentsline {subsubsection}{\numberline {3.4.1}General: Art. 52}{2}{subsubsection.3.4.1}}
\newlabel{gen}{{3.4.1}{2}{General: Art. 52\relax }{subsubsection.3.4.1}{}}
\newlabel{basreq}{{3.4.1}{2}{[Basic Requirements for Patentability]\relax }{section*.3}{}}
\@writefile{toc}{\contentsline {paragraph}{[Basic Requirements for Patentability]}{2}{section*.3}}
\newlabel{impreq}{{3.4.1}{3}{[Implicit Requirements]\relax }{section*.4}{}}
\@writefile{toc}{\contentsline {paragraph}{[Implicit Requirements]}{3}{section*.4}}
\newlabel{nonprog}{{3.4.1}{3}{[No Requirement of Progressiveness or Usefulness]\relax }{section*.5}{}}
\@writefile{toc}{\contentsline {paragraph}{[No Requirement of Progressiveness or Usefulness]}{3}{section*.5}}
\@writefile{toc}{\contentsline {subsubsection}{\numberline {3.4.2}Inventions}{3}{subsubsection.3.4.2}}
\newlabel{inv}{{3.4.2}{3}{Inventions\relax }{subsubsection.3.4.2}{}}
\newlabel{neglist}{{3.4.2}{3}{[Definition through Exclusions]: Art 52(2)\relax }{section*.6}{}}
\@writefile{toc}{\contentsline {paragraph}{[Definition through Exclusions]: Art 52(2)}{3}{section*.6}}
\newlabel{examregl}{{3.4.2}{5}{[Examine the contribution rather than the claim wording!]\relax }{section*.7}{}}
\@writefile{toc}{\contentsline {paragraph}{[Examine the contribution rather than the claim wording!]}{5}{section*.7}}
\@writefile{toc}{\contentsline {subsubsection}{\numberline {3.4.3}Exceptions to Patentability: Art. 53}{6}{subsubsection.3.4.3}}
\newlabel{exc}{{3.4.3}{6}{Exceptions to Patentability: Art. 53\relax }{subsubsection.3.4.3}{}}
\@writefile{toc}{\contentsline {subsubsection}{\numberline {3.4.4}Industrial Application: Art. 57}{6}{subsubsection.3.4.4}}
\newlabel{ind}{{3.4.4}{6}{Industrial Application: Art. 57\relax }{subsubsection.3.4.4}{}}
\@writefile{toc}{\contentsline {subsubsection}{\numberline {3.4.5}Novelty; State of the Art}{6}{subsubsection.3.4.5}}
\newlabel{novel}{{3.4.5}{6}{Novelty; State of the Art\relax }{subsubsection.3.4.5}{}}
\@writefile{toc}{\contentsline {subsubsection}{\numberline {3.4.6}Conflict with other European applications}{6}{subsubsection.3.4.6}}
\newlabel{eukfl}{{3.4.6}{6}{Conflict with other European applications\relax }{subsubsection.3.4.6}{}}
\@writefile{toc}{\contentsline {subsubsection}{\numberline {3.4.7}Test for Novelty}{7}{subsubsection.3.4.7}}
\newlabel{nvtst}{{3.4.7}{7}{Test for Novelty\relax }{subsubsection.3.4.7}{}}
\@writefile{toc}{\contentsline {subsubsection}{\numberline {3.4.8}Non-prejudicial disclosures}{7}{subsubsection.3.4.8}}
\newlabel{npred}{{3.4.8}{7}{Non-prejudicial disclosures\relax }{subsubsection.3.4.8}{}}
\@writefile{toc}{\contentsline {subsubsection}{\numberline {3.4.9}Inventive step}{7}{subsubsection.3.4.9}}
\newlabel{invst}{{3.4.9}{7}{Inventive step\relax }{subsubsection.3.4.9}{}}
\@writefile{toc}{\contentsline {subsection}{\numberline {3.5}Priority}{7}{subsection.3.5}}
\newlabel{prior}{{3.5}{7}{Priority\relax }{subsection.3.5}{}}
\@writefile{toc}{\contentsline {subsection}{\numberline {3.6}Examination Procedure}{7}{subsection.3.6}}
\newlabel{examp}{{3.6}{7}{Examination Procedure\relax }{subsection.3.6}{}}
\gdef\scr@tpo@lst{0}
