\BOOKMARK [1][-]{section.1}{Guidelines for Formalities Examination}{}
\BOOKMARK [1][-]{section.2}{Guidelines for the Search}{}
\BOOKMARK [1][-]{section.3}{Guidelines for Substantive Examination}{}
\BOOKMARK [2][-]{subsection.3.1}{Introduction}{section.3}
\BOOKMARK [2][-]{subsection.3.2}{Content of European Application \(other than claims\)}{section.3}
\BOOKMARK [2][-]{subsection.3.3}{The Claims}{section.3}
\BOOKMARK [2][-]{subsection.3.4}{Patentability}{section.3}
\BOOKMARK [3][-]{subsubsection.3.4.1}{General: Art. 52}{subsection.3.4}
\BOOKMARK [3][-]{subsubsection.3.4.2}{Inventions}{subsection.3.4}
\BOOKMARK [3][-]{subsubsection.3.4.3}{Exceptions to Patentability: Art. 53}{subsection.3.4}
\BOOKMARK [3][-]{subsubsection.3.4.4}{Industrial Application: Art. 57}{subsection.3.4}
\BOOKMARK [3][-]{subsubsection.3.4.5}{Novelty; State of the Art}{subsection.3.4}
\BOOKMARK [3][-]{subsubsection.3.4.6}{Conflict with other European applications}{subsection.3.4}
\BOOKMARK [3][-]{subsubsection.3.4.7}{Test for Novelty}{subsection.3.4}
\BOOKMARK [3][-]{subsubsection.3.4.8}{Non-prejudicial disclosures}{subsection.3.4}
\BOOKMARK [3][-]{subsubsection.3.4.9}{Inventive step}{subsection.3.4}
\BOOKMARK [2][-]{subsection.3.5}{Priority}{section.3}
\BOOKMARK [2][-]{subsection.3.6}{Examination Procedure}{section.3}
