\relax 
\ifx\hyper@anchor\@undefined
\global \let \oldcontentsline\contentsline
\gdef \contentsline#1#2#3#4{\oldcontentsline{#1}{#2}{#3}}
\global \let \oldnewlabel\newlabel
\gdef \newlabel#1#2{\newlabelxx{#1}#2}
\gdef \newlabelxx#1#2#3#4#5#6{\oldnewlabel{#1}{{#2}{#3}}}
\AtEndDocument{\let \contentsline\oldcontentsline
\let \newlabel\oldnewlabel}
\else
\global \let \hyper@last\relax 
\fi

\newlabel{form}{{1}{2}{Richtlinien f\"ur die Formpr\"ufung\label {form}\relax }{section.1}{}}
\@writefile{toc}{\contentsline {section}{\numberline {1}Richtlinien f\"ur die Formpr\"ufung}{2}{section.1}}
\newlabel{form}{{1}{2}{Richtlinien f\"ur die Formpr\"ufung\label {form}\relax }{section.1}{}}
\newlabel{serch}{{2}{2}{Richtlinien f\"ur die Suche\label {serch}\relax }{section.2}{}}
\@writefile{toc}{\contentsline {section}{\numberline {2}Richtlinien f\"ur die Suche}{2}{section.2}}
\newlabel{serch}{{2}{2}{Richtlinien f\"ur die Suche\label {serch}\relax }{section.2}{}}
\newlabel{subst}{{3}{2}{Richtlinien f\"ur die Sachpr\"ufung\label {subst}\relax }{section.3}{}}
\@writefile{toc}{\contentsline {section}{\numberline {3}Richtlinien f\"ur die Sachpr\"ufung}{2}{section.3}}
\newlabel{subst}{{3}{2}{Richtlinien f\"ur die Sachpr\"ufung\label {subst}\relax }{section.3}{}}
\newlabel{intro}{{3.1}{2}{Einf\"uhrung\label {intro}\relax }{subsection.3.1}{}}
\@writefile{toc}{\contentsline {subsection}{\numberline {3.1}Einf\"uhrung}{2}{subsection.3.1}}
\newlabel{intro}{{3.1}{2}{Einf\"uhrung\label {intro}\relax }{subsection.3.1}{}}
\newlabel{cont}{{3.2}{3}{Inhalt der Europ\"aischen Anmeldung\ (au\ss {}er den Anspr\"uchen)\label {cont}\relax }{subsection.3.2}{}}
\@writefile{toc}{\contentsline {subsection}{\numberline {3.2}Inhalt der Europ\"aischen Anmeldung\ (au\ss {}er den Anspr\"uchen)}{3}{subsection.3.2}}
\newlabel{cont}{{3.2}{3}{Inhalt der Europ\"aischen Anmeldung\ (au\ss {}er den Anspr\"uchen)\label {cont}\relax }{subsection.3.2}{}}
\newlabel{claims}{{3.3}{3}{Die Anspr\"uche\label {claims}\relax }{subsection.3.3}{}}
\@writefile{toc}{\contentsline {subsection}{\numberline {3.3}Die Anspr\"uche}{3}{subsection.3.3}}
\newlabel{claims}{{3.3}{3}{Die Anspr\"uche\label {claims}\relax }{subsection.3.3}{}}
\newlabel{pat}{{3.4}{3}{Patentierbarkeit\label {pat}\relax }{subsection.3.4}{}}
\@writefile{toc}{\contentsline {subsection}{\numberline {3.4}Patentierbarkeit}{3}{subsection.3.4}}
\newlabel{pat}{{3.4}{3}{Patentierbarkeit\label {pat}\relax }{subsection.3.4}{}}
\newlabel{gen}{{3.4.1}{3}{Allgemeines: Art. 52\label {gen}\relax }{subsubsection.3.4.1}{}}
\@writefile{toc}{\contentsline {subsubsection}{\numberline {3.4.1}Allgemeines: Art. 52}{3}{subsubsection.3.4.1}}
\newlabel{gen}{{3.4.1}{3}{Allgemeines: Art. 52\label {gen}\relax }{subsubsection.3.4.1}{}}
\newlabel{basreq}{{3.4.1}{3}{[ Grundlegende Erfordernisse f\"ur die Patentierbarkeit ]\label {basreq}\relax }{section*.3}{}}
\newlabel{basreq}{{3.4.1}{3}{[ Grundlegende Erfordernisse f\"ur die Patentierbarkeit ]\label {basreq}\relax }{section*.3}{}}
\@writefile{toc}{\contentsline {paragraph}{[ Grundlegende Erfordernisse f\"ur die Patentierbarkeit ]}{3}{section*.3}}
\newlabel{impreq}{{3.4.1}{3}{[ Implizite Erfordernisse ]\label {impreq}\relax }{section*.4}{}}
\newlabel{impreq}{{3.4.1}{3}{[ Implizite Erfordernisse ]\label {impreq}\relax }{section*.4}{}}
\@writefile{toc}{\contentsline {paragraph}{[ Implizite Erfordernisse ]}{3}{section*.4}}
\newlabel{nonprog}{{3.4.1}{4}{[ Kein Erfordernis der Fortschrittlichkeit oder N\"utzlichkeit ]\label {nonprog}\relax }{section*.5}{}}
\newlabel{nonprog}{{3.4.1}{4}{[ Kein Erfordernis der Fortschrittlichkeit oder N\"utzlichkeit ]\label {nonprog}\relax }{section*.5}{}}
\@writefile{toc}{\contentsline {paragraph}{[ Kein Erfordernis der Fortschrittlichkeit oder N\"utzlichkeit ]}{4}{section*.5}}
\newlabel{inv}{{3.4.2}{4}{Erfindungen\label {inv}\relax }{subsubsection.3.4.2}{}}
\@writefile{toc}{\contentsline {subsubsection}{\numberline {3.4.2}Erfindungen}{4}{subsubsection.3.4.2}}
\newlabel{inv}{{3.4.2}{4}{Erfindungen\label {inv}\relax }{subsubsection.3.4.2}{}}
\newlabel{neglist}{{3.4.2}{4}{[ Definition durch Ausschl\"usse ]: Art 52(2)\label {neglist}\relax }{section*.6}{}}
\newlabel{neglist}{{3.4.2}{4}{[ Definition durch Ausschl\"usse ]: Art 52(2)\label {neglist}\relax }{section*.6}{}}
\@writefile{toc}{\contentsline {paragraph}{[ Definition durch Ausschl\"usse ]: Art 52(2)}{4}{section*.6}}
\newlabel{examregl}{{3.4.2}{6}{[ Beurteile nicht den Anspruchswortlaut sondern den erfinderischen Beitrag als solchen ]\label {examregl}\relax }{section*.7}{}}
\newlabel{examregl}{{3.4.2}{6}{[ Beurteile nicht den Anspruchswortlaut sondern den erfinderischen Beitrag als solchen ]\label {examregl}\relax }{section*.7}{}}
\@writefile{toc}{\contentsline {paragraph}{[ Beurteile nicht den Anspruchswortlaut sondern den erfinderischen Beitrag als solchen ]}{6}{section*.7}}
\newlabel{exc}{{3.4.3}{6}{Ausnahmen von der Patentierbarkeit\label {exc}\relax }{subsubsection.3.4.3}{}}
\@writefile{toc}{\contentsline {subsubsection}{\numberline {3.4.3}Ausnahmen von der Patentierbarkeit}{6}{subsubsection.3.4.3}}
\newlabel{exc}{{3.4.3}{6}{Ausnahmen von der Patentierbarkeit\label {exc}\relax }{subsubsection.3.4.3}{}}
\newlabel{ind}{{3.4.4}{6}{Gewerbliche Anwendung\label {ind}\relax }{subsubsection.3.4.4}{}}
\@writefile{toc}{\contentsline {subsubsection}{\numberline {3.4.4}Gewerbliche Anwendung}{6}{subsubsection.3.4.4}}
\newlabel{ind}{{3.4.4}{6}{Gewerbliche Anwendung\label {ind}\relax }{subsubsection.3.4.4}{}}
\newlabel{novel}{{3.4.5}{7}{Neuheit; Stand der Technik\label {novel}\relax }{subsubsection.3.4.5}{}}
\@writefile{toc}{\contentsline {subsubsection}{\numberline {3.4.5}Neuheit; Stand der Technik}{7}{subsubsection.3.4.5}}
\newlabel{novel}{{3.4.5}{7}{Neuheit; Stand der Technik\label {novel}\relax }{subsubsection.3.4.5}{}}
\newlabel{eukfl}{{3.4.6}{7}{Konflikt mit anderen europ\"aischen Anmeldungen\label {eukfl}\relax }{subsubsection.3.4.6}{}}
\@writefile{toc}{\contentsline {subsubsection}{\numberline {3.4.6}Konflikt mit anderen europ\"aischen Anmeldungen}{7}{subsubsection.3.4.6}}
\newlabel{eukfl}{{3.4.6}{7}{Konflikt mit anderen europ\"aischen Anmeldungen\label {eukfl}\relax }{subsubsection.3.4.6}{}}
\newlabel{nvtst}{{3.4.7}{7}{Neuheitspr\"ufung\label {nvtst}\relax }{subsubsection.3.4.7}{}}
\@writefile{toc}{\contentsline {subsubsection}{\numberline {3.4.7}Neuheitspr\"ufung}{7}{subsubsection.3.4.7}}
\newlabel{nvtst}{{3.4.7}{7}{Neuheitspr\"ufung\label {nvtst}\relax }{subsubsection.3.4.7}{}}
\newlabel{npred}{{3.4.8}{7}{Unsch\"adliche Offenbarungen\label {npred}\relax }{subsubsection.3.4.8}{}}
\@writefile{toc}{\contentsline {subsubsection}{\numberline {3.4.8}Unsch\"adliche Offenbarungen}{7}{subsubsection.3.4.8}}
\newlabel{npred}{{3.4.8}{7}{Unsch\"adliche Offenbarungen\label {npred}\relax }{subsubsection.3.4.8}{}}
\newlabel{invst}{{3.4.9}{7}{Erfinderische T\"atigkeit\label {invst}\relax }{subsubsection.3.4.9}{}}
\@writefile{toc}{\contentsline {subsubsection}{\numberline {3.4.9}Erfinderische T\"atigkeit}{7}{subsubsection.3.4.9}}
\newlabel{invst}{{3.4.9}{7}{Erfinderische T\"atigkeit\label {invst}\relax }{subsubsection.3.4.9}{}}
\newlabel{prior}{{3.5}{7}{Priorit\"at\label {prior}\relax }{subsection.3.5}{}}
\@writefile{toc}{\contentsline {subsection}{\numberline {3.5}Priorit\"at}{7}{subsection.3.5}}
\newlabel{prior}{{3.5}{7}{Priorit\"at\label {prior}\relax }{subsection.3.5}{}}
\newlabel{examp}{{3.6}{7}{Pr\"ufungsprozedur\label {examp}\relax }{subsection.3.6}{}}
\@writefile{toc}{\contentsline {subsection}{\numberline {3.6}Pr\"ufungsprozedur}{7}{subsection.3.6}}
\newlabel{examp}{{3.6}{7}{Pr\"ufungsprozedur\label {examp}\relax }{subsection.3.6}{}}
\newlabel{cexam}{{3.7}{7}{Pr\"ufung gem\"a\ss {} IV.1 des Zentralisierungsprotokolls\label {cexam}\relax }{subsection.3.7}{}}
\@writefile{toc}{\contentsline {subsection}{\numberline {3.7}Pr\"ufung gem\"a\ss {} IV.1 des Zentralisierungsprotokolls}{7}{subsection.3.7}}
\newlabel{cexam}{{3.7}{7}{Pr\"ufung gem\"a\ss {} IV.1 des Zentralisierungsprotokolls\label {cexam}\relax }{subsection.3.7}{}}
