\relax 
\ifx\hyper@anchor\@undefined
\global \let \oldcontentsline\contentsline
\gdef \contentsline#1#2#3#4{\oldcontentsline{#1}{#2}{#3}}
\global \let \oldnewlabel\newlabel
\gdef \newlabel#1#2{\newlabelxx{#1}#2}
\gdef \newlabelxx#1#2#3#4#5#6{\oldnewlabel{#1}{{#2}{#3}}}
\AtEndDocument{\let \contentsline\oldcontentsline
\let \newlabel\oldnewlabel}
\else
\global \let \hyper@last\relax 
\fi

\@writefile{toc}{\contentsline {section}{\numberline {1}introduction}{2}{section.1}}
\newlabel{intro}{{1}{2}{introduction\relax }{section.1}{}}
\@writefile{toc}{\contentsline {section}{\numberline {2}Campaign in Brussels/Strasburg}{3}{section.2}}
\newlabel{bxl}{{2}{3}{Campaign in Brussels/Strasburg\relax }{section.2}{}}
\@writefile{toc}{\contentsline {subsection}{\numberline {2.1}What to do in Brussels}{3}{subsection.2.1}}
\newlabel{bxltodo}{{2.1}{3}{What to do in Brussels\relax }{subsection.2.1}{}}
\@writefile{toc}{\contentsline {subsection}{\numberline {2.2}Costs}{4}{subsection.2.2}}
\newlabel{bxlpag}{{2.2}{4}{Costs\relax }{subsection.2.2}{}}
\@writefile{toc}{\contentsline {section}{\numberline {3}Conference in Brussels in April 2004}{4}{section.3}}
\newlabel{konf}{{3}{4}{Conference in Brussels in April 2004\relax }{section.3}{}}
\@writefile{toc}{\contentsline {subsection}{\numberline {3.1}What to do}{4}{subsection.3.1}}
\newlabel{konftodo}{{3.1}{4}{What to do\relax }{subsection.3.1}{}}
\@writefile{toc}{\contentsline {subsection}{\numberline {3.2}Costs}{5}{subsection.3.2}}
\newlabel{konfpag}{{3.2}{5}{Costs\relax }{subsection.3.2}{}}
\@writefile{toc}{\contentsline {section}{\numberline {4}Printed Materials, Performances, Demonstrations}{5}{section.4}}
\newlabel{prina}{{4}{5}{Printed Materials, Performances, Demonstrations\relax }{section.4}{}}
\@writefile{toc}{\contentsline {section}{\numberline {5}National Campaigns}{5}{section.5}}
\newlabel{nac}{{5}{5}{National Campaigns\relax }{section.5}{}}
\@writefile{toc}{\contentsline {section}{\numberline {6}Presence at UN / WSIS / WIPO}{6}{section.6}}
\newlabel{wsis}{{6}{6}{Presence at UN / WSIS / WIPO\relax }{section.6}{}}
\@writefile{toc}{\contentsline {section}{\numberline {7}Social Engineering}{6}{section.7}}
\newlabel{infra}{{7}{6}{Social Engineering\relax }{section.7}{}}
\@writefile{toc}{\contentsline {section}{\numberline {8}Patent Database Maintenance and Applications}{6}{section.8}}
\newlabel{data}{{8}{6}{Patent Database Maintenance and Applications\relax }{section.8}{}}
\@writefile{toc}{\contentsline {section}{\numberline {9}People in charge of execution}{7}{section.9}}
\newlabel{porg}{{9}{7}{People in charge of execution\relax }{section.9}{}}
\@writefile{toc}{\contentsline {section}{\numberline {10}Budget Summary in USD}{8}{section.10}}
\newlabel{budg}{{10}{8}{Budget Summary in USD\relax }{section.10}{}}
\@writefile{toc}{\contentsline {section}{\numberline {11}Annotated Links}{9}{section.11}}
\newlabel{links}{{11}{9}{Annotated Links\relax }{section.11}{}}
