\contentsline {section}{\numberline {1}introduction}{2}{section.1}
\contentsline {section}{\numberline {2}Campaign in Brussels/Strasburg}{3}{section.2}
\contentsline {subsection}{\numberline {2.1}What to do in Brussels}{3}{subsection.2.1}
\contentsline {subsection}{\numberline {2.2}Costs}{4}{subsection.2.2}
\contentsline {section}{\numberline {3}Conference in Brussels in April 2004}{4}{section.3}
\contentsline {subsection}{\numberline {3.1}What to do}{4}{subsection.3.1}
\contentsline {subsection}{\numberline {3.2}Costs}{5}{subsection.3.2}
\contentsline {section}{\numberline {4}Printed Materials, Performances, Demonstrations}{5}{section.4}
\contentsline {section}{\numberline {5}National Campaigns}{5}{section.5}
\contentsline {section}{\numberline {6}Presence at UN / WSIS / WIPO}{6}{section.6}
\contentsline {section}{\numberline {7}Social Engineering}{6}{section.7}
\contentsline {section}{\numberline {8}Patent Database Maintenance and Applications}{6}{section.8}
\contentsline {section}{\numberline {9}People in charge of execution}{7}{section.9}
\contentsline {section}{\numberline {10}Budget Summary in USD}{8}{section.10}
\contentsline {section}{\numberline {11}Annotated Links}{9}{section.11}
