\relax 
\ifx\hyper@anchor\@undefined
\global \let \oldcontentsline\contentsline
\gdef \contentsline#1#2#3#4{\oldcontentsline{#1}{#2}{#3}}
\global \let \oldnewlabel\newlabel
\gdef \newlabel#1#2{\newlabelxx{#1}#2}
\gdef \newlabelxx#1#2#3#4#5#6{\oldnewlabel{#1}{{#2}{#3}}}
\AtEndDocument{\let \contentsline\oldcontentsline
\let \newlabel\oldnewlabel}
\else
\global \let \hyper@last\relax 
\fi

\bibstyle{alpha}
\select@language{english}
\@writefile{toc}{\select@language{english}}
\@writefile{lof}{\select@language{english}}
\@writefile{lot}{\select@language{english}}
\select@language{english}
\@writefile{toc}{\select@language{english}}
\@writefile{lof}{\select@language{english}}
\@writefile{lot}{\select@language{english}}
\@writefile{toc}{\contentsline {section}{\numberline {1}What is wrong with the Commission and Council proposals?}{1}{section.1}}
\@writefile{toc}{\contentsline {subsection}{\numberline {1.1}Article 2: pen-and-paper-implemented inventions}{1}{subsection.1.1}}
\@writefile{toc}{\contentsline {subsection}{\numberline {1.2}Article 4.1: computer programs as such}{2}{subsection.1.2}}
\@writefile{toc}{\contentsline {subsection}{\numberline {1.3}Article 4.2: further technical effects}{2}{subsection.1.3}}
\@writefile{toc}{\contentsline {subsection}{\numberline {1.4}Article 5.2: program claims}{3}{subsection.1.4}}
\newlabel{progclaims}{{1.4}{3}{Article 5.2: program claims\relax }{subsection.1.4}{}}
\@writefile{toc}{\contentsline {section}{\numberline {2}What do we want?}{3}{section.2}}
\@writefile{toc}{\contentsline {subsection}{\numberline {2.1}Only Exclusions from Patentability can help ``harmonise the status quo''}{3}{subsection.2.1}}
\@writefile{toc}{\contentsline {subsection}{\numberline {2.2}Freedom of Publication}{4}{subsection.2.2}}
\@writefile{toc}{\contentsline {subsection}{\numberline {2.3}Freedom to use computers in office and network environments}{4}{subsection.2.3}}
\@writefile{toc}{\contentsline {subsection}{\numberline {2.4}Freedom of interoperability}{4}{subsection.2.4}}
\bibdata{swpat}
