\contentsline {section}{\numberline {1}details}{2}{section.1}
\contentsline {section}{\numberline {2}koppelingen met voetnoten}{4}{section.2}
\contentsline {section}{\numberline {3}contact}{8}{section.3}
\contentsline {section}{\numberline {4}Permanente link naar deze persmededeling}{8}{section.4}
