\relax 
\ifx\hyper@anchor\@undefined
\global \let \oldcontentsline\contentsline
\gdef \contentsline#1#2#3#4{\oldcontentsline{#1}{#2}{#3}}
\global \let \oldnewlabel\newlabel
\gdef \newlabel#1#2{\newlabelxx{#1}#2}
\gdef \newlabelxx#1#2#3#4#5#6{\oldnewlabel{#1}{{#2}{#3}}}
\AtEndDocument{\let \contentsline\oldcontentsline
\let \newlabel\oldnewlabel}
\else
\global \let \hyper@last\relax 
\fi

\@writefile{toc}{\contentsline {section}{\numberline {1}details}{1}{section.1}}
\newlabel{detal}{{1}{1}{details\relax }{section.1}{}}
\@writefile{toc}{\contentsline {section}{\numberline {2}Kommentierte Verweise}{4}{section.2}}
\newlabel{links}{{2}{4}{Kommentierte Verweise\relax }{section.2}{}}
\@writefile{toc}{\contentsline {section}{\numberline {3}Kontakt}{8}{section.3}}
\newlabel{media}{{3}{8}{Kontakt\relax }{section.3}{}}
\@writefile{toc}{\contentsline {section}{\numberline {4}Permanente Netzadresse dieser Presseerkl\"{a}rung}{8}{section.4}}
\newlabel{url}{{4}{8}{Permanente Netzadresse dieser Presseerkl\"{a}rung\relax }{section.4}{}}
