\select@language {french}
\select@language {french}
\contentsline {section}{\numberline {1}details}{1}{section.0.1}
\contentsline {section}{\numberline {2}Liens Annot\'{e}s}{4}{section.0.2}
\contentsline {section}{\numberline {3}Contacte}{8}{section.0.3}
\contentsline {section}{\numberline {4}URL Permanente de cette Annonce de Presse}{8}{section.0.4}
