\contentsline {section}{\numberline {1}details}{1}{section.1}
\contentsline {section}{\numberline {2}Kommentierte Verweise}{4}{section.2}
\contentsline {section}{\numberline {3}Kontakt}{8}{section.3}
\contentsline {section}{\numberline {4}Permanente Netzadresse dieser Presseerkl\"{a}rung}{8}{section.4}
