\select@language {portuguese}
\contentsline {section}{\numberline {1}details}{2}{section.1}
\contentsline {section}{\numberline {2}Links Anotados}{4}{section.2}
\contentsline {section}{\numberline {3}contact}{8}{section.3}
\contentsline {section}{\numberline {4}URL permanente deste Press Release}{8}{section.4}
