\select@language {italian}
\contentsline {section}{\numberline {1}details}{1}{section.1}
\contentsline {section}{\numberline {2}Annotated Links}{4}{section.2}
\contentsline {section}{\numberline {3}contact}{8}{section.3}
\contentsline {section}{\numberline {4}Permanent URL of this Press Release}{8}{section.4}
