\BOOKMARK [1][-]{section.1}{details}{}
\BOOKMARK [1][-]{section.2}{Kommentierte Verweise}{}
\BOOKMARK [1][-]{section.3}{Kontakt}{}
\BOOKMARK [1][-]{section.4}{Permanente Netzadresse dieser Presseerkl\344rung}{}
