\relax 
\ifx\hyper@anchor\@undefined
\global \let \oldcontentsline\contentsline
\gdef \contentsline#1#2#3#4{\oldcontentsline{#1}{#2}{#3}}
\global \let \oldnewlabel\newlabel
\gdef \newlabel#1#2{\newlabelxx{#1}#2}
\gdef \newlabelxx#1#2#3#4#5#6{\oldnewlabel{#1}{{#2}{#3}}}
\AtEndDocument{\let \contentsline\oldcontentsline
\let \newlabel\oldnewlabel}
\else
\global \let \hyper@last\relax 
\fi

\newlabel{ed252}{{}{2}{Artikel 5(2)\relax }{section*.3}{}}
\@writefile{toc}{\contentsline {paragraph}{Artikel 5(2)}{2}{section*.3}}
\newlabel{ed24@A1}{{}{2}{Artikel 4a(1)\relax }{section*.4}{}}
\@writefile{toc}{\contentsline {paragraph}{Artikel 4a(1)}{2}{section*.4}}
\newlabel{ed24@A2}{{}{3}{Artikel 4a(2)\relax }{section*.5}{}}
\@writefile{toc}{\contentsline {paragraph}{Artikel 4a(2)}{3}{section*.5}}
\gdef\scr@tpo@lst{0}
