\relax 
\ifx\hyper@anchor\@undefined
\global \let \oldcontentsline\contentsline
\gdef \contentsline#1#2#3#4{\oldcontentsline{#1}{#2}{#3}}
\global \let \oldnewlabel\newlabel
\gdef \newlabel#1#2{\newlabelxx{#1}#2}
\gdef \newlabelxx#1#2#3#4#5#6{\oldnewlabel{#1}{{#2}{#3}}}
\AtEndDocument{\let \contentsline\oldcontentsline
\let \newlabel\oldnewlabel}
\else
\global \let \hyper@last\relax 
\fi

\csname auxWARNINGii\endcsname {\typeout {-34- this file and other auxiliary files require to use the following}}
\csname auxWARNINGii\endcsname {\typeout {-34- LaTeX packages: french and babel!}}
\csname auxWARNINGii\endcsname {\typeout {-34- check \protect \usepackage \space or remove these files. Typesetting is aborted!} \stop }
\select@language{french}
\@writefile{toc}{\select@language{french}}
\@writefile{lof}{\select@language{french}}
\@writefile{lot}{\select@language{french}}
\select@language{french}
\@writefile{toc}{\select@language{french}}
\@writefile{lof}{\select@language{french}}
\@writefile{lot}{\select@language{french}}
\@writefile{toc}{\contentsline {section}{\numberline {1}introduction}{2}{section.0.1}}
\newlabel{intro}{{1}{2}{introduction\relax }{section.0.1}{}}
\@writefile{toc}{\contentsline {section}{\numberline {2}Que s'est-il pass\'{e} \`{a} la Commission juridique (JURI) \@PI }{3}{section.0.2}}
\newlabel{hodie}{{2}{3}{Que s'est-il pass\'{e} \`{a} la Commission juridique (JURI) ?\relax }{section.0.2}{}}
\@writefile{toc}{\contentsline {section}{\numberline {3}Int\'{e}grale des d\'{e}clarations \'{e}manant de l'industrie et de l'universit\'{e}}{9}{section.0.3}}
\newlabel{stats}{{3}{9}{Int\'{e}grale des d\'{e}clarations \'{e}manant de l'industrie et de l'universit\'{e}\relax }{section.0.3}{}}
\@writefile{toc}{\contentsline {subsection}{\numberline {3.1}Dr. Bernhard Runge, d\'{e}veloppeur chez SAP AG, ancien professeur de math\'{e}matiques.}{9}{subsection.0.3.1}}
\newlabel{sap}{{3.1}{9}{Dr. Bernhard Runge, d\'{e}veloppeur chez SAP AG, ancien professeur de math\'{e}matiques}{subsection.0.3.1}{}}
\@writefile{toc}{\contentsline {subsection}{\numberline {3.2}Stefan Pollmeier, dir. de ESR Pollmeier GmbH, Allemagne}{10}{subsection.0.3.2}}
\newlabel{spollm}{{3.2}{10}{Stefan Pollmeier, dir. de ESR Pollmeier GmbH, Allemagne\relax }{subsection.0.3.2}{}}
\@writefile{toc}{\contentsline {subsection}{\numberline {3.3}Bernhard Kaindl, d\'{e}veloppeur chez SuSE Linux AG}{10}{subsection.0.3.3}}
\newlabel{suse}{{3.3}{10}{Bernhard Kaindl, d\'{e}veloppeur chez SuSE Linux AG\relax }{subsection.0.3.3}{}}
\@writefile{toc}{\contentsline {subsection}{\numberline {3.4}H\r a{}kon Wium Lie, dir. tech. de Opera Inc}{11}{subsection.0.3.4}}
\newlabel{opera}{{3.4}{11}{H\aa {}kon Wium Lie, dir. tech. de Opera Inc\relax }{subsection.0.3.4}{}}
\@writefile{toc}{\contentsline {subsection}{\numberline {3.5}Richard Clark, PDG de Elysium Co Ltd et r\'{e}dacteur en chef pour le comit\'{e} de normalisation JPEG}{12}{subsection.0.3.5}}
\newlabel{rclark}{{3.5}{12}{Richard Clark, PDG de Elysium Co Ltd et r\'{e}dacteur en chef pour le comit\'{e} de normalisation JPEG\relax }{subsection.0.3.5}{}}
\@writefile{toc}{\contentsline {subsection}{\numberline {3.6}Peter Holmes, \'{e}conomiste, ayant particip\'{e} \`{a} une \'{e}tude command\'{e}e par l'UE, University of Sussex}{12}{subsection.0.3.6}}
\newlabel{holmes}{{3.6}{12}{Peter Holmes, \'{e}conomiste, ayant particip\'{e} \`{a} une \'{e}tude command\'{e}e par l'UE, University of Sussex\relax }{subsection.0.3.6}{}}
\@writefile{toc}{\contentsline {subsection}{\numberline {3.7}Reinier Bakels, auteur d'une \'{e}tude command\'{e}e par le parlement sur la brevetabilit\'{e} des programmes d'ordinateurs}{13}{subsection.0.3.7}}
\newlabel{rbakels}{{3.7}{13}{Reinier Bakels, auteur d'une \'{e}tude command\'{e}e par le parlement sur la brevetabilit\'{e} des programmes d'ordinateurs\relax }{subsection.0.3.7}{}}
\@writefile{toc}{\contentsline {subsection}{\numberline {3.8}Jozef Halbersztadt, examinateur de brevets \`{a} l'Office polonais des brevets}{13}{subsection.0.3.8}}
\newlabel{halber}{{3.8}{13}{Jozef Halbersztadt, examinateur de brevets \`{a} l'Office polonais des brevets\relax }{subsection.0.3.8}{}}
\@writefile{toc}{\contentsline {subsection}{\numberline {3.9}Karl-Friedrich Lenz, professeur de Droit allemand et europ\'{e}en, Universit\'{e} Aoyama Gakuin, Tokyo}{14}{subsection.0.3.9}}
\newlabel{lenz}{{3.9}{14}{Karl-Friedrich Lenz, professeur de Droit allemand et europ\'{e}en, Universit\'{e} Aoyama Gakuin, Tokyo\relax }{subsection.0.3.9}{}}
\@writefile{toc}{\contentsline {subsection}{\numberline {3.10}Hans Appel, dir. tech. de Sun Microsystems pour l'Europe du nord}{14}{subsection.0.3.10}}
\newlabel{sun}{{3.10}{14}{Hans Appel, dir. tech. de Sun Microsystems pour l'Europe du nord\relax }{subsection.0.3.10}{}}
\@writefile{toc}{\contentsline {subsection}{\numberline {3.11}Arlene McCarthy, d\'{e}put\'{e}e europ\'{e}enne \@DP  `` Nous ne sommes pas des experts ''}{14}{subsection.0.3.11}}
\newlabel{amcc}{{3.11}{14}{Arlene McCarthy, d\'{e}put\'{e}e europ\'{e}enne : `` Nous ne sommes pas des experts ''\relax }{subsection.0.3.11}{}}
\@writefile{toc}{\contentsline {subsection}{\numberline {3.12}Jean-Paul Smets-Solanes, PDG de Nexedi, Lille, France}{15}{subsection.0.3.12}}
\newlabel{smets}{{3.12}{15}{Jean-Paul Smets-Solanes, PDG de Nexedi, Lille, France\relax }{subsection.0.3.12}{}}
\@writefile{toc}{\contentsline {subsection}{\numberline {3.13}Brian Kahin, University of Michigan, Ann Arbor, \'{E}tats-Unis}{16}{subsection.0.3.13}}
\newlabel{kahin}{{3.13}{16}{Brian Kahin, University of Michigan, Ann Arbor, \'{E}tats-Unis\relax }{subsection.0.3.13}{}}
\@writefile{toc}{\contentsline {section}{\numberline {4}Contact m\'{e}dias}{17}{section.0.4}}
\newlabel{media}{{4}{17}{Contact m\'{e}dias\relax }{section.0.4}{}}
\@writefile{toc}{\contentsline {section}{\numberline {5}\`{A} propos de l'Alliance Eurolinux -- www.eurolinux.org}{17}{section.0.5}}
\newlabel{eurolinux}{{5}{17}{\`{A} propos de l'Alliance Eurolinux -- www.eurolinux.org\relax }{section.0.5}{}}
\@writefile{toc}{\contentsline {section}{\numberline {6}\`{A} propos de la FFII -- www.ffii.org}{17}{section.0.6}}
\newlabel{ffii}{{6}{17}{\`{A} propos de la FFII -- www.ffii.org\relax }{section.0.6}{}}
\@writefile{toc}{\contentsline {section}{\numberline {7}URL permanente de cette publication}{17}{section.0.7}}
\newlabel{url}{{7}{17}{URL permanente de cette publication\relax }{section.0.7}{}}
\@writefile{toc}{\contentsline {section}{\numberline {8}Liens Annot\'{e}s}{18}{section.0.8}}
\newlabel{links}{{8}{18}{Liens Annot\'{e}s\relax }{section.0.8}{}}
