\relax 
\ifx\hyper@anchor\@undefined
\global \let \oldcontentsline\contentsline
\gdef \contentsline#1#2#3#4{\oldcontentsline{#1}{#2}{#3}}
\global \let \oldnewlabel\newlabel
\gdef \newlabel#1#2{\newlabelxx{#1}#2}
\gdef \newlabelxx#1#2#3#4#5#6{\oldnewlabel{#1}{{#2}{#3}}}
\AtEndDocument{\let \contentsline\oldcontentsline
\let \newlabel\oldnewlabel}
\else
\global \let \hyper@last\relax 
\fi

\@writefile{toc}{\contentsline {section}{\numberline {1}introduction}{3}{section.1}}
\newlabel{intro}{{1}{3}{introduction\relax }{section.1}{}}
\@writefile{toc}{\contentsline {section}{\numberline {2}What happened in JURI?}{4}{section.2}}
\newlabel{hodie}{{2}{4}{What happened in JURI?\relax }{section.2}{}}
\@writefile{toc}{\contentsline {section}{\numberline {3}Full Statements from Industry and Academia}{10}{section.3}}
\newlabel{stats}{{3}{10}{Full Statements from Industry and Academia\relax }{section.3}{}}
\@writefile{toc}{\contentsline {subsection}{\numberline {3.1}Dr. Bernhard Runge, developer at SAP AG and former professor of mathematics}{10}{subsection.3.1}}
\newlabel{sap}{{3.1}{10}{Dr. Bernhard Runge, developer at SAP AG and former professor of mathematics\relax }{subsection.3.1}{}}
\@writefile{toc}{\contentsline {subsection}{\numberline {3.2}Stefan Pollmeier, MD of ESR Pollmeier GmbH, Germany}{10}{subsection.3.2}}
\newlabel{spollm}{{3.2}{10}{Stefan Pollmeier, MD of ESR Pollmeier GmbH, Germany\relax }{subsection.3.2}{}}
\@writefile{toc}{\contentsline {subsection}{\numberline {3.3}Bernhard Kaindl, developer at SuSE Linux AG}{11}{subsection.3.3}}
\newlabel{suse}{{3.3}{11}{Bernhard Kaindl, developer at SuSE Linux AG\relax }{subsection.3.3}{}}
\@writefile{toc}{\contentsline {subsection}{\numberline {3.4}H\r a{}kon Wium Lie, CTO of Opera Inc}{12}{subsection.3.4}}
\newlabel{opera}{{3.4}{12}{H\aa {}kon Wium Lie, CTO of Opera Inc\relax }{subsection.3.4}{}}
\@writefile{toc}{\contentsline {subsection}{\numberline {3.5}Richard Clark, CEO of Elysium Co Ltd and chief editor for the JPEG standardisation committee}{12}{subsection.3.5}}
\newlabel{rclark}{{3.5}{12}{Richard Clark, CEO of Elysium Co Ltd and chief editor for the JPEG standardisation committee\relax }{subsection.3.5}{}}
\@writefile{toc}{\contentsline {subsection}{\numberline {3.6}Peter Holmes, economist, participant of an EU-commissioned study, University of Sussex}{13}{subsection.3.6}}
\newlabel{holmes}{{3.6}{13}{Peter Holmes, economist, participant of an EU-commissioned study, University of Sussex\relax }{subsection.3.6}{}}
\@writefile{toc}{\contentsline {subsection}{\numberline {3.7}Reinier Bakels, author of parliament-ordered study on software patent directive}{13}{subsection.3.7}}
\newlabel{rbakels}{{3.7}{13}{Reinier Bakels, author of parliament-ordered study on software patent directive\relax }{subsection.3.7}{}}
\@writefile{toc}{\contentsline {subsection}{\numberline {3.8}Jozef Halbersztadt, patent examiner at the Polish Patent Office}{14}{subsection.3.8}}
\newlabel{halber}{{3.8}{14}{Jozef Halbersztadt, patent examiner at the Polish Patent Office\relax }{subsection.3.8}{}}
\@writefile{toc}{\contentsline {subsection}{\numberline {3.9}Dr. Karl-Friedrich Lenz, Professor for German Law and European Law, Aoyama Gakuin University, Tokyo:}{14}{subsection.3.9}}
\newlabel{lenz}{{3.9}{14}{Dr. Karl-Friedrich Lenz, Professor for German Law and European Law, Aoyama Gakuin University, Tokyo:\relax }{subsection.3.9}{}}
\@writefile{toc}{\contentsline {subsection}{\numberline {3.10}Hans Appel, CTO of Sun Microsystems for Northern Europe}{14}{subsection.3.10}}
\newlabel{sun}{{3.10}{14}{Hans Appel, CTO of Sun Microsystems for Northern Europe\relax }{subsection.3.10}{}}
\@writefile{toc}{\contentsline {subsection}{\numberline {3.11}Arlene McCarthy MEP: We are not experts}{15}{subsection.3.11}}
\newlabel{amcc}{{3.11}{15}{Arlene McCarthy MEP: We are not experts\relax }{subsection.3.11}{}}
\@writefile{toc}{\contentsline {subsection}{\numberline {3.12}Dr. Jean-Paul Smets-Solanes, CEO of Nexedi, Lille, France}{16}{subsection.3.12}}
\newlabel{smets}{{3.12}{16}{Dr. Jean-Paul Smets-Solanes, CEO of Nexedi, Lille, France\relax }{subsection.3.12}{}}
\@writefile{toc}{\contentsline {subsection}{\numberline {3.13}Prof. Brian Kahin, University of Michigan, Ann Arbor, USA}{17}{subsection.3.13}}
\newlabel{kahin}{{3.13}{17}{Prof. Brian Kahin, University of Michigan, Ann Arbor, USA\relax }{subsection.3.13}{}}
\@writefile{toc}{\contentsline {section}{\numberline {4}Media Contacts}{17}{section.4}}
\newlabel{media}{{4}{17}{Media Contacts\relax }{section.4}{}}
\@writefile{toc}{\contentsline {section}{\numberline {5}Permanent URL of this Press Release}{17}{section.5}}
\newlabel{url}{{5}{17}{Permanent URL of this Press Release\relax }{section.5}{}}
\@writefile{toc}{\contentsline {section}{\numberline {6}Annotated Links}{17}{section.6}}
\newlabel{links}{{6}{17}{Annotated Links\relax }{section.6}{}}
