\relax 
\ifx\hyper@anchor\@undefined
\global \let \oldcontentsline\contentsline
\gdef \contentsline#1#2#3#4{\oldcontentsline{#1}{#2}{#3}}
\global \let \oldnewlabel\newlabel
\gdef \newlabel#1#2{\newlabelxx{#1}#2}
\gdef \newlabelxx#1#2#3#4#5#6{\oldnewlabel{#1}{{#2}{#3}}}
\AtEndDocument{\let \contentsline\oldcontentsline
\let \newlabel\oldnewlabel}
\else
\global \let \hyper@last\relax 
\fi

\@writefile{toc}{\contentsline {section}{\numberline {1}Einf\"{u}hrung}{3}{section.1}}
\newlabel{intro}{{1}{3}{Einf\"{u}hrung\relax }{section.1}{}}
\@writefile{toc}{\contentsline {section}{\numberline {2}Was passierte im JURI?}{4}{section.2}}
\newlabel{hodie}{{2}{4}{Was passierte im JURI?\relax }{section.2}{}}
\@writefile{toc}{\contentsline {section}{\numberline {3}Volltext der Aussagen von Industrie und Akademikern }{10}{section.3}}
\newlabel{stats}{{3}{10}{Volltext der Aussagen von Industrie und Akademikern \relax }{section.3}{}}
\@writefile{toc}{\contentsline {subsection}{\numberline {3.1}Dr. Bernhard Runge, Entwickler bei SAP AG und fr\"{u}herer Professor f\"{u}r Mathematik}{10}{subsection.3.1}}
\newlabel{sap}{{3.1}{10}{Dr. Bernhard Runge, Entwickler bei SAP AG und fr\"{u}herer Professor f\"{u}r Mathematik\relax }{subsection.3.1}{}}
\@writefile{toc}{\contentsline {subsection}{\numberline {3.2}Stefan Pollmeier, Gesch\"{a}ftsf\"{u}hrer der ESR Pollmeier GmbH, Deutschland}{11}{subsection.3.2}}
\newlabel{spollm}{{3.2}{11}{Stefan Pollmeier, Gesch\"{a}ftsf\"{u}hrer der ESR Pollmeier GmbH, Deutschland\relax }{subsection.3.2}{}}
\@writefile{toc}{\contentsline {subsection}{\numberline {3.3}Bernhard Kaindl, Entwickler bei der SuSE Linux AG}{11}{subsection.3.3}}
\newlabel{suse}{{3.3}{11}{Bernhard Kaindl, Entwickler bei der SuSE Linux AG\relax }{subsection.3.3}{}}
\@writefile{toc}{\contentsline {subsection}{\numberline {3.4}H\r a{}kon Wium Lie, Chefentwickler der Opera Inc.}{12}{subsection.3.4}}
\newlabel{opera}{{3.4}{12}{H\aa {}kon Wium Lie, Chefentwickler der Opera Inc}{subsection.3.4}{}}
\@writefile{toc}{\contentsline {subsection}{\numberline {3.5}Richard Clark, Gesch\"{a}ftsf\"{u}hrer der Elysium Co Ltd und Chefeditor f\"{u}r das JPEG Sttandardisations-Kommittee}{13}{subsection.3.5}}
\newlabel{rclark}{{3.5}{13}{Richard Clark, Gesch\"{a}ftsf\"{u}hrer der Elysium Co Ltd und Chefeditor f\"{u}r das JPEG Sttandardisations-Kommittee\relax }{subsection.3.5}{}}
\@writefile{toc}{\contentsline {subsection}{\numberline {3.6}Peter Holmes, \"{O}konom, Mitwirkender an einer von der EU-Kommission beauftragten Studie, Universit\"{a}t zu Sussex}{13}{subsection.3.6}}
\newlabel{holmes}{{3.6}{13}{Peter Holmes, \"{O}konom, Mitwirkender an einer von der EU-Kommission beauftragten Studie, Universit\"{a}t zu Sussex\relax }{subsection.3.6}{}}
\@writefile{toc}{\contentsline {subsection}{\numberline {3.7}Reinier Bakels, author of parliament-ordered study on software patent directive}{14}{subsection.3.7}}
\newlabel{rbakels}{{3.7}{14}{Reinier Bakels, author of parliament-ordered study on software patent directive\relax }{subsection.3.7}{}}
\@writefile{toc}{\contentsline {subsection}{\numberline {3.8}Jozef Halbersztadt, Patentgutachter am Polnischen Patentamt}{14}{subsection.3.8}}
\newlabel{halber}{{3.8}{14}{Jozef Halbersztadt, Patentgutachter am Polnischen Patentamt\relax }{subsection.3.8}{}}
\@writefile{toc}{\contentsline {subsection}{\numberline {3.9}Dr. Karl-Friedrich Lenz, Professor f\"{u}r Deutsches und Europ\"{a}isches Recht, Aoyama Gakuin Universit\"{a}t, Tokyo:}{14}{subsection.3.9}}
\newlabel{lenz}{{3.9}{14}{Dr. Karl-Friedrich Lenz, Professor f\"{u}r Deutsches und Europ\"{a}isches Recht, Aoyama Gakuin Universit\"{a}t, Tokyo:\relax }{subsection.3.9}{}}
\@writefile{toc}{\contentsline {subsection}{\numberline {3.10}Hans Appel, CTO von Sun Microsystems f\"{u}r Nordeuropa}{15}{subsection.3.10}}
\newlabel{sun}{{3.10}{15}{Hans Appel, CTO von Sun Microsystems f\"{u}r Nordeuropa\relax }{subsection.3.10}{}}
\@writefile{toc}{\contentsline {subsection}{\numberline {3.11}Arlene McCarthy MEP: We are not experts}{15}{subsection.3.11}}
\newlabel{amcc}{{3.11}{15}{Arlene McCarthy MEP: We are not experts\relax }{subsection.3.11}{}}
\@writefile{toc}{\contentsline {subsection}{\numberline {3.12}Dr. Jean-Paul Smets-Solanes, CEO of Nexedi, Lille, France}{16}{subsection.3.12}}
\newlabel{smets}{{3.12}{16}{Dr. Jean-Paul Smets-Solanes, CEO of Nexedi, Lille, France\relax }{subsection.3.12}{}}
\@writefile{toc}{\contentsline {subsection}{\numberline {3.13}Prof. Brian Kahin, University of Michigan, Ann Arbor, USA}{17}{subsection.3.13}}
\newlabel{kahin}{{3.13}{17}{Prof. Brian Kahin, University of Michigan, Ann Arbor, USA\relax }{subsection.3.13}{}}
\@writefile{toc}{\contentsline {section}{\numberline {4}Media Contacts}{18}{section.4}}
\newlabel{media}{{4}{18}{Media Contacts\relax }{section.4}{}}
\@writefile{toc}{\contentsline {section}{\numberline {5}Permanent URL of this Press Release}{18}{section.5}}
\newlabel{url}{{5}{18}{Permanent URL of this Press Release\relax }{section.5}{}}
\@writefile{toc}{\contentsline {section}{\numberline {6}Kommentierte Verweise}{18}{section.6}}
\newlabel{links}{{6}{18}{Kommentierte Verweise\relax }{section.6}{}}
