\contentsline {section}{\numberline {1}Contents}{1}{section.1}
\contentsline {section}{\numberline {2}Invitation Text}{1}{section.2}
\contentsline {section}{\numberline {3}Annotated Links}{2}{section.3}
