\contentsline {section}{\numberline {1}Inhalt}{1}{section.1}
\contentsline {section}{\numberline {2}Einladungstext}{1}{section.2}
\contentsline {section}{\numberline {3}Kommentierte Verweise}{2}{section.3}
