\contentsline {section}{\numberline {1}We are concerned that}{1}{section.1}
\contentsline {section}{\numberline {2}For these reasons we recommend the following:}{2}{section.2}
\contentsline {section}{\numberline {3}Signatories}{3}{section.3}
