\relax 
\ifx\hyper@anchor\@undefined
\global \let \oldcontentsline\contentsline
\gdef \contentsline#1#2#3#4{\oldcontentsline{#1}{#2}{#3}}
\global \let \oldnewlabel\newlabel
\gdef \newlabel#1#2{\newlabelxx{#1}#2}
\gdef \newlabelxx#1#2#3#4#5#6{\oldnewlabel{#1}{{#2}{#3}}}
\AtEndDocument{\let \contentsline\oldcontentsline
\let \newlabel\oldnewlabel}
\else
\global \let \hyper@last\relax 
\fi

\@writefile{toc}{\contentsline {section}{\numberline {1}Folgendes bereitet uns Sorge}{1}{section.1}}
\newlabel{prob}{{1}{1}{Folgendes bereitet uns Sorge\relax }{section.1}{}}
\@writefile{toc}{\contentsline {section}{\numberline {2}Deswegen rufen wir die Verantwortlichen zu folgenden Ma{\ss }nahmen auf}{2}{section.2}}
\newlabel{solv}{{2}{2}{Deswegen rufen wir die Verantwortlichen zu folgenden Ma{\ss }nahmen auf\relax }{section.2}{}}
