\relax 
\catcode`"\active
\ifx\hyper@anchor\@undefined
\global \let \oldcontentsline\contentsline
\gdef \contentsline#1#2#3#4{\oldcontentsline{#1}{#2}{#3}}
\global \let \oldnewlabel\newlabel
\gdef \newlabel#1#2{\newlabelxx{#1}#2}
\gdef \newlabelxx#1#2#3#4#5#6{\oldnewlabel{#1}{{#2}{#3}}}
\AtEndDocument{\let \contentsline\oldcontentsline
\let \newlabel\oldnewlabel}
\else
\global \let \hyper@last\relax 
\fi

\select@language{italian}
\@writefile{toc}{\select@language{italian}}
\@writefile{lof}{\select@language{italian}}
\@writefile{lot}{\select@language{italian}}
\@writefile{toc}{\contentsline {section}{\numberline {1}Siamo preoccupati dal fatto che}{1}{section.1}}
\newlabel{prob}{{1}{1}{Siamo preoccupati dal fatto che\relax }{section.1}{}}
\@writefile{toc}{\contentsline {section}{\numberline {2}Per queste ragioni, raccomandiamo ci\`{o} che segue:}{2}{section.2}}
\newlabel{solv}{{2}{2}{Per queste ragioni, raccomandiamo ci\`{o} che segue:\relax }{section.2}{}}
