\relax 
\catcode`:\active
\catcode`;\active
\catcode`!\active
\catcode`?\active
\ifx\hyper@anchor\@undefined
\global \let \oldcontentsline\contentsline
\gdef \contentsline#1#2#3#4{\oldcontentsline{#1}{#2}{#3}}
\global \let \oldnewlabel\newlabel
\gdef \newlabel#1#2{\newlabelxx{#1}#2}
\gdef \newlabelxx#1#2#3#4#5#6{\oldnewlabel{#1}{{#2}{#3}}}
\AtEndDocument{\let \contentsline\oldcontentsline
\let \newlabel\oldnewlabel}
\else
\global \let \hyper@last\relax 
\fi

\select@language{french}
\@writefile{toc}{\select@language{french}}
\@writefile{lof}{\select@language{french}}
\@writefile{lot}{\select@language{french}}
\@writefile{toc}{\contentsline {section}{\numberline {1}Nous sommes pr\'{e}occup\'{e}s du fait que :}{1}{section.1}}
\newlabel{prob}{{1}{1}{Nous sommes pr\'{e}occup\'{e}s du fait que :\relax }{section.1}{}}
\@writefile{toc}{\contentsline {section}{\numberline {2}C'est pourquoi nous recommandons les mesures suivantes :}{2}{section.2}}
\newlabel{solv}{{2}{2}{C'est pourquoi nous recommandons les mesures suivantes :\relax }{section.2}{}}
