\relax 
\ifx\hyper@anchor\@undefined
\global \let \oldcontentsline\contentsline
\gdef \contentsline#1#2#3#4{\oldcontentsline{#1}{#2}{#3}}
\global \let \oldnewlabel\newlabel
\gdef \newlabel#1#2{\newlabelxx{#1}#2}
\gdef \newlabelxx#1#2#3#4#5#6{\oldnewlabel{#1}{{#2}{#3}}}
\AtEndDocument{\let \contentsline\oldcontentsline
\let \newlabel\oldnewlabel}
\else
\global \let \hyper@last\relax 
\fi

\@writefile{toc}{\contentsline {section}{\numberline {1}Der Startschuss}{1}{section.1}}
\newlabel{press}{{1}{1}{Der Startschuss\relax }{section.1}{}}
\@writefile{toc}{\contentsline {section}{\numberline {2}Einige der Patente}{2}{section.2}}
\newlabel{patents}{{2}{2}{Einige der Patente\relax }{section.2}{}}
\@writefile{toc}{\contentsline {section}{\numberline {3}Weitere Lekt\"{u}re}{11}{section.3}}
\newlabel{etc}{{3}{11}{Weitere Lekt\"{u}re\relax }{section.3}{}}
