\select@language {french}
\select@language {french}
\contentsline {section}{\numberline {1}Le D\'{e}but}{1}{section.0.1}
\contentsline {section}{\numberline {2}Quelques Brevets}{2}{section.0.2}
\contentsline {section}{\numberline {3}Autres Textes}{10}{section.0.3}
