\select@language {catalan}
\contentsline {section}{\numberline {1}The Start Shot}{2}{section.1}
\contentsline {section}{\numberline {2}Patent Samples}{2}{section.2}
\contentsline {section}{\numberline {3}Further Reading}{11}{section.3}
