\contentsline {section}{\numberline {1}Der Startschuss}{1}{section.1}
\contentsline {section}{\numberline {2}Einige der Patente}{2}{section.2}
\contentsline {section}{\numberline {3}Weitere Lekt\"{u}re}{11}{section.3}
