\relax 
\catcode`"\active
\ifx\hyper@anchor\@undefined
\global \let \oldcontentsline\contentsline
\gdef \contentsline#1#2#3#4{\oldcontentsline{#1}{#2}{#3}}
\global \let \oldnewlabel\newlabel
\gdef \newlabel#1#2{\newlabelxx{#1}#2}
\gdef \newlabelxx#1#2#3#4#5#6{\oldnewlabel{#1}{{#2}{#3}}}
\AtEndDocument{\let \contentsline\oldcontentsline
\let \newlabel\oldnewlabel}
\else
\global \let \hyper@last\relax 
\fi

\select@language{catalan}
\@writefile{toc}{\select@language{catalan}}
\@writefile{lof}{\select@language{catalan}}
\@writefile{lot}{\select@language{catalan}}
\@writefile{toc}{\contentsline {section}{\numberline {1}The Start Shot}{2}{section.1}}
\newlabel{press}{{1}{2}{The Start Shot\relax }{section.1}{}}
\@writefile{toc}{\contentsline {section}{\numberline {2}Patent Samples}{2}{section.2}}
\newlabel{patents}{{2}{2}{Patent Samples\relax }{section.2}{}}
\@writefile{toc}{\contentsline {section}{\numberline {3}Further Reading}{11}{section.3}}
\newlabel{etc}{{3}{11}{Further Reading\relax }{section.3}{}}
