\contentsline {section}{\numberline {1}[Document Header]}{2}{section.1}
\contentsline {section}{\numberline {2}Demande d'habilitation}{2}{section.2}
\contentsline {section}{\numberline {3}Current package on form of claims/interoperability}{3}{section.3}
\contentsline {section}{\numberline {4}2. State of Play: Council}{3}{section.4}
\contentsline {section}{\numberline {5}3. State of Play - Parliament}{4}{section.5}
\contentsline {section}{\numberline {6}4. Details of the submission to GrAC}{5}{section.6}
\contentsline {section}{\numberline {7}5. Possible Developments in the Council}{6}{section.7}
