\relax 
\ifx\hyper@anchor\@undefined
\global \let \oldcontentsline\contentsline
\gdef \contentsline#1#2#3#4{\oldcontentsline{#1}{#2}{#3}}
\global \let \oldnewlabel\newlabel
\gdef \newlabel#1#2{\newlabelxx{#1}#2}
\gdef \newlabelxx#1#2#3#4#5#6{\oldnewlabel{#1}{{#2}{#3}}}
\AtEndDocument{\let \contentsline\oldcontentsline
\let \newlabel\oldnewlabel}
\else
\global \let \hyper@last\relax 
\fi

\@writefile{toc}{\contentsline {section}{\numberline {1}[Document Header]}{2}{section.1}}
\newlabel{kap}{{1}{2}{[Document Header]\relax }{section.1}{}}
\@writefile{toc}{\contentsline {section}{\numberline {2}Demande d'habilitation}{2}{section.2}}
\newlabel{obj}{{2}{2}{Demande d'habilitation\relax }{section.2}{}}
\@writefile{toc}{\contentsline {section}{\numberline {3}Current package on form of claims/interoperability}{3}{section.3}}
\newlabel{prit}{{3}{3}{Current package on form of claims/interoperability\relax }{section.3}{}}
\@writefile{toc}{\contentsline {section}{\numberline {4}2. State of Play: Council}{3}{section.4}}
\newlabel{cons}{{4}{3}{2. State of Play: Council\relax }{section.4}{}}
\@writefile{toc}{\contentsline {section}{\numberline {5}3. State of Play - Parliament}{4}{section.5}}
\newlabel{parl}{{5}{4}{3. State of Play - Parliament\relax }{section.5}{}}
\@writefile{toc}{\contentsline {section}{\numberline {6}4. Details of the submission to GrAC}{5}{section.6}}
\newlabel{grac}{{6}{5}{4. Details of the submission to GrAC\relax }{section.6}{}}
\@writefile{toc}{\contentsline {section}{\numberline {7}5. Possible Developments in the Council}{6}{section.7}}
\newlabel{unan}{{7}{6}{5. Possible Developments in the Council\relax }{section.7}{}}
\gdef\scr@tpo@lst{0}
