\relax 
\ifx\hyper@anchor\@undefined
\global \let \oldcontentsline\contentsline
\gdef \contentsline#1#2#3#4{\oldcontentsline{#1}{#2}{#3}}
\global \let \oldnewlabel\newlabel
\gdef \newlabel#1#2{\newlabelxx{#1}#2}
\gdef \newlabelxx#1#2#3#4#5#6{\oldnewlabel{#1}{{#2}{#3}}}
\AtEndDocument{\let \contentsline\oldcontentsline
\let \newlabel\oldnewlabel}
\else
\global \let \hyper@last\relax 
\fi

\@writefile{toc}{\contentsline {chapter}{\numberline {1}Preamble}{4}{chapter.1}}
\@writefile{lof}{\addvspace {10\p@ }}
\@writefile{lot}{\addvspace {10\p@ }}
\newlabel{pream}{{1}{4}{Preamble\relax }{chapter.1}{}}
\@writefile{toc}{\contentsline {section}{\numberline {1.1}[Recital 1: Internal Market]}{4}{section.1.1}}
\newlabel{recit1}{{1.1}{4}{[Recital 1: Internal Market]\relax }{section.1.1}{}}
\@writefile{toc}{\contentsline {section}{\numberline {1.2}[Recital 2: Differences]}{5}{section.1.2}}
\newlabel{recit2}{{1.2}{5}{[Recital 2: Differences]\relax }{section.1.2}{}}
\@writefile{toc}{\contentsline {section}{\numberline {1.3}[Recital 3: No Convergence without Directive]}{5}{section.1.3}}
\newlabel{recit3}{{1.3}{5}{[Recital 3: No Convergence without Directive]\relax }{section.1.3}{}}
\@writefile{toc}{\contentsline {section}{\numberline {1.4}[Recital 4: Informatisation]}{6}{section.1.4}}
\newlabel{recit4}{{1.4}{6}{[Recital 4: Informatisation]\relax }{section.1.4}{}}
\@writefile{toc}{\contentsline {section}{\numberline {1.5}[Recital 5: Ergo Harmonisation \& Clarification]}{6}{section.1.5}}
\newlabel{recit5}{{1.5}{6}{[Recital 5: Ergo Harmonisation \& Clarification]\relax }{section.1.5}{}}
\@writefile{toc}{\contentsline {section}{\numberline {1.6}[Recital 6: TRIPs]}{7}{section.1.6}}
\newlabel{recit6}{{1.6}{7}{[Recital 6: TRIPs]\relax }{section.1.6}{}}
\@writefile{toc}{\contentsline {section}{\numberline {1.7}[Recital 8: Patents and Public Interest]}{7}{section.1.7}}
\newlabel{recit8}{{1.7}{7}{[Recital 8: Patents and Public Interest]\relax }{section.1.7}{}}
\@writefile{toc}{\contentsline {section}{\numberline {1.8}[Recital 9: Patents and Copyright]}{8}{section.1.8}}
\newlabel{recit9}{{1.8}{8}{[Recital 9: Patents and Copyright]\relax }{section.1.8}{}}
\@writefile{toc}{\contentsline {section}{\numberline {1.9}[Recital 10: Technical Character]}{8}{section.1.9}}
\newlabel{recit10}{{1.9}{8}{[Recital 10: Technical Character]\relax }{section.1.9}{}}
\@writefile{toc}{\contentsline {section}{\numberline {1.10}[Recital 11: Field of Technology]}{8}{section.1.10}}
\newlabel{recit11}{{1.10}{8}{[Recital 11: Field of Technology]\relax }{section.1.10}{}}
\@writefile{toc}{\contentsline {section}{\numberline {1.11}[Recital 12: Technical Contribution]}{8}{section.1.11}}
\newlabel{recit12}{{1.11}{8}{[Recital 12: Technical Contribution]\relax }{section.1.11}{}}
\@writefile{toc}{\contentsline {section}{\numberline {1.12}[Recital 13: Algorithms]}{9}{section.1.12}}
\newlabel{recit13}{{1.12}{9}{[Recital 13: Algorithms]\relax }{section.1.12}{}}
\@writefile{toc}{\contentsline {section}{\numberline {1.13}[Recital 14: EU Law vs National Law]}{9}{section.1.13}}
\newlabel{recit14}{{1.13}{9}{[Recital 14: EU Law vs National Law]\relax }{section.1.13}{}}
\@writefile{toc}{\contentsline {section}{\numberline {1.14}[Recital 15: Scope of Regulation]}{9}{section.1.14}}
\newlabel{recit15}{{1.14}{9}{[Recital 15: Scope of Regulation]\relax }{section.1.14}{}}
\@writefile{toc}{\contentsline {section}{\numberline {1.15}[Recital 16: Competitivity]}{10}{section.1.15}}
\newlabel{recit16}{{1.15}{10}{[Recital 16: Competitivity]\relax }{section.1.15}{}}
\@writefile{toc}{\contentsline {section}{\numberline {1.16}[Recital 17: Competition Rules]}{10}{section.1.16}}
\newlabel{recit17}{{1.16}{10}{[Recital 17: Competition Rules]\relax }{section.1.16}{}}
\@writefile{toc}{\contentsline {section}{\numberline {1.17}[Recital 18: Interoperability, Copyright]}{10}{section.1.17}}
\newlabel{recit18}{{1.17}{10}{[Recital 18: Interoperability, Copyright]\relax }{section.1.17}{}}
\@writefile{toc}{\contentsline {section}{\numberline {1.18}[Recital 19: Subsidiarity]}{11}{section.1.18}}
\newlabel{recit19}{{1.18}{11}{[Recital 19: Subsidiarity]\relax }{section.1.18}{}}
\@writefile{toc}{\contentsline {chapter}{\numberline {2}The Articles}{13}{chapter.2}}
\@writefile{lof}{\addvspace {10\p@ }}
\@writefile{lot}{\addvspace {10\p@ }}
\newlabel{arts}{{2}{13}{The Articles\relax }{chapter.2}{}}
\@writefile{toc}{\contentsline {section}{\numberline {2.1}Article 1: Scope}{13}{section.2.1}}
\newlabel{art1}{{2.1}{13}{Article 1: Scope\relax }{section.2.1}{}}
\@writefile{toc}{\contentsline {section}{\numberline {2.2}Article 2: Definitions}{13}{section.2.2}}
\newlabel{art2}{{2.2}{13}{Article 2: Definitions\relax }{section.2.2}{}}
\@writefile{toc}{\contentsline {section}{\numberline {2.3}Article 3: Fields of Technology}{15}{section.2.3}}
\newlabel{art3}{{2.3}{15}{Article 3: Fields of Technology\relax }{section.2.3}{}}
\@writefile{toc}{\contentsline {section}{\numberline {2.4}Article 4: Conditions for patentability}{16}{section.2.4}}
\newlabel{art4}{{2.4}{16}{Article 4: Conditions for patentability\relax }{section.2.4}{}}
\@writefile{toc}{\contentsline {section}{\numberline {2.5}Article 5: Claims and Rights}{17}{section.2.5}}
\newlabel{art5}{{2.5}{17}{Article 5: Claims and Rights\relax }{section.2.5}{}}
\@writefile{toc}{\contentsline {section}{\numberline {2.6}Article 6: Interoperability}{19}{section.2.6}}
\newlabel{art6}{{2.6}{19}{Article 6: Interoperability\relax }{section.2.6}{}}
\@writefile{toc}{\contentsline {section}{\numberline {2.7}Article 7: Monitoring}{19}{section.2.7}}
\newlabel{art7}{{2.7}{19}{Article 7: Monitoring\relax }{section.2.7}{}}
\@writefile{toc}{\contentsline {section}{\numberline {2.8}Article 8: Reporting on the effects of the Directive}{20}{section.2.8}}
\newlabel{art8}{{2.8}{20}{Article 8: Reporting on the effects of the Directive\relax }{section.2.8}{}}
\@writefile{toc}{\contentsline {section}{\numberline {2.9}Article 9: Implementation}{21}{section.2.9}}
\newlabel{art9}{{2.9}{21}{Article 9: Implementation\relax }{section.2.9}{}}
\@writefile{toc}{\contentsline {section}{\numberline {2.10}Article 10: Entry into force}{22}{section.2.10}}
\newlabel{art10}{{2.10}{22}{Article 10: Entry into force\relax }{section.2.10}{}}
\@writefile{toc}{\contentsline {section}{\numberline {2.11}Article 11: Addressees}{22}{section.2.11}}
\newlabel{art11}{{2.11}{22}{Article 11: Addressees\relax }{section.2.11}{}}
