\BOOKMARK [0][-]{chapter.1}{Preamble}{}
\BOOKMARK [1][-]{section.1.1}{[Recital 1: Internal Market]}{chapter.1}
\BOOKMARK [1][-]{section.1.2}{[Recital 2: Differences]}{chapter.1}
\BOOKMARK [1][-]{section.1.3}{[Recital 3: No Convergence without Directive]}{chapter.1}
\BOOKMARK [1][-]{section.1.4}{[Recital 4: Informatisation]}{chapter.1}
\BOOKMARK [1][-]{section.1.5}{[Recital 5: Ergo Harmonisation \046 Clarification]}{chapter.1}
\BOOKMARK [1][-]{section.1.6}{[Recital 6: TRIPs]}{chapter.1}
\BOOKMARK [1][-]{section.1.7}{[Recital 8: Patents and Public Interest]}{chapter.1}
\BOOKMARK [1][-]{section.1.8}{[Recital 9: Patents and Copyright]}{chapter.1}
\BOOKMARK [1][-]{section.1.9}{[Recital 10: Technical Character]}{chapter.1}
\BOOKMARK [1][-]{section.1.10}{[Recital 11: Field of Technology]}{chapter.1}
\BOOKMARK [1][-]{section.1.11}{[Recital 12: Technical Contribution]}{chapter.1}
\BOOKMARK [1][-]{section.1.12}{[Recital 13: Algorithms]}{chapter.1}
\BOOKMARK [1][-]{section.1.13}{[Recital 14: EU Law vs National Law]}{chapter.1}
\BOOKMARK [1][-]{section.1.14}{[Recital 15: Scope of Regulation]}{chapter.1}
\BOOKMARK [1][-]{section.1.15}{[Recital 16: Competitivity]}{chapter.1}
\BOOKMARK [1][-]{section.1.16}{[Recital 17: Competition Rules]}{chapter.1}
\BOOKMARK [1][-]{section.1.17}{[Recital 18: Interoperability, Copyright]}{chapter.1}
\BOOKMARK [1][-]{section.1.18}{[Recital 19: Subsidiarity]}{chapter.1}
\BOOKMARK [0][-]{chapter.2}{The Articles}{}
\BOOKMARK [1][-]{section.2.1}{Article 1: Scope}{chapter.2}
\BOOKMARK [1][-]{section.2.2}{Article 2: Definitions}{chapter.2}
\BOOKMARK [1][-]{section.2.3}{Article 3: Fields of Technology}{chapter.2}
\BOOKMARK [1][-]{section.2.4}{Article 4: Conditions for patentability}{chapter.2}
\BOOKMARK [1][-]{section.2.5}{Article 5: Claims and Rights}{chapter.2}
\BOOKMARK [1][-]{section.2.6}{Article 6: Interoperability}{chapter.2}
\BOOKMARK [1][-]{section.2.7}{Article 7: Monitoring}{chapter.2}
\BOOKMARK [1][-]{section.2.8}{Article 8: Reporting on the effects of the Directive}{chapter.2}
\BOOKMARK [1][-]{section.2.9}{Article 9: Implementation}{chapter.2}
\BOOKMARK [1][-]{section.2.10}{Article 10: Entry into force}{chapter.2}
\BOOKMARK [1][-]{section.2.11}{Article 11: Addressees}{chapter.2}
