\relax 
\ifx\hyper@anchor\@undefined
\global \let \oldcontentsline\contentsline
\gdef \contentsline#1#2#3#4{\oldcontentsline{#1}{#2}{#3}}
\global \let \oldnewlabel\newlabel
\gdef \newlabel#1#2{\newlabelxx{#1}#2}
\gdef \newlabelxx#1#2#3#4#5#6{\oldnewlabel{#1}{{#2}{#3}}}
\AtEndDocument{\let \contentsline\oldcontentsline
\let \newlabel\oldnewlabel}
\else
\global \let \hyper@last\relax 
\fi

\@writefile{toc}{\contentsline {section}{\numberline {1}Unreasoned Conclusions for Political Use}{2}{section.1}}
\newlabel{ipi00}{{1}{2}{Unreasoned Conclusions for Political Use\relax }{section.1}{}}
\@writefile{toc}{\contentsline {section}{\numberline {2}Evidence vs Conclusions of the Study}{3}{section.2}}
\newlabel{summ}{{2}{3}{Evidence vs Conclusions of the Study\relax }{section.2}{}}
\@writefile{toc}{\contentsline {section}{\numberline {3}Economic Literature suggests strong Negative Effects}{4}{section.3}}
\newlabel{balanc}{{3}{4}{Economic Literature suggests strong Negative Effects\relax }{section.3}{}}
\@writefile{toc}{\contentsline {section}{\numberline {4}History of the Study}{4}{section.4}}
\newlabel{hist}{{4}{4}{History of the Study\relax }{section.4}{}}
