\contentsline {section}{\numberline {1}Introductory Remarks}{2}{section.1}
\contentsline {section}{\numberline {2}The minister's answer with translation}{3}{section.2}
\contentsline {section}{\numberline {3}Annotated Links}{4}{section.3}
