\relax 
\ifx\hyper@anchor\@undefined
\global \let \oldcontentsline\contentsline
\gdef \contentsline#1#2#3#4{\oldcontentsline{#1}{#2}{#3}}
\global \let \oldnewlabel\newlabel
\gdef \newlabel#1#2{\newlabelxx{#1}#2}
\gdef \newlabelxx#1#2#3#4#5#6{\oldnewlabel{#1}{{#2}{#3}}}
\AtEndDocument{\let \contentsline\oldcontentsline
\let \newlabel\oldnewlabel}
\else
\global \let \hyper@last\relax 
\fi

\@writefile{toc}{\contentsline {section}{\numberline {1}Quellen}{1}{section.1}}
\newlabel{src}{{1}{1}{Quellen\relax }{section.1}{}}
\@writefile{toc}{\contentsline {section}{\numberline {2}Die Empfehlung und ihre (fehlende) Begr\"{u}ndung}{2}{section.2}}
\newlabel{text}{{2}{2}{Die Empfehlung und ihre (fehlende) Begr\"{u}ndung\relax }{section.2}{}}
\@writefile{toc}{\contentsline {section}{\numberline {3}Annotated Links}{3}{section.3}}
\newlabel{links}{{3}{3}{Annotated Links\relax }{section.3}{}}
\gdef\scr@tpo@lst{0}
