\contentsline {section}{\numberline {1}Quellen}{1}{section.1}
\contentsline {section}{\numberline {2}Die Empfehlung und ihre (fehlende) Begr\"{u}ndung}{2}{section.2}
\contentsline {section}{\numberline {3}Annotated Links}{3}{section.3}
