\contentsline {section}{\numberline {1}US 1974, EP 1992, DE 1996 ... 4470 Patente}{2}{section.1}
\contentsline {section}{\numberline {2}BPatG-Entscheidung ``Viterbi-Algorithmus'' 1996}{2}{section.2}
\contentsline {subsection}{\numberline {2.1}Corpus Delicti}{2}{subsection.2.1}
\contentsline {subsection}{\numberline {2.2}Technizit\"{a}t}{3}{subsection.2.2}
\contentsline {subsection}{\numberline {2.3}Hintergrund der Patenterteilungen}{3}{subsection.2.3}
\contentsline {section}{\numberline {3}Juristisches Schrifttum}{4}{section.3}
\contentsline {section}{\numberline {4}Informatisches Schrifttum}{5}{section.4}
\contentsline {section}{\numberline {5}Fragen, Aufgaben, Wie Sie helfen k\"{o}nnen}{6}{section.5}
