\relax 
\ifx\hyper@anchor\@undefined
\global \let \oldcontentsline\contentsline
\gdef \contentsline#1#2#3#4{\oldcontentsline{#1}{#2}{#3}}
\global \let \oldnewlabel\newlabel
\gdef \newlabel#1#2{\newlabelxx{#1}#2}
\gdef \newlabelxx#1#2#3#4#5#6{\oldnewlabel{#1}{{#2}{#3}}}
\AtEndDocument{\let \contentsline\oldcontentsline
\let \newlabel\oldnewlabel}
\else
\global \let \hyper@last\relax 
\fi

\@writefile{toc}{\contentsline {section}{\numberline {1}US 1974, EP 1992, DE 1996... 4470 Patents}{2}{section.1}}
\newlabel{hist}{{1}{2}{US 1974, EP 1992, DE 1996... 4470 Patents\relax }{section.1}{}}
\@writefile{toc}{\contentsline {section}{\numberline {2}German Opposition against Viterbi Patent 1992-1996}{2}{section.2}}
\newlabel{bpatg}{{2}{2}{German Opposition against Viterbi Patent 1992-1996\relax }{section.2}{}}
\@writefile{toc}{\contentsline {subsection}{\numberline {2.1}Corpus Delicti}{2}{subsection.2.1}}
\newlabel{corpus}{{2.1}{2}{Corpus Delicti\relax }{subsection.2.1}{}}
\@writefile{toc}{\contentsline {subsection}{\numberline {2.2}Technicity}{3}{subsection.2.2}}
\newlabel{anlays}{{2.2}{3}{Technicity\relax }{subsection.2.2}{}}
\@writefile{toc}{\contentsline {subsection}{\numberline {2.3}Background of Patent Granting}{3}{subsection.2.3}}
\newlabel{bakgr}{{2.3}{3}{Background of Patent Granting\relax }{subsection.2.3}{}}
\gdef \LT@i {\LT@entry 
    {1}{171.94327pt}\LT@entry 
    {1}{171.94327pt}}
\@writefile{toc}{\contentsline {section}{\numberline {3}Legal Literature}{4}{section.3}}
\newlabel{jurlit}{{3}{4}{Legal Literature\relax }{section.3}{}}
\@writefile{toc}{\contentsline {section}{\numberline {4}Informatic Literature}{5}{section.4}}
\newlabel{inflit}{{4}{5}{Informatic Literature\relax }{section.4}{}}
\@writefile{toc}{\contentsline {section}{\numberline {5}Questions, Things To Do, How you can Help}{6}{section.5}}
\newlabel{tasks}{{5}{6}{Questions, Things To Do, How you can Help\relax }{section.5}{}}
\gdef\scr@tpo@lst{0}
