\contentsline {section}{\numberline {1}US 1974, EP 1992, DE 1996... 4470 Patents}{2}{section.1}
\contentsline {section}{\numberline {2}German Opposition against Viterbi Patent 1992-1996}{2}{section.2}
\contentsline {subsection}{\numberline {2.1}Corpus Delicti}{2}{subsection.2.1}
\contentsline {subsection}{\numberline {2.2}Technicity}{3}{subsection.2.2}
\contentsline {subsection}{\numberline {2.3}Background of Patent Granting}{3}{subsection.2.3}
\contentsline {section}{\numberline {3}Legal Literature}{4}{section.3}
\contentsline {section}{\numberline {4}Informatic Literature}{5}{section.4}
\contentsline {section}{\numberline {5}Questions, Things To Do, How you can Help}{6}{section.5}
