\relax 
\ifx\hyper@anchor\@undefined
\global \let \oldcontentsline\contentsline
\gdef \contentsline#1#2#3#4{\oldcontentsline{#1}{#2}{#3}}
\global \let \oldnewlabel\newlabel
\gdef \newlabel#1#2{\newlabelxx{#1}#2}
\gdef \newlabelxx#1#2#3#4#5#6{\oldnewlabel{#1}{{#2}{#3}}}
\AtEndDocument{\let \contentsline\oldcontentsline
\let \newlabel\oldnewlabel}
\else
\global \let \hyper@last\relax 
\fi

\@writefile{toc}{\contentsline {section}{\numberline {1}US 1974, EP 1992, DE 1996 ... 4470 Patente}{2}{section.1}}
\newlabel{hist}{{1}{2}{US 1974, EP 1992, DE 1996 ... 4470 Patente\relax }{section.1}{}}
\@writefile{toc}{\contentsline {section}{\numberline {2}BPatG-Entscheidung ``Viterbi-Algorithmus'' 1996}{2}{section.2}}
\newlabel{bpatg}{{2}{2}{BPatG-Entscheidung ``Viterbi-Algorithmus'' 1996\relax }{section.2}{}}
\@writefile{toc}{\contentsline {subsection}{\numberline {2.1}Corpus Delicti}{2}{subsection.2.1}}
\newlabel{corpus}{{2.1}{2}{Corpus Delicti\relax }{subsection.2.1}{}}
\@writefile{toc}{\contentsline {subsection}{\numberline {2.2}Technizit\"{a}t}{3}{subsection.2.2}}
\newlabel{anlays}{{2.2}{3}{Technizit\"{a}t\relax }{subsection.2.2}{}}
\@writefile{toc}{\contentsline {subsection}{\numberline {2.3}Hintergrund der Patenterteilungen}{3}{subsection.2.3}}
\newlabel{bakgr}{{2.3}{3}{Hintergrund der Patenterteilungen\relax }{subsection.2.3}{}}
\gdef \LT@i {\LT@entry 
    {1}{171.94327pt}\LT@entry 
    {1}{171.94327pt}}
\@writefile{toc}{\contentsline {section}{\numberline {3}Juristisches Schrifttum}{4}{section.3}}
\newlabel{jurlit}{{3}{4}{Juristisches Schrifttum\relax }{section.3}{}}
\@writefile{toc}{\contentsline {section}{\numberline {4}Informatisches Schrifttum}{5}{section.4}}
\newlabel{inflit}{{4}{5}{Informatisches Schrifttum\relax }{section.4}{}}
\@writefile{toc}{\contentsline {section}{\numberline {5}Fragen, Aufgaben, Wie Sie helfen k\"{o}nnen}{6}{section.5}}
\newlabel{tasks}{{5}{6}{Fragen, Aufgaben, Wie Sie helfen k\"{o}nnen\relax }{section.5}{}}
\gdef\scr@tpo@lst{0}
