\contentsline {section}{\numberline {1}Allgemeines}{2}{section.1}
\contentsline {section}{\numberline {2}Bisherige DPMA-Pr\"{a}sidenten}{2}{section.2}
\contentsline {section}{\numberline {3}Annotated Links}{2}{section.3}
