\relax 
\catcode`"\active
\ifx\hyper@anchor\@undefined
\global \let \oldcontentsline\contentsline
\gdef \contentsline#1#2#3#4{\oldcontentsline{#1}{#2}{#3}}
\global \let \oldnewlabel\newlabel
\gdef \newlabel#1#2{\newlabelxx{#1}#2}
\gdef \newlabelxx#1#2#3#4#5#6{\oldnewlabel{#1}{{#2}{#3}}}
\AtEndDocument{\let \contentsline\oldcontentsline
\let \newlabel\oldnewlabel}
\else
\global \let \hyper@last\relax 
\fi

\select@language{catalan}
\@writefile{toc}{\select@language{catalan}}
\@writefile{lof}{\select@language{catalan}}
\@writefile{lot}{\select@language{catalan}}
\@writefile{toc}{\contentsline {section}{\numberline {1}Allgemeines}{1}{section.1}}
\newlabel{intro}{{1}{1}{Allgemeines\relax }{section.1}{}}
\@writefile{toc}{\contentsline {section}{\numberline {2}bisherige DPMA-Pr\@umlaut {a}sidenten}{2}{section.2}}
\newlabel{pres}{{2}{2}{bisherige DPMA-Pr\"{a}sidenten\relax }{section.2}{}}
\@writefile{toc}{\contentsline {section}{\numberline {3}Enlla\c {c}os anotats}{2}{section.3}}
\newlabel{ref}{{3}{2}{Enlla\c {c}os anotats\relax }{section.3}{}}
