\relax 
\ifx\hyper@anchor\@undefined
\global \let \oldcontentsline\contentsline
\gdef \contentsline#1#2#3#4{\oldcontentsline{#1}{#2}{#3}}
\global \let \oldnewlabel\newlabel
\gdef \newlabel#1#2{\newlabelxx{#1}#2}
\gdef \newlabelxx#1#2#3#4#5#6{\oldnewlabel{#1}{{#2}{#3}}}
\AtEndDocument{\let \contentsline\oldcontentsline
\let \newlabel\oldnewlabel}
\else
\global \let \hyper@last\relax 
\fi

\newlabel{suigen}{{1}{3}{Reinterpreting a manifesto for a sui generis protection as justification for patents\label {suigen}\relax }{section.1}{}}
\@writefile{toc}{\contentsline {section}{\numberline {1}Reinterpreting a manifesto for a sui generis protection as justification for patents}{3}{section.1}}
\newlabel{ota}{{2}{3}{Taking what is useful from the OTA report\label {ota}\relax }{section.2}{}}
\@writefile{toc}{\contentsline {section}{\numberline {2}Taking what is useful from the OTA report}{3}{section.2}}
\newlabel{klud}{{3}{4}{Conclusion\label {klud}\relax }{section.3}{}}
\@writefile{toc}{\contentsline {section}{\numberline {3}Conclusion}{4}{section.3}}
\newlabel{ref}{{4}{4}{Further Reading\label {ref}\relax }{section.4}{}}
\@writefile{toc}{\contentsline {section}{\numberline {4}Further Reading}{4}{section.4}}
\newlabel{auth}{{5}{5}{Acknowledgements\label {auth}\relax }{section.5}{}}
\@writefile{toc}{\contentsline {section}{\numberline {5}Acknowledgements}{5}{section.5}}
