\contentsline {section}{\numberline {1}Reinterpreting a manifesto for a sui generis protection as justification for patents}{3}{section.1}
\contentsline {section}{\numberline {2}Taking what is useful from the OTA report}{3}{section.2}
\contentsline {section}{\numberline {3}Conclusion}{4}{section.3}
\contentsline {section}{\numberline {4}Further Reading}{4}{section.4}
\contentsline {section}{\numberline {5}Acknowledgements}{5}{section.5}
