\contentsline {section}{\numberline {1}introduction}{2}{section.1}
\contentsline {section}{\numberline {2}Reinterpreting a manifesto for a sui generis law as justification for patents}{3}{section.2}
\contentsline {section}{\numberline {3}Taking what is useful from the OTA report}{4}{section.3}
\contentsline {section}{\numberline {4}Conclusion}{4}{section.4}
\contentsline {section}{\numberline {5}Further Reading}{4}{section.5}
\contentsline {section}{\numberline {6}Acknowledgements}{6}{section.6}
