\relax 
\ifx\hyper@anchor\@undefined
\global \let \oldcontentsline\contentsline
\gdef \contentsline#1#2#3#4{\oldcontentsline{#1}{#2}{#3}}
\global \let \oldnewlabel\newlabel
\gdef \newlabel#1#2{\newlabelxx{#1}#2}
\gdef \newlabelxx#1#2#3#4#5#6{\oldnewlabel{#1}{{#2}{#3}}}
\AtEndDocument{\let \contentsline\oldcontentsline
\let \newlabel\oldnewlabel}
\else
\global \let \hyper@last\relax 
\fi

\@writefile{toc}{\contentsline {section}{\numberline {1}introduction}{2}{section.1}}
\newlabel{intro}{{1}{2}{introduction\relax }{section.1}{}}
\@writefile{toc}{\contentsline {section}{\numberline {2}Reinterpreting a manifesto for a sui generis law as justification for patents}{3}{section.2}}
\newlabel{suigen}{{2}{3}{Reinterpreting a manifesto for a sui generis law as justification for patents\relax }{section.2}{}}
\@writefile{toc}{\contentsline {section}{\numberline {3}Taking what is useful from the OTA report}{4}{section.3}}
\newlabel{ota}{{3}{4}{Taking what is useful from the OTA report\relax }{section.3}{}}
\@writefile{toc}{\contentsline {section}{\numberline {4}Conclusion}{4}{section.4}}
\newlabel{klud}{{4}{4}{Conclusion\relax }{section.4}{}}
\@writefile{toc}{\contentsline {section}{\numberline {5}Further Reading}{4}{section.5}}
\newlabel{ref}{{5}{4}{Further Reading\relax }{section.5}{}}
\@writefile{toc}{\contentsline {section}{\numberline {6}Acknowledgements}{6}{section.6}}
\newlabel{auth}{{6}{6}{Acknowledgements\relax }{section.6}{}}
\gdef\scr@tpo@lst{0}
