\contentsline {section}{\numberline {1}Time and Place}{1}{section.1}
\contentsline {section}{\numberline {2}Schedule}{4}{section.2}
\contentsline {section}{\numberline {3}Annotated Links}{5}{section.3}
