
 remove env.avXY: 35 27 XY: 243 313 
 remove env.avXY: 35 27 XY: 243 313 
 remove env.avXY: 35 27 XY: 233 304                 EPO 522 591 B1
@@@o _                   _
_ __ __
__  _  _                   .
__-._._                   '
LL LL     _    _ _
N    N _o _  __
_    io Cfq    _ _
_w   __ o    iw _
q_qi_   _w -iu    __ 3
_i   i 16    __ i   .,
_   __         _  _ -- - - - --
N     i  l
N     -i  l
_   q_  I     O_
uj   _ _ l  i
o Cfw    __  o Ou _Z l  2    .
i i    _  _____ _J w_    '
_ Z    Zq    -  xz
_    _ 3__         I io-
_    __ _q    q     ; 2-iqj
h    O_ __W_    iii-    l i_u
zq3__    ___Z    l -Zj    .
_    zw  i_         l, __
_    _ZW__wq_         i - - - - - - --
_q_
_q__q__o            N   .
=  V             _
_                 _    Z
W_ o  o W
i    q i __ i Z
Z    _ _ _ __
_    _  i  _q
N  _i         _  ;
CLz-
32
