
 remove env.avXY: 35 28 XY: 272 298 
 remove env.avXY: 35 28 XY: 272 298 
 remove env.avXY: 35 28 XY: 172 288                  EPO 522 591 B1
@@O @_ U
_ __ __ __
__  _  _  _
__-  _ _ _
_LL- _LL- _LL-       _iw
_O
of_         _
_w           ''
O     LLwo
_     i_-
_i
__     n_   w
_     V _  i_
O_     _-  __
_        l   __
u     l
-_o     _            _
i     l
l  LLo
Wi     _
__     _  i__w i_Wi
_     l_  _i_z_
,  o_iO_q
_     _  ___ _
_    __     _
_    zw       o__
_          i__iiw
_W _i        ;
__          o_io_
__          _____
_  _         CfW_
.    ._          O_ w
j_ __
_    U Z
_iw
j i     hl    _
__     __    '
.           W_ __
34
