\relax 
\ifx\hyper@anchor\@undefined
\global \let \oldcontentsline\contentsline
\gdef \contentsline#1#2#3#4{\oldcontentsline{#1}{#2}{#3}}
\global \let \oldnewlabel\newlabel
\gdef \newlabel#1#2{\newlabelxx{#1}#2}
\gdef \newlabelxx#1#2#3#4#5#6{\oldnewlabel{#1}{{#2}{#3}}}
\AtEndDocument{\let \contentsline\oldcontentsline
\let \newlabel\oldnewlabel}
\else
\global \let \hyper@last\relax 
\fi

\@writefile{toc}{\contentsline {section}{\numberline {1}Anforderungen an eine Studie}{2}{section.1}}
\newlabel{req}{{1}{2}{Anforderungen an eine Studie\relax }{section.1}{}}
\@writefile{toc}{\contentsline {subsection}{\numberline {1.1}Gr\"{o}{\ss }tm\"{o}gliche \"{O}ffentlichkeit}{2}{subsection.1.1}}
\newlabel{pub}{{1.1}{2}{Gr\"{o}{\ss }tm\"{o}gliche \"{O}ffentlichkeit\relax }{subsection.1.1}{}}
\@writefile{toc}{\contentsline {subsection}{\numberline {1.2}Theoriebildung und Handlungsoptionen vorweg}{2}{subsection.1.2}}
\newlabel{opt}{{1.2}{2}{Theoriebildung und Handlungsoptionen vorweg\relax }{subsection.1.2}{}}
\@writefile{toc}{\contentsline {subsubsection}{\numberline {1.2.1}Unbegrenzte Patentierbarkeit mit unbegrenzter Durchsetzbarkeit}{2}{subsubsection.1.2.1}}
\newlabel{senlim}{{1.2.1}{2}{Unbegrenzte Patentierbarkeit mit unbegrenzter Durchsetzbarkeit\relax }{subsubsection.1.2.1}{}}
\@writefile{toc}{\contentsline {subsubsection}{\numberline {1.2.2}Unbegrenzte Patentierbarkeit mit begrenzter Durchsetzbarkeit}{3}{subsubsection.1.2.2}}
\newlabel{nonenf}{{1.2.2}{3}{Unbegrenzte Patentierbarkeit mit begrenzter Durchsetzbarkeit\relax }{subsubsection.1.2.2}{}}
\@writefile{toc}{\contentsline {subsubsection}{\numberline {1.2.3}Zur\"{u}ckschneidung des Patentwesens durch restriktiven Technikbegriff}{3}{subsubsection.1.2.3}}
\newlabel{nurtech}{{1.2.3}{3}{Zur\"{u}ckschneidung des Patentwesens durch restriktiven Technikbegriff\relax }{subsubsection.1.2.3}{}}
\@writefile{toc}{\contentsline {subsection}{\numberline {1.3}Erhebung aussagekr\"{a}ftiger Daten}{3}{subsection.1.3}}
\newlabel{kval}{{1.3}{3}{Erhebung aussagekr\"{a}ftiger Daten\relax }{subsection.1.3}{}}
\@writefile{toc}{\contentsline {section}{\numberline {2}Alter Entwurf: Wie w\"{u}rde die (Nicht)Patentierbarkeit von Software auf Ihre Firma wirken?}{4}{section.2}}
\newlabel{kiel}{{2}{4}{Alter Entwurf: Wie w\"{u}rde die (Nicht)Patentierbarkeit von Software auf Ihre Firma wirken?\relax }{section.2}{}}
\@writefile{toc}{\contentsline {subsection}{\numberline {2.1}How would software patentability affect your company?}{4}{subsection.2.1}}
\newlabel{viakom}{{2.1}{4}{How would software patentability affect your company?\relax }{subsection.2.1}{}}
\@writefile{toc}{\contentsline {subsection}{\numberline {2.2}What should be decided in November 2000?}{5}{subsection.2.2}}
\newlabel{dipkonf}{{2.2}{5}{What should be decided in November 2000?\relax }{subsection.2.2}{}}
\@writefile{toc}{\contentsline {section}{\numberline {3}Noch \"{a}lterer Entwurf}{5}{section.3}}
\newlabel{blas}{{3}{5}{Noch \"{a}lterer Entwurf\relax }{section.3}{}}
\gdef\scr@tpo@lst{0}
