\relax 
\ifx\hyper@anchor\@undefined
\global \let \oldcontentsline\contentsline
\gdef \contentsline#1#2#3#4{\oldcontentsline{#1}{#2}{#3}}
\global \let \oldnewlabel\newlabel
\gdef \newlabel#1#2{\newlabelxx{#1}#2}
\gdef \newlabelxx#1#2#3#4#5#6{\oldnewlabel{#1}{{#2}{#3}}}
\AtEndDocument{\let \contentsline\oldcontentsline
\let \newlabel\oldnewlabel}
\else
\global \let \hyper@last\relax 
\fi

\@writefile{toc}{\contentsline {subsection}{\numberline {0.1}Whom do swpatents help? Which economic behaviors do they encourage?}{1}{subsection.0.1}}
\newlabel{util}{{0.1}{1}{Whom do swpatents help? Which economic behaviors do they encourage?\relax }{subsection.0.1}{}}
\@writefile{toc}{\contentsline {subsubsection}{\numberline {0.1.1}Firmen mit gro{\ss }en Patentportfolios.}{1}{subsubsection.0.1.1}}
\newlabel{grandkomp}{{0.1.1}{1}{Firmen mit gro{\ss }en Patentportfolios}{subsubsection.0.1.1}{}}
\@writefile{toc}{\contentsline {subsubsection}{\numberline {0.1.2}Firmen, deren Gesch\"{a}ft auf wenigen patentierbaren Ideen f\"{u}r einen neuen Markt beruht}{2}{subsubsection.0.1.2}}
\newlabel{novmerk}{{0.1.2}{2}{Firmen, deren Gesch\"{a}ft auf wenigen patentierbaren Ideen f\"{u}r einen neuen Markt beruht\relax }{subsubsection.0.1.2}{}}
\@writefile{toc}{\contentsline {subsubsection}{\numberline {0.1.3}Unternehmen hochspezialisierter technischer Erfinder}{2}{subsubsection.0.1.3}}
\newlabel{invent}{{0.1.3}{2}{Unternehmen hochspezialisierter technischer Erfinder\relax }{subsubsection.0.1.3}{}}
\@writefile{toc}{\contentsline {subsubsection}{\numberline {0.1.4}Patentberater, Patentmakler}{2}{subsubsection.0.1.4}}
\newlabel{patenthai}{{0.1.4}{2}{Patentberater, Patentmakler\relax }{subsubsection.0.1.4}{}}
\@writefile{toc}{\contentsline {subsubsection}{\numberline {0.1.5}Patent\"{a}mter und Patentanw\"{a}lte}{3}{subsubsection.0.1.5}}
\newlabel{patamt}{{0.1.5}{3}{Patent\"{a}mter und Patentanw\"{a}lte\relax }{subsubsection.0.1.5}{}}
\@writefile{toc}{\contentsline {subsection}{\numberline {0.2}Who is hurt by software patents}{3}{subsection.0.2}}
\newlabel{neutil}{{0.2}{3}{Who is hurt by software patents\relax }{subsection.0.2}{}}
\@writefile{toc}{\contentsline {subsubsection}{\numberline {0.2.1}Freie Software, Informationelle Infrastruktur}{3}{subsubsection.0.2.1}}
\newlabel{libre}{{0.2.1}{3}{Freie Software, Informationelle Infrastruktur\relax }{subsubsection.0.2.1}{}}
\@writefile{toc}{\contentsline {subsubsection}{\numberline {0.2.2}Distributoren von freier Software und Shareware}{3}{subsubsection.0.2.2}}
\newlabel{distrib}{{0.2.2}{3}{Distributoren von freier Software und Shareware\relax }{subsubsection.0.2.2}{}}
\@writefile{toc}{\contentsline {subsubsection}{\numberline {0.2.3}kleine bis mittlere Urheber[firmen] komplexer Systeme}{4}{subsubsection.0.2.3}}
\newlabel{komplexkre}{{0.2.3}{4}{kleine bis mittlere Urheber[firmen] komplexer Systeme\relax }{subsubsection.0.2.3}{}}
\@writefile{toc}{\contentsline {subsubsection}{\numberline {0.2.4}manche Gro{\ss }firmen}{4}{subsubsection.0.2.4}}
\newlabel{kelkgrand}{{0.2.4}{4}{manche Gro{\ss }firmen\relax }{subsubsection.0.2.4}{}}
\@writefile{toc}{\contentsline {subsubsection}{\numberline {0.2.5}Unbeteiligte Branchen, der Verbraucher, die \"{O}ffentlichkeit}{4}{subsubsection.0.2.5}}
\newlabel{unbeteil}{{0.2.5}{4}{Unbeteiligte Branchen, der Verbraucher, die \"{O}ffentlichkeit\relax }{subsubsection.0.2.5}{}}
\@writefile{toc}{\contentsline {subsection}{\numberline {0.3}Are the Patent Offices up to their job?}{4}{subsection.0.3}}
\newlabel{srch}{{0.3}{4}{Are the Patent Offices up to their job?\relax }{subsection.0.3}{}}
\@writefile{toc}{\contentsline {subsubsection}{\numberline {0.3.1}Barriere zwischen Computersprache und Recherche-Sprache}{5}{subsubsection.0.3.1}}
\newlabel{sprachbarr}{{0.3.1}{5}{Barriere zwischen Computersprache und Recherche-Sprache\relax }{subsubsection.0.3.1}{}}
\@writefile{toc}{\contentsline {subsubsection}{\numberline {0.3.2}Fachliteratur spielt eine untergeordnete Rolle}{5}{subsubsection.0.3.2}}
\newlabel{fachlit}{{0.3.2}{5}{Fachliteratur spielt eine untergeordnete Rolle\relax }{subsubsection.0.3.2}{}}
\@writefile{toc}{\contentsline {subsection}{\numberline {0.4}Are European companies missing chances?}{5}{subsection.0.4}}
\newlabel{entp}{{0.4}{5}{Are European companies missing chances?\relax }{subsection.0.4}{}}
