\relax 
\ifx\hyper@anchor\@undefined
\global \let \oldcontentsline\contentsline
\gdef \contentsline#1#2#3#4{\oldcontentsline{#1}{#2}{#3}}
\global \let \oldnewlabel\newlabel
\gdef \newlabel#1#2{\newlabelxx{#1}#2}
\gdef \newlabelxx#1#2#3#4#5#6{\oldnewlabel{#1}{{#2}{#3}}}
\AtEndDocument{\let \contentsline\oldcontentsline
\let \newlabel\oldnewlabel}
\else
\global \let \hyper@last\relax 
\fi

\@writefile{toc}{\contentsline {section}{\numberline {1}Widerspr\"{u}chliches zur Technizit\"{a}t der ``computer-implementierten Erfindungen''}{2}{section.1}}
\newlabel{ftech}{{1}{2}{Widerspr\"{u}chliches zur Technizit\"{a}t der ``computer-implementierten Erfindungen''\relax }{section.1}{}}
\@writefile{toc}{\contentsline {section}{\numberline {2}\"{O}konomie aus Sicht amerikanischer Massenpatentierer}{3}{section.2}}
\newlabel{econ}{{2}{3}{\"{O}konomie aus Sicht amerikanischer Massenpatentierer\relax }{section.2}{}}
\@writefile{toc}{\contentsline {section}{\numberline {3}Wer dem anderen eine Grube gr\"{a}bt ...}{5}{section.3}}
\newlabel{outsorc}{{3}{5}{Wer dem anderen eine Grube gr\"{a}bt ..}{section.3}{}}
\@writefile{toc}{\contentsline {section}{\numberline {4}Nur eine ``\"{O}konomische Studie'' ber\"{u}cksichtigt}{7}{section.4}}
\newlabel{ipi00}{{4}{7}{Nur eine ``\"{O}konomische Studie'' ber\"{u}cksichtigt\relax }{section.4}{}}
\@writefile{toc}{\contentsline {section}{\numberline {5}Algorithmus untechnisch, Programm technisch?}{10}{section.5}}
\newlabel{algor}{{5}{10}{Algorithmus untechnisch, Programm technisch?\relax }{section.5}{}}
\@writefile{toc}{\contentsline {section}{\numberline {6}Patents for non-technical solutions}{11}{section.6}}
\newlabel{solv}{{6}{11}{Patents for non-technical solutions\relax }{section.6}{}}
\@writefile{toc}{\contentsline {section}{\numberline {7}``Logik hinter der Richtlinie'' bleibt verborgen}{11}{section.7}}
\newlabel{logik}{{7}{11}{``Logik hinter der Richtlinie'' bleibt verborgen\relax }{section.7}{}}
\@writefile{toc}{\contentsline {section}{\numberline {8}Apologetik f\"{u}r Rechtsbr\"{u}che}{15}{section.8}}
\newlabel{apolog}{{8}{15}{Apologetik f\"{u}r Rechtsbr\"{u}che\relax }{section.8}{}}
\@writefile{toc}{\contentsline {section}{\numberline {9}Denying the Parliament Its Right to Set the Rules}{18}{section.9}}
\newlabel{altern}{{9}{18}{Denying the Parliament Its Right to Set the Rules\relax }{section.9}{}}
\@writefile{toc}{\contentsline {section}{\numberline {10}Kommentierte Verweise}{20}{section.10}}
\newlabel{links}{{10}{20}{Kommentierte Verweise\relax }{section.10}{}}
