\contentsline {section}{\numberline {1}Contradictons on technicity of ``computer-implemented inventions''}{2}{section.1}
\contentsline {section}{\numberline {2}Economics from a US Corporate Patent Department's Perspective}{3}{section.2}
\contentsline {section}{\numberline {3}He who diggeth a Pit ...}{5}{section.3}
\contentsline {section}{\numberline {4}Disregarding all but one ``economic study''}{7}{section.4}
\contentsline {section}{\numberline {5}Algorithm Untechnical, Program Technical?}{10}{section.5}
\contentsline {section}{\numberline {6}Patents for non-technical solutions}{11}{section.6}
\contentsline {section}{\numberline {7}``Rationale behind the Directive'' remains obscure}{11}{section.7}
\contentsline {section}{\numberline {8}Apologetics for Violation of Law}{15}{section.8}
\contentsline {section}{\numberline {9}Denying the Parliament Its Right to Set the Rules}{18}{section.9}
\contentsline {section}{\numberline {10}Annotated Links}{20}{section.10}
