\contentsline {section}{\numberline {1}Widerspr\"{u}chliches zur Technizit\"{a}t der ``computer-implementierten Erfindungen''}{2}{section.1}
\contentsline {section}{\numberline {2}\"{O}konomie aus Sicht amerikanischer Massenpatentierer}{3}{section.2}
\contentsline {section}{\numberline {3}Wer dem anderen eine Grube gr\"{a}bt ...}{5}{section.3}
\contentsline {section}{\numberline {4}Nur eine ``\"{O}konomische Studie'' ber\"{u}cksichtigt}{7}{section.4}
\contentsline {section}{\numberline {5}Algorithmus untechnisch, Programm technisch?}{10}{section.5}
\contentsline {section}{\numberline {6}Patents for non-technical solutions}{11}{section.6}
\contentsline {section}{\numberline {7}``Logik hinter der Richtlinie'' bleibt verborgen}{11}{section.7}
\contentsline {section}{\numberline {8}Apologetik f\"{u}r Rechtsbr\"{u}che}{15}{section.8}
\contentsline {section}{\numberline {9}Denying the Parliament Its Right to Set the Rules}{18}{section.9}
\contentsline {section}{\numberline {10}Kommentierte Verweise}{20}{section.10}
