\relax 
\ifx\hyper@anchor\@undefined
\global \let \oldcontentsline\contentsline
\gdef \contentsline#1#2#3#4{\oldcontentsline{#1}{#2}{#3}}
\global \let \oldnewlabel\newlabel
\gdef \newlabel#1#2{\newlabelxx{#1}#2}
\gdef \newlabelxx#1#2#3#4#5#6{\oldnewlabel{#1}{{#2}{#3}}}
\AtEndDocument{\let \contentsline\oldcontentsline
\let \newlabel\oldnewlabel}
\else
\global \let \hyper@last\relax 
\fi

\@writefile{toc}{\contentsline {section}{\numberline {1}Contradictons on technicity of ``computer-implemented inventions''}{2}{section.1}}
\newlabel{ftech}{{1}{2}{Contradictons on technicity of ``computer-implemented inventions''\relax }{section.1}{}}
\@writefile{toc}{\contentsline {section}{\numberline {2}Economics from a US Corporate Patent Department's Perspective}{3}{section.2}}
\newlabel{econ}{{2}{3}{Economics from a US Corporate Patent Department's Perspective\relax }{section.2}{}}
\@writefile{toc}{\contentsline {section}{\numberline {3}He who diggeth a Pit ...}{5}{section.3}}
\newlabel{outsorc}{{3}{5}{He who diggeth a Pit ..}{section.3}{}}
\@writefile{toc}{\contentsline {section}{\numberline {4}Disregarding all but one ``economic study''}{7}{section.4}}
\newlabel{ipi00}{{4}{7}{Disregarding all but one ``economic study''\relax }{section.4}{}}
\@writefile{toc}{\contentsline {section}{\numberline {5}Algorithm Untechnical, Program Technical?}{10}{section.5}}
\newlabel{algor}{{5}{10}{Algorithm Untechnical, Program Technical?\relax }{section.5}{}}
\@writefile{toc}{\contentsline {section}{\numberline {6}Patents for non-technical solutions}{11}{section.6}}
\newlabel{solv}{{6}{11}{Patents for non-technical solutions\relax }{section.6}{}}
\@writefile{toc}{\contentsline {section}{\numberline {7}``Rationale behind the Directive'' remains obscure}{11}{section.7}}
\newlabel{logik}{{7}{11}{``Rationale behind the Directive'' remains obscure\relax }{section.7}{}}
\@writefile{toc}{\contentsline {section}{\numberline {8}Apologetics for Violation of Law}{15}{section.8}}
\newlabel{apolog}{{8}{15}{Apologetics for Violation of Law\relax }{section.8}{}}
\@writefile{toc}{\contentsline {section}{\numberline {9}Denying the Parliament Its Right to Set the Rules}{18}{section.9}}
\newlabel{altern}{{9}{18}{Denying the Parliament Its Right to Set the Rules\relax }{section.9}{}}
\@writefile{toc}{\contentsline {section}{\numberline {10}Annotated Links}{20}{section.10}}
\newlabel{links}{{10}{20}{Annotated Links\relax }{section.10}{}}
