\relax 
\catcode`:\active
\catcode`;\active
\catcode`!\active
\catcode`?\active
\ifx\hyper@anchor\@undefined
\global \let \oldcontentsline\contentsline
\gdef \contentsline#1#2#3#4{\oldcontentsline{#1}{#2}{#3}}
\global \let \oldnewlabel\newlabel
\gdef \newlabel#1#2{\newlabelxx{#1}#2}
\gdef \newlabelxx#1#2#3#4#5#6{\oldnewlabel{#1}{{#2}{#3}}}
\AtEndDocument{\let \contentsline\oldcontentsline
\let \newlabel\oldnewlabel}
\else
\global \let \hyper@last\relax 
\fi

\select@language{french}
\@writefile{toc}{\select@language{french}}
\@writefile{lof}{\select@language{french}}
\@writefile{lot}{\select@language{french}}
\@writefile{toc}{\contentsline {section}{\numberline {1}Minist\`{e}re: Valorisation par Force}{2}{section.1}}
\newlabel{force}{{1}{2}{Minist\`{e}re: Valorisation par Force\relax }{section.1}{}}
\@writefile{toc}{\contentsline {section}{\numberline {2}Liens annot\'{e}s}{2}{section.2}}
\newlabel{links}{{2}{2}{Liens annot\'{e}s\relax }{section.2}{}}
\gdef\scr@tpo@lst{0}
