\relax 
\ifx\hyper@anchor\@undefined
\global \let \oldcontentsline\contentsline
\gdef \contentsline#1#2#3#4{\oldcontentsline{#1}{#2}{#3}}
\global \let \oldnewlabel\newlabel
\gdef \newlabel#1#2{\newlabelxx{#1}#2}
\gdef \newlabelxx#1#2#3#4#5#6{\oldnewlabel{#1}{{#2}{#3}}}
\AtEndDocument{\let \contentsline\oldcontentsline
\let \newlabel\oldnewlabel}
\else
\global \let \hyper@last\relax 
\fi

\@writefile{toc}{\contentsline {section}{\numberline {1}Statistics on Value of Patent Publications to Industry}{2}{section.1}}
\newlabel{patpub}{{1}{2}{Statistics on Value of Patent Publications to Industry\relax }{section.1}{}}
\@writefile{toc}{\contentsline {section}{\numberline {2}History: Controversy over Innovators' Privileges}{4}{section.2}}
\newlabel{hist}{{2}{4}{History: Controversy over Innovators' Privileges\relax }{section.2}{}}
\@writefile{toc}{\contentsline {section}{\numberline {3}Patent System's Negative Impact, Scope must be Restricted}{5}{section.3}}
\newlabel{resum}{{3}{5}{Patent System's Negative Impact, Scope must be Restricted\relax }{section.3}{}}
\@writefile{toc}{\contentsline {section}{\numberline {4}Lamberton Statement: Recommendations Softened by Political Pressure}{6}{section.4}}
\newlabel{stat}{{4}{6}{Lamberton Statement: Recommendations Softened by Political Pressure\relax }{section.4}{}}
\@writefile{toc}{\contentsline {section}{\numberline {5}Annotated Links}{7}{section.5}}
\newlabel{links}{{5}{7}{Annotated Links\relax }{section.5}{}}
\gdef\scr@tpo@lst{0}
