\contentsline {section}{\numberline {1}Statistics on Value of Patent Publications to Industry}{2}{section.1}
\contentsline {section}{\numberline {2}History: Controversy over Innovators' Privileges}{4}{section.2}
\contentsline {section}{\numberline {3}Patent System's Negative Impact, Scope must be Restricted}{5}{section.3}
\contentsline {section}{\numberline {4}Lamberton Statement: Recommendations Softened by Political Pressure}{6}{section.4}
\contentsline {section}{\numberline {5}Annotated Links}{7}{section.5}
