\relax 
\ifx\hyper@anchor\@undefined
\global \let \oldcontentsline\contentsline
\gdef \contentsline#1#2#3#4{\oldcontentsline{#1}{#2}{#3}}
\global \let \oldnewlabel\newlabel
\gdef \newlabel#1#2{\newlabelxx{#1}#2}
\gdef \newlabelxx#1#2#3#4#5#6{\oldnewlabel{#1}{{#2}{#3}}}
\AtEndDocument{\let \contentsline\oldcontentsline
\let \newlabel\oldnewlabel}
\else
\global \let \hyper@last\relax 
\fi

\csname auxWARNINGii\endcsname {\typeout {-34- this file and other auxiliary files require to use the following}}
\csname auxWARNINGii\endcsname {\typeout {-34- LaTeX packages: french and babel!}}
\csname auxWARNINGii\endcsname {\typeout {-34- check \protect \usepackage \space or remove these files. Typesetting is aborted!} \stop }
\select@language{french}
\@writefile{toc}{\select@language{french}}
\@writefile{lof}{\select@language{french}}
\@writefile{lot}{\select@language{french}}
\select@language{french}
\@writefile{toc}{\select@language{french}}
\@writefile{lof}{\select@language{french}}
\@writefile{lot}{\select@language{french}}
\@writefile{toc}{\contentsline {chapter}{\numberline {1}Le Texte}{4}{chapter.1}}
\@writefile{lof}{\addvspace {10\p@ }}
\@writefile{lot}{\addvspace {10\p@ }}
\newlabel{text}{{1}{4}{Le Texte\relax }{chapter.1}{}}
\@writefile{toc}{\contentsline {chapter}{\numberline {2}Anmerkungen des Autors}{11}{chapter.2}}
\@writefile{lof}{\addvspace {10\p@ }}
\@writefile{lot}{\addvspace {10\p@ }}
\newlabel{notes}{{2}{11}{Anmerkungen des Autors\relax }{chapter.2}{}}
\newlabel{ftn*}{{2}{11}{Anmerkungen des Autors\relax }{chapter.2}{}}
\newlabel{ftn1}{{2}{11}{Anmerkungen des Autors\relax }{chapter.2}{}}
\newlabel{ftn2}{{2}{11}{Anmerkungen des Autors\relax }{chapter.2}{}}
\newlabel{ftn3}{{2}{11}{Anmerkungen des Autors\relax }{chapter.2}{}}
\newlabel{ftn4}{{2}{11}{Anmerkungen des Autors\relax }{chapter.2}{}}
\newlabel{ftn5}{{2}{11}{Anmerkungen des Autors\relax }{chapter.2}{}}
\newlabel{ftn6}{{2}{11}{Anmerkungen des Autors\relax }{chapter.2}{}}
\newlabel{ftn7}{{2}{11}{Anmerkungen des Autors\relax }{chapter.2}{}}
\newlabel{ftn8}{{2}{11}{Anmerkungen des Autors\relax }{chapter.2}{}}
\newlabel{ftn9}{{2}{11}{Anmerkungen des Autors\relax }{chapter.2}{}}
\newlabel{ftn10}{{2}{11}{Anmerkungen des Autors\relax }{chapter.2}{}}
\newlabel{ftn11}{{2}{11}{Anmerkungen des Autors\relax }{chapter.2}{}}
\newlabel{ftn12}{{2}{11}{Anmerkungen des Autors\relax }{chapter.2}{}}
\newlabel{ftn13}{{2}{11}{Anmerkungen des Autors\relax }{chapter.2}{}}
\newlabel{ftn14}{{2}{11}{Anmerkungen des Autors\relax }{chapter.2}{}}
\newlabel{ftn15}{{2}{11}{Anmerkungen des Autors\relax }{chapter.2}{}}
\newlabel{ftn16}{{2}{11}{Anmerkungen des Autors\relax }{chapter.2}{}}
\newlabel{ftn17}{{2}{11}{Anmerkungen des Autors\relax }{chapter.2}{}}
\newlabel{ftn18}{{2}{11}{Anmerkungen des Autors\relax }{chapter.2}{}}
\newlabel{ftn19}{{2}{11}{Anmerkungen des Autors\relax }{chapter.2}{}}
\newlabel{ftn20}{{2}{11}{Anmerkungen des Autors\relax }{chapter.2}{}}
\newlabel{ftn21}{{2}{11}{Anmerkungen des Autors\relax }{chapter.2}{}}
\newlabel{ftn22}{{2}{11}{Anmerkungen des Autors\relax }{chapter.2}{}}
\newlabel{ftn23}{{2}{11}{Anmerkungen des Autors\relax }{chapter.2}{}}
\newlabel{ftn24}{{2}{11}{Anmerkungen des Autors\relax }{chapter.2}{}}
\newlabel{ftn25}{{2}{11}{Anmerkungen des Autors\relax }{chapter.2}{}}
\newlabel{ftn26}{{2}{11}{Anmerkungen des Autors\relax }{chapter.2}{}}
\newlabel{ftn27}{{2}{11}{Anmerkungen des Autors\relax }{chapter.2}{}}
\newlabel{ftn28}{{2}{11}{Anmerkungen des Autors\relax }{chapter.2}{}}
\newlabel{ftn29}{{2}{11}{Anmerkungen des Autors\relax }{chapter.2}{}}
\newlabel{ftn30}{{2}{12}{Anmerkungen des Autors\relax }{chapter.2}{}}
\newlabel{ftn31}{{2}{12}{Anmerkungen des Autors\relax }{chapter.2}{}}
\newlabel{ftn32}{{2}{12}{Anmerkungen des Autors\relax }{chapter.2}{}}
\newlabel{ftn33}{{2}{12}{Anmerkungen des Autors\relax }{chapter.2}{}}
\newlabel{ftn34}{{2}{12}{Anmerkungen des Autors\relax }{chapter.2}{}}
\newlabel{ftn35}{{2}{12}{Anmerkungen des Autors\relax }{chapter.2}{}}
\newlabel{ftn36}{{2}{12}{Anmerkungen des Autors\relax }{chapter.2}{}}
\newlabel{ftn37}{{2}{12}{Anmerkungen des Autors\relax }{chapter.2}{}}
\newlabel{ftn38}{{2}{12}{Anmerkungen des Autors\relax }{chapter.2}{}}
\newlabel{ftn39}{{2}{12}{Anmerkungen des Autors\relax }{chapter.2}{}}
\newlabel{ftn40}{{2}{12}{Anmerkungen des Autors\relax }{chapter.2}{}}
\newlabel{ftn41}{{2}{12}{Anmerkungen des Autors\relax }{chapter.2}{}}
\newlabel{ftn42}{{2}{12}{Anmerkungen des Autors\relax }{chapter.2}{}}
\newlabel{ftn43}{{2}{12}{Anmerkungen des Autors\relax }{chapter.2}{}}
