
 remove env.avXY: 52 51 XY: 594 196         __LID 7_G  PREOPCOE3S5S98,5B,
@@B17 FIEL_ ID_NFIFI_A7JON  D_7_
IO       '.
20 @_
30 @@
40 @@
50 @@
FIG. l
CEN7R_L PROC_SSING UN17
_O
C_C_E _EMORY      __IN MEMo_y
_        -_6o   .
FIG.,, 2
