\relax 
\ifx\hyper@anchor\@undefined
\global \let \oldcontentsline\contentsline
\gdef \contentsline#1#2#3#4{\oldcontentsline{#1}{#2}{#3}}
\global \let \oldnewlabel\newlabel
\gdef \newlabel#1#2{\newlabelxx{#1}#2}
\gdef \newlabelxx#1#2#3#4#5#6{\oldnewlabel{#1}{{#2}{#3}}}
\AtEndDocument{\let \contentsline\oldcontentsline
\let \newlabel\oldnewlabel}
\else
\global \let \hyper@last\relax 
\fi

\@writefile{toc}{\contentsline {subsection}{\numberline {0.1}Study, Document, Deepen Discussion}{1}{subsection.0.1}}
\newlabel{stud}{{0.1}{1}{Study, Document, Deepen Discussion\relax }{subsection.0.1}{}}
\@writefile{toc}{\contentsline {subsubsection}{\numberline {0.1.1}Europ\"{a}er f\"{u}r die Patentschlacht in US+JP r\"{u}sten: Stand der Technik systematisch aufarbeiten }{2}{subsubsection.0.1.1}}
\newlabel{priodat}{{0.1.1}{2}{Europ\"{a}er f\"{u}r die Patentschlacht in US+JP r\"{u}sten: Stand der Technik systematisch aufarbeiten \relax }{subsubsection.0.1.1}{}}
\@writefile{toc}{\contentsline {subsubsection}{\numberline {0.1.2}Systematische Meinungsforschung}{2}{subsubsection.0.1.2}}
\newlabel{umfrag}{{0.1.2}{2}{Systematische Meinungsforschung\relax }{subsubsection.0.1.2}{}}
\@writefile{toc}{\contentsline {subsubsection}{\numberline {0.1.3}Systematische Erforschung der Wirtschaftlichen Auswirkungen}{3}{subsubsection.0.1.3}}
\newlabel{efekt}{{0.1.3}{3}{Systematische Erforschung der Wirtschaftlichen Auswirkungen\relax }{subsubsection.0.1.3}{}}
\@writefile{toc}{\contentsline {subsection}{\numberline {0.2}Shape the EPC Changes}{3}{subsection.0.2}}
\newlabel{epue}{{0.2}{3}{Shape the EPC Changes\relax }{subsection.0.2}{}}
\@writefile{toc}{\contentsline {subsection}{\numberline {0.3}Protect Legal Goods such as Compatibility, Source Accessibility etc by Separate Laws}{4}{subsection.0.3}}
\newlabel{dleg}{{0.3}{4}{Protect Legal Goods such as Compatibility, Source Accessibility etc by Separate Laws\relax }{subsection.0.3}{}}
