\contentsline {subsection}{\numberline {0.1}Study, Document, Deepen Discussion}{1}{subsection.0.1}
\contentsline {subsubsection}{\numberline {0.1.1}Europ\"{a}er f\"{u}r die Patentschlacht in US+JP r\"{u}sten: Stand der Technik systematisch aufarbeiten }{2}{subsubsection.0.1.1}
\contentsline {subsubsection}{\numberline {0.1.2}Systematische Meinungsforschung}{2}{subsubsection.0.1.2}
\contentsline {subsubsection}{\numberline {0.1.3}Systematische Erforschung der Wirtschaftlichen Auswirkungen}{3}{subsubsection.0.1.3}
\contentsline {subsection}{\numberline {0.2}Shape the EPC Changes}{3}{subsection.0.2}
\contentsline {subsection}{\numberline {0.3}Protect Legal Goods such as Compatibility, Source Accessibility etc by Separate Laws}{4}{subsection.0.3}
