\contentsline {section}{\numberline {1}What was it that happened?}{1}{section.1}
\contentsline {section}{\numberline {2}Is this good or bad?}{2}{section.2}
\contentsline {section}{\numberline {3}As a layman, I really can't see much difference between the directive ``before'' and ``after''!}{3}{section.3}
\contentsline {section}{\numberline {4}Why does ``the other side'' also claim it as a victory?}{4}{section.4}
\contentsline {section}{\numberline {5}Is this the law in Europe now?}{4}{section.5}
\contentsline {section}{\numberline {6}What can I do to help?}{5}{section.6}
