\relax 
\ifx\hyper@anchor\@undefined
\global \let \oldcontentsline\contentsline
\gdef \contentsline#1#2#3#4{\oldcontentsline{#1}{#2}{#3}}
\global \let \oldnewlabel\newlabel
\gdef \newlabel#1#2{\newlabelxx{#1}#2}
\gdef \newlabelxx#1#2#3#4#5#6{\oldnewlabel{#1}{{#2}{#3}}}
\AtEndDocument{\let \contentsline\oldcontentsline
\let \newlabel\oldnewlabel}
\else
\global \let \hyper@last\relax 
\fi

\@writefile{toc}{\contentsline {section}{\numberline {1}What was it that happened?}{1}{section.1}}
\newlabel{kiok}{{1}{1}{What was it that happened?\relax }{section.1}{}}
\@writefile{toc}{\contentsline {section}{\numberline {2}Is this good or bad?}{2}{section.2}}
\newlabel{chubon}{{2}{2}{Is this good or bad?\relax }{section.2}{}}
\@writefile{toc}{\contentsline {section}{\numberline {3}As a layman, I really can't see much difference between the directive ``before'' and ``after''!}{3}{section.3}}
\newlabel{diff}{{3}{3}{As a layman, I really can't see much difference between the directive ``before'' and ``after''!\relax }{section.3}{}}
\@writefile{toc}{\contentsline {section}{\numberline {4}Why does ``the other side'' also claim it as a victory?}{4}{section.4}}
\newlabel{vikt}{{4}{4}{Why does ``the other side'' also claim it as a victory?\relax }{section.4}{}}
\@writefile{toc}{\contentsline {section}{\numberline {5}Is this the law in Europe now?}{4}{section.5}}
\newlabel{valid}{{5}{4}{Is this the law in Europe now?\relax }{section.5}{}}
\@writefile{toc}{\contentsline {section}{\numberline {6}What can I do to help?}{5}{section.6}}
\newlabel{gunka}{{6}{5}{What can I do to help?\relax }{section.6}{}}
