\relax 
\ifx\hyper@anchor\@undefined
\global \let \oldcontentsline\contentsline
\gdef \contentsline#1#2#3#4{\oldcontentsline{#1}{#2}{#3}}
\global \let \oldnewlabel\newlabel
\gdef \newlabel#1#2{\newlabelxx{#1}#2}
\gdef \newlabelxx#1#2#3#4#5#6{\oldnewlabel{#1}{{#2}{#3}}}
\AtEndDocument{\let \contentsline\oldcontentsline
\let \newlabel\oldnewlabel}
\else
\global \let \hyper@last\relax 
\fi

\@writefile{toc}{\contentsline {section}{\numberline {1}introduction}{2}{section.1}}
\newlabel{intro}{{1}{2}{introduction\relax }{section.1}{}}
\@writefile{toc}{\contentsline {section}{\numberline {2}The last hacker}{2}{section.2}}
\newlabel{hacker}{{2}{2}{The last hacker\relax }{section.2}{}}
\@writefile{toc}{\contentsline {section}{\numberline {3}GNU and Linux or GNU/Linux?}{6}{section.3}}
\newlabel{gnulinux}{{3}{6}{GNU and Linux or GNU/Linux?\relax }{section.3}{}}
\@writefile{toc}{\contentsline {section}{\numberline {4}Pirates and taxpayers}{6}{section.4}}
\newlabel{pirat}{{4}{6}{Pirates and taxpayers\relax }{section.4}{}}
\@writefile{toc}{\contentsline {section}{\numberline {5}The private life of copyright}{8}{section.5}}
\newlabel{copy}{{5}{8}{The private life of copyright\relax }{section.5}{}}
\@writefile{toc}{\contentsline {section}{\numberline {6}Freedom of information in Europe}{9}{section.6}}
\newlabel{info}{{6}{9}{Freedom of information in Europe\relax }{section.6}{}}
\@writefile{toc}{\contentsline {section}{\numberline {7}Annotated Links}{10}{section.7}}
\newlabel{links}{{7}{10}{Annotated Links\relax }{section.7}{}}
