\contentsline {section}{\numberline {1}introduction}{2}{section.1}
\contentsline {section}{\numberline {2}The last hacker}{2}{section.2}
\contentsline {section}{\numberline {3}GNU and Linux or GNU/Linux?}{6}{section.3}
\contentsline {section}{\numberline {4}Pirates and taxpayers}{6}{section.4}
\contentsline {section}{\numberline {5}The private life of copyright}{8}{section.5}
\contentsline {section}{\numberline {6}Freedom of information in Europe}{9}{section.6}
\contentsline {section}{\numberline {7}Annotated Links}{10}{section.7}
