\contentsline {section}{\numberline {1}the author(s)}{2}{section.1}
\contentsline {section}{\numberline {2}The Circular}{2}{section.2}
\contentsline {section}{\numberline {3}Further Reading}{4}{section.3}
