\relax 
\catcode`"\active
\ifx\hyper@anchor\@undefined
\global \let \oldcontentsline\contentsline
\gdef \contentsline#1#2#3#4{\oldcontentsline{#1}{#2}{#3}}
\global \let \oldnewlabel\newlabel
\gdef \newlabel#1#2{\newlabelxx{#1}#2}
\gdef \newlabelxx#1#2#3#4#5#6{\oldnewlabel{#1}{{#2}{#3}}}
\AtEndDocument{\let \contentsline\oldcontentsline
\let \newlabel\oldnewlabel}
\else
\global \let \hyper@last\relax 
\fi

\select@language{catalan}
\@writefile{toc}{\select@language{catalan}}
\@writefile{lof}{\select@language{catalan}}
\@writefile{lot}{\select@language{catalan}}
\@writefile{toc}{\contentsline {section}{\numberline {1}Com s'ha fet}{2}{section.1}}
\newlabel{method}{{1}{2}{Com s'ha fet\relax }{section.1}{}}
\@writefile{toc}{\contentsline {section}{\numberline {2}Top EPO Software Patent Applicants 1978-2003}{2}{section.2}}
\newlabel{jarappl}{{2}{2}{Top EPO Software Patent Applicants 1978-2003\relax }{section.2}{}}
\@writefile{toc}{\contentsline {section}{\numberline {3}Publication Years}{20}{section.3}}
\newlabel{pubdat}{{3}{20}{Publication Years\relax }{section.3}{}}
\@writefile{toc}{\contentsline {section}{\numberline {4}Applicant Countries}{21}{section.4}}
\newlabel{appland}{{4}{21}{Applicant Countries\relax }{section.4}{}}
\@writefile{toc}{\contentsline {section}{\numberline {5}Inventor Countries}{23}{section.5}}
\newlabel{invland}{{5}{23}{Inventor Countries\relax }{section.5}{}}
\@writefile{toc}{\contentsline {section}{\numberline {6}Estad\'{\i }stiques}{24}{section.6}}
\newlabel{stats}{{6}{24}{Estad\'{\i }stiques\relax }{section.6}{}}
\@writefile{toc}{\contentsline {section}{\numberline {7}Enlla\c {c}os anotats}{24}{section.7}}
\newlabel{links}{{7}{24}{Enlla\c {c}os anotats\relax }{section.7}{}}
\gdef\scr@tpo@lst{0}
