\select@language {catalan}
\contentsline {section}{\numberline {1}Com s'ha fet}{2}{section.1}
\contentsline {section}{\numberline {2}Top EPO Software Patent Applicants 1978-2003}{2}{section.2}
\contentsline {section}{\numberline {3}Publication Years}{20}{section.3}
\contentsline {section}{\numberline {4}Applicant Countries}{21}{section.4}
\contentsline {section}{\numberline {5}Inventor Countries}{23}{section.5}
\contentsline {section}{\numberline {6}Estad\'{\i }stiques}{24}{section.6}
\contentsline {section}{\numberline {7}Enlla\c {c}os anotats}{24}{section.7}
