\select@language {french}
\contentsline {section}{\numberline {1}M\'{e}thodologie}{2}{section.1}
\contentsline {section}{\numberline {2}Premiers demandeurs de brevets logiciels \`{a} l'OEB 1978-2003}{2}{section.2}
\contentsline {section}{\numberline {3}Ann\'{e}e de publication}{20}{section.3}
\contentsline {section}{\numberline {4}Pays du demandeur}{21}{section.4}
\contentsline {section}{\numberline {5}Pays de l'inventeur}{23}{section.5}
\contentsline {section}{\numberline {6}Anciennes statistiques}{24}{section.6}
\contentsline {section}{\numberline {7}Liens annot\'{e}s}{24}{section.7}
