\BOOKMARK [1][-]{section.1}{Com s'ha fet}{}
\BOOKMARK [1][-]{section.2}{Top EPO Software Patent Applicants 1978-2003}{}
\BOOKMARK [1][-]{section.3}{Publication Years}{}
\BOOKMARK [1][-]{section.4}{Applicant Countries}{}
\BOOKMARK [1][-]{section.5}{Inventor Countries}{}
\BOOKMARK [1][-]{section.6}{Estad\355stiques}{}
\BOOKMARK [1][-]{section.7}{Enlla\347os anotats}{}
