\BOOKMARK [1][-]{section.1}{Wie wir es gemacht haben}{}
\BOOKMARK [1][-]{section.2}{Meistanmelder von EPA-Softwarepatenten 1978-2003}{}
\BOOKMARK [1][-]{section.3}{Ver\366ffentlichungsjahrg\344nge}{}
\BOOKMARK [1][-]{section.4}{Anmelderl\344nder}{}
\BOOKMARK [1][-]{section.5}{Erfinderl\344nder}{}
\BOOKMARK [1][-]{section.6}{Alte Statistiken}{}
\BOOKMARK [1][-]{section.7}{Annotated Links}{}
