\contentsline {section}{\numberline {1}Wie wir es gemacht haben}{2}{section.1}
\contentsline {section}{\numberline {2}Meistanmelder von EPA-Softwarepatenten 1978-2003}{2}{section.2}
\contentsline {section}{\numberline {3}Ver\"{o}ffentlichungsjahrg\"{a}nge}{20}{section.3}
\contentsline {section}{\numberline {4}Anmelderl\"{a}nder}{21}{section.4}
\contentsline {section}{\numberline {5}Erfinderl\"{a}nder}{23}{section.5}
\contentsline {section}{\numberline {6}Alte Statistiken}{24}{section.6}
\contentsline {section}{\numberline {7}Annotated Links}{24}{section.7}
