\relax 
\ifx\hyper@anchor\@undefined
\global \let \oldcontentsline\contentsline
\gdef \contentsline#1#2#3#4{\oldcontentsline{#1}{#2}{#3}}
\global \let \oldnewlabel\newlabel
\gdef \newlabel#1#2{\newlabelxx{#1}#2}
\gdef \newlabelxx#1#2#3#4#5#6{\oldnewlabel{#1}{{#2}{#3}}}
\AtEndDocument{\let \contentsline\oldcontentsline
\let \newlabel\oldnewlabel}
\else
\global \let \hyper@last\relax 
\fi

\@writefile{toc}{\contentsline {section}{\numberline {1}Wie wir es gemacht haben}{2}{section.1}}
\newlabel{method}{{1}{2}{Wie wir es gemacht haben\relax }{section.1}{}}
\@writefile{toc}{\contentsline {section}{\numberline {2}Meistanmelder von EPA-Softwarepatenten 1978-2003}{2}{section.2}}
\newlabel{jarappl}{{2}{2}{Meistanmelder von EPA-Softwarepatenten 1978-2003\relax }{section.2}{}}
\@writefile{toc}{\contentsline {section}{\numberline {3}Ver\"{o}ffentlichungsjahrg\"{a}nge}{20}{section.3}}
\newlabel{pubdat}{{3}{20}{Ver\"{o}ffentlichungsjahrg\"{a}nge\relax }{section.3}{}}
\@writefile{toc}{\contentsline {section}{\numberline {4}Anmelderl\"{a}nder}{21}{section.4}}
\newlabel{appland}{{4}{21}{Anmelderl\"{a}nder\relax }{section.4}{}}
\@writefile{toc}{\contentsline {section}{\numberline {5}Erfinderl\"{a}nder}{23}{section.5}}
\newlabel{invland}{{5}{23}{Erfinderl\"{a}nder\relax }{section.5}{}}
\@writefile{toc}{\contentsline {section}{\numberline {6}Alte Statistiken}{24}{section.6}}
\newlabel{stats}{{6}{24}{Alte Statistiken\relax }{section.6}{}}
\@writefile{toc}{\contentsline {section}{\numberline {7}Annotated Links}{24}{section.7}}
\newlabel{links}{{7}{24}{Annotated Links\relax }{section.7}{}}
\gdef\scr@tpo@lst{0}
