\relax 
\catcode`:\active
\catcode`;\active
\catcode`!\active
\catcode`?\active
\ifx\hyper@anchor\@undefined
\global \let \oldcontentsline\contentsline
\gdef \contentsline#1#2#3#4{\oldcontentsline{#1}{#2}{#3}}
\global \let \oldnewlabel\newlabel
\gdef \newlabel#1#2{\newlabelxx{#1}#2}
\gdef \newlabelxx#1#2#3#4#5#6{\oldnewlabel{#1}{{#2}{#3}}}
\AtEndDocument{\let \contentsline\oldcontentsline
\let \newlabel\oldnewlabel}
\else
\global \let \hyper@last\relax 
\fi

\select@language{french}
\@writefile{toc}{\select@language{french}}
\@writefile{lof}{\select@language{french}}
\@writefile{lot}{\select@language{french}}
\@writefile{toc}{\contentsline {section}{\numberline {1}M\'{e}thodologie}{2}{section.1}}
\newlabel{method}{{1}{2}{M\'{e}thodologie\relax }{section.1}{}}
\@writefile{toc}{\contentsline {section}{\numberline {2}Premiers demandeurs de brevets logiciels \`{a} l'OEB 1978-2003}{2}{section.2}}
\newlabel{jarappl}{{2}{2}{Premiers demandeurs de brevets logiciels \`{a} l'OEB 1978-2003\relax }{section.2}{}}
\@writefile{toc}{\contentsline {section}{\numberline {3}Ann\'{e}e de publication}{20}{section.3}}
\newlabel{pubdat}{{3}{20}{Ann\'{e}e de publication\relax }{section.3}{}}
\@writefile{toc}{\contentsline {section}{\numberline {4}Pays du demandeur}{21}{section.4}}
\newlabel{appland}{{4}{21}{Pays du demandeur\relax }{section.4}{}}
\@writefile{toc}{\contentsline {section}{\numberline {5}Pays de l'inventeur}{23}{section.5}}
\newlabel{invland}{{5}{23}{Pays de l'inventeur\relax }{section.5}{}}
\@writefile{toc}{\contentsline {section}{\numberline {6}Anciennes statistiques}{24}{section.6}}
\newlabel{stats}{{6}{24}{Anciennes statistiques\relax }{section.6}{}}
\@writefile{toc}{\contentsline {section}{\numberline {7}Liens annot\'{e}s}{24}{section.7}}
\newlabel{links}{{7}{24}{Liens annot\'{e}s\relax }{section.7}{}}
\gdef\scr@tpo@lst{0}
