\relax 
\ifx\hyper@anchor\@undefined
\global \let \oldcontentsline\contentsline
\gdef \contentsline#1#2#3#4{\oldcontentsline{#1}{#2}{#3}}
\global \let \oldnewlabel\newlabel
\gdef \newlabel#1#2{\newlabelxx{#1}#2}
\gdef \newlabelxx#1#2#3#4#5#6{\oldnewlabel{#1}{{#2}{#3}}}
\AtEndDocument{\let \contentsline\oldcontentsline
\let \newlabel\oldnewlabel}
\else
\global \let \hyper@last\relax 
\fi

\@writefile{toc}{\contentsline {subsection}{\numberline {0.1}Sinn des Patentwesens}{1}{subsection.0.1}}
\newlabel{patw}{{0.1}{1}{Sinn des Patentwesens\relax }{subsection.0.1}{}}
\@writefile{toc}{\contentsline {subsection}{\numberline {0.2}Current Status}{2}{subsection.0.2}}
\newlabel{stat}{{0.2}{2}{Current Status\relax }{subsection.0.2}{}}
\@writefile{toc}{\contentsline {subsection}{\numberline {0.3}Patentjustiz in Widerspr\"{u}che verstrickt}{2}{subsection.0.3}}
\newlabel{soph}{{0.3}{2}{Patentjustiz in Widerspr\"{u}che verstrickt\relax }{subsection.0.3}{}}
\@writefile{toc}{\contentsline {subsection}{\numberline {0.4}Legal Inconsistencies, Conflicts with other Legal Goods}{5}{subsection.0.4}}
\newlabel{diss}{{0.4}{5}{Legal Inconsistencies, Conflicts with other Legal Goods\relax }{subsection.0.4}{}}
\@writefile{toc}{\contentsline {subsubsection}{\numberline {0.4.1}EU Interoperability Directive vs Property on Interfaces }{5}{subsubsection.0.4.1}}
\newlabel{inter}{{0.4.1}{5}{EU Interoperability Directive vs Property on Interfaces \relax }{subsubsection.0.4.1}{}}
\@writefile{toc}{\contentsline {subsubsection}{\numberline {0.4.2}Distortion of Competition in favor of traditional modes of distribution}{6}{subsubsection.0.4.2}}
\newlabel{dist}{{0.4.2}{6}{Distortion of Competition in favor of traditional modes of distribution\relax }{subsubsection.0.4.2}{}}
\@writefile{toc}{\contentsline {subsubsection}{\numberline {0.4.3}Special Concentration Effect in case of Complex Systems}{6}{subsubsection.0.4.3}}
\newlabel{komc}{{0.4.3}{6}{Special Concentration Effect in case of Complex Systems\relax }{subsubsection.0.4.3}{}}
\@writefile{toc}{\contentsline {subsubsection}{\numberline {0.4.4}Promotion of Secrecy vs Security \& Consumer Safety (see article \%{}s of the Treaty of Rome)}{7}{subsubsection.0.4.4}}
\newlabel{sekur}{{0.4.4}{7}{Promotion of Secrecy vs Security \& Consumer Safety (see article \percent {}s of the Treaty of Rome)\relax }{subsubsection.0.4.4}{}}
\@writefile{toc}{\contentsline {subsubsection}{\numberline {0.4.5}Media Cartels vs Cultural Diversity (see article \%{}s of the Treaty of Rome)}{8}{subsubsection.0.4.5}}
\newlabel{kultur}{{0.4.5}{8}{Media Cartels vs Cultural Diversity (see article \percent {}s of the Treaty of Rome)\relax }{subsubsection.0.4.5}{}}
\@writefile{toc}{\contentsline {subsubsection}{\numberline {0.4.6}Promotion of Oligopolism vs Acceleration of Technology Transfer (see article \%{}s of the Treaty of Rome)}{8}{subsubsection.0.4.6}}
\newlabel{indure}{{0.4.6}{8}{Promotion of Oligopolism vs Acceleration of Technology Transfer (see article \percent {}s of the Treaty of Rome)\relax }{subsubsection.0.4.6}{}}
\@writefile{toc}{\contentsline {subsection}{\numberline {0.5}What {\bf  can} the Federal Government do?}{9}{subsection.0.5}}
\newlabel{debr}{{0.5}{9}{What {\bf can} the Federal Government do?\relax }{subsection.0.5}{}}
