\relax 
\ifx\hyper@anchor\@undefined
\global \let \oldcontentsline\contentsline
\gdef \contentsline#1#2#3#4{\oldcontentsline{#1}{#2}{#3}}
\global \let \oldnewlabel\newlabel
\gdef \newlabel#1#2{\newlabelxx{#1}#2}
\gdef \newlabelxx#1#2#3#4#5#6{\oldnewlabel{#1}{{#2}{#3}}}
\AtEndDocument{\let \contentsline\oldcontentsline
\let \newlabel\oldnewlabel}
\else
\global \let \hyper@last\relax 
\fi

\@writefile{toc}{\contentsline {subsection}{\numberline {0.1}Sinn des Patentwesens}{2}{subsection.0.1}}
\newlabel{patw}{{0.1}{2}{Sinn des Patentwesens\relax }{subsection.0.1}{}}
\@writefile{toc}{\contentsline {subsection}{\numberline {0.2}Rechtliche Situtation der Softwarepatentierung in Europa}{2}{subsection.0.2}}
\newlabel{stat}{{0.2}{2}{Rechtliche Situtation der Softwarepatentierung in Europa\relax }{subsection.0.2}{}}
\@writefile{toc}{\contentsline {subsection}{\numberline {0.3}Patentjustiz in Widerspr\"{u}che verstrickt}{3}{subsection.0.3}}
\newlabel{soph}{{0.3}{3}{Patentjustiz in Widerspr\"{u}che verstrickt\relax }{subsection.0.3}{}}
\gdef \LT@i{\omit \kern 125.73077pt&\omit \kern 275.90303pt}
\@writefile{toc}{\contentsline {subsection}{\numberline {0.4}Konflikte mit anderen Rechtsg\"{u}tern}{8}{subsection.0.4}}
\newlabel{diss}{{0.4}{8}{Konflikte mit anderen Rechtsg\"{u}tern\relax }{subsection.0.4}{}}
\@writefile{toc}{\contentsline {subsubsection}{\numberline {0.4.1}EU-Interoperabilit\"{a}tsrichtlinie vs Eigentum an Schnittstellen}{8}{subsubsection.0.4.1}}
\newlabel{inter}{{0.4.1}{8}{EU-Interoperabilit\"{a}tsrichtlinie vs Eigentum an Schnittstellen\relax }{subsubsection.0.4.1}{}}
\@writefile{toc}{\contentsline {subsubsection}{\numberline {0.4.2}Wettbewerbsverzerrung zugunsten schwerf\"{a}lliger Vermarktungsverfahren}{8}{subsubsection.0.4.2}}
\newlabel{dist}{{0.4.2}{8}{Wettbewerbsverzerrung zugunsten schwerf\"{a}lliger Vermarktungsverfahren\relax }{subsubsection.0.4.2}{}}
\@writefile{toc}{\contentsline {subsubsection}{\numberline {0.4.3}Besonderer Konzentrationseffekt bei komplexen Systemen}{9}{subsubsection.0.4.3}}
\newlabel{komc}{{0.4.3}{9}{Besonderer Konzentrationseffekt bei komplexen Systemen\relax }{subsubsection.0.4.3}{}}
\@writefile{toc}{\contentsline {subsubsection}{\numberline {0.4.4}F\"{o}rderung der Geheimniskr\"{a}merei vs Sicherheit und Verbraucherschutz (siehe R\"{o}mischer Vertrag \S  {}\%{}s)}{10}{subsubsection.0.4.4}}
\newlabel{sekur}{{0.4.4}{10}{F\"{o}rderung der Geheimniskr\"{a}merei vs Sicherheit und Verbraucherschutz (siehe R\"{o}mischer Vertrag \S {}\percent {}s)\relax }{subsubsection.0.4.4}{}}
\@writefile{toc}{\contentsline {subsubsection}{\numberline {0.4.5}Medienkartelle vs Kulturelle Vielfalt (siehe R\"{o}mischer Vertrag \S  {}\%{}s)}{11}{subsubsection.0.4.5}}
\newlabel{kultur}{{0.4.5}{11}{Medienkartelle vs Kulturelle Vielfalt (siehe R\"{o}mischer Vertrag \S {}\percent {}s)\relax }{subsubsection.0.4.5}{}}
\@writefile{toc}{\contentsline {subsubsection}{\numberline {0.4.6}Kartellf\"{o}rderung vs Beschleunigung des Techniktransfers (siehe R\"{o}mischer Vertrag \S  {}\%{}s)}{11}{subsubsection.0.4.6}}
\newlabel{indure}{{0.4.6}{11}{Kartellf\"{o}rderung vs Beschleunigung des Techniktransfers (siehe R\"{o}mischer Vertrag \S {}\percent {}s)\relax }{subsubsection.0.4.6}{}}
\@writefile{toc}{\contentsline {subsection}{\numberline {0.5}Was {\bf  kann} die Bundesregierung tun?}{11}{subsection.0.5}}
\newlabel{debr}{{0.5}{11}{Was {\bf kann} die Bundesregierung tun?\relax }{subsection.0.5}{}}
