\relax 
\ifx\hyper@anchor\@undefined
\global \let \oldcontentsline\contentsline
\gdef \contentsline#1#2#3#4{\oldcontentsline{#1}{#2}{#3}}
\global \let \oldnewlabel\newlabel
\gdef \newlabel#1#2{\newlabelxx{#1}#2}
\gdef \newlabelxx#1#2#3#4#5#6{\oldnewlabel{#1}{{#2}{#3}}}
\AtEndDocument{\let \contentsline\oldcontentsline
\let \newlabel\oldnewlabel}
\else
\global \let \hyper@last\relax 
\fi

\@writefile{toc}{\contentsline {subsection}{\numberline {0.1}Sinn des Patentwesens}{2}{subsection.0.1}}
\newlabel{patw}{{0.1}{2}{Sinn des Patentwesens\relax }{subsection.0.1}{}}
\@writefile{toc}{\contentsline {subsection}{\numberline {0.2}Current Status}{2}{subsection.0.2}}
\newlabel{stat}{{0.2}{2}{Current Status\relax }{subsection.0.2}{}}
\@writefile{toc}{\contentsline {subsection}{\numberline {0.3}Patentjustiz in Widerspr\"{u}che verstrickt}{3}{subsection.0.3}}
\newlabel{soph}{{0.3}{3}{Patentjustiz in Widerspr\"{u}che verstrickt\relax }{subsection.0.3}{}}
\gdef \LT@i{\omit \kern 125.73077pt&\omit \kern 275.90303pt}
\@writefile{toc}{\contentsline {subsection}{\numberline {0.4}Legal Inconsistencies, Conflicts with other Legal Goods}{8}{subsection.0.4}}
\newlabel{diss}{{0.4}{8}{Legal Inconsistencies, Conflicts with other Legal Goods\relax }{subsection.0.4}{}}
\@writefile{toc}{\contentsline {subsubsection}{\numberline {0.4.1}EU Interoperability Directive vs Property on Interfaces }{8}{subsubsection.0.4.1}}
\newlabel{inter}{{0.4.1}{8}{EU Interoperability Directive vs Property on Interfaces \relax }{subsubsection.0.4.1}{}}
\@writefile{toc}{\contentsline {subsubsection}{\numberline {0.4.2}Distortion of Competition in favor of traditional modes of distribution}{8}{subsubsection.0.4.2}}
\newlabel{dist}{{0.4.2}{8}{Distortion of Competition in favor of traditional modes of distribution\relax }{subsubsection.0.4.2}{}}
\@writefile{toc}{\contentsline {subsubsection}{\numberline {0.4.3}Special Concentration Effect in case of Complex Systems}{9}{subsubsection.0.4.3}}
\newlabel{komc}{{0.4.3}{9}{Special Concentration Effect in case of Complex Systems\relax }{subsubsection.0.4.3}{}}
\@writefile{toc}{\contentsline {subsubsection}{\numberline {0.4.4}Promotion of Secrecy vs Security \& Consumer Safety (see article \%{}s of the Treaty of Rome)}{9}{subsubsection.0.4.4}}
\newlabel{sekur}{{0.4.4}{9}{Promotion of Secrecy vs Security \& Consumer Safety (see article \percent {}s of the Treaty of Rome)\relax }{subsubsection.0.4.4}{}}
\@writefile{toc}{\contentsline {subsubsection}{\numberline {0.4.5}Media Cartels vs Cultural Diversity (see article \%{}s of the Treaty of Rome)}{10}{subsubsection.0.4.5}}
\newlabel{kultur}{{0.4.5}{10}{Media Cartels vs Cultural Diversity (see article \percent {}s of the Treaty of Rome)\relax }{subsubsection.0.4.5}{}}
\@writefile{toc}{\contentsline {subsubsection}{\numberline {0.4.6}Promotion of Oligopolism vs Acceleration of Technology Transfer (see article \%{}s of the Treaty of Rome)}{10}{subsubsection.0.4.6}}
\newlabel{indure}{{0.4.6}{10}{Promotion of Oligopolism vs Acceleration of Technology Transfer (see article \percent {}s of the Treaty of Rome)\relax }{subsubsection.0.4.6}{}}
\@writefile{toc}{\contentsline {subsection}{\numberline {0.5}What {\bf  can} the Federal Government do?}{11}{subsection.0.5}}
\newlabel{debr}{{0.5}{11}{What {\bf can} the Federal Government do?\relax }{subsection.0.5}{}}
