\contentsline {section}{\numberline {1}Aufgaben f\"{u}r Alle}{1}{section.1}
\contentsline {section}{\numberline {2}Daueraufgaben}{1}{section.2}
\contentsline {section}{\numberline {3}Akute Aufgaben}{2}{section.3}
\contentsline {section}{\numberline {4}Sonstiges}{2}{section.4}
