\relax 
\ifx\hyper@anchor\@undefined
\global \let \oldcontentsline\contentsline
\gdef \contentsline#1#2#3#4{\oldcontentsline{#1}{#2}{#3}}
\global \let \oldnewlabel\newlabel
\gdef \newlabel#1#2{\newlabelxx{#1}#2}
\gdef \newlabelxx#1#2#3#4#5#6{\oldnewlabel{#1}{{#2}{#3}}}
\AtEndDocument{\let \contentsline\oldcontentsline
\let \newlabel\oldnewlabel}
\else
\global \let \hyper@last\relax 
\fi

\newlabel{lang}{{1}{1}{Daueraufgaben\label {lang}\relax }{section.1}{}}
\@writefile{toc}{\contentsline {section}{\numberline {1}Daueraufgaben}{1}{section.1}}
\newlabel{kurz}{{2}{3}{Akute Aufgaben\label {kurz}\relax }{section.2}{}}
\@writefile{toc}{\contentsline {section}{\numberline {2}Akute Aufgaben}{3}{section.2}}
\newlabel{done}{{3}{6}{Erledigte Aufgaben\label {done}\relax }{section.3}{}}
\@writefile{toc}{\contentsline {section}{\numberline {3}Erledigte Aufgaben}{6}{section.3}}
