\contentsline {section}{\numberline {1}Daueraufgaben}{1}{section.1}
\contentsline {section}{\numberline {2}Akute Aufgaben}{3}{section.2}
\contentsline {section}{\numberline {3}Erledigte Aufgaben}{6}{section.3}
