\contentsline {section}{\numberline {1}Permanent Tasks}{1}{section.1}
\contentsline {section}{\numberline {2}Urgent Tasks}{3}{section.2}
\contentsline {section}{\numberline {3}Achieved Work}{6}{section.3}
