\contentsline {section}{\numberline {1}Einf\"{u}hrung}{1}{section.1}
\contentsline {section}{\numberline {2}Fragen, Aufgaben, Wie Sie helfen k\"{o}nnen}{2}{section.2}
\contentsline {section}{\numberline {3}Kommentierte Verweise}{8}{section.3}
