\contentsline {section}{\numberline {1}Introduction}{1}{section.1}
\contentsline {section}{\numberline {2}Questions, Things To Do, How you can Help}{2}{section.2}
\contentsline {section}{\numberline {3}Annotated Links}{8}{section.3}
