\select@language {french}
\contentsline {section}{\numberline {1}Introduction}{1}{section.1}
\contentsline {section}{\numberline {2}Questions, choses \`{a} faire, comment vous pouvez aider}{2}{section.2}
\contentsline {section}{\numberline {3}Liens annot\'{e}s}{7}{section.3}
