\contentsline {section}{\numberline {1}Work for Everybody}{1}{section.1}
\contentsline {section}{\numberline {2}Permanent Tasks}{1}{section.2}
\contentsline {section}{\numberline {3}Urgent Tasks}{2}{section.3}
\contentsline {section}{\numberline {4}Other things worth trying}{2}{section.4}
