\relax 
\ifx\hyper@anchor\@undefined
\global \let \oldcontentsline\contentsline
\gdef \contentsline#1#2#3#4{\oldcontentsline{#1}{#2}{#3}}
\global \let \oldnewlabel\newlabel
\gdef \newlabel#1#2{\newlabelxx{#1}#2}
\gdef \newlabelxx#1#2#3#4#5#6{\oldnewlabel{#1}{{#2}{#3}}}
\AtEndDocument{\let \contentsline\oldcontentsline
\let \newlabel\oldnewlabel}
\else
\global \let \hyper@last\relax 
\fi

\newlabel{hist}{{1}{2}{How it came about\label {hist}\relax }{section.1}{}}
\@writefile{toc}{\contentsline {section}{\numberline {1}How it came about}{2}{section.1}}
\newlabel{help}{{2}{4}{How you can help\label {help}\relax }{section.2}{}}
\@writefile{toc}{\contentsline {section}{\numberline {2}How you can help}{4}{section.2}}
\newlabel{tabl}{{3}{5}{Consultation Submissions\label {tabl}\relax }{section.3}{}}
\@writefile{toc}{\contentsline {section}{\numberline {3}Consultation Submissions}{5}{section.3}}
\newlabel{eval}{{4}{5}{Evaluation\label {eval}\relax }{section.4}{}}
\@writefile{toc}{\contentsline {section}{\numberline {4}Evaluation}{5}{section.4}}
\newlabel{etc}{{5}{7}{Further Reading\label {etc}\relax }{section.5}{}}
\@writefile{toc}{\contentsline {section}{\numberline {5}Further Reading}{7}{section.5}}
