\contentsline {section}{\numberline {1}Wie es zustande kam}{2}{section.1}
\contentsline {section}{\numberline {2}Some examples of the ``Independet Contractor'''s bias}{4}{section.2}
\contentsline {subsection}{\numberline {2.1}Pg. 8:}{4}{subsection.2.1}
\contentsline {subsection}{\numberline {2.2}Pg. 12:}{5}{subsection.2.2}
\contentsline {subsection}{\numberline {2.3}Pg.13}{5}{subsection.2.3}
\contentsline {section}{\numberline {3}Wie Sie helfen k\"{o}nnen}{6}{section.3}
\contentsline {section}{\numberline {4}Auswertung}{6}{section.4}
\contentsline {section}{\numberline {5}Weitere Lekt\"{u}re}{7}{section.5}
