\contentsline {section}{\numberline {1}How it came about}{2}{section.1}
\contentsline {section}{\numberline {2}How you can help}{4}{section.2}
\contentsline {section}{\numberline {3}Consultation Submissions}{5}{section.3}
\contentsline {section}{\numberline {4}Evaluation}{5}{section.4}
\contentsline {section}{\numberline {5}Further Reading}{7}{section.5}
