\relax 
\ifx\hyper@anchor\@undefined
\global \let \oldcontentsline\contentsline
\gdef \contentsline#1#2#3#4{\oldcontentsline{#1}{#2}{#3}}
\global \let \oldnewlabel\newlabel
\gdef \newlabel#1#2{\newlabelxx{#1}#2}
\gdef \newlabelxx#1#2#3#4#5#6{\oldnewlabel{#1}{{#2}{#3}}}
\AtEndDocument{\let \contentsline\oldcontentsline
\let \newlabel\oldnewlabel}
\else
\global \let \hyper@last\relax 
\fi

\newlabel{hist}{{1}{2}{Wie es zustande kam\label {hist}\relax }{section.1}{}}
\@writefile{toc}{\contentsline {section}{\numberline {1}Wie es zustande kam}{2}{section.1}}
\newlabel{hist}{{1}{2}{Wie es zustande kam\label {hist}\relax }{section.1}{}}
\newlabel{help}{{2}{4}{Wie Sie helfen k\"onnen\label {help}\relax }{section.2}{}}
\@writefile{toc}{\contentsline {section}{\numberline {2}Wie Sie helfen k\"onnen}{4}{section.2}}
\newlabel{help}{{2}{4}{Wie Sie helfen k\"onnen\label {help}\relax }{section.2}{}}
\newlabel{tabl}{{3}{5}{Konsultationseingaben\label {tabl}\relax }{section.3}{}}
\@writefile{toc}{\contentsline {section}{\numberline {3}Konsultationseingaben}{5}{section.3}}
\newlabel{tabl}{{3}{5}{Konsultationseingaben\label {tabl}\relax }{section.3}{}}
\newlabel{eval}{{4}{34}{Auswertung\label {eval}\relax }{section.4}{}}
\@writefile{toc}{\contentsline {section}{\numberline {4}Auswertung}{34}{section.4}}
\newlabel{eval}{{4}{34}{Auswertung\label {eval}\relax }{section.4}{}}
\newlabel{etc}{{5}{37}{Weitere Lekt\"ure\label {etc}\relax }{section.5}{}}
\@writefile{toc}{\contentsline {section}{\numberline {5}Weitere Lekt\"ure}{37}{section.5}}
\newlabel{etc}{{5}{37}{Weitere Lekt\"ure\label {etc}\relax }{section.5}{}}
