\select@language {french}
\select@language {french}
\contentsline {section}{\numberline {1}Comment \c {c}a s'a produit}{2}{section.0.1}
\contentsline {section}{\numberline {2}Comment vous pouvez nous aider}{4}{section.0.2}
\contentsline {section}{\numberline {3}Soumissions de la Consultation}{4}{section.0.3}
\contentsline {section}{\numberline {4}Evaluation}{33}{section.0.4}
\contentsline {section}{\numberline {5}Lecture Ult\'{e}rieure}{35}{section.0.5}
