\contentsline {section}{\numberline {1}How it came about}{2}{section.1}
\contentsline {section}{\numberline {2}Some examples of the ``Independet Contractor'''s bias}{8}{section.2}
\contentsline {subsection}{\numberline {2.1}page 8}{8}{subsection.2.1}
\contentsline {subsection}{\numberline {2.2}page 12}{8}{subsection.2.2}
\contentsline {subsection}{\numberline {2.3}page 13}{9}{subsection.2.3}
\contentsline {section}{\numberline {3}How you can help}{10}{section.3}
\contentsline {section}{\numberline {4}Evaluation}{11}{section.4}
\contentsline {section}{\numberline {5}Further Reading}{12}{section.5}
