\BOOKMARK [1][-]{section.0.1}{Comment \347a s'a produit}{}
\BOOKMARK [1][-]{section.0.2}{Comment vous pouvez nous aider}{}
\BOOKMARK [1][-]{section.0.3}{Soumissions de la Consultation}{}
\BOOKMARK [1][-]{section.0.4}{Evaluation}{}
\BOOKMARK [1][-]{section.0.5}{Lecture Ult\351rieure}{}
