\relax 
\ifx\hyper@anchor\@undefined
\global \let \oldcontentsline\contentsline
\gdef \contentsline#1#2#3#4{\oldcontentsline{#1}{#2}{#3}}
\global \let \oldnewlabel\newlabel
\gdef \newlabel#1#2{\newlabelxx{#1}#2}
\gdef \newlabelxx#1#2#3#4#5#6{\oldnewlabel{#1}{{#2}{#3}}}
\AtEndDocument{\let \contentsline\oldcontentsline
\let \newlabel\oldnewlabel}
\else
\global \let \hyper@last\relax 
\fi

\@writefile{toc}{\contentsline {section}{\numberline {1}Wie es zustande kam}{2}{section.1}}
\newlabel{hist}{{1}{2}{Wie es zustande kam\relax }{section.1}{}}
\@writefile{toc}{\contentsline {section}{\numberline {2}Some examples of the ``Independet Contractor'''s bias}{4}{section.2}}
\newlabel{anal}{{2}{4}{Some examples of the ``Independet Contractor'''s bias\relax }{section.2}{}}
\@writefile{toc}{\contentsline {subsection}{\numberline {2.1}Pg. 8:}{4}{subsection.2.1}}
\newlabel{pg8}{{2.1}{4}{Pg. 8:\relax }{subsection.2.1}{}}
\@writefile{toc}{\contentsline {subsection}{\numberline {2.2}Pg. 12:}{5}{subsection.2.2}}
\newlabel{pg12}{{2.2}{5}{Pg. 12:\relax }{subsection.2.2}{}}
\@writefile{toc}{\contentsline {subsection}{\numberline {2.3}Pg.13}{5}{subsection.2.3}}
\newlabel{pg13}{{2.3}{5}{Pg.13\relax }{subsection.2.3}{}}
\@writefile{toc}{\contentsline {section}{\numberline {3}Wie Sie helfen k\"{o}nnen}{6}{section.3}}
\newlabel{tasks}{{3}{6}{Wie Sie helfen k\"{o}nnen\relax }{section.3}{}}
\@writefile{toc}{\contentsline {section}{\numberline {4}Auswertung}{6}{section.4}}
\newlabel{eval}{{4}{6}{Auswertung\relax }{section.4}{}}
\@writefile{toc}{\contentsline {section}{\numberline {5}Weitere Lekt\"{u}re}{7}{section.5}}
\newlabel{etc}{{5}{7}{Weitere Lekt\"{u}re\relax }{section.5}{}}
