\relax 
\ifx\hyper@anchor\@undefined
\global \let \oldcontentsline\contentsline
\gdef \contentsline#1#2#3#4{\oldcontentsline{#1}{#2}{#3}}
\global \let \oldnewlabel\newlabel
\gdef \newlabel#1#2{\newlabelxx{#1}#2}
\gdef \newlabelxx#1#2#3#4#5#6{\oldnewlabel{#1}{{#2}{#3}}}
\AtEndDocument{\let \contentsline\oldcontentsline
\let \newlabel\oldnewlabel}
\else
\global \let \hyper@last\relax 
\fi

\csname auxWARNINGii\endcsname {\typeout {-34- this file and other auxiliary files require to use the following}}
\csname auxWARNINGii\endcsname {\typeout {-34- LaTeX packages: french and babel!}}
\csname auxWARNINGii\endcsname {\typeout {-34- check \protect \usepackage \space or remove these files. Typesetting is aborted!} \stop }
\select@language{french}
\@writefile{toc}{\select@language{french}}
\@writefile{lof}{\select@language{french}}
\@writefile{lot}{\select@language{french}}
\select@language{french}
\@writefile{toc}{\select@language{french}}
\@writefile{lof}{\select@language{french}}
\@writefile{lot}{\select@language{french}}
\@writefile{toc}{\contentsline {section}{\numberline {1}Comment \c {c}a s'a produit}{2}{section.0.1}}
\newlabel{hist}{{1}{2}{Comment \c {c}a s'a produit\relax }{section.0.1}{}}
\@writefile{toc}{\contentsline {section}{\numberline {2}Some examples of the ``Independet Contractor'''s bias}{4}{section.0.2}}
\newlabel{anal}{{2}{4}{Some examples of the ``Independet Contractor'''s bias\relax }{section.0.2}{}}
\@writefile{toc}{\contentsline {subsection}{\numberline {2.1}Pg. 8\@DP }{4}{subsection.0.2.1}}
\newlabel{pg8}{{2.1}{4}{Pg. 8:\relax }{subsection.0.2.1}{}}
\@writefile{toc}{\contentsline {subsection}{\numberline {2.2}Pg. 12\@DP }{4}{subsection.0.2.2}}
\newlabel{pg12}{{2.2}{4}{Pg. 12:\relax }{subsection.0.2.2}{}}
\@writefile{toc}{\contentsline {subsection}{\numberline {2.3}Pg.13}{5}{subsection.0.2.3}}
\newlabel{pg13}{{2.3}{5}{Pg.13\relax }{subsection.0.2.3}{}}
\@writefile{toc}{\contentsline {section}{\numberline {3}Comment vous pouvez nous aider}{5}{section.0.3}}
\newlabel{tasks}{{3}{5}{Comment vous pouvez nous aider\relax }{section.0.3}{}}
\@writefile{toc}{\contentsline {section}{\numberline {4}Evaluation}{5}{section.0.4}}
\newlabel{eval}{{4}{5}{Evaluation\relax }{section.0.4}{}}
\@writefile{toc}{\contentsline {section}{\numberline {5}Lecture Ult\'{e}rieure}{6}{section.0.5}}
\newlabel{etc}{{5}{6}{Lecture Ult\'{e}rieure\relax }{section.0.5}{}}
