\select@language {french}
\select@language {french}
\contentsline {section}{\numberline {1}Comment \c {c}a s'a produit}{2}{section.0.1}
\contentsline {section}{\numberline {2}Some examples of the ``Independet Contractor'''s bias}{4}{section.0.2}
\contentsline {subsection}{\numberline {2.1}Pg. 8\@DP }{4}{subsection.0.2.1}
\contentsline {subsection}{\numberline {2.2}Pg. 12\@DP }{4}{subsection.0.2.2}
\contentsline {subsection}{\numberline {2.3}Pg.13}{5}{subsection.0.2.3}
\contentsline {section}{\numberline {3}Comment vous pouvez nous aider}{5}{section.0.3}
\contentsline {section}{\numberline {4}Evaluation}{5}{section.0.4}
\contentsline {section}{\numberline {5}Lecture Ult\'{e}rieure}{6}{section.0.5}
