\relax 
\ifx\hyper@anchor\@undefined
\global \let \oldcontentsline\contentsline
\gdef \contentsline#1#2#3#4{\oldcontentsline{#1}{#2}{#3}}
\global \let \oldnewlabel\newlabel
\gdef \newlabel#1#2{\newlabelxx{#1}#2}
\gdef \newlabelxx#1#2#3#4#5#6{\oldnewlabel{#1}{{#2}{#3}}}
\AtEndDocument{\let \contentsline\oldcontentsline
\let \newlabel\oldnewlabel}
\else
\global \let \hyper@last\relax 
\fi

\csname auxWARNINGii\endcsname {\typeout {-34- this file and other auxiliary files require to use the following}}
\csname auxWARNINGii\endcsname {\typeout {-34- LaTeX packages: french and babel!}}
\csname auxWARNINGii\endcsname {\typeout {-34- check \protect \usepackage \space or remove these files. Typesetting is aborted!} \stop }
\select@language{french}
\@writefile{toc}{\select@language{french}}
\@writefile{lof}{\select@language{french}}
\@writefile{lot}{\select@language{french}}
\select@language{french}
\@writefile{toc}{\select@language{french}}
\@writefile{lof}{\select@language{french}}
\@writefile{lot}{\select@language{french}}
\newlabel{hist}{{1}{2}{Comment \c {c}a s'a produit\label {hist}\relax }{section.0.1}{}}
\@writefile{toc}{\contentsline {section}{\numberline {1}Comment \c {c}a s'a produit}{2}{section.0.1}}
\newlabel{hist}{{1}{2}{Comment \c {c}a s'a produit\label {hist}\relax }{section.0.1}{}}
\newlabel{help}{{2}{4}{Comment vous pouvez nous aider\label {help}\relax }{section.0.2}{}}
\@writefile{toc}{\contentsline {section}{\numberline {2}Comment vous pouvez nous aider}{4}{section.0.2}}
\newlabel{help}{{2}{4}{Comment vous pouvez nous aider\label {help}\relax }{section.0.2}{}}
\newlabel{tabl}{{3}{4}{Soumissions de la Consultation\label {tabl}\relax }{section.0.3}{}}
\@writefile{toc}{\contentsline {section}{\numberline {3}Soumissions de la Consultation}{4}{section.0.3}}
\newlabel{tabl}{{3}{4}{Soumissions de la Consultation\label {tabl}\relax }{section.0.3}{}}
\newlabel{eval}{{4}{33}{Evaluation\label {eval}\relax }{section.0.4}{}}
\@writefile{toc}{\contentsline {section}{\numberline {4}Evaluation}{33}{section.0.4}}
\newlabel{eval}{{4}{33}{Evaluation\label {eval}\relax }{section.0.4}{}}
\newlabel{etc}{{5}{35}{Lecture Ult\'{e}rieure\label {etc}\relax }{section.0.5}{}}
\@writefile{toc}{\contentsline {section}{\numberline {5}Lecture Ult\'{e}rieure}{35}{section.0.5}}
\newlabel{etc}{{5}{35}{Lecture Ult\'{e}rieure\label {etc}\relax }{section.0.5}{}}
