\relax 
\ifx\hyper@anchor\@undefined
\global \let \oldcontentsline\contentsline
\gdef \contentsline#1#2#3#4{\oldcontentsline{#1}{#2}{#3}}
\global \let \oldnewlabel\newlabel
\gdef \newlabel#1#2{\newlabelxx{#1}#2}
\gdef \newlabelxx#1#2#3#4#5#6{\oldnewlabel{#1}{{#2}{#3}}}
\AtEndDocument{\let \contentsline\oldcontentsline
\let \newlabel\oldnewlabel}
\else
\global \let \hyper@last\relax 
\fi

\@writefile{toc}{\contentsline {section}{\numberline {1}How it came about}{2}{section.1}}
\newlabel{hist}{{1}{2}{How it came about\relax }{section.1}{}}
\@writefile{toc}{\contentsline {section}{\numberline {2}Some examples of the ``Independet Contractor'''s bias}{8}{section.2}}
\newlabel{anal}{{2}{8}{Some examples of the ``Independet Contractor'''s bias\relax }{section.2}{}}
\@writefile{toc}{\contentsline {subsection}{\numberline {2.1}page 8}{8}{subsection.2.1}}
\newlabel{pg8}{{2.1}{8}{page 8\relax }{subsection.2.1}{}}
\@writefile{toc}{\contentsline {subsection}{\numberline {2.2}page 12}{8}{subsection.2.2}}
\newlabel{pg12}{{2.2}{8}{page 12\relax }{subsection.2.2}{}}
\@writefile{toc}{\contentsline {subsection}{\numberline {2.3}page 13}{9}{subsection.2.3}}
\newlabel{pg13}{{2.3}{9}{page 13\relax }{subsection.2.3}{}}
\@writefile{toc}{\contentsline {section}{\numberline {3}How you can help}{10}{section.3}}
\newlabel{tasks}{{3}{10}{How you can help\relax }{section.3}{}}
\@writefile{toc}{\contentsline {section}{\numberline {4}Evaluation}{11}{section.4}}
\newlabel{eval}{{4}{11}{Evaluation\relax }{section.4}{}}
\@writefile{toc}{\contentsline {section}{\numberline {5}Further Reading}{12}{section.5}}
\newlabel{links}{{5}{12}{Further Reading\relax }{section.5}{}}
\gdef\scr@tpo@lst{0}
