\contentsline {section}{\numberline {1}Wie es zustande kam}{2}{section.1}
\contentsline {section}{\numberline {2}Wie Sie helfen k\"onnen}{4}{section.2}
\contentsline {section}{\numberline {3}Konsultationseingaben}{5}{section.3}
\contentsline {section}{\numberline {4}Auswertung}{34}{section.4}
\contentsline {section}{\numberline {5}Weitere Lekt\"ure}{37}{section.5}
