\contentsline {section}{\numberline {1}Report in GregNews}{1}{section.1}
\contentsline {section}{\numberline {2}Overview of the Proposed Study Project}{2}{section.2}
\contentsline {section}{\numberline {3}Annotated Links}{5}{section.3}
