\select@language {french}
\select@language {french}
\contentsline {section}{\numberline {1}details}{1}{section.0.1}
\contentsline {section}{\numberline {2}Liens Annot\'{e}s}{2}{section.0.2}
\contentsline {section}{\numberline {3}Contacte}{4}{section.0.3}
\contentsline {section}{\numberline {4}A propos de la FFII -- www.ffii.org}{4}{section.0.4}
\contentsline {section}{\numberline {5}URL permanente de cette publication}{4}{section.0.5}
