\contentsline {section}{\numberline {1}details}{1}{section.1}
\contentsline {section}{\numberline {2}Annotated Links}{2}{section.2}
\contentsline {section}{\numberline {3}contact}{4}{section.3}
\contentsline {section}{\numberline {4}About the FFII -- www.ffii.org}{4}{section.4}
\contentsline {section}{\numberline {5}Permanent URL of this Press Release}{4}{section.5}
