\relax 
\ifx\hyper@anchor\@undefined
\global \let \oldcontentsline\contentsline
\gdef \contentsline#1#2#3#4{\oldcontentsline{#1}{#2}{#3}}
\global \let \oldnewlabel\newlabel
\gdef \newlabel#1#2{\newlabelxx{#1}#2}
\gdef \newlabelxx#1#2#3#4#5#6{\oldnewlabel{#1}{{#2}{#3}}}
\AtEndDocument{\let \contentsline\oldcontentsline
\let \newlabel\oldnewlabel}
\else
\global \let \hyper@last\relax 
\fi

\@writefile{toc}{\contentsline {section}{\numberline {1}details}{1}{section.1}}
\newlabel{detal}{{1}{1}{details\relax }{section.1}{}}
\@writefile{toc}{\contentsline {section}{\numberline {2}Annotated Links}{2}{section.2}}
\newlabel{links}{{2}{2}{Annotated Links\relax }{section.2}{}}
\@writefile{toc}{\contentsline {section}{\numberline {3}contact}{4}{section.3}}
\newlabel{media}{{3}{4}{contact\relax }{section.3}{}}
\@writefile{toc}{\contentsline {section}{\numberline {4}About the FFII -- www.ffii.org}{4}{section.4}}
\newlabel{ffii}{{4}{4}{About the FFII -- www.ffii.org\relax }{section.4}{}}
\@writefile{toc}{\contentsline {section}{\numberline {5}Permanent URL of this Press Release}{4}{section.5}}
\newlabel{url}{{5}{4}{Permanent URL of this Press Release\relax }{section.5}{}}
