\relax 
\ifx\hyper@anchor\@undefined
\global \let \oldcontentsline\contentsline
\gdef \contentsline#1#2#3#4{\oldcontentsline{#1}{#2}{#3}}
\global \let \oldnewlabel\newlabel
\gdef \newlabel#1#2{\newlabelxx{#1}#2}
\gdef \newlabelxx#1#2#3#4#5#6{\oldnewlabel{#1}{{#2}{#3}}}
\AtEndDocument{\let \contentsline\oldcontentsline
\let \newlabel\oldnewlabel}
\else
\global \let \hyper@last\relax 
\fi

\csname auxWARNINGii\endcsname {\typeout {-34- this file and other auxiliary files require to use the following}}
\csname auxWARNINGii\endcsname {\typeout {-34- LaTeX packages: french and babel!}}
\csname auxWARNINGii\endcsname {\typeout {-34- check \protect \usepackage \space or remove these files. Typesetting is aborted!} \stop }
\select@language{french}
\@writefile{toc}{\select@language{french}}
\@writefile{lof}{\select@language{french}}
\@writefile{lot}{\select@language{french}}
\select@language{french}
\@writefile{toc}{\select@language{french}}
\@writefile{lof}{\select@language{french}}
\@writefile{lot}{\select@language{french}}
\@writefile{toc}{\contentsline {section}{\numberline {1}details}{1}{section.0.1}}
\newlabel{detal}{{1}{1}{details\relax }{section.0.1}{}}
\@writefile{toc}{\contentsline {section}{\numberline {2}Liens Annot\'{e}s}{2}{section.0.2}}
\newlabel{links}{{2}{2}{Liens Annot\'{e}s\relax }{section.0.2}{}}
\@writefile{toc}{\contentsline {section}{\numberline {3}Contacte}{4}{section.0.3}}
\newlabel{media}{{3}{4}{Contacte\relax }{section.0.3}{}}
\@writefile{toc}{\contentsline {section}{\numberline {4}A propos de la FFII -- www.ffii.org}{4}{section.0.4}}
\newlabel{ffii}{{4}{4}{A propos de la FFII -- www.ffii.org\relax }{section.0.4}{}}
\@writefile{toc}{\contentsline {section}{\numberline {5}URL permanente de cette publication}{4}{section.0.5}}
\newlabel{url}{{5}{4}{URL permanente de cette publication\relax }{section.0.5}{}}
