\select@language {french}
\contentsline {section}{\numberline {1}The ``Council Presidency Compromise Paper''}{2}{section.1}
\contentsline {section}{\numberline {2}Compromise Position?}{2}{section.2}
\contentsline {section}{\numberline {3}Interests behind the Council's Position}{3}{section.3}
\contentsline {section}{\numberline {4}Liens annot\'{e}s}{5}{section.4}
\contentsline {section}{\numberline {5}Contacts media}{8}{section.5}
\contentsline {section}{\numberline {6}\`{A} propos de la FFII -- www.ffii.org}{9}{section.6}
\contentsline {section}{\numberline {7}URL permanente de ce communiqu\'{e} de presse}{9}{section.7}
