\contentsline {section}{\numberline {1}Das ``Kompromisspapier der Ratspr\"{a}sidentschaft''}{2}{section.1}
\contentsline {section}{\numberline {2}Kompromissposition?}{3}{section.2}
\contentsline {section}{\numberline {3}Interessen hinter der Position des Rates}{4}{section.3}
\contentsline {section}{\numberline {4}Kommentierte Verweise}{6}{section.4}
\contentsline {section}{\numberline {5}Pressekontakte}{10}{section.5}
\contentsline {section}{\numberline {6}\"{U}ber den FFII -- www.ffii.org}{10}{section.6}
\contentsline {section}{\numberline {7}St\"{a}ndige Netzadresse dieser Pressemitteilung}{10}{section.7}
