\contentsline {section}{\numberline {1}The ``Council Presidency Compromise Paper''}{2}{section.1}
\contentsline {section}{\numberline {2}Compromise Position?}{3}{section.2}
\contentsline {section}{\numberline {3}Interests behind the Council's Position}{4}{section.3}
\contentsline {section}{\numberline {4}Annotated Links}{6}{section.4}
\contentsline {section}{\numberline {5}Media contacts}{9}{section.5}
\contentsline {section}{\numberline {6}About the FFII -- www.ffii.org}{9}{section.6}
\contentsline {section}{\numberline {7}Permanent URL of this Press Release}{9}{section.7}
