\select@language {portuguese}
\contentsline {section}{\numberline {1}O ``Documento de Compromisso da Presid\^{e}ncia do Conselho''}{2}{section.1}
\contentsline {section}{\numberline {2}Posi\c {c}\~{a}o de Compromisso?}{3}{section.2}
\contentsline {section}{\numberline {3}Interesses por detr\'{a}s da Posi\c {c}\~{a}o do Conselho}{4}{section.3}
\contentsline {section}{\numberline {4}Links Anotados}{6}{section.4}
\contentsline {section}{\numberline {5}Contactos para os media}{10}{section.5}
\contentsline {section}{\numberline {6}Sobre a FFII -- www.ffii.org}{10}{section.6}
\contentsline {section}{\numberline {7}URL permanente deste Press Release}{10}{section.7}
