\relax 
\ifx\hyper@anchor\@undefined
\global \let \oldcontentsline\contentsline
\gdef \contentsline#1#2#3#4{\oldcontentsline{#1}{#2}{#3}}
\global \let \oldnewlabel\newlabel
\gdef \newlabel#1#2{\newlabelxx{#1}#2}
\gdef \newlabelxx#1#2#3#4#5#6{\oldnewlabel{#1}{{#2}{#3}}}
\AtEndDocument{\let \contentsline\oldcontentsline
\let \newlabel\oldnewlabel}
\else
\global \let \hyper@last\relax 
\fi

\@writefile{toc}{\contentsline {section}{\numberline {1}Warum die Aufregung \"{u}ber Softwarepatente?}{1}{section.1}}
\newlabel{intro}{{1}{1}{Warum die Aufregung \"{u}ber Softwarepatente?\relax }{section.1}{}}
\@writefile{toc}{\contentsline {section}{\numberline {2}Derzeitige Situation in Europa}{2}{section.2}}
\newlabel{europa}{{2}{2}{Derzeitige Situation in Europa\relax }{section.2}{}}
\@writefile{toc}{\contentsline {section}{\numberline {3}Was k\"{o}nnen wir tun?}{3}{section.3}}
\newlabel{gunka}{{3}{3}{Was k\"{o}nnen wir tun?\relax }{section.3}{}}
\gdef\scr@tpo@lst{0}
