\relax 
\catcode`"\active
\ifx\hyper@anchor\@undefined
\global \let \oldcontentsline\contentsline
\gdef \contentsline#1#2#3#4{\oldcontentsline{#1}{#2}{#3}}
\global \let \oldnewlabel\newlabel
\gdef \newlabel#1#2{\newlabelxx{#1}#2}
\gdef \newlabelxx#1#2#3#4#5#6{\oldnewlabel{#1}{{#2}{#3}}}
\AtEndDocument{\let \contentsline\oldcontentsline
\let \newlabel\oldnewlabel}
\else
\global \let \hyper@last\relax 
\fi

\select@language{catalan}
\@writefile{toc}{\select@language{catalan}}
\@writefile{lof}{\select@language{catalan}}
\@writefile{lot}{\select@language{catalan}}
\@writefile{toc}{\contentsline {section}{\numberline {1}Per qu\`{e} les patents de programari s\'{o}n delirants?}{1}{section.1}}
\newlabel{intro}{{1}{1}{Per qu\`{e} les patents de programari s\'{o}n delirants?\relax }{section.1}{}}
\@writefile{toc}{\contentsline {section}{\numberline {2}Situaci\'{o} actual a Europa}{2}{section.2}}
\newlabel{europa}{{2}{2}{Situaci\'{o} actual a Europa\relax }{section.2}{}}
\@writefile{toc}{\contentsline {section}{\numberline {3}What we can do}{3}{section.3}}
\newlabel{gunka}{{3}{3}{What we can do\relax }{section.3}{}}
\gdef\scr@tpo@lst{0}
