\relax 
\catcode`:\active
\catcode`;\active
\catcode`!\active
\catcode`?\active
\ifx\hyper@anchor\@undefined
\global \let \oldcontentsline\contentsline
\gdef \contentsline#1#2#3#4{\oldcontentsline{#1}{#2}{#3}}
\global \let \oldnewlabel\newlabel
\gdef \newlabel#1#2{\newlabelxx{#1}#2}
\gdef \newlabelxx#1#2#3#4#5#6{\oldnewlabel{#1}{{#2}{#3}}}
\AtEndDocument{\let \contentsline\oldcontentsline
\let \newlabel\oldnewlabel}
\else
\global \let \hyper@last\relax 
\fi

\select@language{french}
\@writefile{toc}{\select@language{french}}
\@writefile{lof}{\select@language{french}}
\@writefile{lot}{\select@language{french}}
\@writefile{toc}{\contentsline {section}{\numberline {1}Pourquoi tant de fureur sur les brevets logiciels?}{1}{section.1}}
\newlabel{intro}{{1}{1}{Pourquoi tant de fureur sur les brevets logiciels?\relax }{section.1}{}}
\@writefile{toc}{\contentsline {section}{\numberline {2}Situation actuelle en Europe}{2}{section.2}}
\newlabel{europa}{{2}{2}{Situation actuelle en Europe\relax }{section.2}{}}
\@writefile{toc}{\contentsline {section}{\numberline {3}Que pouvons nous faire?}{3}{section.3}}
\newlabel{gunka}{{3}{3}{Que pouvons nous faire?\relax }{section.3}{}}
\gdef\scr@tpo@lst{0}
