\select@language {french}
\contentsline {section}{\numberline {1}Pourquoi tant de fureur sur les brevets logiciels?}{1}{section.1}
\contentsline {section}{\numberline {2}Situation actuelle en Europe}{2}{section.2}
\contentsline {section}{\numberline {3}Que pouvons nous faire?}{3}{section.3}
