\relax 
\ifx\hyper@anchor\@undefined
\global \let \oldcontentsline\contentsline
\gdef \contentsline#1#2#3#4{\oldcontentsline{#1}{#2}{#3}}
\global \let \oldnewlabel\newlabel
\gdef \newlabel#1#2{\newlabelxx{#1}#2}
\gdef \newlabelxx#1#2#3#4#5#6{\oldnewlabel{#1}{{#2}{#3}}}
\AtEndDocument{\let \contentsline\oldcontentsline
\let \newlabel\oldnewlabel}
\else
\global \let \hyper@last\relax 
\fi

\select@language{czech}
\@writefile{toc}{\select@language{czech}}
\@writefile{lof}{\select@language{czech}}
\@writefile{lot}{\select@language{czech}}
\@writefile{toc}{\contentsline {section}{\numberline {1}Pro\v {c} v\v {s}echen ten rozruch kv\r {u}li softwarov\'{y}m patent\r {u}m?}{1}{section.1}}
\newlabel{intro}{{1}{1}{Pro\v {c} v\v {s}echen ten rozruch kv\r {u}li softwarov\'{y}m patent\r {u}m?\relax }{section.1}{}}
\@writefile{toc}{\contentsline {section}{\numberline {2}Sou\v {c}asn\'{a} situace v Evrop\v {e}}{2}{section.2}}
\newlabel{europa}{{2}{2}{Sou\v {c}asn\'{a} situace v Evrop\v {e}\relax }{section.2}{}}
\@writefile{toc}{\contentsline {section}{\numberline {3}Co m\r {u}\v {z}eme d\v {e}lat?}{3}{section.3}}
\newlabel{gunka}{{3}{3}{Co m\r {u}\v {z}eme d\v {e}lat?\relax }{section.3}{}}
\gdef\scr@tpo@lst{0}
