\contentsline {section}{\numberline {1}Waarom al die drukte over softwarepatenten?}{1}{section.1}
\contentsline {section}{\numberline {2}Huidige situatie in Europa}{2}{section.2}
\contentsline {section}{\numberline {3}What we can do}{3}{section.3}
