\select@language {catalan}
\contentsline {section}{\numberline {1}Per qu\`{e} les patents de programari s\'{o}n delirants?}{1}{section.1}
\contentsline {section}{\numberline {2}Situaci\'{o} actual a Europa}{2}{section.2}
\contentsline {section}{\numberline {3}What we can do}{3}{section.3}
