\contentsline {section}{\numberline {1}Warum die Aufregung \"{u}ber Softwarepatente?}{1}{section.1}
\contentsline {section}{\numberline {2}Derzeitige Situation in Europa}{2}{section.2}
\contentsline {section}{\numberline {3}Was k\"{o}nnen wir tun?}{3}{section.3}
