\relax 
\ifx\hyper@anchor\@undefined
\global \let \oldcontentsline\contentsline
\gdef \contentsline#1#2#3#4{\oldcontentsline{#1}{#2}{#3}}
\global \let \oldnewlabel\newlabel
\gdef \newlabel#1#2{\newlabelxx{#1}#2}
\gdef \newlabelxx#1#2#3#4#5#6{\oldnewlabel{#1}{{#2}{#3}}}
\AtEndDocument{\let \contentsline\oldcontentsline
\let \newlabel\oldnewlabel}
\else
\global \let \hyper@last\relax 
\fi

\@writefile{toc}{\contentsline {section}{\numberline {1}Klagen Sie!}{2}{section.1}}
\newlabel{klag}{{1}{2}{Klagen Sie!\relax }{section.1}{}}
\@writefile{toc}{\contentsline {subsection}{\numberline {1.1}Ungesetzliche Fehlurteile}{2}{subsection.1.1}}
\newlabel{fehl}{{1.1}{2}{Ungesetzliche Fehlurteile\relax }{subsection.1.1}{}}
\@writefile{toc}{\contentsline {subsection}{\numberline {1.2}Warum werden Programmierl\"{o}sungen beansprucht aber nicht offenbart?}{3}{subsection.1.2}}
\newlabel{offb}{{1.2}{3}{Warum werden Programmierl\"{o}sungen beansprucht aber nicht offenbart?\relax }{subsection.1.2}{}}
\@writefile{toc}{\contentsline {subsection}{\numberline {1.3}Eigenm\"{a}chtige Definitionen der Juristen}{3}{subsection.1.3}}
\newlabel{defn}{{1.3}{3}{Eigenm\"{a}chtige Definitionen der Juristen\relax }{subsection.1.3}{}}
\@writefile{toc}{\contentsline {subsection}{\numberline {1.4}Beanspruchung von Problemen unzul\"{a}ssig}{3}{subsection.1.4}}
\newlabel{aufg}{{1.4}{3}{Beanspruchung von Problemen unzul\"{a}ssig\relax }{subsection.1.4}{}}
\@writefile{toc}{\contentsline {subsection}{\numberline {1.5}Gesetz und Recht, nicht umgekehrt!}{4}{subsection.1.5}}
\newlabel{gesr}{{1.5}{4}{Gesetz und Recht, nicht umgekehrt!\relax }{subsection.1.5}{}}
\@writefile{toc}{\contentsline {subsection}{\numberline {1.6}Konflikt mit Urheberrecht}{4}{subsection.1.6}}
\newlabel{urhr}{{1.6}{4}{Konflikt mit Urheberrecht\relax }{subsection.1.6}{}}
\@writefile{toc}{\contentsline {subsection}{\numberline {1.7}Informatiker als technischer Beruf?}{4}{subsection.1.7}}
\newlabel{info}{{1.7}{4}{Informatiker als technischer Beruf?\relax }{subsection.1.7}{}}
\@writefile{toc}{\contentsline {subsection}{\numberline {1.8}Softwarepatente gegen ``Verletzer'' nicht durchsetzbar}{4}{subsection.1.8}}
\newlabel{verl}{{1.8}{4}{Softwarepatente gegen ``Verletzer'' nicht durchsetzbar\relax }{subsection.1.8}{}}
\@writefile{toc}{\contentsline {section}{\numberline {2}Gesetzlichkeitsprinzip vs Kriminalisierung der B\"{u}rger durch Gerichte}{5}{section.2}}
\newlabel{ges}{{2}{5}{Gesetzlichkeitsprinzip vs Kriminalisierung der B\"{u}rger durch Gerichte\relax }{section.2}{}}
\@writefile{toc}{\contentsline {section}{\numberline {3}Direkte Verfassungsbeschwerde?}{5}{section.3}}
\newlabel{bverf}{{3}{5}{Direkte Verfassungsbeschwerde?\relax }{section.3}{}}
\@writefile{toc}{\contentsline {section}{\numberline {4}Normenkontrollverfahren, Europ\"{a}ischer Gerichtshof f\"{u}r Menscherechte, ...?}{6}{section.4}}
\newlabel{norm}{{4}{6}{Normenkontrollverfahren, Europ\"{a}ischer Gerichtshof f\"{u}r Menscherechte, ...?\relax }{section.4}{}}
\gdef\scr@tpo@lst{0}
