\contentsline {section}{\numberline {1}Klagen Sie!}{2}{section.1}
\contentsline {subsection}{\numberline {1.1}Ungesetzliche Fehlurteile}{2}{subsection.1.1}
\contentsline {subsection}{\numberline {1.2}Warum werden Programmierl\"{o}sungen beansprucht aber nicht offenbart?}{3}{subsection.1.2}
\contentsline {subsection}{\numberline {1.3}Eigenm\"{a}chtige Definitionen der Juristen}{3}{subsection.1.3}
\contentsline {subsection}{\numberline {1.4}Beanspruchung von Problemen unzul\"{a}ssig}{3}{subsection.1.4}
\contentsline {subsection}{\numberline {1.5}Gesetz und Recht, nicht umgekehrt!}{4}{subsection.1.5}
\contentsline {subsection}{\numberline {1.6}Konflikt mit Urheberrecht}{4}{subsection.1.6}
\contentsline {subsection}{\numberline {1.7}Informatiker als technischer Beruf?}{4}{subsection.1.7}
\contentsline {subsection}{\numberline {1.8}Softwarepatente gegen ``Verletzer'' nicht durchsetzbar}{5}{subsection.1.8}
\contentsline {section}{\numberline {2}Gesetzlichkeitsprinzip vs Kriminalisierung der B\"{u}rger durch Gerichte}{5}{section.2}
\contentsline {section}{\numberline {3}Direkte Verfassungsbeschwerde?}{5}{section.3}
\contentsline {section}{\numberline {4}Normenkontrollverfahren, Europ\"{a}ischer Gerichtshof f\"{u}r Menscherechte, ...?}{6}{section.4}
