\BOOKMARK [1][-]{section.1}{Klagen Sie!}{}
\BOOKMARK [2][-]{subsection.1.1}{Ungesetzliche Fehlurteile}{section.1}
\BOOKMARK [2][-]{subsection.1.2}{Warum werden Programmierl\366sungen beansprucht aber nicht offenbart?}{section.1}
\BOOKMARK [2][-]{subsection.1.3}{Eigenm\344chtige Definitionen der Juristen}{section.1}
\BOOKMARK [2][-]{subsection.1.4}{Beanspruchung von Problemen unzul\344ssig}{section.1}
\BOOKMARK [2][-]{subsection.1.5}{Gesetz und Recht, nicht umgekehrt!}{section.1}
\BOOKMARK [2][-]{subsection.1.6}{Konflikt mit Urheberrecht}{section.1}
\BOOKMARK [2][-]{subsection.1.7}{Informatiker als technischer Beruf?}{section.1}
\BOOKMARK [2][-]{subsection.1.8}{Softwarepatente gegen ``Verletzer'' nicht durchsetzbar}{section.1}
\BOOKMARK [1][-]{section.2}{Gesetzlichkeitsprinzip vs Kriminalisierung der B\374rger durch Gerichte}{}
\BOOKMARK [1][-]{section.3}{Direkte Verfassungsbeschwerde?}{}
\BOOKMARK [1][-]{section.4}{Normenkontrollverfahren, Europ\344ischer Gerichtshof f\374r Menscherechte, ...?}{}
