\relax 
\catcode`:\active
\catcode`;\active
\catcode`!\active
\catcode`?\active
\ifx\hyper@anchor\@undefined
\global \let \oldcontentsline\contentsline
\gdef \contentsline#1#2#3#4{\oldcontentsline{#1}{#2}{#3}}
\global \let \oldnewlabel\newlabel
\gdef \newlabel#1#2{\newlabelxx{#1}#2}
\gdef \newlabelxx#1#2#3#4#5#6{\oldnewlabel{#1}{{#2}{#3}}}
\AtEndDocument{\let \contentsline\oldcontentsline
\let \newlabel\oldnewlabel}
\else
\global \let \hyper@last\relax 
\fi

\select@language{french}
\@writefile{toc}{\select@language{french}}
\@writefile{lof}{\select@language{french}}
\@writefile{lot}{\select@language{french}}
\newlabel{cons040408}{{1}{1}{On remet les gants pour le deuxi\`{e}me round dans le combat europ\'{e}en sur les brevets logiciels\label {cons040408}\relax }{section.1}{}}
\@writefile{toc}{\contentsline {section}{\numberline {1}On remet les gants pour le deuxi\`{e}me round dans le combat europ\'{e}en sur les brevets logiciels}{1}{section.1}}
\newlabel{cons040408}{{1}{2}{On remet les gants pour le deuxi\`{e}me round dans le combat europ\'{e}en sur les brevets logiciels\label {cons040408}\relax }{section.1}{}}
\newlabel{cons040402}{{2}{2}{Council Working Party ``compromises'' on extreme pro-patent position\label {cons040402}\relax }{section.2}{}}
\@writefile{toc}{\contentsline {section}{\numberline {2}Council Working Party ``compromises'' on extreme pro-patent position}{2}{section.2}}
\newlabel{cons040402}{{2}{2}{Council Working Party ``compromises'' on extreme pro-patent position\label {cons040402}\relax }{section.2}{}}
\newlabel{cecms040326}{{3}{2}{L'UE renforce le monopole de Microsoft\label {cecms040326}\relax }{section.3}{}}
\@writefile{toc}{\contentsline {section}{\numberline {3}L'UE renforce le monopole de Microsoft}{2}{section.3}}
\newlabel{cecms040326}{{3}{2}{L'UE renforce le monopole de Microsoft\label {cecms040326}\relax }{section.3}{}}
