\relax 
\ifx\hyper@anchor\@undefined
\global \let \oldcontentsline\contentsline
\gdef \contentsline#1#2#3#4{\oldcontentsline{#1}{#2}{#3}}
\global \let \oldnewlabel\newlabel
\gdef \newlabel#1#2{\newlabelxx{#1}#2}
\gdef \newlabelxx#1#2#3#4#5#6{\oldnewlabel{#1}{{#2}{#3}}}
\AtEndDocument{\let \contentsline\oldcontentsline
\let \newlabel\oldnewlabel}
\else
\global \let \hyper@last\relax 
\fi

\newlabel{coreper031121}{{1}{1}{Directive progress report on the agenda for Coreper Wed 19/ Fri 21\label {coreper031121}\relax }{Hfootnote.1}{}}
\newlabel{france031119}{{1}{1}{France asks for delay and consultation on Directive\label {france031119}\relax }{Hfootnote.2}{}}
\newlabel{france031119}{{1}{1}{France asks for delay and consultation on Directive\label {france031119}\relax }{Hfootnote.3}{}}
\newlabel{msxml031117}{{1}{2}{MS publishes Patent License for Office Formats\label {msxml031117}\relax }{Hfootnote.3}{}}
\newlabel{telcos031107}{{1}{2}{CEOs of big telcos sign letter against Europarl Amendments\label {telcos031107}\relax }{Hfootnote.4}{}}
\newlabel{telcos031107}{{1}{2}{CEOs of big telcos sign letter against Europarl Amendments\label {telcos031107}\relax }{Hfootnote.5}{}}
\newlabel{phelps031106}{{1}{2}{MS IP leader: EU needs better lobbying for software patents\label {phelps031106}\relax }{Hfootnote.5}{}}
\newlabel{kober031106}{{1}{2}{EPO President to speak before European Parliament\label {kober031106}\relax }{Hfootnote.6}{}}
\newlabel{kober031106}{{1}{2}{EPO President to speak before European Parliament\label {kober031106}\relax }{Hfootnote.7}{}}
\newlabel{bolk031105}{{1}{3}{Bolkestein urges businessmen to step up lobbying ``to get key proposals adopted''\label {bolk031105}\relax }{Hfootnote.7}{}}
\newlabel{giev031104}{{1}{3}{GI-Vorstandswahlen\label {giev031104}\relax }{Hfootnote.8}{}}
\newlabel{giev031104}{{1}{3}{GI-Vorstandswahlen\label {giev031104}\relax }{Hfootnote.9}{}}
\newlabel{cdnow031104}{{1}{3}{Patent auf Musik-Download\label {cdnow031104}\relax }{Hfootnote.9}{}}
\newlabel{cdnow031104}{{1}{3}{Patent auf Musik-Download\label {cdnow031104}\relax }{Hfootnote.10}{}}
\newlabel{wipo031104}{{1}{3}{Wipo bangs the Drum\label {wipo031104}\relax }{Hfootnote.10}{}}
\newlabel{ftc031029}{{1}{3}{FTC publishes Report on Patents and Competition\label {ftc031029}\relax }{Hfootnote.11}{}}
\newlabel{ftc031029}{{1}{3}{FTC publishes Report on Patents and Competition\label {ftc031029}\relax }{Hfootnote.12}{}}
\newlabel{coreper031028}{{1}{4}{Coreper Procedural Note\label {coreper031028}\relax }{Hfootnote.12}{}}
\newlabel{coreper031028}{{1}{4}{Coreper Procedural Note\label {coreper031028}\relax }{Hfootnote.13}{}}
