\relax 
\ifx\hyper@anchor\@undefined
\global \let \oldcontentsline\contentsline
\gdef \contentsline#1#2#3#4{\oldcontentsline{#1}{#2}{#3}}
\global \let \oldnewlabel\newlabel
\gdef \newlabel#1#2{\newlabelxx{#1}#2}
\gdef \newlabelxx#1#2#3#4#5#6{\oldnewlabel{#1}{{#2}{#3}}}
\AtEndDocument{\let \contentsline\oldcontentsline
\let \newlabel\oldnewlabel}
\else
\global \let \hyper@last\relax 
\fi

\newlabel{cons040408}{{1}{1}{Ring frei f\"{u}r die n\"{a}chste Runde im Tauziehen um EU-Software-Patente\label {cons040408}\relax }{section.1}{}}
\@writefile{toc}{\contentsline {section}{\numberline {1}Ring frei f\"{u}r die n\"{a}chste Runde im Tauziehen um EU-Software-Patente}{1}{section.1}}
\newlabel{cons040408}{{1}{2}{Ring frei f\"{u}r die n\"{a}chste Runde im Tauziehen um EU-Software-Patente\label {cons040408}\relax }{section.1}{}}
\newlabel{cons040402}{{2}{2}{``Kompromiss'' der Rats-Arbeitsgruppe f\"{u}r unbegrenzte Patentierbarkeit und unbeschr\"{a}nkte Patent-Durchsetzung\label {cons040402}\relax }{section.2}{}}
\@writefile{toc}{\contentsline {section}{\numberline {2}``Kompromiss'' der Rats-Arbeitsgruppe f\"{u}r unbegrenzte Patentierbarkeit und unbeschr\"{a}nkte Patent-Durchsetzung}{2}{section.2}}
\newlabel{cons040402}{{2}{2}{``Kompromiss'' der Rats-Arbeitsgruppe f\"{u}r unbegrenzte Patentierbarkeit und unbeschr\"{a}nkte Patent-Durchsetzung\label {cons040402}\relax }{section.2}{}}
\newlabel{cecms040326}{{3}{2}{EU st\"{a}rkt das Microsoft-Monopol\label {cecms040326}\relax }{section.3}{}}
\@writefile{toc}{\contentsline {section}{\numberline {3}EU st\"{a}rkt das Microsoft-Monopol}{2}{section.3}}
