\BOOKMARK [1][-]{section.1}{Ring frei f\374r die n\344chste Runde im Tauziehen um EU-Software-Patente}{}
\BOOKMARK [1][-]{section.2}{``Kompromiss'' der Rats-Arbeitsgruppe f\374r unbegrenzte Patentierbarkeit und unbeschr\344nkte Patent-Durchsetzung}{}
\BOOKMARK [1][-]{section.3}{EU st\344rkt das Microsoft-Monopol}{}
