\relax 
\catcode`"\active
\ifx\hyper@anchor\@undefined
\global \let \oldcontentsline\contentsline
\gdef \contentsline#1#2#3#4{\oldcontentsline{#1}{#2}{#3}}
\global \let \oldnewlabel\newlabel
\gdef \newlabel#1#2{\newlabelxx{#1}#2}
\gdef \newlabelxx#1#2#3#4#5#6{\oldnewlabel{#1}{{#2}{#3}}}
\AtEndDocument{\let \contentsline\oldcontentsline
\let \newlabel\oldnewlabel}
\else
\global \let \hyper@last\relax 
\fi

\select@language{catalan}
\@writefile{toc}{\select@language{catalan}}
\@writefile{lof}{\select@language{catalan}}
\@writefile{lot}{\select@language{catalan}}
\newlabel{coreper031121}{{1}{2}{Directive progress report on the agenda for Coreper Wed 19/ Fri 21\label {coreper031121}\relax }{section.1}{}}
\@writefile{toc}{\contentsline {section}{\numberline {1}Directive progress report on the agenda for Coreper Wed 19/ Fri 21}{2}{section.1}}
\newlabel{france031119}{{2}{2}{France asks for delay and consultation on Directive\label {france031119}\relax }{section.2}{}}
\@writefile{toc}{\contentsline {section}{\numberline {2}France asks for delay and consultation on Directive}{2}{section.2}}
\newlabel{france031119}{{2}{2}{France asks for delay and consultation on Directive\label {france031119}\relax }{Hfootnote.3}{}}
\newlabel{msxml031117}{{3}{2}{MS publishes Patent License for Office Formats\label {msxml031117}\relax }{section.3}{}}
\@writefile{toc}{\contentsline {section}{\numberline {3}MS publishes Patent License for Office Formats}{2}{section.3}}
\newlabel{telcos031107}{{4}{2}{CEOs of big telcos sign letter against Europarl Amendments\label {telcos031107}\relax }{section.4}{}}
\@writefile{toc}{\contentsline {section}{\numberline {4}CEOs of big telcos sign letter against Europarl Amendments}{2}{section.4}}
\newlabel{telcos031107}{{4}{3}{CEOs of big telcos sign letter against Europarl Amendments\label {telcos031107}\relax }{Hfootnote.5}{}}
\newlabel{phelps031106}{{5}{3}{MS IP leader: EU needs better lobbying for software patents\label {phelps031106}\relax }{section.5}{}}
\@writefile{toc}{\contentsline {section}{\numberline {5}MS IP leader: EU needs better lobbying for software patents}{3}{section.5}}
\newlabel{kober031106}{{6}{3}{EPO President to speak before European Parliament\label {kober031106}\relax }{section.6}{}}
\@writefile{toc}{\contentsline {section}{\numberline {6}EPO President to speak before European Parliament}{3}{section.6}}
\newlabel{kober031106}{{6}{3}{EPO President to speak before European Parliament\label {kober031106}\relax }{Hfootnote.7}{}}
\newlabel{bolk031105}{{7}{3}{Bolkestein urges businessmen to step up lobbying ``to get key proposals adopted''\label {bolk031105}\relax }{section.7}{}}
\@writefile{toc}{\contentsline {section}{\numberline {7}Bolkestein urges businessmen to step up lobbying ``to get key proposals adopted''}{3}{section.7}}
\newlabel{giev031104}{{8}{3}{GI-Vorstandswahlen\label {giev031104}\relax }{section.8}{}}
\@writefile{toc}{\contentsline {section}{\numberline {8}GI-Vorstandswahlen}{3}{section.8}}
\newlabel{giev031104}{{8}{3}{GI-Vorstandswahlen\label {giev031104}\relax }{Hfootnote.9}{}}
\newlabel{cdnow031104}{{9}{4}{Patent auf Musik-Download\label {cdnow031104}\relax }{section.9}{}}
\@writefile{toc}{\contentsline {section}{\numberline {9}Patent auf Musik-Download}{4}{section.9}}
\newlabel{cdnow031104}{{9}{4}{Patent auf Musik-Download\label {cdnow031104}\relax }{Hfootnote.10}{}}
\newlabel{wipo031104}{{10}{4}{Wipo bangs the Drum\label {wipo031104}\relax }{section.10}{}}
\@writefile{toc}{\contentsline {section}{\numberline {10}Wipo bangs the Drum}{4}{section.10}}
\newlabel{ftc031029}{{11}{4}{FTC publishes Report on Patents and Competition\label {ftc031029}\relax }{section.11}{}}
\@writefile{toc}{\contentsline {section}{\numberline {11}FTC publishes Report on Patents and Competition}{4}{section.11}}
\newlabel{ftc031029}{{11}{4}{FTC publishes Report on Patents and Competition\label {ftc031029}\relax }{Hfootnote.12}{}}
\newlabel{coreper031028}{{12}{4}{Coreper Procedural Note\label {coreper031028}\relax }{section.12}{}}
\@writefile{toc}{\contentsline {section}{\numberline {12}Coreper Procedural Note}{4}{section.12}}
\newlabel{coreper031028}{{12}{4}{Coreper Procedural Note\label {coreper031028}\relax }{Hfootnote.13}{}}
