\relax 
\ifx\hyper@anchor\@undefined
\global \let \oldcontentsline\contentsline
\gdef \contentsline#1#2#3#4{\oldcontentsline{#1}{#2}{#3}}
\global \let \oldnewlabel\newlabel
\gdef \newlabel#1#2{\newlabelxx{#1}#2}
\gdef \newlabelxx#1#2#3#4#5#6{\oldnewlabel{#1}{{#2}{#3}}}
\AtEndDocument{\let \contentsline\oldcontentsline
\let \newlabel\oldnewlabel}
\else
\global \let \hyper@last\relax 
\fi

\newlabel{cons040408}{{1}{1}{The gloves come off for Round Two in the EU fight over Software Patents\label {cons040408}\relax }{section.1}{}}
\@writefile{toc}{\contentsline {section}{\numberline {1}The gloves come off for Round Two in the EU fight over Software Patents}{1}{section.1}}
\newlabel{cons040408}{{1}{2}{The gloves come off for Round Two in the EU fight over Software Patents\label {cons040408}\relax }{section.1}{}}
\newlabel{cons040402}{{2}{2}{Council Working Party ``compromises'' on unlimited patentability and unfettered patent enforcement\label {cons040402}\relax }{section.2}{}}
\@writefile{toc}{\contentsline {section}{\numberline {2}Council Working Party ``compromises'' on unlimited patentability and unfettered patent enforcement}{2}{section.2}}
\newlabel{cons040402}{{2}{2}{Council Working Party ``compromises'' on unlimited patentability and unfettered patent enforcement\label {cons040402}\relax }{section.2}{}}
\newlabel{cecms040326}{{3}{2}{EU Boosts Microsoft's Monopoly\label {cecms040326}\relax }{section.3}{}}
\@writefile{toc}{\contentsline {section}{\numberline {3}EU Boosts Microsoft's Monopoly}{2}{section.3}}
\newlabel{cecms040326}{{3}{2}{EU Boosts Microsoft's Monopoly\label {cecms040326}\relax }{section.3}{}}
