\select@language {catalan}
\contentsline {section}{\numberline {1}Directive progress report on the agenda for Coreper Wed 19/ Fri 21}{2}{section.1}
\contentsline {section}{\numberline {2}France asks for delay and consultation on Directive}{2}{section.2}
\contentsline {section}{\numberline {3}MS publishes Patent License for Office Formats}{2}{section.3}
\contentsline {section}{\numberline {4}CEOs of big telcos sign letter against Europarl Amendments}{2}{section.4}
\contentsline {section}{\numberline {5}MS IP leader: EU needs better lobbying for software patents}{3}{section.5}
\contentsline {section}{\numberline {6}EPO President to speak before European Parliament}{3}{section.6}
\contentsline {section}{\numberline {7}Bolkestein urges businessmen to step up lobbying ``to get key proposals adopted''}{3}{section.7}
\contentsline {section}{\numberline {8}GI-Vorstandswahlen}{3}{section.8}
\contentsline {section}{\numberline {9}Patent auf Musik-Download}{4}{section.9}
\contentsline {section}{\numberline {10}Wipo bangs the Drum}{4}{section.10}
\contentsline {section}{\numberline {11}FTC publishes Report on Patents and Competition}{4}{section.11}
\contentsline {section}{\numberline {12}Coreper Procedural Note}{4}{section.12}
