\relax 
\ifx\hyper@anchor\@undefined
\global \let \oldcontentsline\contentsline
\gdef \contentsline#1#2#3#4{\oldcontentsline{#1}{#2}{#3}}
\global \let \oldnewlabel\newlabel
\gdef \newlabel#1#2{\newlabelxx{#1}#2}
\gdef \newlabelxx#1#2#3#4#5#6{\oldnewlabel{#1}{{#2}{#3}}}
\AtEndDocument{\let \contentsline\oldcontentsline
\let \newlabel\oldnewlabel}
\else
\global \let \hyper@last\relax 
\fi

\@writefile{toc}{\contentsline {chapter}{\numberline {1}What is the current situation?}{4}{chapter.1}}
\@writefile{lof}{\addvspace {10\p@ }}
\@writefile{lot}{\addvspace {10\p@ }}
\newlabel{curr}{{1}{4}{What is the current situation?\relax }{chapter.1}{}}
\@writefile{toc}{\contentsline {section}{\numberline {1.1}Explaining the ``Current Situation'' by a Historical Myth}{4}{section.1.1}}
\newlabel{myth}{{1.1}{4}{Explaining the ``Current Situation'' by a Historical Myth\relax }{section.1.1}{}}
\@writefile{toc}{\contentsline {section}{\numberline {1.2}Impressive Statistics of Patent Inflation}{6}{section.1.2}}
\newlabel{appl}{{1.2}{6}{Impressive Statistics of Patent Inflation\relax }{section.1.2}{}}
\@writefile{toc}{\contentsline {section}{\numberline {1.3}Preventing the Drift by Imposing It (I)}{6}{section.1.3}}
\newlabel{drift}{{1.3}{6}{Preventing the Drift by Imposing It (I)\relax }{section.1.3}{}}
\@writefile{toc}{\contentsline {section}{\numberline {1.4}Controlling the EPO by Following it}{8}{section.1.4}}
\newlabel{epoc}{{1.4}{8}{Controlling the EPO by Following it\relax }{section.1.4}{}}
\@writefile{toc}{\contentsline {chapter}{\numberline {2}What are the aims of the proposal?}{9}{chapter.2}}
\@writefile{lof}{\addvspace {10\p@ }}
\@writefile{lot}{\addvspace {10\p@ }}
\newlabel{aims}{{2}{9}{What are the aims of the proposal?\relax }{chapter.2}{}}
\@writefile{toc}{\contentsline {section}{\numberline {2.1}Harmonising a Uniform System, Clarifying that Confusion Rules}{9}{section.2.1}}
\newlabel{harmc}{{2.1}{9}{Harmonising a Uniform System, Clarifying that Confusion Rules\relax }{section.2.1}{}}
\@writefile{toc}{\contentsline {section}{\numberline {2.2}Preventing the Drift by Imposing it (II)}{9}{section.2.2}}
\newlabel{stem}{{2.2}{9}{Preventing the Drift by Imposing it (II)\relax }{section.2.2}{}}
\@writefile{toc}{\contentsline {section}{\numberline {2.3}Ensuring EU-Wide Incontestability of Software Patents (I)}{10}{section.2.3}}
\newlabel{euleg}{{2.3}{10}{Ensuring EU-Wide Incontestability of Software Patents (I)\relax }{section.2.3}{}}
\@writefile{toc}{\contentsline {section}{\numberline {2.4}Authorising an Already-Authorised Court}{10}{section.2.4}}
\newlabel{luxem}{{2.4}{10}{Authorising an Already-Authorised Court\relax }{section.2.4}{}}
\@writefile{toc}{\contentsline {chapter}{\numberline {3}How important is software to the EU economy?}{12}{chapter.3}}
\@writefile{lof}{\addvspace {10\p@ }}
\@writefile{lot}{\addvspace {10\p@ }}
\newlabel{swimp}{{3}{12}{How important is software to the EU economy?\relax }{chapter.3}{}}
\@writefile{toc}{\contentsline {section}{\numberline {3.1}A multi billion dollar market}{12}{section.3.1}}
\newlabel{swval}{{3.1}{12}{A multi billion dollar market\relax }{section.3.1}{}}
\@writefile{toc}{\contentsline {section}{\numberline {3.2}Europe's Future as Seller of Patented Ideas}{13}{section.3.2}}
\newlabel{asia}{{3.2}{13}{Europe's Future as Seller of Patented Ideas\relax }{section.3.2}{}}
\@writefile{toc}{\contentsline {chapter}{\numberline {4}What sort of programmes will the Directive cover?}{14}{chapter.4}}
\@writefile{lof}{\addvspace {10\p@ }}
\@writefile{lot}{\addvspace {10\p@ }}
\newlabel{patprog}{{4}{14}{What sort of programmes will the Directive cover?\relax }{chapter.4}{}}
\@writefile{toc}{\contentsline {section}{\numberline {4.1}Patentable Programmes = those which the EPO deems ``technical''}{14}{section.4.1}}
\newlabel{patprog}{{4.1}{14}{Patentable Programmes = those which the EPO deems ``technical''\relax }{section.4.1}{}}
\@writefile{toc}{\contentsline {section}{\numberline {4.2}Software Industry still Thriving, so No Worry?}{14}{section.4.2}}
\newlabel{ossnov}{{4.2}{14}{Software Industry still Thriving, so No Worry?\relax }{section.4.2}{}}
\@writefile{toc}{\contentsline {chapter}{\numberline {5}What sort of programmes will be excluded?}{15}{chapter.5}}
\@writefile{lof}{\addvspace {10\p@ }}
\@writefile{lot}{\addvspace {10\p@ }}
\newlabel{nepatprog}{{5}{15}{What sort of programmes will be excluded?\relax }{chapter.5}{}}
\@writefile{toc}{\contentsline {section}{\numberline {5.1}Programs and Algorithms unpatentable ... unless patentable}{15}{section.5.1}}
\newlabel{preks}{{5.1}{15}{Programs and Algorithms unpatentable ... unless patentable\relax }{section.5.1}{}}
\@writefile{toc}{\contentsline {section}{\numberline {5.2}Business Methods unpatentable ... unless patentable}{16}{section.5.2}}
\newlabel{nontech}{{5.2}{16}{Business Methods unpatentable ... unless patentable\relax }{section.5.2}{}}
\@writefile{toc}{\contentsline {section}{\numberline {5.3}``Restrictive Statement of the Law'': certain nothings remain unpatentable}{20}{section.5.3}}
\newlabel{prog}{{5.3}{20}{``Restrictive Statement of the Law'': certain nothings remain unpatentable\relax }{section.5.3}{}}
\@writefile{toc}{\contentsline {chapter}{\numberline {6}What would the situation be without the EU directive?}{21}{chapter.6}}
\@writefile{lof}{\addvspace {10\p@ }}
\@writefile{lot}{\addvspace {10\p@ }}
\newlabel{seneudir}{{6}{21}{What would the situation be without the EU directive?\relax }{chapter.6}{}}
\@writefile{toc}{\contentsline {section}{\numberline {6.1}EPO sets the rules, either with or without EU participation}{21}{section.6.1}}
\newlabel{eposet}{{6.1}{21}{EPO sets the rules, either with or without EU participation\relax }{section.6.1}{}}
\@writefile{toc}{\contentsline {section}{\numberline {6.2}Preventing the Drift by Imposing It (III)}{21}{section.6.2}}
\newlabel{benef}{{6.2}{21}{Preventing the Drift by Imposing It (III)\relax }{section.6.2}{}}
\@writefile{toc}{\contentsline {section}{\numberline {6.3}USPTO sets the rules, either with or without EU participation}{22}{section.6.3}}
\newlabel{global}{{6.3}{22}{USPTO sets the rules, either with or without EU participation\relax }{section.6.3}{}}
\@writefile{toc}{\contentsline {chapter}{\numberline {7}What international agreements and conventions need to be taken into account?}{23}{chapter.7}}
\@writefile{lof}{\addvspace {10\p@ }}
\@writefile{lot}{\addvspace {10\p@ }}
\newlabel{legenv}{{7}{23}{What international agreements and conventions need to be taken into account?\relax }{chapter.7}{}}
\@writefile{toc}{\contentsline {section}{\numberline {7.1}Stripping Invention Concept from Art 52 EPC}{23}{section.7.1}}
\newlabel{epc52}{{7.1}{23}{Stripping Invention Concept from Art 52 EPC\relax }{section.7.1}{}}
\@writefile{toc}{\contentsline {section}{\numberline {7.2}Stripping invention concept from TRIPs}{23}{section.7.2}}
\newlabel{trips27}{{7.2}{23}{Stripping invention concept from TRIPs\relax }{section.7.2}{}}
\@writefile{toc}{\contentsline {chapter}{\numberline {8}How do patent and copyright protection differ?}{25}{chapter.8}}
\@writefile{lof}{\addvspace {10\p@ }}
\@writefile{lot}{\addvspace {10\p@ }}
\newlabel{patvskr}{{8}{25}{How do patent and copyright protection differ?\relax }{chapter.8}{}}
\@writefile{toc}{\contentsline {chapter}{\numberline {9}What are the objectives of the report?}{27}{chapter.9}}
\@writefile{lof}{\addvspace {10\p@ }}
\@writefile{lot}{\addvspace {10\p@ }}
\newlabel{robjv}{{9}{27}{What are the objectives of the report?\relax }{chapter.9}{}}
\@writefile{toc}{\contentsline {section}{\numberline {9.1}Objective: EU-wide incontestability of software patents (II)}{27}{section.9.1}}
\newlabel{footing}{{9.1}{27}{Objective: EU-wide incontestability of software patents (II)\relax }{section.9.1}{}}
\@writefile{toc}{\contentsline {section}{\numberline {9.2}First Kill, then Appoint Killer as Detective}{27}{section.9.2}}
\newlabel{reprt}{{9.2}{27}{First Kill, then Appoint Killer as Detective\relax }{section.9.2}{}}
\@writefile{toc}{\contentsline {section}{\numberline {9.3}Prevent Drift by Imposing it (IV)}{28}{section.9.3}}
\newlabel{busmet}{{9.3}{28}{Prevent Drift by Imposing it (IV)\relax }{section.9.3}{}}
\@writefile{toc}{\contentsline {chapter}{\numberline {10}Annotated Links}{29}{chapter.10}}
\@writefile{lof}{\addvspace {10\p@ }}
\@writefile{lot}{\addvspace {10\p@ }}
\newlabel{links}{{10}{29}{Annotated Links\relax }{chapter.10}{}}
