\relax 
\ifx\hyper@anchor\@undefined
\global \let \oldcontentsline\contentsline
\gdef \contentsline#1#2#3#4{\oldcontentsline{#1}{#2}{#3}}
\global \let \oldnewlabel\newlabel
\gdef \newlabel#1#2{\newlabelxx{#1}#2}
\gdef \newlabelxx#1#2#3#4#5#6{\oldnewlabel{#1}{{#2}{#3}}}
\AtEndDocument{\let \contentsline\oldcontentsline
\let \newlabel\oldnewlabel}
\else
\global \let \hyper@last\relax 
\fi

\@writefile{toc}{\contentsline {chapter}{\numberline {1}What is the current situation?}{4}{chapter.1}}
\@writefile{lof}{\addvspace {10\p@ }}
\@writefile{lot}{\addvspace {10\p@ }}
\newlabel{curr}{{1}{4}{What is the current situation?\relax }{chapter.1}{}}
\@writefile{toc}{\contentsline {chapter}{\numberline {2}Patent Inflation a Reason to Legalise Software Patents?}{6}{chapter.2}}
\@writefile{lof}{\addvspace {10\p@ }}
\@writefile{lot}{\addvspace {10\p@ }}
\newlabel{appl}{{2}{6}{Patent Inflation a Reason to Legalise Software Patents?\relax }{chapter.2}{}}
\@writefile{toc}{\contentsline {chapter}{\numberline {3}Preventing Drift by Imposing It (I)}{7}{chapter.3}}
\@writefile{lof}{\addvspace {10\p@ }}
\@writefile{lot}{\addvspace {10\p@ }}
\newlabel{drift}{{3}{7}{Preventing Drift by Imposing It (I)\relax }{chapter.3}{}}
\@writefile{toc}{\contentsline {chapter}{\numberline {4}Controlling the EPO by Following it?}{9}{chapter.4}}
\@writefile{lof}{\addvspace {10\p@ }}
\@writefile{lot}{\addvspace {10\p@ }}
\newlabel{epoc}{{4}{9}{Controlling the EPO by Following it?\relax }{chapter.4}{}}
\@writefile{toc}{\contentsline {chapter}{\numberline {5}Harmonising a Uniform System, Clarifying that Confusion Rules?}{10}{chapter.5}}
\@writefile{lof}{\addvspace {10\p@ }}
\@writefile{lot}{\addvspace {10\p@ }}
\newlabel{aims}{{5}{10}{Harmonising a Uniform System, Clarifying that Confusion Rules?\relax }{chapter.5}{}}
\@writefile{toc}{\contentsline {chapter}{\numberline {6}Stemming the Drift by Imposing it (II)}{11}{chapter.6}}
\@writefile{lof}{\addvspace {10\p@ }}
\@writefile{lot}{\addvspace {10\p@ }}
\newlabel{stem}{{6}{11}{Stemming the Drift by Imposing it (II)\relax }{chapter.6}{}}
\@writefile{toc}{\contentsline {chapter}{\numberline {7}Ensuring Incontestibility of Software Patents}{12}{chapter.7}}
\@writefile{lof}{\addvspace {10\p@ }}
\@writefile{lot}{\addvspace {10\p@ }}
\newlabel{euleg}{{7}{12}{Ensuring Incontestibility of Software Patents\relax }{chapter.7}{}}
\@writefile{toc}{\contentsline {chapter}{\numberline {8}Authorising an already authorised Court}{13}{chapter.8}}
\@writefile{lof}{\addvspace {10\p@ }}
\@writefile{lot}{\addvspace {10\p@ }}
\newlabel{luxem}{{8}{13}{Authorising an already authorised Court\relax }{chapter.8}{}}
\@writefile{toc}{\contentsline {chapter}{\numberline {9}Importance of Software}{14}{chapter.9}}
\@writefile{lof}{\addvspace {10\p@ }}
\@writefile{lot}{\addvspace {10\p@ }}
\newlabel{swimp}{{9}{14}{Importance of Software\relax }{chapter.9}{}}
\@writefile{toc}{\contentsline {chapter}{\numberline {10}The Zero-effort Myth}{15}{chapter.10}}
\@writefile{lof}{\addvspace {10\p@ }}
\@writefile{lot}{\addvspace {10\p@ }}
\newlabel{asia}{{10}{15}{The Zero-effort Myth\relax }{chapter.10}{}}
\@writefile{toc}{\contentsline {chapter}{\numberline {11}Patentable Programs: derive Concepts from EPO Granting Statistics}{16}{chapter.11}}
\@writefile{lof}{\addvspace {10\p@ }}
\@writefile{lot}{\addvspace {10\p@ }}
\newlabel{verb}{{11}{16}{Patentable Programs: derive Concepts from EPO Granting Statistics\relax }{chapter.11}{}}
\@writefile{toc}{\contentsline {chapter}{\numberline {12}Software Industry Still Thriving, so No Need to Worry?}{17}{chapter.12}}
\@writefile{lof}{\addvspace {10\p@ }}
\@writefile{lot}{\addvspace {10\p@ }}
\newlabel{ossnov}{{12}{17}{Software Industry Still Thriving, so No Need to Worry?\relax }{chapter.12}{}}
\@writefile{toc}{\contentsline {chapter}{\numberline {13}Excluded Programs: those which are not worthwhile}{18}{chapter.13}}
\@writefile{lof}{\addvspace {10\p@ }}
\@writefile{lot}{\addvspace {10\p@ }}
\newlabel{preks}{{13}{18}{Excluded Programs: those which are not worthwhile\relax }{chapter.13}{}}
\@writefile{toc}{\contentsline {chapter}{\numberline {14}Patentable vs Non-Patentable Business Methods}{21}{chapter.14}}
\@writefile{lof}{\addvspace {10\p@ }}
\@writefile{lot}{\addvspace {10\p@ }}
\newlabel{nontech}{{14}{21}{Patentable vs Non-Patentable Business Methods\relax }{chapter.14}{}}
\@writefile{toc}{\contentsline {chapter}{\numberline {15}Only unclaimable objects are not patentable}{22}{chapter.15}}
\@writefile{lof}{\addvspace {10\p@ }}
\@writefile{lot}{\addvspace {10\p@ }}
\newlabel{prog}{{15}{22}{Only unclaimable objects are not patentable\relax }{chapter.15}{}}
\@writefile{toc}{\contentsline {chapter}{\numberline {16}False Alternative I: EPO rules because EU not involved}{23}{chapter.16}}
\@writefile{lof}{\addvspace {10\p@ }}
\@writefile{lot}{\addvspace {10\p@ }}
\newlabel{altern1}{{16}{23}{False Alternative I: EPO rules because EU not involved\relax }{chapter.16}{}}
\@writefile{toc}{\contentsline {chapter}{\numberline {17}Stemming Drift by Imposing It (III)}{24}{chapter.17}}
\@writefile{lof}{\addvspace {10\p@ }}
\@writefile{lot}{\addvspace {10\p@ }}
\newlabel{benef}{{17}{24}{Stemming Drift by Imposing It (III)\relax }{chapter.17}{}}
\@writefile{toc}{\contentsline {chapter}{\numberline {18}False Alternative II: Non-Patentability of anything that involves a computer}{25}{chapter.18}}
\@writefile{lof}{\addvspace {10\p@ }}
\@writefile{lot}{\addvspace {10\p@ }}
\newlabel{altern2}{{18}{25}{False Alternative II: Non-Patentability of anything that involves a computer\relax }{chapter.18}{}}
\@writefile{toc}{\contentsline {chapter}{\numberline {19}Misrepresenting Art 52 EPC}{26}{chapter.19}}
\@writefile{lof}{\addvspace {10\p@ }}
\@writefile{lot}{\addvspace {10\p@ }}
\newlabel{epc52}{{19}{26}{Misrepresenting Art 52 EPC\relax }{chapter.19}{}}
\@writefile{toc}{\contentsline {chapter}{\numberline {20}Misinformation about Art 27 TRIPS}{27}{chapter.20}}
\@writefile{lof}{\addvspace {10\p@ }}
\@writefile{lot}{\addvspace {10\p@ }}
\newlabel{trips27}{{20}{27}{Misinformation about Art 27 TRIPS\relax }{chapter.20}{}}
\@writefile{toc}{\contentsline {chapter}{\numberline {21}Belittling Copyright, Calling for Idea Protection}{29}{chapter.21}}
\@writefile{lof}{\addvspace {10\p@ }}
\@writefile{lot}{\addvspace {10\p@ }}
\newlabel{kopir}{{21}{29}{Belittling Copyright, Calling for Idea Protection\relax }{chapter.21}{}}
\@writefile{toc}{\contentsline {chapter}{\numberline {22}Objective: EU-wide Uncontestability of software patents}{31}{chapter.22}}
\@writefile{lof}{\addvspace {10\p@ }}
\@writefile{lot}{\addvspace {10\p@ }}
\newlabel{reprt}{{22}{31}{Objective: EU-wide Uncontestability of software patents\relax }{chapter.22}{}}
\@writefile{toc}{\contentsline {chapter}{\numberline {23}Objective: EU-wide Uncontestability of software patents}{32}{chapter.23}}
\@writefile{lof}{\addvspace {10\p@ }}
\@writefile{lot}{\addvspace {10\p@ }}
\newlabel{reprt}{{23}{32}{Objective: EU-wide Uncontestability of software patents\relax }{chapter.23}{}}
\@writefile{toc}{\contentsline {chapter}{\numberline {24}Prevent Drift by Imposing it (IV)}{33}{chapter.24}}
\@writefile{lof}{\addvspace {10\p@ }}
\@writefile{lot}{\addvspace {10\p@ }}
\newlabel{busmet}{{24}{33}{Prevent Drift by Imposing it (IV)\relax }{chapter.24}{}}
\@writefile{toc}{\contentsline {chapter}{\numberline {25}References}{34}{chapter.25}}
\@writefile{lof}{\addvspace {10\p@ }}
\@writefile{lot}{\addvspace {10\p@ }}
\newlabel{ref}{{25}{34}{References\relax }{chapter.25}{}}
\@writefile{toc}{\contentsline {chapter}{\numberline {26}Kommentierte Verweise}{37}{chapter.26}}
\@writefile{lof}{\addvspace {10\p@ }}
\@writefile{lot}{\addvspace {10\p@ }}
\newlabel{links}{{26}{37}{Kommentierte Verweise\relax }{chapter.26}{}}
