\BOOKMARK [0][-]{chapter.1}{O Texto}{}
\BOOKMARK [1][-]{section.1.1}{Desinforma\347\343o sobre Desinformadores?}{chapter.1}
\BOOKMARK [1][-]{section.1.2}{``Inven\347\343o Implementada num Computador'' n\343o Software?}{chapter.1}
\BOOKMARK [1][-]{section.1.3}{``Solu\347\343o T\351cnica'': Confiando num Requisito Abolido}{chapter.1}
\BOOKMARK [1][-]{section.1.4}{Caso de Teste do One Click da Amazon: atingido ``o Objectivo do Parlamento''?}{chapter.1}
\BOOKMARK [1][-]{section.1.5}{Banir a Publica\347\343o n\343o \351 um Problema?}{chapter.1}
\BOOKMARK [1][-]{section.1.6}{Patentes de Software N\343o Permesidas mas Muito Ben\351ficas?}{chapter.1}
\BOOKMARK [1][-]{section.1.7}{Tribunais Nacionais: Seguidismo Fiel?}{chapter.1}
\BOOKMARK [1][-]{section.1.8}{Apenas Inven\347\365es Genu\355nas?}{chapter.1}
