\relax 
\ifx\hyper@anchor\@undefined
\global \let \oldcontentsline\contentsline
\gdef \contentsline#1#2#3#4{\oldcontentsline{#1}{#2}{#3}}
\global \let \oldnewlabel\newlabel
\gdef \newlabel#1#2{\newlabelxx{#1}#2}
\gdef \newlabelxx#1#2#3#4#5#6{\oldnewlabel{#1}{{#2}{#3}}}
\AtEndDocument{\let \contentsline\oldcontentsline
\let \newlabel\oldnewlabel}
\else
\global \let \hyper@last\relax 
\fi

\@writefile{toc}{\contentsline {chapter}{\numberline {1}The Text}{4}{chapter.1}}
\@writefile{lof}{\addvspace {10\p@ }}
\@writefile{lot}{\addvspace {10\p@ }}
\newlabel{text}{{1}{4}{The Text\relax }{chapter.1}{}}
\@writefile{toc}{\contentsline {section}{\numberline {1.1}Misinformation about Misinformers?}{4}{section.1.1}}
\newlabel{title}{{1.1}{4}{Misinformation about Misinformers?\relax }{section.1.1}{}}
\@writefile{toc}{\contentsline {section}{\numberline {1.2}``Computer-Implemented Invention'' not Software?}{4}{section.1.2}}
\newlabel{swpat}{{1.2}{4}{``Computer-Implemented Invention'' not Software?\relax }{section.1.2}{}}
\@writefile{toc}{\contentsline {section}{\numberline {1.3}``Technical Solution'': Relying on an Abolished Requirement}{5}{section.1.3}}
\newlabel{tsolv}{{1.3}{5}{``Technical Solution'': Relying on an Abolished Requirement\relax }{section.1.3}{}}
\@writefile{toc}{\contentsline {section}{\numberline {1.4}Amazon One Click Test Case: ``Parliament's Objective'' achieved?}{6}{section.1.4}}
\newlabel{amazon}{{1.4}{6}{Amazon One Click Test Case: ``Parliament's Objective'' achieved?\relax }{section.1.4}{}}
\@writefile{toc}{\contentsline {section}{\numberline {1.5}Ban on Publication not a Problem?}{8}{section.1.5}}
\newlabel{prog}{{1.5}{8}{Ban on Publication not a Problem?\relax }{section.1.5}{}}
\@writefile{toc}{\contentsline {section}{\numberline {1.6}Software Patents Not Allowed But Very Beneficial?}{9}{section.1.6}}
\newlabel{devel}{{1.6}{9}{Software Patents Not Allowed But Very Beneficial?\relax }{section.1.6}{}}
\@writefile{toc}{\contentsline {section}{\numberline {1.7}National Courts: Slavish Followers?}{10}{section.1.7}}
\newlabel{natkort}{{1.7}{10}{National Courts: Slavish Followers?\relax }{section.1.7}{}}
\@writefile{toc}{\contentsline {section}{\numberline {1.8}Only Genuine Inventions?}{11}{section.1.8}}
\newlabel{genuin}{{1.8}{11}{Only Genuine Inventions?\relax }{section.1.8}{}}
