\relax 
\catcode`"\active
\ifx\hyper@anchor\@undefined
\global \let \oldcontentsline\contentsline
\gdef \contentsline#1#2#3#4{\oldcontentsline{#1}{#2}{#3}}
\global \let \oldnewlabel\newlabel
\gdef \newlabel#1#2{\newlabelxx{#1}#2}
\gdef \newlabelxx#1#2#3#4#5#6{\oldnewlabel{#1}{{#2}{#3}}}
\AtEndDocument{\let \contentsline\oldcontentsline
\let \newlabel\oldnewlabel}
\else
\global \let \hyper@last\relax 
\fi

\select@language{portuguese}
\@writefile{toc}{\select@language{portuguese}}
\@writefile{lof}{\select@language{portuguese}}
\@writefile{lot}{\select@language{portuguese}}
\@writefile{toc}{\contentsline {chapter}{\numberline {1}O Texto}{4}{chapter.1}}
\@writefile{lof}{\addvspace {10\p@ }}
\@writefile{lot}{\addvspace {10\p@ }}
\newlabel{text}{{1}{4}{O Texto\relax }{chapter.1}{}}
\@writefile{toc}{\contentsline {section}{\numberline {1.1}Desinforma\c {c}\~{a}o sobre Desinformadores?}{4}{section.1.1}}
\newlabel{title}{{1.1}{4}{Desinforma\c {c}\~{a}o sobre Desinformadores?\relax }{section.1.1}{}}
\@writefile{toc}{\contentsline {section}{\numberline {1.2}``Inven\c {c}\~{a}o Implementada num Computador'' n\~{a}o Software?}{4}{section.1.2}}
\newlabel{swpat}{{1.2}{4}{``Inven\c {c}\~{a}o Implementada num Computador'' n\~{a}o Software?\relax }{section.1.2}{}}
\@writefile{toc}{\contentsline {section}{\numberline {1.3}``Solu\c {c}\~{a}o T\'{e}cnica'': Confiando num Requisito Abolido}{5}{section.1.3}}
\newlabel{tsolv}{{1.3}{5}{``Solu\c {c}\~{a}o T\'{e}cnica'': Confiando num Requisito Abolido\relax }{section.1.3}{}}
\@writefile{toc}{\contentsline {section}{\numberline {1.4}Caso de Teste do One Click da Amazon: atingido ``o Objectivo do Parlamento''?}{6}{section.1.4}}
\newlabel{amazon}{{1.4}{6}{Caso de Teste do One Click da Amazon: atingido ``o Objectivo do Parlamento''?\relax }{section.1.4}{}}
\@writefile{toc}{\contentsline {section}{\numberline {1.5}Banir a Publica\c {c}\~{a}o n\~{a}o \'{e} um Problema?}{8}{section.1.5}}
\newlabel{prog}{{1.5}{8}{Banir a Publica\c {c}\~{a}o n\~{a}o \'{e} um Problema?\relax }{section.1.5}{}}
\@writefile{toc}{\contentsline {section}{\numberline {1.6}Patentes de Software N\~{a}o Permesidas mas Muito Ben\'{e}ficas?}{9}{section.1.6}}
\newlabel{devel}{{1.6}{9}{Patentes de Software N\~{a}o Permesidas mas Muito Ben\'{e}ficas?\relax }{section.1.6}{}}
\@writefile{toc}{\contentsline {section}{\numberline {1.7}Tribunais Nacionais: Seguidismo Fiel?}{10}{section.1.7}}
\newlabel{natkort}{{1.7}{10}{Tribunais Nacionais: Seguidismo Fiel?\relax }{section.1.7}{}}
\@writefile{toc}{\contentsline {section}{\numberline {1.8}Apenas Inven\c {c}\~{o}es Genu\'{\i }nas?}{11}{section.1.8}}
\newlabel{genuin}{{1.8}{11}{Apenas Inven\c {c}\~{o}es Genu\'{\i }nas?\relax }{section.1.8}{}}
