\relax 
\catcode`:\active
\catcode`;\active
\catcode`!\active
\catcode`?\active
\ifx\hyper@anchor\@undefined
\global \let \oldcontentsline\contentsline
\gdef \contentsline#1#2#3#4{\oldcontentsline{#1}{#2}{#3}}
\global \let \oldnewlabel\newlabel
\gdef \newlabel#1#2{\newlabelxx{#1}#2}
\gdef \newlabelxx#1#2#3#4#5#6{\oldnewlabel{#1}{{#2}{#3}}}
\AtEndDocument{\let \contentsline\oldcontentsline
\let \newlabel\oldnewlabel}
\else
\global \let \hyper@last\relax 
\fi

\select@language{french}
\@writefile{toc}{\select@language{french}}
\@writefile{lof}{\select@language{french}}
\@writefile{lot}{\select@language{french}}
\@writefile{toc}{\contentsline {chapter}{\numberline {1}Le texte}{4}{chapter.1}}
\@writefile{lof}{\addvspace {10\p@ }}
\@writefile{lot}{\addvspace {10\p@ }}
\newlabel{text}{{1}{4}{Le texte\relax }{chapter.1}{}}
\@writefile{toc}{\contentsline {section}{\numberline {1.1}D\'{e}sinformation sur les d\'{e}sinformateurs?}{4}{section.1.1}}
\newlabel{title}{{1.1}{4}{D\'{e}sinformation sur les d\'{e}sinformateurs?\relax }{section.1.1}{}}
\@writefile{toc}{\contentsline {section}{\numberline {1.2}``Invention mise en oeuvre sur ordinateur'' non logicielle?}{4}{section.1.2}}
\newlabel{swpat}{{1.2}{4}{``Invention mise en oeuvre sur ordinateur'' non logicielle?\relax }{section.1.2}{}}
\@writefile{toc}{\contentsline {section}{\numberline {1.3}``Solution technique'': on se fie \`{a} une condition supprim\'{e}e}{5}{section.1.3}}
\newlabel{tsolv}{{1.3}{5}{``Solution technique'': on se fie \`{a} une condition supprim\'{e}e\relax }{section.1.3}{}}
\@writefile{toc}{\contentsline {section}{\numberline {1.4}L'esample d'``Amazon One Click'': L'``objectif du Parlement'' achev\'{e}?}{6}{section.1.4}}
\newlabel{amazon}{{1.4}{6}{L'esample d'``Amazon One Click'': L'``objectif du Parlement'' achev\'{e}?\relax }{section.1.4}{}}
\@writefile{toc}{\contentsline {section}{\numberline {1.5}L'interdiction de publication n'est pas un probl\`{e}me?}{8}{section.1.5}}
\newlabel{prog}{{1.5}{8}{L'interdiction de publication n'est pas un probl\`{e}me?\relax }{section.1.5}{}}
\@writefile{toc}{\contentsline {section}{\numberline {1.6}Brevets logiciels non permis mais tr\`{e}s b\'{e}n\'{e}fiques?}{9}{section.1.6}}
\newlabel{devel}{{1.6}{9}{Brevets logiciels non permis mais tr\`{e}s b\'{e}n\'{e}fiques?\relax }{section.1.6}{}}
\@writefile{toc}{\contentsline {section}{\numberline {1.7}Les tribunaux nationaux: des suiveurs passifs?}{10}{section.1.7}}
\newlabel{natkort}{{1.7}{10}{Les tribunaux nationaux: des suiveurs passifs?\relax }{section.1.7}{}}
\@writefile{toc}{\contentsline {section}{\numberline {1.8}Seulement de r\'{e}elles inventions?}{11}{section.1.8}}
\newlabel{genuin}{{1.8}{11}{Seulement de r\'{e}elles inventions?\relax }{section.1.8}{}}
