\relax 
\ifx\hyper@anchor\@undefined
\global \let \oldcontentsline\contentsline
\gdef \contentsline#1#2#3#4{\oldcontentsline{#1}{#2}{#3}}
\global \let \oldnewlabel\newlabel
\gdef \newlabel#1#2{\newlabelxx{#1}#2}
\gdef \newlabelxx#1#2#3#4#5#6{\oldnewlabel{#1}{{#2}{#3}}}
\AtEndDocument{\let \contentsline\oldcontentsline
\let \newlabel\oldnewlabel}
\else
\global \let \hyper@last\relax 
\fi

\@writefile{toc}{\contentsline {chapter}{\numberline {1}introduction}{5}{chapter.1}}
\@writefile{lof}{\addvspace {10\p@ }}
\@writefile{lot}{\addvspace {10\p@ }}
\newlabel{intro}{{1}{5}{introduction\relax }{chapter.1}{}}
\@writefile{toc}{\contentsline {section}{\numberline {1.1}What should be patentable and what should not?}{5}{section.1.1}}
\newlabel{patlim}{{1.1}{5}{What should be patentable and what should not?\relax }{section.1.1}{}}
\@writefile{toc}{\contentsline {section}{\numberline {1.2}Four Separate Tests on one Unified Invention: Preserving the Logic of Art 52 EPC}{7}{section.1.2}}
\newlabel{separ}{{1.2}{7}{Four Separate Tests on one Unified Invention: Preserving the Logic of Art 52 EPC\relax }{section.1.2}{}}
\@writefile{toc}{\contentsline {section}{\numberline {1.3}Freedom of Publication vs Program Claims}{8}{section.1.3}}
\newlabel{prog}{{1.3}{8}{Freedom of Publication vs Program Claims\relax }{section.1.3}{}}
\@writefile{toc}{\contentsline {section}{\numberline {1.4}Real vs Fake Interoperability Privilege}{8}{section.1.4}}
\newlabel{intop}{{1.4}{8}{Real vs Fake Interoperability Privilege\relax }{section.1.4}{}}
\@writefile{toc}{\contentsline {section}{\numberline {1.5}Other Issues}{9}{section.1.5}}
\newlabel{etc}{{1.5}{9}{Other Issues\relax }{section.1.5}{}}
\gdef \LT@i{\omit \kern 52.76105pt&\omit \kern 68.34181pt&\omit \kern 24.38708pt&\omit \kern 16.39365pt&\omit \kern 16.39365pt&\omit \kern 24.38708pt&\omit \kern 216.18675pt}
\@writefile{toc}{\contentsline {chapter}{\numberline {2}Tabular Comparison of Amendment Proposals, Voting Recommendations and Results}{10}{chapter.2}}
\@writefile{lof}{\addvspace {10\p@ }}
\@writefile{lot}{\addvspace {10\p@ }}
\newlabel{tab}{{2}{10}{Tabular Comparison of Amendment Proposals, Voting Recommendations and Results\relax }{chapter.2}{}}
\@writefile{toc}{\contentsline {section}{\numberline {2.1}Legend and Commented Example}{10}{section.2.1}}
\newlabel{legen}{{2.1}{10}{Legend and Commented Example\relax }{section.2.1}{}}
\@writefile{toc}{\contentsline {subsection}{\numberline {2.1.1}Title}{10}{subsection.2.1.1}}
\newlabel{exem}{{2.1.1}{10}{Title\relax }{subsection.2.1.1}{}}
\gdef \LT@ii{\omit \kern 52.76105pt&\omit \kern 68.34181pt&\omit \kern 24.38708pt&\omit \kern 16.39365pt&\omit \kern 16.39365pt&\omit \kern 24.38708pt&\omit \kern 216.18675pt}
\@writefile{toc}{\contentsline {section}{\numberline {2.2}Title and Recitals}{11}{section.2.2}}
\newlabel{recit}{{2.2}{11}{Title and Recitals\relax }{section.2.2}{}}
\@writefile{toc}{\contentsline {subsection}{\numberline {2.2.1}Title}{11}{subsection.2.2.1}}
\newlabel{tit}{{2.2.1}{11}{Title\relax }{subsection.2.2.1}{}}
\gdef \LT@iii{\omit \kern 52.76105pt&\omit \kern 68.34181pt&\omit \kern 24.38708pt&\omit \kern 16.39365pt&\omit \kern 16.39365pt&\omit \kern 24.38708pt&\omit \kern 216.18675pt}
\gdef \LT@iv{\omit \kern 52.76105pt&\omit \kern 68.34181pt&\omit \kern 24.38708pt&\omit \kern 16.39365pt&\omit \kern 16.39365pt&\omit \kern 24.38708pt&\omit \kern 216.18675pt}
\@writefile{toc}{\contentsline {subsection}{\numberline {2.2.2}Recital 1}{12}{subsection.2.2.2}}
\newlabel{rec1}{{2.2.2}{12}{Recital 1\relax }{subsection.2.2.2}{}}
\@writefile{toc}{\contentsline {subsection}{\numberline {2.2.3}Recital 5}{12}{subsection.2.2.3}}
\newlabel{rec5}{{2.2.3}{12}{Recital 5\relax }{subsection.2.2.3}{}}
\@writefile{toc}{\contentsline {subsection}{\numberline {2.2.4}Recital 8}{13}{subsection.2.2.4}}
\newlabel{rec8}{{2.2.4}{13}{Recital 8\relax }{subsection.2.2.4}{}}
\gdef \LT@v{\omit \kern 52.76105pt&\omit \kern 68.34181pt&\omit \kern 24.38708pt&\omit \kern 16.39365pt&\omit \kern 16.39365pt&\omit \kern 24.38708pt&\omit \kern 216.18675pt}
\gdef \LT@vi{\omit \kern 52.76105pt&\omit \kern 68.34181pt&\omit \kern 24.38708pt&\omit \kern 16.39365pt&\omit \kern 16.39365pt&\omit \kern 24.38708pt&\omit \kern 216.18675pt}
\@writefile{toc}{\contentsline {subsection}{\numberline {2.2.5}Recital 11}{14}{subsection.2.2.5}}
\newlabel{rec11}{{2.2.5}{14}{Recital 11\relax }{subsection.2.2.5}{}}
\gdef \LT@vii{\omit \kern 52.76105pt&\omit \kern 68.34181pt&\omit \kern 24.38708pt&\omit \kern 16.39365pt&\omit \kern 16.39365pt&\omit \kern 24.38708pt&\omit \kern 216.18675pt}
\gdef \LT@viii{\omit \kern 52.76105pt&\omit \kern 68.34181pt&\omit \kern 24.38708pt&\omit \kern 16.39365pt&\omit \kern 16.39365pt&\omit \kern 24.38708pt&\omit \kern 216.18675pt}
\@writefile{toc}{\contentsline {subsection}{\numberline {2.2.6}recital 11 a}{15}{subsection.2.2.6}}
\newlabel{rec11a}{{2.2.6}{15}{recital 11 a\relax }{subsection.2.2.6}{}}
\@writefile{toc}{\contentsline {subsection}{\numberline {2.2.7}Recital 12}{15}{subsection.2.2.7}}
\newlabel{rec12}{{2.2.7}{15}{Recital 12\relax }{subsection.2.2.7}{}}
\gdef \LT@ix{\omit \kern 52.76105pt&\omit \kern 68.34181pt&\omit \kern 24.38708pt&\omit \kern 16.39365pt&\omit \kern 16.39365pt&\omit \kern 24.38708pt&\omit \kern 216.18675pt}
\@writefile{toc}{\contentsline {subsection}{\numberline {2.2.8}Recital 13}{16}{subsection.2.2.8}}
\newlabel{rec13}{{2.2.8}{16}{Recital 13\relax }{subsection.2.2.8}{}}
\gdef \LT@x{\omit \kern 52.76105pt&\omit \kern 68.34181pt&\omit \kern 24.38708pt&\omit \kern 16.39365pt&\omit \kern 16.39365pt&\omit \kern 24.38708pt&\omit \kern 216.18675pt}
\@writefile{toc}{\contentsline {subsection}{\numberline {2.2.9}recital 13 a}{17}{subsection.2.2.9}}
\newlabel{rec13a}{{2.2.9}{17}{recital 13 a\relax }{subsection.2.2.9}{}}
\gdef \LT@xi{\omit \kern 52.76105pt&\omit \kern 68.34181pt&\omit \kern 24.38708pt&\omit \kern 16.39365pt&\omit \kern 16.39365pt&\omit \kern 24.38708pt&\omit \kern 216.18675pt}
\gdef \LT@xii{\omit \kern 52.76105pt&\omit \kern 68.34181pt&\omit \kern 24.38708pt&\omit \kern 16.39365pt&\omit \kern 16.39365pt&\omit \kern 24.38708pt&\omit \kern 216.18675pt}
\@writefile{toc}{\contentsline {subsection}{\numberline {2.2.10}recital 13 aa}{18}{subsection.2.2.10}}
\newlabel{rec13aa}{{2.2.10}{18}{recital 13 aa\relax }{subsection.2.2.10}{}}
\@writefile{toc}{\contentsline {subsection}{\numberline {2.2.11}recital 13 b}{18}{subsection.2.2.11}}
\newlabel{rec13b}{{2.2.11}{18}{recital 13 b\relax }{subsection.2.2.11}{}}
\gdef \LT@xiii{\omit \kern 52.76105pt&\omit \kern 68.34181pt&\omit \kern 24.38708pt&\omit \kern 16.39365pt&\omit \kern 16.39365pt&\omit \kern 24.38708pt&\omit \kern 216.18675pt}
\gdef \LT@xiv{\omit \kern 52.76105pt&\omit \kern 68.34181pt&\omit \kern 24.38708pt&\omit \kern 16.39365pt&\omit \kern 16.39365pt&\omit \kern 24.38708pt&\omit \kern 216.18675pt}
\@writefile{toc}{\contentsline {subsection}{\numberline {2.2.12}recital 13 c}{19}{subsection.2.2.12}}
\newlabel{rec13c}{{2.2.12}{19}{recital 13 c\relax }{subsection.2.2.12}{}}
\@writefile{toc}{\contentsline {subsection}{\numberline {2.2.13}recital 13 d}{19}{subsection.2.2.13}}
\newlabel{recital13d}{{2.2.13}{19}{recital 13 d\relax }{subsection.2.2.13}{}}
\gdef \LT@xv{\omit \kern 52.76105pt&\omit \kern 68.34181pt&\omit \kern 24.38708pt&\omit \kern 16.39365pt&\omit \kern 16.39365pt&\omit \kern 24.38708pt&\omit \kern 216.18675pt}
\@writefile{toc}{\contentsline {subsection}{\numberline {2.2.14}Recital 14}{20}{subsection.2.2.14}}
\newlabel{rec14}{{2.2.14}{20}{Recital 14\relax }{subsection.2.2.14}{}}
\@writefile{toc}{\contentsline {subsection}{\numberline {2.2.15}Recital 16}{20}{subsection.2.2.15}}
\newlabel{rec16}{{2.2.15}{20}{Recital 16\relax }{subsection.2.2.15}{}}
\gdef \LT@xvi{\omit \kern 52.76105pt&\omit \kern 68.34181pt&\omit \kern 24.38708pt&\omit \kern 16.39365pt&\omit \kern 16.39365pt&\omit \kern 24.38708pt&\omit \kern 216.18675pt}
\@writefile{toc}{\contentsline {subsection}{\numberline {2.2.16}Recital 16a}{21}{subsection.2.2.16}}
\newlabel{rec16a}{{2.2.16}{21}{Recital 16a\relax }{subsection.2.2.16}{}}
\gdef \LT@xvii{\omit \kern 52.76105pt&\omit \kern 68.34181pt&\omit \kern 24.38708pt&\omit \kern 16.39365pt&\omit \kern 16.39365pt&\omit \kern 24.38708pt&\omit \kern 216.18675pt}
\gdef \LT@xviii{\omit \kern 52.76105pt&\omit \kern 68.34181pt&\omit \kern 24.38708pt&\omit \kern 16.39365pt&\omit \kern 16.39365pt&\omit \kern 24.38708pt&\omit \kern 216.18675pt}
\@writefile{toc}{\contentsline {subsection}{\numberline {2.2.17}Recital 16aa}{22}{subsection.2.2.17}}
\newlabel{rec16aa}{{2.2.17}{22}{Recital 16aa\relax }{subsection.2.2.17}{}}
\gdef \LT@xix{\omit \kern 52.76105pt&\omit \kern 68.34181pt&\omit \kern 24.38708pt&\omit \kern 16.39365pt&\omit \kern 16.39365pt&\omit \kern 24.38708pt&\omit \kern 216.18675pt}
\gdef \LT@xx{\omit \kern 52.76105pt&\omit \kern 68.34181pt&\omit \kern 24.38708pt&\omit \kern 16.39365pt&\omit \kern 16.39365pt&\omit \kern 24.38708pt&\omit \kern 216.18675pt}
\@writefile{toc}{\contentsline {subsection}{\numberline {2.2.18}Recital 17}{23}{subsection.2.2.18}}
\newlabel{rec17}{{2.2.18}{23}{Recital 17\relax }{subsection.2.2.18}{}}
\@writefile{toc}{\contentsline {subsection}{\numberline {2.2.19}Recital 18}{23}{subsection.2.2.19}}
\newlabel{rec18}{{2.2.19}{23}{Recital 18\relax }{subsection.2.2.19}{}}
\gdef \LT@xxi{\omit \kern 52.76105pt&\omit \kern 68.34181pt&\omit \kern 24.38708pt&\omit \kern 16.39365pt&\omit \kern 16.39365pt&\omit \kern 24.38708pt&\omit \kern 216.18675pt}
\@writefile{toc}{\contentsline {section}{\numberline {2.3}Articles and Motions}{24}{section.2.3}}
\newlabel{artik}{{2.3}{24}{Articles and Motions\relax }{section.2.3}{}}
\@writefile{toc}{\contentsline {subsection}{\numberline {2.3.1}Article 1}{24}{subsection.2.3.1}}
\newlabel{art1}{{2.3.1}{24}{Article 1\relax }{subsection.2.3.1}{}}
\gdef \LT@xxii{\omit \kern 52.76105pt&\omit \kern 68.34181pt&\omit \kern 24.38708pt&\omit \kern 16.39365pt&\omit \kern 16.39365pt&\omit \kern 24.38708pt&\omit \kern 216.18675pt}
\@writefile{toc}{\contentsline {subsection}{\numberline {2.3.2}Article 2 (-a)}{25}{subsection.2.3.2}}
\newlabel{art2a}{{2.3.2}{25}{Article 2 (-a)\relax }{subsection.2.3.2}{}}
\@writefile{toc}{\contentsline {subsection}{\numberline {2.3.3}Article 2 (-a)}{25}{subsection.2.3.3}}
\newlabel{art2a}{{2.3.3}{25}{Article 2 (-a)\relax }{subsection.2.3.3}{}}
\gdef \LT@xxiii{\omit \kern 52.76105pt&\omit \kern 68.34181pt&\omit \kern 24.38708pt&\omit \kern 16.39365pt&\omit \kern 16.39365pt&\omit \kern 24.38708pt&\omit \kern 216.18675pt}
\gdef \LT@xxiv{\omit \kern 52.76105pt&\omit \kern 68.34181pt&\omit \kern 24.38708pt&\omit \kern 16.39365pt&\omit \kern 16.39365pt&\omit \kern 24.38708pt&\omit \kern 216.18675pt}
\@writefile{toc}{\contentsline {subsection}{\numberline {2.3.4}Article 2 (b)}{27}{subsection.2.3.4}}
\newlabel{art2b}{{2.3.4}{27}{Article 2 (b)\relax }{subsection.2.3.4}{}}
\gdef \LT@xxv{\omit \kern 52.76105pt&\omit \kern 68.34181pt&\omit \kern 24.38708pt&\omit \kern 16.39365pt&\omit \kern 16.39365pt&\omit \kern 24.38708pt&\omit \kern 216.18675pt}
\gdef \LT@xxvi{\omit \kern 52.76105pt&\omit \kern 68.34181pt&\omit \kern 24.38708pt&\omit \kern 16.39365pt&\omit \kern 16.39365pt&\omit \kern 24.38708pt&\omit \kern 216.18675pt}
\@writefile{toc}{\contentsline {subsection}{\numberline {2.3.5}Article 2 (ba)}{28}{subsection.2.3.5}}
\newlabel{art2ba}{{2.3.5}{28}{Article 2 (ba)\relax }{subsection.2.3.5}{}}
\@writefile{toc}{\contentsline {subsection}{\numberline {2.3.6}Article 3}{28}{subsection.2.3.6}}
\newlabel{art3}{{2.3.6}{28}{Article 3\relax }{subsection.2.3.6}{}}
\gdef \LT@xxvii{\omit \kern 52.76105pt&\omit \kern 68.34181pt&\omit \kern 24.38708pt&\omit \kern 16.39365pt&\omit \kern 16.39365pt&\omit \kern 24.38708pt&\omit \kern 216.18675pt}
\@writefile{toc}{\contentsline {subsection}{\numberline {2.3.7}Article 4}{29}{subsection.2.3.7}}
\newlabel{art4}{{2.3.7}{29}{Article 4\relax }{subsection.2.3.7}{}}
\gdef \LT@xxviii{\omit \kern 52.76105pt&\omit \kern 68.34181pt&\omit \kern 24.38708pt&\omit \kern 16.39365pt&\omit \kern 16.39365pt&\omit \kern 24.38708pt&\omit \kern 216.18675pt}
\@writefile{toc}{\contentsline {subsection}{\numberline {2.3.8}Article 4.1}{30}{subsection.2.3.8}}
\newlabel{art41}{{2.3.8}{30}{Article 4.1\relax }{subsection.2.3.8}{}}
\gdef \LT@xxix{\omit \kern 52.76105pt&\omit \kern 68.34181pt&\omit \kern 24.38708pt&\omit \kern 16.39365pt&\omit \kern 16.39365pt&\omit \kern 24.38708pt&\omit \kern 216.18675pt}
\@writefile{toc}{\contentsline {subsection}{\numberline {2.3.9}Article 4.2}{31}{subsection.2.3.9}}
\newlabel{art42}{{2.3.9}{31}{Article 4.2\relax }{subsection.2.3.9}{}}
\gdef \LT@xxx{\omit \kern 52.76105pt&\omit \kern 68.34181pt&\omit \kern 24.38708pt&\omit \kern 16.39365pt&\omit \kern 16.39365pt&\omit \kern 24.38708pt&\omit \kern 216.18675pt}
\@writefile{toc}{\contentsline {subsection}{\numberline {2.3.10}Article 4.3}{32}{subsection.2.3.10}}
\newlabel{art43}{{2.3.10}{32}{Article 4.3\relax }{subsection.2.3.10}{}}
\@writefile{toc}{\contentsline {subsection}{\numberline {2.3.11}Article 4.3 (a)}{33}{subsection.2.3.11}}
\newlabel{art43a}{{2.3.11}{33}{Article 4.3 (a)\relax }{subsection.2.3.11}{}}
\gdef \LT@xxxi{\omit \kern 52.76105pt&\omit \kern 68.34181pt&\omit \kern 24.38708pt&\omit \kern 16.39365pt&\omit \kern 16.39365pt&\omit \kern 24.38708pt&\omit \kern 216.18675pt}
\gdef \LT@xxxii{\omit \kern 52.76105pt&\omit \kern 68.34181pt&\omit \kern 24.38708pt&\omit \kern 16.39365pt&\omit \kern 16.39365pt&\omit \kern 24.38708pt&\omit \kern 216.18675pt}
\@writefile{toc}{\contentsline {subsection}{\numberline {2.3.12}Article 4 (a)}{34}{subsection.2.3.12}}
\newlabel{art4a}{{2.3.12}{34}{Article 4 (a)\relax }{subsection.2.3.12}{}}
\gdef \LT@xxxiii{\omit \kern 52.76105pt&\omit \kern 68.34181pt&\omit \kern 24.38708pt&\omit \kern 16.39365pt&\omit \kern 16.39365pt&\omit \kern 24.38708pt&\omit \kern 216.18675pt}
\gdef \LT@xxxiv{\omit \kern 52.76105pt&\omit \kern 68.34181pt&\omit \kern 24.38708pt&\omit \kern 16.39365pt&\omit \kern 16.39365pt&\omit \kern 24.38708pt&\omit \kern 216.18675pt}
\@writefile{toc}{\contentsline {subsection}{\numberline {2.3.13}Article 4 (a')}{36}{subsection.2.3.13}}
\newlabel{art4a1}{{2.3.13}{36}{Article 4 (a')\relax }{subsection.2.3.13}{}}
\@writefile{toc}{\contentsline {subsection}{\numberline {2.3.14}Article 5}{36}{subsection.2.3.14}}
\newlabel{art5}{{2.3.14}{36}{Article 5\relax }{subsection.2.3.14}{}}
\gdef \LT@xxxv{\omit \kern 52.76105pt&\omit \kern 68.34181pt&\omit \kern 24.38708pt&\omit \kern 16.39365pt&\omit \kern 16.39365pt&\omit \kern 24.38708pt&\omit \kern 216.18675pt}
\@writefile{toc}{\contentsline {subsection}{\numberline {2.3.15}Article 5 (b)}{38}{subsection.2.3.15}}
\newlabel{art5b}{{2.3.15}{38}{Article 5 (b)\relax }{subsection.2.3.15}{}}
\gdef \LT@xxxvi{\omit \kern 52.76105pt&\omit \kern 68.34181pt&\omit \kern 24.38708pt&\omit \kern 16.39365pt&\omit \kern 16.39365pt&\omit \kern 24.38708pt&\omit \kern 216.18675pt}
\gdef \LT@xxxvii{\omit \kern 52.76105pt&\omit \kern 68.34181pt&\omit \kern 24.38708pt&\omit \kern 16.39365pt&\omit \kern 16.39365pt&\omit \kern 24.38708pt&\omit \kern 216.18675pt}
\@writefile{toc}{\contentsline {subsection}{\numberline {2.3.16}Article 5 (c)}{39}{subsection.2.3.16}}
\newlabel{art5c}{{2.3.16}{39}{Article 5 (c)\relax }{subsection.2.3.16}{}}
\@writefile{toc}{\contentsline {subsection}{\numberline {2.3.17}Article 5 (d)}{39}{subsection.2.3.17}}
\newlabel{art5d}{{2.3.17}{39}{Article 5 (d)\relax }{subsection.2.3.17}{}}
\gdef \LT@xxxviii{\omit \kern 52.76105pt&\omit \kern 68.34181pt&\omit \kern 24.38708pt&\omit \kern 16.39365pt&\omit \kern 16.39365pt&\omit \kern 24.38708pt&\omit \kern 216.18675pt}
\@writefile{toc}{\contentsline {subsection}{\numberline {2.3.18}Article 6}{40}{subsection.2.3.18}}
\newlabel{art6}{{2.3.18}{40}{Article 6\relax }{subsection.2.3.18}{}}
\gdef \LT@xxxix{\omit \kern 52.76105pt&\omit \kern 68.34181pt&\omit \kern 24.38708pt&\omit \kern 16.39365pt&\omit \kern 16.39365pt&\omit \kern 24.38708pt&\omit \kern 216.18675pt}
\@writefile{toc}{\contentsline {subsection}{\numberline {2.3.19}Article 7}{42}{subsection.2.3.19}}
\newlabel{art7}{{2.3.19}{42}{Article 7\relax }{subsection.2.3.19}{}}
\gdef \LT@xl{\omit \kern 52.76105pt&\omit \kern 68.34181pt&\omit \kern 24.38708pt&\omit \kern 16.39365pt&\omit \kern 16.39365pt&\omit \kern 24.38708pt&\omit \kern 216.18675pt}
\gdef \LT@xli{\omit \kern 52.76105pt&\omit \kern 68.34181pt&\omit \kern 24.38708pt&\omit \kern 16.39365pt&\omit \kern 16.39365pt&\omit \kern 24.38708pt&\omit \kern 216.18675pt}
\@writefile{toc}{\contentsline {subsection}{\numberline {2.3.20}Article 7 (a)}{43}{subsection.2.3.20}}
\newlabel{art7a}{{2.3.20}{43}{Article 7 (a)\relax }{subsection.2.3.20}{}}
\@writefile{toc}{\contentsline {subsection}{\numberline {2.3.21}Article 8 (a)}{43}{subsection.2.3.21}}
\newlabel{art8a}{{2.3.21}{43}{Article 8 (a)\relax }{subsection.2.3.21}{}}
\gdef \LT@xlii{\omit \kern 52.76105pt&\omit \kern 68.34181pt&\omit \kern 24.38708pt&\omit \kern 16.39365pt&\omit \kern 16.39365pt&\omit \kern 24.38708pt&\omit \kern 216.18675pt}
\gdef \LT@xliii{\omit \kern 52.76105pt&\omit \kern 68.34181pt&\omit \kern 24.38708pt&\omit \kern 16.39365pt&\omit \kern 16.39365pt&\omit \kern 24.38708pt&\omit \kern 216.18675pt}
\@writefile{toc}{\contentsline {subsection}{\numberline {2.3.22}Article 8 (c)(bis)}{44}{subsection.2.3.22}}
\newlabel{art8c}{{2.3.22}{44}{Article 8 (c)(bis)\relax }{subsection.2.3.22}{}}
\@writefile{toc}{\contentsline {subsection}{\numberline {2.3.23}Article 8 (d)}{44}{subsection.2.3.23}}
\newlabel{art8d}{{2.3.23}{44}{Article 8 (d)\relax }{subsection.2.3.23}{}}
\gdef \LT@xliv{\omit \kern 52.76105pt&\omit \kern 68.34181pt&\omit \kern 24.38708pt&\omit \kern 16.39365pt&\omit \kern 16.39365pt&\omit \kern 24.38708pt&\omit \kern 216.18675pt}
\gdef \LT@xlv{\omit \kern 52.76105pt&\omit \kern 68.34181pt&\omit \kern 24.38708pt&\omit \kern 16.39365pt&\omit \kern 16.39365pt&\omit \kern 24.38708pt&\omit \kern 216.18675pt}
\@writefile{toc}{\contentsline {subsection}{\numberline {2.3.24}Article 8 (e)}{45}{subsection.2.3.24}}
\newlabel{art8e}{{2.3.24}{45}{Article 8 (e)\relax }{subsection.2.3.24}{}}
\@writefile{toc}{\contentsline {subsection}{\numberline {2.3.25}Article 8 (f)}{45}{subsection.2.3.25}}
\newlabel{art8f}{{2.3.25}{45}{Article 8 (f)\relax }{subsection.2.3.25}{}}
\gdef \LT@xlvi{\omit \kern 52.76105pt&\omit \kern 68.34181pt&\omit \kern 24.38708pt&\omit \kern 16.39365pt&\omit \kern 16.39365pt&\omit \kern 24.38708pt&\omit \kern 216.18675pt}
\gdef \LT@xlvii{\omit \kern 52.76105pt&\omit \kern 68.34181pt&\omit \kern 24.38708pt&\omit \kern 16.39365pt&\omit \kern 16.39365pt&\omit \kern 24.38708pt&\omit \kern 216.18675pt}
\@writefile{toc}{\contentsline {subsection}{\numberline {2.3.26}Article 8 (g)}{46}{subsection.2.3.26}}
\newlabel{art8g}{{2.3.26}{46}{Article 8 (g)\relax }{subsection.2.3.26}{}}
\@writefile{toc}{\contentsline {subsection}{\numberline {2.3.27}Article 9.1}{46}{subsection.2.3.27}}
\newlabel{art91}{{2.3.27}{46}{Article 9.1\relax }{subsection.2.3.27}{}}
\@writefile{toc}{\contentsline {subsection}{\numberline {2.3.28}Legislative Resolution}{46}{subsection.2.3.28}}
\newlabel{legres}{{2.3.28}{46}{Legislative Resolution\relax }{subsection.2.3.28}{}}
\gdef \LT@xlviii{\omit \kern 52.76105pt&\omit \kern 68.34181pt&\omit \kern 24.38708pt&\omit \kern 16.39365pt&\omit \kern 16.39365pt&\omit \kern 24.38708pt&\omit \kern 216.18675pt}
\gdef \LT@xlix{\omit \kern 52.76105pt&\omit \kern 68.34181pt&\omit \kern 24.38708pt&\omit \kern 16.39365pt&\omit \kern 16.39365pt&\omit \kern 24.38708pt&\omit \kern 216.18675pt}
\@writefile{toc}{\contentsline {subsection}{\numberline {2.3.29}Motion for a legislative resolution}{47}{subsection.2.3.29}}
\newlabel{legres1b}{{2.3.29}{47}{Motion for a legislative resolution\relax }{subsection.2.3.29}{}}
\@writefile{toc}{\contentsline {chapter}{\numberline {3}Annotated Links}{49}{chapter.3}}
\@writefile{lof}{\addvspace {10\p@ }}
\@writefile{lot}{\addvspace {10\p@ }}
\newlabel{links}{{3}{49}{Annotated Links\relax }{chapter.3}{}}
