\select@language {portuguese}
\contentsline {section}{\numberline {1}O Texto}{2}{section.1}
\contentsline {subsection}{\numberline {1.1}t\'{\i }tulo}{2}{subsection.1.1}
\contentsline {subsection}{\numberline {1.2}Article 1: Objectivo}{2}{subsection.1.2}
\contentsline {subsection}{\numberline {1.3}Article 2: Defini\c {c}\~{o}es}{2}{subsection.1.3}
\contentsline {subsection}{\numberline {1.4}Article 3a: Campos da Tecnologia}{2}{subsection.1.4}
\contentsline {subsection}{\numberline {1.5}Article 4: Regras de Patenteabilidade}{2}{subsection.1.5}
\contentsline {subsection}{\numberline {1.6}Article 4a: Exclus\~{o}es da Patenteabilidade}{3}{subsection.1.6}
\contentsline {subsection}{\numberline {1.7}Article 5: Formas de Reivindica\c {c}\~{o}es; e demais provis\~{o}es}{3}{subsection.1.7}
\contentsline {subsection}{\numberline {1.8}Article 6: Avalia\c {c}\~{a}o do impacto}{4}{subsection.1.8}
\contentsline {subsection}{\numberline {1.9}Article 7: Avalia\c {c}\~{a}o do impacto}{4}{subsection.1.9}
\contentsline {subsection}{\numberline {1.10}Article 8: Avalia\c {c}\~{a}o do impacto}{4}{subsection.1.10}
\contentsline {subsection}{\numberline {1.11}Article 8a: Avalia\c {c}\~{a}o do impacto}{5}{subsection.1.11}
\contentsline {section}{\numberline {2}Links Anotados}{5}{section.2}
