\relax 
\ifx\hyper@anchor\@undefined
\global \let \oldcontentsline\contentsline
\gdef \contentsline#1#2#3#4{\oldcontentsline{#1}{#2}{#3}}
\global \let \oldnewlabel\newlabel
\gdef \newlabel#1#2{\newlabelxx{#1}#2}
\gdef \newlabelxx#1#2#3#4#5#6{\oldnewlabel{#1}{{#2}{#3}}}
\AtEndDocument{\let \contentsline\oldcontentsline
\let \newlabel\oldnewlabel}
\else
\global \let \hyper@last\relax 
\fi

\@writefile{toc}{\contentsline {section}{\numberline {1}Richtlinie \"{u}ber die Patentierbarkeit computer-implementierter Erfindungen}{2}{section.1}}
\newlabel{text}{{1}{2}{Richtlinie \"{u}ber die Patentierbarkeit computer-implementierter Erfindungen\relax }{section.1}{}}
\@writefile{toc}{\contentsline {subsection}{\numberline {1.1}Artikel 1: Zweck}{2}{subsection.1.1}}
\newlabel{art1}{{1.1}{2}{Artikel 1: Zweck\relax }{subsection.1.1}{}}
\@writefile{toc}{\contentsline {subsection}{\numberline {1.2}Artikel 2: Definitionen}{2}{subsection.1.2}}
\newlabel{art2}{{1.2}{2}{Artikel 2: Definitionen\relax }{subsection.1.2}{}}
\@writefile{toc}{\contentsline {subsection}{\numberline {1.3}Artikel 3a: Gebiete der Technik}{2}{subsection.1.3}}
\newlabel{art3a}{{1.3}{2}{Artikel 3a: Gebiete der Technik\relax }{subsection.1.3}{}}
\@writefile{toc}{\contentsline {subsection}{\numberline {1.4}Artikel 4: Regeln der Patentierbarkeit}{2}{subsection.1.4}}
\newlabel{art4}{{1.4}{2}{Artikel 4: Regeln der Patentierbarkeit\relax }{subsection.1.4}{}}
\@writefile{toc}{\contentsline {subsection}{\numberline {1.5}Artikel 4a: Ausschluss von der Patentierbarkeit}{3}{subsection.1.5}}
\newlabel{art4a}{{1.5}{3}{Artikel 4a: Ausschluss von der Patentierbarkeit\relax }{subsection.1.5}{}}
\@writefile{toc}{\contentsline {subsection}{\numberline {1.6}Artikel 5: Anspruchsformen und weitere Bestimmungen}{3}{subsection.1.6}}
\newlabel{art5}{{1.6}{3}{Artikel 5: Anspruchsformen und weitere Bestimmungen\relax }{subsection.1.6}{}}
\@writefile{toc}{\contentsline {subsection}{\numberline {1.7}Artikel 6: Interoperabilit\"{a}t}{4}{subsection.1.7}}
\newlabel{art6}{{1.7}{4}{Artikel 6: Interoperabilit\"{a}t\relax }{subsection.1.7}{}}
\@writefile{toc}{\contentsline {section}{\numberline {2}Annotated Links}{4}{section.2}}
\newlabel{links}{{2}{4}{Annotated Links\relax }{section.2}{}}
\gdef\scr@tpo@lst{0}
