\relax 
\catcode`"\active
\ifx\hyper@anchor\@undefined
\global \let \oldcontentsline\contentsline
\gdef \contentsline#1#2#3#4{\oldcontentsline{#1}{#2}{#3}}
\global \let \oldnewlabel\newlabel
\gdef \newlabel#1#2{\newlabelxx{#1}#2}
\gdef \newlabelxx#1#2#3#4#5#6{\oldnewlabel{#1}{{#2}{#3}}}
\AtEndDocument{\let \contentsline\oldcontentsline
\let \newlabel\oldnewlabel}
\else
\global \let \hyper@last\relax 
\fi

\select@language{italian}
\@writefile{toc}{\select@language{italian}}
\@writefile{lof}{\select@language{italian}}
\@writefile{lot}{\select@language{italian}}
\@writefile{toc}{\contentsline {section}{\numberline {1}Directive on the patentability of computer-implemented inventions}{2}{section.1}}
\newlabel{text}{{1}{2}{Directive on the patentability of computer-implemented inventions\relax }{section.1}{}}
\@writefile{toc}{\contentsline {subsection}{\numberline {1.1}\v {C}l\'{a}nek 1: Purpose}{2}{subsection.1.1}}
\newlabel{art1}{{1.1}{2}{\v {C}l\'{a}nek 1: Purpose\relax }{subsection.1.1}{}}
\@writefile{toc}{\contentsline {subsection}{\numberline {1.2}\v {C}l\'{a}nek 2: Definitions}{2}{subsection.1.2}}
\newlabel{art2}{{1.2}{2}{\v {C}l\'{a}nek 2: Definitions\relax }{subsection.1.2}{}}
\@writefile{toc}{\contentsline {subsection}{\numberline {1.3}\v {C}l\'{a}nek 3a: Fields of Technology}{2}{subsection.1.3}}
\newlabel{art3a}{{1.3}{2}{\v {C}l\'{a}nek 3a: Fields of Technology\relax }{subsection.1.3}{}}
\@writefile{toc}{\contentsline {subsection}{\numberline {1.4}\v {C}l\'{a}nek 4: Rules of Patentability}{2}{subsection.1.4}}
\newlabel{art4}{{1.4}{2}{\v {C}l\'{a}nek 4: Rules of Patentability\relax }{subsection.1.4}{}}
\@writefile{toc}{\contentsline {subsection}{\numberline {1.5}\v {C}l\'{a}nek 4a: Cause di esclusione dalla brevettabilit\`{a}}{3}{subsection.1.5}}
\newlabel{art4a}{{1.5}{3}{\v {C}l\'{a}nek 4a: Cause di esclusione dalla brevettabilit\`{a}\relax }{subsection.1.5}{}}
\@writefile{toc}{\contentsline {subsection}{\numberline {1.6}\v {C}l\'{a}nek 5: Form of Claims; and further provisions}{3}{subsection.1.6}}
\newlabel{art5}{{1.6}{3}{\v {C}l\'{a}nek 5: Form of Claims; and further provisions\relax }{subsection.1.6}{}}
\@writefile{toc}{\contentsline {subsection}{\numberline {1.7}\v {C}l\'{a}nek 6: Interoperability}{4}{subsection.1.7}}
\newlabel{art6}{{1.7}{4}{\v {C}l\'{a}nek 6: Interoperability\relax }{subsection.1.7}{}}
\@writefile{toc}{\contentsline {section}{\numberline {2}Annotated Links}{4}{section.2}}
\newlabel{links}{{2}{4}{Annotated Links\relax }{section.2}{}}
\gdef\scr@tpo@lst{0}
