\relax 
\catcode`:\active
\catcode`;\active
\catcode`!\active
\catcode`?\active
\ifx\hyper@anchor\@undefined
\global \let \oldcontentsline\contentsline
\gdef \contentsline#1#2#3#4{\oldcontentsline{#1}{#2}{#3}}
\global \let \oldnewlabel\newlabel
\gdef \newlabel#1#2{\newlabelxx{#1}#2}
\gdef \newlabelxx#1#2#3#4#5#6{\oldnewlabel{#1}{{#2}{#3}}}
\AtEndDocument{\let \contentsline\oldcontentsline
\let \newlabel\oldnewlabel}
\else
\global \let \hyper@last\relax 
\fi

\select@language{french}
\@writefile{toc}{\select@language{french}}
\@writefile{lof}{\select@language{french}}
\@writefile{lot}{\select@language{french}}
\@writefile{toc}{\contentsline {section}{\numberline {1}Directive concernant la brevetabilit\'{e} des inventions mises en oeuvre par ordinateurs}{1}{section.1}}
\newlabel{text}{{1}{1}{Directive concernant la brevetabilit\'{e} des inventions mises en oeuvre par ordinateurs\relax }{section.1}{}}
\@writefile{toc}{\contentsline {subsection}{\numberline {1.1}\v {C}l\'{a}nek 1: Objectif}{1}{subsection.1.1}}
\newlabel{art1}{{1.1}{1}{\v {C}l\'{a}nek 1: Objectif\relax }{subsection.1.1}{}}
\@writefile{toc}{\contentsline {subsection}{\numberline {1.2}\v {C}l\'{a}nek 2: D\'{e}finitions}{1}{subsection.1.2}}
\newlabel{art2}{{1.2}{1}{\v {C}l\'{a}nek 2: D\'{e}finitions\relax }{subsection.1.2}{}}
\@writefile{toc}{\contentsline {subsection}{\numberline {1.3}\v {C}l\'{a}nek 3a: Champs de Technique}{2}{subsection.1.3}}
\newlabel{art3a}{{1.3}{2}{\v {C}l\'{a}nek 3a: Champs de Technique\relax }{subsection.1.3}{}}
\@writefile{toc}{\contentsline {subsection}{\numberline {1.4}\v {C}l\'{a}nek 4: R\`{e}les de Brevetabilit\'{e}}{2}{subsection.1.4}}
\newlabel{art4}{{1.4}{2}{\v {C}l\'{a}nek 4: R\`{e}les de Brevetabilit\'{e}\relax }{subsection.1.4}{}}
\@writefile{toc}{\contentsline {subsection}{\numberline {1.5}\v {C}l\'{a}nek 4a: Exclusions de la brevetabilit\'{e}}{2}{subsection.1.5}}
\newlabel{art4a}{{1.5}{2}{\v {C}l\'{a}nek 4a: Exclusions de la brevetabilit\'{e}\relax }{subsection.1.5}{}}
