\relax 
\ifx\hyper@anchor\@undefined
\global \let \oldcontentsline\contentsline
\gdef \contentsline#1#2#3#4{\oldcontentsline{#1}{#2}{#3}}
\global \let \oldnewlabel\newlabel
\gdef \newlabel#1#2{\newlabelxx{#1}#2}
\gdef \newlabelxx#1#2#3#4#5#6{\oldnewlabel{#1}{{#2}{#3}}}
\AtEndDocument{\let \contentsline\oldcontentsline
\let \newlabel\oldnewlabel}
\else
\global \let \hyper@last\relax 
\fi

\@writefile{toc}{\contentsline {section}{\numberline {1}Directive on the patentability of computer-implemented inventions}{2}{section.1}}
\newlabel{text}{{1}{2}{Directive on the patentability of computer-implemented inventions\relax }{section.1}{}}
\@writefile{toc}{\contentsline {subsection}{\numberline {1.1}Artikel 1: Werkingssfeer}{2}{subsection.1.1}}
\newlabel{art1}{{1.1}{2}{Artikel 1: Werkingssfeer\relax }{subsection.1.1}{}}
\@writefile{toc}{\contentsline {subsection}{\numberline {1.2}Artikel 2: Definities}{2}{subsection.1.2}}
\newlabel{art2}{{1.2}{2}{Artikel 2: Definities\relax }{subsection.1.2}{}}
\@writefile{toc}{\contentsline {subsection}{\numberline {1.3}Artikel 3a: In computers ge\"{\i }mplementeerde uitvindingen als een gebied van de technologie}{2}{subsection.1.3}}
\newlabel{art3a}{{1.3}{2}{Artikel 3a: In computers ge\"{\i }mplementeerde uitvindingen als een gebied van de technologie\relax }{subsection.1.3}{}}
\@writefile{toc}{\contentsline {subsection}{\numberline {1.4}Artikel 4: Voorwaarden voor octrooieerbaarheid}{2}{subsection.1.4}}
\newlabel{art4}{{1.4}{2}{Artikel 4: Voorwaarden voor octrooieerbaarheid\relax }{subsection.1.4}{}}
\@writefile{toc}{\contentsline {subsection}{\numberline {1.5}Artikel 4a: Uitsluitingen van octrooieerbaarheid}{3}{subsection.1.5}}
\newlabel{art4a}{{1.5}{3}{Artikel 4a: Uitsluitingen van octrooieerbaarheid\relax }{subsection.1.5}{}}
\@writefile{toc}{\contentsline {subsection}{\numberline {1.6}Artikel 5: Vorm van de conclusies; en verdere voorzieningen}{3}{subsection.1.6}}
\newlabel{art5}{{1.6}{3}{Artikel 5: Vorm van de conclusies; en verdere voorzieningen\relax }{subsection.1.6}{}}
\@writefile{toc}{\contentsline {subsection}{\numberline {1.7}Artikel 6: Interoperabiliteit}{4}{subsection.1.7}}
\newlabel{art6}{{1.7}{4}{Artikel 6: Interoperabiliteit\relax }{subsection.1.7}{}}
\@writefile{toc}{\contentsline {section}{\numberline {2}koppelingen met voetnoten}{4}{section.2}}
\newlabel{links}{{2}{4}{koppelingen met voetnoten\relax }{section.2}{}}
\gdef\scr@tpo@lst{0}
