\BOOKMARK [1][-]{section.1}{Directive on the patentability of computer-implemented inventions}{}
\BOOKMARK [2][-]{subsection.1.1}{Article 1: Purpose}{section.1}
\BOOKMARK [2][-]{subsection.1.2}{Article 2: Definitions}{section.1}
\BOOKMARK [2][-]{subsection.1.3}{Article 3a: Fields of Technology}{section.1}
\BOOKMARK [2][-]{subsection.1.4}{Article 4: Rules of Patentability}{section.1}
\BOOKMARK [2][-]{subsection.1.5}{Article 4a: Exclusions from patentability}{section.1}
\BOOKMARK [2][-]{subsection.1.6}{Article 5: Form of Claims; and further provisions}{section.1}
\BOOKMARK [2][-]{subsection.1.7}{Article 6: Interoperability}{section.1}
\BOOKMARK [1][-]{section.2}{Annotated Links}{}
