\relax 
\catcode`"\active
\ifx\hyper@anchor\@undefined
\global \let \oldcontentsline\contentsline
\gdef \contentsline#1#2#3#4{\oldcontentsline{#1}{#2}{#3}}
\global \let \oldnewlabel\newlabel
\gdef \newlabel#1#2{\newlabelxx{#1}#2}
\gdef \newlabelxx#1#2#3#4#5#6{\oldnewlabel{#1}{{#2}{#3}}}
\AtEndDocument{\let \contentsline\oldcontentsline
\let \newlabel\oldnewlabel}
\else
\global \let \hyper@last\relax 
\fi

\select@language{portuguese}
\@writefile{toc}{\select@language{portuguese}}
\@writefile{lof}{\select@language{portuguese}}
\@writefile{lot}{\select@language{portuguese}}
\@writefile{toc}{\contentsline {section}{\numberline {1}O Texto}{2}{section.1}}
\newlabel{text}{{1}{2}{O Texto\relax }{section.1}{}}
\@writefile{toc}{\contentsline {subsection}{\numberline {1.1}t\'{\i }tulo}{2}{subsection.1.1}}
\newlabel{tit}{{1.1}{2}{t\'{\i }tulo\relax }{subsection.1.1}{}}
\@writefile{toc}{\contentsline {subsection}{\numberline {1.2}Article 1: Objectivo}{2}{subsection.1.2}}
\newlabel{art1}{{1.2}{2}{Article 1: Objectivo\relax }{subsection.1.2}{}}
\@writefile{toc}{\contentsline {subsection}{\numberline {1.3}Article 2: Defini\c {c}\~{o}es}{2}{subsection.1.3}}
\newlabel{art2}{{1.3}{2}{Article 2: Defini\c {c}\~{o}es\relax }{subsection.1.3}{}}
\@writefile{toc}{\contentsline {subsection}{\numberline {1.4}Article 3a: Campos da Tecnologia}{2}{subsection.1.4}}
\newlabel{art3a}{{1.4}{2}{Article 3a: Campos da Tecnologia\relax }{subsection.1.4}{}}
\@writefile{toc}{\contentsline {subsection}{\numberline {1.5}Article 4: Regras de Patenteabilidade}{2}{subsection.1.5}}
\newlabel{art4}{{1.5}{2}{Article 4: Regras de Patenteabilidade\relax }{subsection.1.5}{}}
\@writefile{toc}{\contentsline {subsection}{\numberline {1.6}Article 4a: Exclus\~{o}es da Patenteabilidade}{3}{subsection.1.6}}
\newlabel{art4a}{{1.6}{3}{Article 4a: Exclus\~{o}es da Patenteabilidade\relax }{subsection.1.6}{}}
\@writefile{toc}{\contentsline {subsection}{\numberline {1.7}Article 5: Formas de Reivindica\c {c}\~{o}es; e demais provis\~{o}es}{3}{subsection.1.7}}
\newlabel{art5}{{1.7}{3}{Article 5: Formas de Reivindica\c {c}\~{o}es; e demais provis\~{o}es\relax }{subsection.1.7}{}}
\@writefile{toc}{\contentsline {subsection}{\numberline {1.8}Article 6: Avalia\c {c}\~{a}o do impacto}{4}{subsection.1.8}}
\newlabel{art6}{{1.8}{4}{Article 6: Avalia\c {c}\~{a}o do impacto\relax }{subsection.1.8}{}}
\@writefile{toc}{\contentsline {subsection}{\numberline {1.9}Article 7: Avalia\c {c}\~{a}o do impacto}{4}{subsection.1.9}}
\newlabel{art7}{{1.9}{4}{Article 7: Avalia\c {c}\~{a}o do impacto\relax }{subsection.1.9}{}}
\@writefile{toc}{\contentsline {subsection}{\numberline {1.10}Article 8: Avalia\c {c}\~{a}o do impacto}{4}{subsection.1.10}}
\newlabel{art8}{{1.10}{4}{Article 8: Avalia\c {c}\~{a}o do impacto\relax }{subsection.1.10}{}}
\@writefile{toc}{\contentsline {subsection}{\numberline {1.11}Article 8a: Avalia\c {c}\~{a}o do impacto}{5}{subsection.1.11}}
\newlabel{art8a}{{1.11}{5}{Article 8a: Avalia\c {c}\~{a}o do impacto\relax }{subsection.1.11}{}}
\@writefile{toc}{\contentsline {section}{\numberline {2}Links Anotados}{5}{section.2}}
\newlabel{links}{{2}{5}{Links Anotados\relax }{section.2}{}}
