\relax 
\ifx\hyper@anchor\@undefined
\global \let \oldcontentsline\contentsline
\gdef \contentsline#1#2#3#4{\oldcontentsline{#1}{#2}{#3}}
\global \let \oldnewlabel\newlabel
\gdef \newlabel#1#2{\newlabelxx{#1}#2}
\gdef \newlabelxx#1#2#3#4#5#6{\oldnewlabel{#1}{{#2}{#3}}}
\AtEndDocument{\let \contentsline\oldcontentsline
\let \newlabel\oldnewlabel}
\else
\global \let \hyper@last\relax 
\fi

\csname auxWARNINGii\endcsname {\typeout {-34- this file and other auxiliary files require to use the following}}
\csname auxWARNINGii\endcsname {\typeout {-34- LaTeX packages: french and babel!}}
\csname auxWARNINGii\endcsname {\typeout {-34- check \protect \usepackage \space or remove these files. Typesetting is aborted!} \stop }
\select@language{french}
\@writefile{toc}{\select@language{french}}
\@writefile{lof}{\select@language{french}}
\@writefile{lot}{\select@language{french}}
\select@language{french}
\@writefile{toc}{\select@language{french}}
\@writefile{lof}{\select@language{french}}
\@writefile{lot}{\select@language{french}}
\newlabel{stand}{{1}{4}{Notre permanence sur le stand de la FFII\label {stand}\relax }{section.0.1}{}}
\@writefile{toc}{\contentsline {section}{\numberline {1}Notre permanence sur le stand de la FFII}{4}{section.0.1}}
\newlabel{preleg}{{2}{4}{Conf\'{e}rence au Centre A des Congr\`{e}s, salle 1 \label {preleg}\relax }{section.0.2}{}}
\@writefile{toc}{\contentsline {section}{\numberline {2}Conf\'{e}rence au Centre A des Congr\`{e}s, salle 1 }{4}{section.0.2}}
\newlabel{tauchert}{{2.1}{4}{Tauchert: Brevetabilit\'{e} des logiciels -- la pratique de l'Office allemand des Brevets \label {tauchert}\relax }{subsection.0.2.1}{}}
\@writefile{toc}{\contentsline {subsection}{\numberline {2.1}Tauchert\@DP  Brevetabilit\'{e} des logiciels -- la pratique de l'Office allemand des Brevets }{4}{subsection.0.2.1}}
\newlabel{jur}{{2.1.1}{6}{WRiek: Comment se fait-il qu'une poign\'{e}e de juristes sp\'{e}cialistes des brevets puisse changer aussi fondamentalement les normes ? Ne seraient-ce pas l\`{a} des questions politiques qui d\'{e}passent les comp\'{e}tences des tribunaux et administrations ?\label {jur}\relax }{subsubsection.0.2.1.1}{}}
\@writefile{toc}{\contentsline {subsubsection}{\numberline {2.1.1}WRiek\@DP  Comment se fait-il qu'une poign\'{e}e de juristes sp\'{e}cialistes des brevets puisse changer aussi fondamentalement les normes \@PI  Ne seraient-ce pas l\`{a} des questions politiques qui d\'{e}passent les comp\'{e}tences des tribunaux et administrations \@PI }{6}{subsubsection.0.2.1.1}}
\newlabel{oek}{{2.1.2}{6}{Phm: Est-ce vraiment une bonne chose de rendre les logiciels brevetables sans avoir r\'{e}alis\'{e} auparavant une \'{e}tude syt\'{e}matique des effets \'{e}conomiques d'une telle modification ?\label {oek}\relax }{subsubsection.0.2.1.2}{}}
\@writefile{toc}{\contentsline {subsubsection}{\numberline {2.1.2}Phm\@DP  Est-ce vraiment une bonne chose de rendre les logiciels brevetables sans avoir r\'{e}alis\'{e} auparavant une \'{e}tude syt\'{e}matique des effets \'{e}conomiques d'une telle modification \@PI }{6}{subsubsection.0.2.1.2}}
\newlabel{raub}{{2.1.3}{6}{Siepmann: Ne pourrait-on pas, avec les m\^{e}mes arguments, l\'{e}gitimer un syndicat de voleurs, qui aurait gagn\'{e} sa place sur le march\'{e} sans la moindre subvention ? \label {raub}\relax }{subsubsection.0.2.1.3}{}}
\@writefile{toc}{\contentsline {subsubsection}{\numberline {2.1.3}Siepmann\@DP  Ne pourrait-on pas, avec les m\^{e}mes arguments, l\'{e}gitimer un syndicat de voleurs, qui aurait gagn\'{e} sa place sur le march\'{e} sans la moindre subvention \@PI  }{6}{subsubsection.0.2.1.3}}
\newlabel{pres}{{2.1.4}{6}{Phm: Monsieur Tauchert, vous \'{e}noncez ici des v\'{e}rit\'{e}s essentielles que l'on a rarement l'occasion d'entendre aussi explicitement. Nous autorisez-vous \`{a} citer ce que vous venez de dire dans nos communiqu\'{e}s de presse ?\label {pres}\relax }{subsubsection.0.2.1.4}{}}
\@writefile{toc}{\contentsline {subsubsection}{\numberline {2.1.4}Phm\@DP  Monsieur Tauchert, vous \'{e}noncez ici des v\'{e}rit\'{e}s essentielles que l'on a rarement l'occasion d'entendre aussi explicitement. Nous autorisez-vous \`{a} citer ce que vous venez de dire dans nos communiqu\'{e}s de presse \@PI }{6}{subsubsection.0.2.1.4}}
\newlabel{spring}{{2.2}{7}{Springorum: Apprivoiser le ``monstre`` : les brevets -- L'id\'{e}e d'un consortium de protection. \label {spring}\relax }{subsection.0.2.2}{}}
\@writefile{toc}{\contentsline {subsection}{\numberline {2.2}Springorum\@DP  Apprivoiser le ``monstre`` \@DP  les brevets -- L'id\'{e}e d'un consortium de protection. }{7}{subsection.0.2.2}}
\newlabel{restr}{{2.2.1}{7}{Les juristes commettent souvent l'erreur de sur\'{e}valuer le pouvoir d'exclusion des licences restrictives publiques (les licences de ``copyleft`` telles que la GPL de GNU). Ces licences n'ont qu'une tr\`{e}s petite valeur de protection. D\`{e}s qu'un composant de programme a \'{e}t\'{e} impl\'{e}ment\'{e} dans un logiciel sous GPL, il devient impossible d'emp\^{e}cher qui que ce soit de l'utiliser. \label {restr}\relax }{subsubsection.0.2.2.1}{}}
\@writefile{toc}{\contentsline {subsubsection}{\numberline {2.2.1}Les juristes commettent souvent l'erreur de sur\'{e}valuer le pouvoir d'exclusion des licences restrictives publiques (les licences de ``copyleft`` telles que la GPL de GNU). Ces licences n'ont qu'une tr\`{e}s petite valeur de protection. D\`{e}s qu'un composant de programme a \'{e}t\'{e} impl\'{e}ment\'{e} dans un logiciel sous GPL, il devient impossible d'emp\^{e}cher qui que ce soit de l'utiliser. }{7}{subsubsection.0.2.2.1}}
\newlabel{modul}{{2.2.2}{8}{Apparemment nous serions en train de cr\'{e}er une nouvelle licence ouverte g\'{e}n\'{e}rale qui permettrait \`{a} un groupement de soci\'{e}t\'{e}s anonymes de se servir de la G.P.L. comme d'une arme. Mais cette arme serait encore bien \'{e}mouss\'{e}e. En effet, les logiciels libres sont ouvertement disponibles sur l'Internet. Tout le monde peut les utiliser, que ce soit ou non de mani\`{e}re l\'{e}gale. Si nous interdisions \`{a} Microsoft d'utiliser tel composant, il suffirait \`{a} cette entreprise d'\'{e}crire son programme de mani\`{e}re que pour le composant en question un module sous GPL (par exemple avec Corba) puisse \^{e}tre t\'{e}l\'{e}charg\'{e} sur l'Internet. \label {modul}\relax }{subsubsection.0.2.2.2}{}}
\@writefile{toc}{\contentsline {subsubsection}{\numberline {2.2.2}Apparemment nous serions en train de cr\'{e}er une nouvelle licence ouverte g\'{e}n\'{e}rale qui permettrait \`{a} un groupement de soci\'{e}t\'{e}s anonymes de se servir de la G.P.L. comme d'une arme. Mais cette arme serait encore bien \'{e}mouss\'{e}e. En effet, les logiciels libres sont ouvertement disponibles sur l'Internet. Tout le monde peut les utiliser, que ce soit ou non de mani\`{e}re l\'{e}gale. Si nous interdisions \`{a} Microsoft d'utiliser tel composant, il suffirait \`{a} cette entreprise d'\'{e}crire son programme de mani\`{e}re que pour le composant en question un module sous GPL (par exemple avec Corba) puisse \^{e}tre t\'{e}l\'{e}charg\'{e} sur l'Internet. }{8}{subsubsection.0.2.2.2}}
\newlabel{patfund}{{2.2.3}{8}{Que ferions-nous si notre adversaire \'{e}tait une soci\'{e}t\'{e} de brevets qui n'\'{e}crirait aucun programme elle-m\^{e}me mais se contenterait de produire plusieurs brevets par semaine, de les acheter et d'en vendre la licence au plus offrant avec \'{e}ventuellement un droit d'exclusivit\'{e} ?\label {patfund}\relax }{subsubsection.0.2.2.3}{}}
\@writefile{toc}{\contentsline {subsubsection}{\numberline {2.2.3}Que ferions-nous si notre adversaire \'{e}tait une soci\'{e}t\'{e} de brevets qui n'\'{e}crirait aucun programme elle-m\^{e}me mais se contenterait de produire plusieurs brevets par semaine, de les acheter et d'en vendre la licence au plus offrant avec \'{e}ventuellement un droit d'exclusivit\'{e} \@PI }{8}{subsubsection.0.2.2.3}}
\newlabel{anarch}{{2.2.4}{8}{Le monde du logiciel libre consiste en un grand nombre de programmeurs isol\'{e}s qui seraient tr\`{e}s contrari\'{e}s de devoir s'organiser d'une mani\`{e}re un peu militaire, au sein d'une association ou d'un groupement de soci\'{e}t\'{e}s. Parmi les petites et moyennes entreprises - dont la participation serait souhaitable - on trouve malheureusement beaucoup d'esprit de concurrence et de faibles dispositions \`{a} se sacrifier aux int\'{e}r\^{e}ts du groupe. Le peu de succ\`{e}s des nombreuses tentatives similaires aux Etats-Unis (http://swpat.ffii.org/archive/miroir/sarxe.fr.html) semble bien confirmer ce point de vue. \label {anarch}\relax }{subsubsection.0.2.2.4}{}}
\@writefile{toc}{\contentsline {subsubsection}{\numberline {2.2.4}Le monde du logiciel libre consiste en un grand nombre de programmeurs isol\'{e}s qui seraient tr\`{e}s contrari\'{e}s de devoir s'organiser d'une mani\`{e}re un peu militaire, au sein d'une association ou d'un groupement de soci\'{e}t\'{e}s. Parmi les petites et moyennes entreprises - dont la participation serait souhaitable - on trouve malheureusement beaucoup d'esprit de concurrence et de faibles dispositions \`{a} se sacrifier aux int\'{e}r\^{e}ts du groupe. Le peu de succ\`{e}s des nombreuses tentatives similaires aux Etats-Unis (http\@DP //swpat.ffii.org/archive/miroir/sarxe.fr.html) semble bien confirmer ce point de vue. }{8}{subsubsection.0.2.2.4}}
\newlabel{aufwand}{{2.2.5}{9}{La somme de travail initialement n\'{e}cessaire est tellement \'{e}norme que m\^{e}me un groupement d'entreprises bien dot\'{e} en personnel n'aurait pas de grandes chances de succ\`{e}s. Il faudrait en effet examiner des centaines de milliers de lignes de programmes \`{a} la recherche d'\'{e}ventuels pr\'{e}judices de centaines de milliers de brevets. De plus, il faudrait r\'{e}ussir \`{a} donner envie aux progammeurs b\'{e}n\'{e}voles d'examiner eux-m\^{e}mes leurs travaux \`{a} la recherche de trivialit\'{e}s brevetables et de les documenter. Or c'est une chose bien connue que les vrais programmeurs n'aiment pas \'{e}crire de la documentation. Encore moins de la documentation sur le sujet des brevets, qui requiert en plus une exp\'{e}rience particuli\`{e}re. Il n'est pas forc\'{e}ment n\'{e}cessaire d'\^{e}tre juriste pour \'{e}crire au sujet des brevets, mais cela demande tout de m\^{e}me beaucoup d'efforts et un type d'exp\'{e}rience que l'on ne trouve pas parmi les d\'{e}veloppeurs libres. Finalement, le groupement de SA devrait d\'{e}penser au minimum 100 000 marks en personnel pour avoir l'espoir d'atteindre ne serait-ce que 10 \percent {} de ses objectifs. \label {aufwand}\relax }{subsubsection.0.2.2.5}{}}
\@writefile{toc}{\contentsline {subsubsection}{\numberline {2.2.5}La somme de travail initialement n\'{e}cessaire est tellement \'{e}norme que m\^{e}me un groupement d'entreprises bien dot\'{e} en personnel n'aurait pas de grandes chances de succ\`{e}s. Il faudrait en effet examiner des centaines de milliers de lignes de programmes \`{a} la recherche d'\'{e}ventuels pr\'{e}judices de centaines de milliers de brevets. De plus, il faudrait r\'{e}ussir \`{a} donner envie aux progammeurs b\'{e}n\'{e}voles d'examiner eux-m\^{e}mes leurs travaux \`{a} la recherche de trivialit\'{e}s brevetables et de les documenter. Or c'est une chose bien connue que les vrais programmeurs n'aiment pas \'{e}crire de la documentation. Encore moins de la documentation sur le sujet des brevets, qui requiert en plus une exp\'{e}rience particuli\`{e}re. Il n'est pas forc\'{e}ment n\'{e}cessaire d'\^{e}tre juriste pour \'{e}crire au sujet des brevets, mais cela demande tout de m\^{e}me beaucoup d'efforts et un type d'exp\'{e}rience que l'on ne trouve pas parmi les d\'{e}veloppeurs libres. Finalement, le groupement de SA devrait d\'{e}penser au minimum 100 000 marks en personnel pour avoir l'espoir d'atteindre ne serait-ce que 10 \%{} de ses objectifs. }{9}{subsubsection.0.2.2.5}}
\newlabel{smets}{{2.3}{9}{Smets: Software Patent Tactics for OpenSource Developpers \label {smets}\relax }{subsection.0.2.3}{}}
\@writefile{toc}{\contentsline {subsection}{\numberline {2.3}Smets\@DP  Software Patent Tactics for OpenSource Developpers }{9}{subsection.0.2.3}}
\newlabel{anreiz}{{2.3.1}{9}{La GPPL de Monsieur Smets ne sera d'aucun secours contre les entreprises de valorisation des brevets. De plus si elle r\'{e}ussit, elle favorisera une plus grande concentration des licences entre les mains de ces entreprises. \label {anreiz}\relax }{subsubsection.0.2.3.1}{}}
\@writefile{toc}{\contentsline {subsubsection}{\numberline {2.3.1}La GPPL de Monsieur Smets ne sera d'aucun secours contre les entreprises de valorisation des brevets. De plus si elle r\'{e}ussit, elle favorisera une plus grande concentration des licences entre les mains de ces entreprises. }{9}{subsubsection.0.2.3.1}}
\newlabel{freipat}{{2.3.2}{10}{Il existe cependant une autre licence libre (GPPL) avec laquelle nous pouvons agir \'{e}galement contre les soci\'{e}t\'{e}s de valorisation des brevets.Nous pourrions \'{e}laborer une licence libre (GPPL) qui interdirait d'utiliser en m\^{e}me temps une licence propri\'{e}taire. Ce qui veut dire que chaque fois que l'on mettrait en oeuvre un composant prot\'{e}g\'{e} par une licence propri\'{e}taire il ne serait plus possible d'utiliser notre composant libre. Et ceci sans recours. Les licences ouvertes prot\`{e}gent le patrimoine commun d'une mani\`{e}re offensive. Toute n\'{e}gociation individuelle serait impossible, tout comme dans le cas du droit d'auteur sous GPL. Gr\^{a}ce \`{a} une mani\`{e}re forte comme celle-l\`{a}, nous pourrions enlever toute valeur aux licences priv\'{e}es et ass\'{e}cher le commerce des entreprises de valorisation des brevets. En effet, qui voudra encore acheter une licence s'il ne reste presque aucune situation dans laquelle il puisse l'impl\'{e}menter dans le cadre l\'{e}gal ? \label {freipat}\relax }{subsubsection.0.2.3.2}{}}
\@writefile{toc}{\contentsline {subsubsection}{\numberline {2.3.2}Il existe cependant une autre licence libre (GPPL) avec laquelle nous pouvons agir \'{e}galement contre les soci\'{e}t\'{e}s de valorisation des brevets.Nous pourrions \'{e}laborer une licence libre (GPPL) qui interdirait d'utiliser en m\^{e}me temps une licence propri\'{e}taire. Ce qui veut dire que chaque fois que l'on mettrait en oeuvre un composant prot\'{e}g\'{e} par une licence propri\'{e}taire il ne serait plus possible d'utiliser notre composant libre. Et ceci sans recours. Les licences ouvertes prot\`{e}gent le patrimoine commun d'une mani\`{e}re offensive. Toute n\'{e}gociation individuelle serait impossible, tout comme dans le cas du droit d'auteur sous GPL. Gr\^{a}ce \`{a} une mani\`{e}re forte comme celle-l\`{a}, nous pourrions enlever toute valeur aux licences priv\'{e}es et ass\'{e}cher le commerce des entreprises de valorisation des brevets. En effet, qui voudra encore acheter une licence s'il ne reste presque aucune situation dans laquelle il puisse l'impl\'{e}menter dans le cadre l\'{e}gal \@PI  }{10}{subsubsection.0.2.3.2}}
\newlabel{far}{{2.4}{10}{FFII: Notre travail de lobbying contre les brevets : quelles sont les r\'{e}alisations et que reste-t-il \`{a} accomplir ?\label {far}\relax }{subsection.0.2.4}{}}
\@writefile{toc}{\contentsline {subsection}{\numberline {2.4}FFII\@DP  Notre travail de lobbying contre les brevets \@DP  quelles sont les r\'{e}alisations et que reste-t-il \`{a} accomplir \@PI }{10}{subsection.0.2.4}}
\newlabel{etc}{{3}{11}{Autres interventions\label {etc}\relax }{section.0.3}{}}
\@writefile{toc}{\contentsline {section}{\numberline {3}Autres interventions}{11}{section.0.3}}
\newlabel{mosdorf}{{3.1}{11}{Siegmar Mosdorf\label {mosdorf}\relax }{subsection.0.3.1}{}}
\@writefile{toc}{\contentsline {subsection}{\numberline {3.1}Siegmar Mosdorf}{11}{subsection.0.3.1}}
\newlabel{rms}{{3.2}{12}{Richard M. Stallman\label {rms}\relax }{subsection.0.3.2}{}}
\@writefile{toc}{\contentsline {subsection}{\numberline {3.2}Richard M. Stallman}{12}{subsection.0.3.2}}
\newlabel{cox}{{3.3}{13}{Alan Cox\label {cox}\relax }{subsection.0.3.3}{}}
\@writefile{toc}{\contentsline {subsection}{\numberline {3.3}Alan Cox}{13}{subsection.0.3.3}}
\newlabel{wclu}{{3.4}{13}{Swantje Weber-Cludius\label {wclu}\relax }{subsection.0.3.4}{}}
\@writefile{toc}{\contentsline {subsection}{\numberline {3.4}Swantje Weber-Cludius}{13}{subsection.0.3.4}}
\newlabel{tauch}{{3.5}{13}{Wolfgang Tauchert\label {tauch}\relax }{subsection.0.3.5}{}}
\@writefile{toc}{\contentsline {subsection}{\numberline {3.5}Wolfgang Tauchert}{13}{subsection.0.3.5}}
\newlabel{spring}{{3.6}{13}{PA Dipl.Inf. Dr. Harald Springorum\label {spring}\relax }{subsection.0.3.6}{}}
\@writefile{toc}{\contentsline {subsection}{\numberline {3.6}PA Dipl.Inf. Dr. Harald Springorum}{13}{subsection.0.3.6}}
\newlabel{siemens}{{3.7}{14}{D\'{e}bats sur le stand Siemens\label {siemens}\relax }{subsection.0.3.7}{}}
\@writefile{toc}{\contentsline {subsection}{\numberline {3.7}D\'{e}bats sur le stand Siemens}{14}{subsection.0.3.7}}
\newlabel{firmen}{{3.8}{15}{Discussions sur d'autres stands \label {firmen}\relax }{subsection.0.3.8}{}}
\@writefile{toc}{\contentsline {subsection}{\numberline {3.8}Discussions sur d'autres stands }{15}{subsection.0.3.8}}
\newlabel{radio}{{3.9}{15}{Interview radiophonique\label {radio}\relax }{subsection.0.3.9}{}}
\@writefile{toc}{\contentsline {subsection}{\numberline {3.9}Interview radiophonique}{15}{subsection.0.3.9}}
\newlabel{dank}{{4}{15}{Remerciements\label {dank}\relax }{section.0.4}{}}
\@writefile{toc}{\contentsline {section}{\numberline {4}Remerciements}{15}{section.0.4}}
