\relax 
\ifx\hyper@anchor\@undefined
\global \let \oldcontentsline\contentsline
\gdef \contentsline#1#2#3#4{\oldcontentsline{#1}{#2}{#3}}
\global \let \oldnewlabel\newlabel
\gdef \newlabel#1#2{\newlabelxx{#1}#2}
\gdef \newlabelxx#1#2#3#4#5#6{\oldnewlabel{#1}{{#2}{#3}}}
\AtEndDocument{\let \contentsline\oldcontentsline
\let \newlabel\oldnewlabel}
\else
\global \let \hyper@last\relax 
\fi

\newlabel{stand}{{1}{4}{Durchgehend am FFII-Stand\label {stand}\relax }{section.1}{}}
\@writefile{toc}{\contentsline {section}{\numberline {1}Durchgehend am FFII-Stand}{4}{section.1}}
\newlabel{preleg}{{2}{4}{Vortragsprogramm im Kongresszentrum A Saal 1\label {preleg}\relax }{section.2}{}}
\@writefile{toc}{\contentsline {section}{\numberline {2}Vortragsprogramm im Kongresszentrum A Saal 1}{4}{section.2}}
\newlabel{tauchert}{{2.1}{4}{Tauchert: Softwarepatentierung -- Praxis des Deutschen Patentamts\label {tauchert}\relax }{subsection.2.1}{}}
\@writefile{toc}{\contentsline {subsection}{\numberline {2.1}Tauchert: Softwarepatentierung -- Praxis des Deutschen Patentamts}{4}{subsection.2.1}}
\newlabel{jur}{{2.1.1}{6}{WRiek: D\"{u}rfen ein paar Patentjuristen auf diese Weise Normen grundlegend ver\"{a}ndern? Sind das nicht politische Fragen, die \"{u}ber die Kompetenz der Gerichte und Patent\"{a}mter hinausgehen?\label {jur}\relax }{subsubsection.2.1.1}{}}
\@writefile{toc}{\contentsline {subsubsection}{\numberline {2.1.1}WRiek: D\"{u}rfen ein paar Patentjuristen auf diese Weise Normen grundlegend ver\"{a}ndern? Sind das nicht politische Fragen, die \"{u}ber die Kompetenz der Gerichte und Patent\"{a}mter hinausgehen?}{6}{subsubsection.2.1.1}}
\newlabel{oek}{{2.1.2}{6}{Phm: Ist es wirklich in Ordnung, wenn man Software patentierbar macht, ohne vorher eine systematische Studie der \"{o}konomischen Auswirkungen einer solchen \"{A}nderung zu erstellen?\label {oek}\relax }{subsubsection.2.1.2}{}}
\@writefile{toc}{\contentsline {subsubsection}{\numberline {2.1.2}Phm: Ist es wirklich in Ordnung, wenn man Software patentierbar macht, ohne vorher eine systematische Studie der \"{o}konomischen Auswirkungen einer solchen \"{A}nderung zu erstellen?}{6}{subsubsection.2.1.2}}
\newlabel{raub}{{2.1.3}{6}{Siepmann: K\"{o}nnte man nicht auf gleiche Weise auch argumentieren, ein R\"{a}ubersyndikat sei legitim, da es ja auf dem Markt gesiegt habe und ohne staatliche Zusch\"{u}sse auskomme?\label {raub}\relax }{subsubsection.2.1.3}{}}
\@writefile{toc}{\contentsline {subsubsection}{\numberline {2.1.3}Siepmann: K\"{o}nnte man nicht auf gleiche Weise auch argumentieren, ein R\"{a}ubersyndikat sei legitim, da es ja auf dem Markt gesiegt habe und ohne staatliche Zusch\"{u}sse auskomme?}{6}{subsubsection.2.1.3}}
\newlabel{pres}{{2.1.4}{7}{Phm: Herr Tauchert, Sie sprechen hier sehr grundlegende Wahrheiten aus, die man selten in dieser Deutlichkeit zu h\"{o}ren bekommt. D\"{u}rfen wir das, was Sie gerade gesagt haben, in unserer Presseerkl\"{a}rung zitieren?\label {pres}\relax }{subsubsection.2.1.4}{}}
\@writefile{toc}{\contentsline {subsubsection}{\numberline {2.1.4}Phm: Herr Tauchert, Sie sprechen hier sehr grundlegende Wahrheiten aus, die man selten in dieser Deutlichkeit zu h\"{o}ren bekommt. D\"{u}rfen wir das, was Sie gerade gesagt haben, in unserer Presseerkl\"{a}rung zitieren?}{7}{subsubsection.2.1.4}}
\newlabel{spring}{{2.2}{7}{Springorum: Z\"{a}hmung des Patent-Ungeheuers -- Konzept eines Schutzb\"{u}ndisses\label {spring}\relax }{subsection.2.2}{}}
\@writefile{toc}{\contentsline {subsection}{\numberline {2.2}Springorum: Z\"{a}hmung des Patent-Ungeheuers -- Konzept eines Schutzb\"{u}ndisses}{7}{subsection.2.2}}
\newlabel{restr}{{2.2.1}{8}{Juristen begehen h\"{a}ufig den Fehler, die Ausschlusskraft restriktiver Gemeineigentumslizenzen (Copyleft-Lizenzen wie GNU GPL) zu \"{u}bersch\"{a}tzen. Solche Lizenzen taugen nur in sehr geringem Ma{\ss }e als Faustpf\"{a}nder. Wenn ein Programmierverfahren erst einmal in GPL-Software implementiert ist, kann man niemanden mehr daran hindern, dieses Verfahren zu verwenden.\label {restr}\relax }{subsubsection.2.2.1}{}}
\@writefile{toc}{\contentsline {subsubsection}{\numberline {2.2.1}Juristen begehen h\"{a}ufig den Fehler, die Ausschlusskraft restriktiver Gemeineigentumslizenzen (Copyleft-Lizenzen wie GNU GPL) zu \"{u}bersch\"{a}tzen. Solche Lizenzen taugen nur in sehr geringem Ma{\ss }e als Faustpf\"{a}nder. Wenn ein Programmierverfahren erst einmal in GPL-Software implementiert ist, kann man niemanden mehr daran hindern, dieses Verfahren zu verwenden.}{8}{subsubsection.2.2.1}}
\newlabel{modul}{{2.2.2}{8}{Selbst angenommen, wir erfinden eine neue Allgemeine \"{O}ffentliche Lizenz, die es einer bestimmten Pool AG erlaubt, die GPL als Waffe einzusetzen, dann ist das noch immer eine stumpfe Waffe. Denn freie Software steht im Internet offen zur Verf\"{u}gung. Jeder kann sie verwenden, egal ob legal oder nicht. Wenn wir z.B. Microsoft verbieten, ein bestimmtes Programmierverfahren zu verwenden, muss Microsoft lediglich seine Software so schreiben, dass f\"{u}r das entsprechende Verfahren ein unter GPL stehendes Modul (z.B. \"{u}ber Corba) aus dem Internet geladen wird.\label {modul}\relax }{subsubsection.2.2.2}{}}
\@writefile{toc}{\contentsline {subsubsection}{\numberline {2.2.2}Selbst angenommen, wir erfinden eine neue Allgemeine \"{O}ffentliche Lizenz, die es einer bestimmten Pool AG erlaubt, die GPL als Waffe einzusetzen, dann ist das noch immer eine stumpfe Waffe. Denn freie Software steht im Internet offen zur Verf\"{u}gung. Jeder kann sie verwenden, egal ob legal oder nicht. Wenn wir z.B. Microsoft verbieten, ein bestimmtes Programmierverfahren zu verwenden, muss Microsoft lediglich seine Software so schreiben, dass f\"{u}r das entsprechende Verfahren ein unter GPL stehendes Modul (z.B. \"{u}ber Corba) aus dem Internet geladen wird.}{8}{subsubsection.2.2.2}}
\newlabel{patfund}{{2.2.3}{8}{Was tun wir, wenn unser Gegner eine Patentverwertungsgesellschaft ist, die selbst \"{u}berhaupt keine Programme schreibt, sondern lediglich jede Woche mehrere Patente erzeugt, hinzukauft und den Meistbietenden (eventuell exklusiv) lizenziert?\label {patfund}\relax }{subsubsection.2.2.3}{}}
\@writefile{toc}{\contentsline {subsubsection}{\numberline {2.2.3}Was tun wir, wenn unser Gegner eine Patentverwertungsgesellschaft ist, die selbst \"{u}berhaupt keine Programme schreibt, sondern lediglich jede Woche mehrere Patente erzeugt, hinzukauft und den Meistbietenden (eventuell exklusiv) lizenziert?}{8}{subsubsection.2.2.3}}
\newlabel{anarch}{{2.2.4}{8}{Die Welt der freien Software besteht aus vielen einzelnen Programmierern, denen es gegen den Strich gehen w\"{u}rde, sich in einem Verein oder einer Pool AG generalstabsm\"{a}{\ss }ig zu organisieren. Unter den kleinen und mittleren Unternehmen, die auch als Teilnehmer in Frage k\"{a}men, gibt es wiederum sehr viel konkurrenzorientiertes Denken und wenig Bereitschaft, im Interesse der Solidarit\"{a}t Opfer zu bringen. Der bisher geringe Erfolg zahlreicher vergleichbarer Versuche in den USA (http://swpat.ffii.org/archiv/spiegel/sarxe.de.html) scheint diese Sicht zu best\"{a}tigen\label {anarch}\relax }{subsubsection.2.2.4}{}}
\@writefile{toc}{\contentsline {subsubsection}{\numberline {2.2.4}Die Welt der freien Software besteht aus vielen einzelnen Programmierern, denen es gegen den Strich gehen w\"{u}rde, sich in einem Verein oder einer Pool AG generalstabsm\"{a}{\ss }ig zu organisieren. Unter den kleinen und mittleren Unternehmen, die auch als Teilnehmer in Frage k\"{a}men, gibt es wiederum sehr viel konkurrenzorientiertes Denken und wenig Bereitschaft, im Interesse der Solidarit\"{a}t Opfer zu bringen. Der bisher geringe Erfolg zahlreicher vergleichbarer Versuche in den USA (http://swpat.ffii.org/archiv/spiegel/sarxe.de.html) scheint diese Sicht zu best\"{a}tigen}{8}{subsubsection.2.2.4}}
\newlabel{aufwand}{{2.2.5}{9}{Der Arbeitsaufwand ist so gewaltig, dass selbst eine personell gut ausgestattete Pool AG keine guten Erfolgsaussichten h\"{a}tte. Sie m\"{u}sste n\"{a}mlich hunderttausende von Programmzeilen auf m\"{o}gliche Verletzungen von hunderttausenden von Patenten absuchen. Au{\ss }erdem m\"{u}sste sie unentgeltlich arbeitende Programmierer dazu motivieren, ihre Werke auf m\"{o}glicherweise patentierbare Trivialit\"{a}ten abzusuchen und diese zu dokumentieren. Es ist bekannt, dass echte Programmierer ungern Dokumentation schreiben. Schon gar nicht Patentdokumentation, die wiederum eine besondere Erfahrung erfordert. Um eine Patentschrift zu schreiben, muss man vielleicht kein Jurist sein, aber immerhin erfordert das viel M\"{u}he und Erfahrung, die man bei freien Entwicklern nicht antrifft, und die Personalkosten von mindestens mehreren 100000 DM monatlich bei der Pool AG erfordern w\"{u}rde, wenn sie ihre Aufgabe wenigstens zu 10\percent {} bew\"{a}ltigen will.\label {aufwand}\relax }{subsubsection.2.2.5}{}}
\@writefile{toc}{\contentsline {subsubsection}{\numberline {2.2.5}Der Arbeitsaufwand ist so gewaltig, dass selbst eine personell gut ausgestattete Pool AG keine guten Erfolgsaussichten h\"{a}tte. Sie m\"{u}sste n\"{a}mlich hunderttausende von Programmzeilen auf m\"{o}gliche Verletzungen von hunderttausenden von Patenten absuchen. Au{\ss }erdem m\"{u}sste sie unentgeltlich arbeitende Programmierer dazu motivieren, ihre Werke auf m\"{o}glicherweise patentierbare Trivialit\"{a}ten abzusuchen und diese zu dokumentieren. Es ist bekannt, dass echte Programmierer ungern Dokumentation schreiben. Schon gar nicht Patentdokumentation, die wiederum eine besondere Erfahrung erfordert. Um eine Patentschrift zu schreiben, muss man vielleicht kein Jurist sein, aber immerhin erfordert das viel M\"{u}he und Erfahrung, die man bei freien Entwicklern nicht antrifft, und die Personalkosten von mindestens mehreren 100000 DM monatlich bei der Pool AG erfordern w\"{u}rde, wenn sie ihre Aufgabe wenigstens zu 10\%{} bew\"{a}ltigen will.}{9}{subsubsection.2.2.5}}
\newlabel{smets}{{2.3}{9}{Smets: Software Patent Tactics for OpenSource Developpers\label {smets}\relax }{subsection.2.3}{}}
\@writefile{toc}{\contentsline {subsection}{\numberline {2.3}Smets: Software Patent Tactics for OpenSource Developpers}{9}{subsection.2.3}}
\newlabel{anreiz}{{2.3.1}{9}{Die Smetssche GPPL ist gegen Patentverwertungsfirmen machtlos. Somit wirkt sie, falls sie erfolgreich wird, auf eine weitere Konzentration von Patentrechten in den H\"{a}nden von Patentverwertungsfirmen hin.\label {anreiz}\relax }{subsubsection.2.3.1}{}}
\@writefile{toc}{\contentsline {subsubsection}{\numberline {2.3.1}Die Smetssche GPPL ist gegen Patentverwertungsfirmen machtlos. Somit wirkt sie, falls sie erfolgreich wird, auf eine weitere Konzentration von Patentrechten in den H\"{a}nden von Patentverwertungsfirmen hin.}{9}{subsubsection.2.3.1}}
\newlabel{freipat}{{2.3.2}{10}{Es gibt aber eine alternative Freipatentierungslizenz (GPPL), mit der wir auch gegen Patentverwertungsfirmen vorgehen k\"{o}nnten. Wir k\"{o}nnten eine Freipatentierungslizenz (GPPL) schaffen, die es verbietet, unsere Patente im Zusammenspiel mit propriet\"{a}ren Patenten zu verwenden. D.h. \"{u}berall dort, wo auf einem Rechner ein propriet\"{a}r patentiertes Verfahren zum Einsatz kommt -- darf unser Verfahren nicht verwendet werden. Und zwar bedingungslos. \"{O}ffentliche Patente sch\"{u}tzen offensiv das Gemeineigentum. Dar\"{u}ber kann, genau wie auch im parallelen Fall des GPL-Urheberrechts, keine Privatperson verhandeln. Da im Patentwesen mit h\"{a}rteren Bandagen gek\"{a}mpft wird, muss die GPPL h\"{a}rter zuschlagen als die GPL. Durch eine solche harte Vorgehensweise k\"{o}nnten wir die privaten Patente entwerten und das Gesch\"{a}ft der Patentverwertungsfirmen austrocknen. Denn wer wird noch eie Patentlizenz kaufen, wenn die damit patentierte Technik in fast keiner Situation mehr legal eingesetzt werden darf?\label {freipat}\relax }{subsubsection.2.3.2}{}}
\@writefile{toc}{\contentsline {subsubsection}{\numberline {2.3.2}Es gibt aber eine alternative Freipatentierungslizenz (GPPL), mit der wir auch gegen Patentverwertungsfirmen vorgehen k\"{o}nnten. Wir k\"{o}nnten eine Freipatentierungslizenz (GPPL) schaffen, die es verbietet, unsere Patente im Zusammenspiel mit propriet\"{a}ren Patenten zu verwenden. D.h. \"{u}berall dort, wo auf einem Rechner ein propriet\"{a}r patentiertes Verfahren zum Einsatz kommt -- darf unser Verfahren nicht verwendet werden. Und zwar bedingungslos. \"{O}ffentliche Patente sch\"{u}tzen offensiv das Gemeineigentum. Dar\"{u}ber kann, genau wie auch im parallelen Fall des GPL-Urheberrechts, keine Privatperson verhandeln. Da im Patentwesen mit h\"{a}rteren Bandagen gek\"{a}mpft wird, muss die GPPL h\"{a}rter zuschlagen als die GPL. Durch eine solche harte Vorgehensweise k\"{o}nnten wir die privaten Patente entwerten und das Gesch\"{a}ft der Patentverwertungsfirmen austrocknen. Denn wer wird noch eie Patentlizenz kaufen, wenn die damit patentierte Technik in fast keiner Situation mehr legal eingesetzt werden darf?}{10}{subsubsection.2.3.2}}
\newlabel{far}{{2.4}{10}{FFII: Softwarepatent-Lobbyarbeit: Was wurde erreicht und was ist zu tun?\label {far}\relax }{subsection.2.4}{}}
\@writefile{toc}{\contentsline {subsection}{\numberline {2.4}FFII: Softwarepatent-Lobbyarbeit: Was wurde erreicht und was ist zu tun?}{10}{subsection.2.4}}
\newlabel{etc}{{3}{11}{Nebengespr\"{a}che\label {etc}\relax }{section.3}{}}
\@writefile{toc}{\contentsline {section}{\numberline {3}Nebengespr\"{a}che}{11}{section.3}}
\newlabel{mosdorf}{{3.1}{11}{Siegmar Mosdorf\label {mosdorf}\relax }{subsection.3.1}{}}
\@writefile{toc}{\contentsline {subsection}{\numberline {3.1}Siegmar Mosdorf}{11}{subsection.3.1}}
\newlabel{rms}{{3.2}{12}{Richard M. Stallman\label {rms}\relax }{subsection.3.2}{}}
\@writefile{toc}{\contentsline {subsection}{\numberline {3.2}Richard M. Stallman}{12}{subsection.3.2}}
\newlabel{cox}{{3.3}{13}{Alan Cox\label {cox}\relax }{subsection.3.3}{}}
\@writefile{toc}{\contentsline {subsection}{\numberline {3.3}Alan Cox}{13}{subsection.3.3}}
\newlabel{wclu}{{3.4}{13}{Swantje Weber-Cludius\label {wclu}\relax }{subsection.3.4}{}}
\@writefile{toc}{\contentsline {subsection}{\numberline {3.4}Swantje Weber-Cludius}{13}{subsection.3.4}}
\newlabel{tauch}{{3.5}{13}{Wolfgang Tauchert\label {tauch}\relax }{subsection.3.5}{}}
\@writefile{toc}{\contentsline {subsection}{\numberline {3.5}Wolfgang Tauchert}{13}{subsection.3.5}}
\newlabel{spring}{{3.6}{13}{PA Dipl.Inf. Dr. Harald Springorum\label {spring}\relax }{subsection.3.6}{}}
\@writefile{toc}{\contentsline {subsection}{\numberline {3.6}PA Dipl.Inf. Dr. Harald Springorum}{13}{subsection.3.6}}
\newlabel{siemens}{{3.7}{14}{Gespr\"{a}che am Siemens-Stand\label {siemens}\relax }{subsection.3.7}{}}
\@writefile{toc}{\contentsline {subsection}{\numberline {3.7}Gespr\"{a}che am Siemens-Stand}{14}{subsection.3.7}}
\newlabel{firmen}{{3.8}{15}{Gespr\"{a}che an anderen St\"{a}nden\label {firmen}\relax }{subsection.3.8}{}}
\@writefile{toc}{\contentsline {subsection}{\numberline {3.8}Gespr\"{a}che an anderen St\"{a}nden}{15}{subsection.3.8}}
\newlabel{radio}{{3.9}{15}{Radiointerview\label {radio}\relax }{subsection.3.9}{}}
\@writefile{toc}{\contentsline {subsection}{\numberline {3.9}Radiointerview}{15}{subsection.3.9}}
\newlabel{dank}{{4}{15}{Danksagung\label {dank}\relax }{section.4}{}}
\@writefile{toc}{\contentsline {section}{\numberline {4}Danksagung}{15}{section.4}}
