\relax 
\ifx\hyper@anchor\@undefined
\global \let \oldcontentsline\contentsline
\gdef \contentsline#1#2#3#4{\oldcontentsline{#1}{#2}{#3}}
\global \let \oldnewlabel\newlabel
\gdef \newlabel#1#2{\newlabelxx{#1}#2}
\gdef \newlabelxx#1#2#3#4#5#6{\oldnewlabel{#1}{{#2}{#3}}}
\AtEndDocument{\let \contentsline\oldcontentsline
\let \newlabel\oldnewlabel}
\else
\global \let \hyper@last\relax 
\fi

\@writefile{toc}{\contentsline {section}{\numberline {1}Durchgehend am FFII-Stand}{1}{section.1}}
\newlabel{stand}{{1}{1}{Durchgehend am FFII-Stand\relax }{section.1}{}}
\@writefile{toc}{\contentsline {section}{\numberline {2}Vortragsprogramm im Kongresszentrum A Saal 1}{2}{section.2}}
\newlabel{preleg}{{2}{2}{Vortragsprogramm im Kongresszentrum A Saal 1\relax }{section.2}{}}
\@writefile{toc}{\contentsline {subsection}{\numberline {2.1}Tauchert: Softwarepatentierung -- Praxis des Deutschen Patentamts}{2}{subsection.2.1}}
\newlabel{tauchert}{{2.1}{2}{Tauchert: Softwarepatentierung -- Praxis des Deutschen Patentamts\relax }{subsection.2.1}{}}
\@writefile{toc}{\contentsline {subsubsection}{\numberline {2.1.1}Vorbereitende Texte}{2}{subsubsection.2.1.1}}
\newlabel{tauchprep}{{2.1.1}{2}{Vorbereitende Texte\relax }{subsubsection.2.1.1}{}}
\@writefile{toc}{\contentsline {subsubsection}{\numberline {2.1.2}Uhrzeit}{2}{subsubsection.2.1.2}}
\newlabel{tauchtemp}{{2.1.2}{2}{Uhrzeit\relax }{subsubsection.2.1.2}{}}
\@writefile{toc}{\contentsline {subsubsection}{\numberline {2.1.3}Redner}{2}{subsubsection.2.1.3}}
\newlabel{tauchpers}{{2.1.3}{2}{Redner\relax }{subsubsection.2.1.3}{}}
\@writefile{toc}{\contentsline {subsubsection}{\numberline {2.1.4}Inhalt}{2}{subsubsection.2.1.4}}
\newlabel{tauchenhv}{{2.1.4}{2}{Inhalt\relax }{subsubsection.2.1.4}{}}
\@writefile{toc}{\contentsline {subsubsection}{\numberline {2.1.5}Antworten auf Fragen und Einw\"{a}nde}{3}{subsubsection.2.1.5}}
\newlabel{frag}{{2.1.5}{3}{Antworten auf Fragen und Einw\"{a}nde\relax }{subsubsection.2.1.5}{}}
\newlabel{jur}{{2.1.5}{3}{WRiek: D\"{u}rfen ein paar Patentjuristen auf diese Weise Normen grundlegend ver\"{a}ndern? Sind das nicht politische Fragen, die \"{u}ber die Kompetenz der Gerichte und Patent\"{a}mter hinausgehen?\relax }{section*.3}{}}
\@writefile{toc}{\contentsline {paragraph}{WRiek: D\"{u}rfen ein paar Patentjuristen auf diese Weise Normen grundlegend ver\"{a}ndern? Sind das nicht politische Fragen, die \"{u}ber die Kompetenz der Gerichte und Patent\"{a}mter hinausgehen?}{3}{section*.3}}
\newlabel{oek}{{2.1.5}{4}{phm: Ist es wirklich in Ordnung, wenn man Software patentierbar macht, ohne vorher eine systematische Studie der \"{o}konomischen Auswirkungen einer solchen \"{A}nderung zu erstellen?\relax }{section*.4}{}}
\@writefile{toc}{\contentsline {paragraph}{phm: Ist es wirklich in Ordnung, wenn man Software patentierbar macht, ohne vorher eine systematische Studie der \"{o}konomischen Auswirkungen einer solchen \"{A}nderung zu erstellen?}{4}{section*.4}}
\newlabel{raub}{{2.1.5}{4}{Siepmann: K\"{o}nnte man nicht auf gleiche Weise auch argumentieren, ein R\"{a}ubersyndikat sei legitim, da es ja auf dem Markt gesiegt habe und ohne staatliche Zusch\"{u}sse auskomme?\relax }{section*.5}{}}
\@writefile{toc}{\contentsline {paragraph}{Siepmann: K\"{o}nnte man nicht auf gleiche Weise auch argumentieren, ein R\"{a}ubersyndikat sei legitim, da es ja auf dem Markt gesiegt habe und ohne staatliche Zusch\"{u}sse auskomme?}{4}{section*.5}}
\newlabel{pres}{{2.1.5}{4}{phm: Herr Tauchert, Sie sprechen hier sehr grundlegende Wahrheiten aus, die man selten in dieser Deutlichkeit zu h\"{o}ren bekommt. D\"{u}rfen wir das, was Sie gerade gesagt haben, in unserer Presseerkl\"{a}rung zitieren?\relax }{section*.6}{}}
\@writefile{toc}{\contentsline {paragraph}{phm: Herr Tauchert, Sie sprechen hier sehr grundlegende Wahrheiten aus, die man selten in dieser Deutlichkeit zu h\"{o}ren bekommt. D\"{u}rfen wir das, was Sie gerade gesagt haben, in unserer Presseerkl\"{a}rung zitieren?}{4}{section*.6}}
\@writefile{toc}{\contentsline {subsection}{\numberline {2.2}Springorum: Z\"{a}hmung des Patent-Ungeheuers -- Konzept eines Schutzb\"{u}ndisses}{4}{subsection.2.2}}
\newlabel{spring}{{2.2}{4}{Springorum: Z\"{a}hmung des Patent-Ungeheuers -- Konzept eines Schutzb\"{u}ndisses\relax }{subsection.2.2}{}}
\@writefile{toc}{\contentsline {subsubsection}{\numberline {2.2.1}}{4}{subsubsection.2.2.1}}
\newlabel{springpers}{{2.2.1}{4}{\relax }{subsubsection.2.2.1}{}}
\@writefile{toc}{\contentsline {subsubsection}{\numberline {2.2.2}}{4}{subsubsection.2.2.2}}
\newlabel{sprintenhv}{{2.2.2}{4}{\relax }{subsubsection.2.2.2}{}}
