\relax 
\ifx\hyper@anchor\@undefined
\global \let \oldcontentsline\contentsline
\gdef \contentsline#1#2#3#4{\oldcontentsline{#1}{#2}{#3}}
\global \let \oldnewlabel\newlabel
\gdef \newlabel#1#2{\newlabelxx{#1}#2}
\gdef \newlabelxx#1#2#3#4#5#6{\oldnewlabel{#1}{{#2}{#3}}}
\AtEndDocument{\let \contentsline\oldcontentsline
\let \newlabel\oldnewlabel}
\else
\global \let \hyper@last\relax 
\fi

\csname auxWARNINGii\endcsname {\typeout {-34- this file and other auxiliary files require to use the following}}
\csname auxWARNINGii\endcsname {\typeout {-34- LaTeX packages: french and babel!}}
\csname auxWARNINGii\endcsname {\typeout {-34- check \protect \usepackage \space or remove these files. Typesetting is aborted!} \stop }
\select@language{french}
\@writefile{toc}{\select@language{french}}
\@writefile{lof}{\select@language{french}}
\@writefile{lot}{\select@language{french}}
\select@language{french}
\@writefile{toc}{\select@language{french}}
\@writefile{lof}{\select@language{french}}
\@writefile{lot}{\select@language{french}}
\@writefile{toc}{\contentsline {section}{\numberline {1}Notre permanence sur le stand de la FFII}{2}{section.0.1}}
\newlabel{stand}{{1}{2}{Notre permanence sur le stand de la FFII\relax }{section.0.1}{}}
\@writefile{toc}{\contentsline {section}{\numberline {2}Conf\'{e}rence au Centre A des Congr\`{e}s, salle 1 }{2}{section.0.2}}
\newlabel{preleg}{{2}{2}{Conf\'{e}rence au Centre A des Congr\`{e}s, salle 1 \relax }{section.0.2}{}}
\@writefile{toc}{\contentsline {subsection}{\numberline {2.1}Tauchert\@DP  Brevetabilit\'{e} des logiciels -- la pratique de l'Office allemand des Brevets }{2}{subsection.0.2.1}}
\newlabel{tauchert}{{2.1}{2}{Tauchert: Brevetabilit\'{e} des logiciels -- la pratique de l'Office allemand des Brevets \relax }{subsection.0.2.1}{}}
\@writefile{toc}{\contentsline {subsubsection}{\numberline {2.1.1}Textes pr\'{e}paratoires }{2}{subsubsection.0.2.1.1}}
\newlabel{tauchprep}{{2.1.1}{2}{Textes pr\'{e}paratoires \relax }{subsubsection.0.2.1.1}{}}
\@writefile{toc}{\contentsline {subsubsection}{\numberline {2.1.2}Horaire}{2}{subsubsection.0.2.1.2}}
\newlabel{tauchtemp}{{2.1.2}{2}{Horaire\relax }{subsubsection.0.2.1.2}{}}
\@writefile{toc}{\contentsline {subsubsection}{\numberline {2.1.3}Conf\'{e}rencier}{2}{subsubsection.0.2.1.3}}
\newlabel{tauchpers}{{2.1.3}{2}{Conf\'{e}rencier\relax }{subsubsection.0.2.1.3}{}}
\@writefile{toc}{\contentsline {subsubsection}{\numberline {2.1.4}R\'{e}sum\'{e} }{2}{subsubsection.0.2.1.4}}
\newlabel{tauchenhv}{{2.1.4}{2}{R\'{e}sum\'{e} \relax }{subsubsection.0.2.1.4}{}}
\@writefile{toc}{\contentsline {subsubsection}{\numberline {2.1.5}R\'{e}ponses aux questions et aux interventions}{3}{subsubsection.0.2.1.5}}
\newlabel{frag}{{2.1.5}{3}{R\'{e}ponses aux questions et aux interventions\relax }{subsubsection.0.2.1.5}{}}
\newlabel{jur}{{2.1.5}{3}{WRiek: Comment se fait-il qu'une poign\'{e}e de juristes sp\'{e}cialistes des brevets puisse changer aussi fondamentalement les normes ? Ne seraient-ce pas l\`{a} des questions politiques qui d\'{e}passent les comp\'{e}tences des tribunaux et administrations ?\relax }{section*.3}{}}
\@writefile{toc}{\contentsline {paragraph}{WRiek\@DP  Comment se fait-il qu'une poign\'{e}e de juristes sp\'{e}cialistes des brevets puisse changer aussi fondamentalement les normes \@PI  Ne seraient-ce pas l\`{a} des questions politiques qui d\'{e}passent les comp\'{e}tences des tribunaux et administrations \@PI }{4}{section*.3}}
\newlabel{oek}{{2.1.5}{4}{phm: Est-ce vraiment une bonne chose de rendre les logiciels brevetables sans avoir r\'{e}alis\'{e} auparavant une \'{e}tude syt\'{e}matique des effets \'{e}conomiques d'une telle modification ?\relax }{section*.4}{}}
\@writefile{toc}{\contentsline {paragraph}{phm\@DP  Est-ce vraiment une bonne chose de rendre les logiciels brevetables sans avoir r\'{e}alis\'{e} auparavant une \'{e}tude syt\'{e}matique des effets \'{e}conomiques d'une telle modification \@PI }{4}{section*.4}}
\newlabel{raub}{{2.1.5}{4}{Siepmann: Ne pourrait-on pas, avec les m\^{e}mes arguments, l\'{e}gitimer un syndicat de voleurs, qui aurait gagn\'{e} sa place sur le march\'{e} sans la moindre subvention ? \relax }{section*.5}{}}
\@writefile{toc}{\contentsline {paragraph}{Siepmann\@DP  Ne pourrait-on pas, avec les m\^{e}mes arguments, l\'{e}gitimer un syndicat de voleurs, qui aurait gagn\'{e} sa place sur le march\'{e} sans la moindre subvention \@PI  }{4}{section*.5}}
\newlabel{pres}{{2.1.5}{4}{phm: Monsieur Tauchert, vous \'{e}noncez ici des v\'{e}rit\'{e}s essentielles que l'on a rarement l'occasion d'entendre aussi explicitement. Nous autorisez-vous \`{a} citer ce que vous venez de dire dans nos communiqu\'{e}s de presse ?\relax }{section*.6}{}}
\@writefile{toc}{\contentsline {paragraph}{phm\@DP  Monsieur Tauchert, vous \'{e}noncez ici des v\'{e}rit\'{e}s essentielles que l'on a rarement l'occasion d'entendre aussi explicitement. Nous autorisez-vous \`{a} citer ce que vous venez de dire dans nos communiqu\'{e}s de presse \@PI }{4}{section*.6}}
\@writefile{toc}{\contentsline {subsection}{\numberline {2.2}Springorum\@DP  Apprivoiser le ``monstre'' \@DP  les brevets -- L'id\'{e}e d'un consortium de protection}{4}{subsection.0.2.2}}
\newlabel{spring}{{2.2}{4}{Springorum: Apprivoiser le ``monstre'' : les brevets -- L'id\'{e}e d'un consortium de protection\relax }{subsection.0.2.2}{}}
\@writefile{toc}{\contentsline {subsubsection}{\numberline {2.2.1}}{4}{subsubsection.0.2.2.1}}
\newlabel{springpers}{{2.2.1}{4}{\relax }{subsubsection.0.2.2.1}{}}
\@writefile{toc}{\contentsline {subsubsection}{\numberline {2.2.2}}{4}{subsubsection.0.2.2.2}}
\newlabel{sprintenhv}{{2.2.2}{4}{\relax }{subsubsection.0.2.2.2}{}}
\@writefile{toc}{\contentsline {subsubsection}{\numberline {2.2.3}}{5}{subsubsection.0.2.2.3}}
\newlabel{springfrag}{{2.2.3}{5}{\relax }{subsubsection.0.2.2.3}{}}
\newlabel{restr}{{2.2.3}{5}{Les juristes commettent souvent l'erreur de sur\'{e}valuer le pouvoir d'exclusion des licences restrictives publiques (les licences de ``copyleft`` telles que la GPL de GNU). Ces licences n'ont qu'une tr\`{e}s petite valeur de protection. D\`{e}s qu'un composant de programme a \'{e}t\'{e} impl\'{e}ment\'{e} dans un logiciel sous GPL, il devient impossible d'emp\^{e}cher qui que ce soit de l'utiliser. \relax }{section*.7}{}}
\@writefile{toc}{\contentsline {paragraph}{Les juristes commettent souvent l'erreur de sur\'{e}valuer le pouvoir d'exclusion des licences restrictives publiques (les licences de ``copyleft`` telles que la GPL de GNU). Ces licences n'ont qu'une tr\`{e}s petite valeur de protection. D\`{e}s qu'un composant de programme a \'{e}t\'{e} impl\'{e}ment\'{e} dans un logiciel sous GPL, il devient impossible d'emp\^{e}cher qui que ce soit de l'utiliser. }{5}{section*.7}}
\newlabel{modul}{{2.2.3}{5}{Apparemment nous serions en train de cr\'{e}er une nouvelle licence ouverte g\'{e}n\'{e}rale qui permettrait \`{a} un groupement de soci\'{e}t\'{e}s anonymes de se servir de la G.P.L. comme d'une arme. Mais cette arme serait encore bien \'{e}mouss\'{e}e. En effet, les logiciels libres sont ouvertement disponibles sur l'Internet. Tout le monde peut les utiliser, que ce soit ou non de mani\`{e}re l\'{e}gale. Si nous interdisions \`{a} Microsoft d'utiliser tel composant, il suffirait \`{a} cette entreprise d'\'{e}crire son programme de mani\`{e}re que pour le composant en question un module sous GPL (par exemple avec Corba) puisse \^{e}tre t\'{e}l\'{e}charg\'{e} sur l'Internet. \relax }{section*.8}{}}
\@writefile{toc}{\contentsline {paragraph}{Apparemment nous serions en train de cr\'{e}er une nouvelle licence ouverte g\'{e}n\'{e}rale qui permettrait \`{a} un groupement de soci\'{e}t\'{e}s anonymes de se servir de la G.P.L. comme d'une arme. Mais cette arme serait encore bien \'{e}mouss\'{e}e. En effet, les logiciels libres sont ouvertement disponibles sur l'Internet. Tout le monde peut les utiliser, que ce soit ou non de mani\`{e}re l\'{e}gale. Si nous interdisions \`{a} Microsoft d'utiliser tel composant, il suffirait \`{a} cette entreprise d'\'{e}crire son programme de mani\`{e}re que pour le composant en question un module sous GPL (par exemple avec Corba) puisse \^{e}tre t\'{e}l\'{e}charg\'{e} sur l'Internet. }{5}{section*.8}}
