\relax 
\ifx\hyper@anchor\@undefined
\global \let \oldcontentsline\contentsline
\gdef \contentsline#1#2#3#4{\oldcontentsline{#1}{#2}{#3}}
\global \let \oldnewlabel\newlabel
\gdef \newlabel#1#2{\newlabelxx{#1}#2}
\gdef \newlabelxx#1#2#3#4#5#6{\oldnewlabel{#1}{{#2}{#3}}}
\AtEndDocument{\let \contentsline\oldcontentsline
\let \newlabel\oldnewlabel}
\else
\global \let \hyper@last\relax 
\fi

\@writefile{toc}{\contentsline {section}{\numberline {1}Questions about EPO policy on Art 52 EPC}{1}{section.1}}
\newlabel{preti}{{1}{1}{Questions about EPO policy on Art 52 EPC\relax }{section.1}{}}
\@writefile{toc}{\contentsline {section}{\numberline {2}Questions about CEC-Proposal for Quality Control Division}{2}{section.2}}
\newlabel{kvalit}{{2}{2}{Questions about CEC-Proposal for Quality Control Division\relax }{section.2}{}}
