\relax 
\ifx\hyper@anchor\@undefined
\global \let \oldcontentsline\contentsline
\gdef \contentsline#1#2#3#4{\oldcontentsline{#1}{#2}{#3}}
\global \let \oldnewlabel\newlabel
\gdef \newlabel#1#2{\newlabelxx{#1}#2}
\gdef \newlabelxx#1#2#3#4#5#6{\oldnewlabel{#1}{{#2}{#3}}}
\AtEndDocument{\let \contentsline\oldcontentsline
\let \newlabel\oldnewlabel}
\else
\global \let \hyper@last\relax 
\fi

\newlabel{hist}{{1}{2}{Historisches\label {hist}\relax }{section.1}{}}
\@writefile{toc}{\contentsline {section}{\numberline {1}Historisches}{2}{section.1}}
\newlabel{tech}{{2}{3}{Die technische Erfindung\label {tech}\relax }{section.2}{}}
\@writefile{toc}{\contentsline {section}{\numberline {2}Die technische Erfindung}{3}{section.2}}
\newlabel{elem}{{2.1}{4}{Die Lehre zum technischen Handeln und ihre Elemente\label {elem}\relax }{subsection.2.1}{}}
\@writefile{toc}{\contentsline {subsection}{\numberline {2.1}Die Lehre zum technischen Handeln und ihre Elemente}{4}{subsection.2.1}}
\newlabel{vers}{{2.2}{5}{Die Regeln f\"{u}r verstandesm\"{a}\ss {}ige T\"{a}tigkeit\label {vers}\relax }{subsection.2.2}{}}
\@writefile{toc}{\contentsline {subsection}{\numberline {2.2}Die Regeln f\"{u}r verstandesm\"{a}\ss {}ige T\"{a}tigkeit}{5}{subsection.2.2}}
\newlabel{fert}{{2.3}{7}{``Fertige'' Lehre und Unmittelbarkeitsgrundsatz\label {fert}\relax }{subsection.2.3}{}}
\@writefile{toc}{\contentsline {subsection}{\numberline {2.3}``Fertige'' Lehre und Unmittelbarkeitsgrundsatz}{7}{subsection.2.3}}
\newlabel{test}{{2.4}{8}{Pr\"{u}fungsmethode\label {test}\relax }{subsection.2.4}{}}
\@writefile{toc}{\contentsline {subsection}{\numberline {2.4}Pr\"{u}fungsmethode}{8}{subsection.2.4}}
\newlabel{info}{{3}{9}{Informatik und Patentrecht\label {info}\relax }{section.3}{}}
\@writefile{toc}{\contentsline {section}{\numberline {3}Informatik und Patentrecht}{9}{section.3}}
\newlabel{disp}{{3.1}{9}{Die Dispositionsprogramm-Entscheidung und ihre patentrechtliche W\"{u}rdigung\label {disp}\relax }{subsection.3.1}{}}
\@writefile{toc}{\contentsline {subsection}{\numberline {3.1}Die Dispositionsprogramm-Entscheidung und ihre patentrechtliche W\"{u}rdigung}{9}{subsection.3.1}}
\newlabel{gebr}{{3.1.1}{10}{Die Gebrauchsanweisungen\label {gebr}\relax }{subsubsection.3.1.1}{}}
\@writefile{toc}{\contentsline {subsubsection}{\numberline {3.1.1}Die Gebrauchsanweisungen}{10}{subsubsection.3.1.1}}
\newlabel{circ}{{3.1.2}{10}{Das Verh\"{a}ltnis von Programm und maschineller Schaltung\label {circ}\relax }{subsubsection.3.1.2}{}}
\@writefile{toc}{\contentsline {subsubsection}{\numberline {3.1.2}Das Verh\"{a}ltnis von Programm und maschineller Schaltung}{10}{subsubsection.3.1.2}}
\newlabel{noch}{{3.2}{11}{Patentschutz f\"{u}r Software: Bleibt noch ein Weg?\label {noch}\relax }{subsection.3.2}{}}
\@writefile{toc}{\contentsline {subsection}{\numberline {3.2}Patentschutz f\"{u}r Software: Bleibt noch ein Weg?}{11}{subsection.3.2}}
\newlabel{algo}{{3.2.1}{11}{Algorithmen\label {algo}\relax }{subsubsection.3.2.1}{}}
\@writefile{toc}{\contentsline {subsubsection}{\numberline {3.2.1}Algorithmen}{11}{subsubsection.3.2.1}}
\newlabel{prog}{{3.2.2}{13}{Computerprogramme\label {prog}\relax }{subsubsection.3.2.2}{}}
\@writefile{toc}{\contentsline {subsubsection}{\numberline {3.2.2}Computerprogramme}{13}{subsubsection.3.2.2}}
\newlabel{sign}{{4}{16}{Die Bedeutung der Entscheidung f\"{u}r das k\"{u}nftige Patentrecht\label {sign}\relax }{section.4}{}}
\@writefile{toc}{\contentsline {section}{\numberline {4}Die Bedeutung der Entscheidung f\"{u}r das k\"{u}nftige Patentrecht}{16}{section.4}}
\newlabel{resu}{{5}{16}{Ergebnis und Ausblick\label {resu}\relax }{section.5}{}}
\@writefile{toc}{\contentsline {section}{\numberline {5}Ergebnis und Ausblick}{16}{section.5}}
