\relax 
\ifx\hyper@anchor\@undefined
\global \let \oldcontentsline\contentsline
\gdef \contentsline#1#2#3#4{\oldcontentsline{#1}{#2}{#3}}
\global \let \oldnewlabel\newlabel
\gdef \newlabel#1#2{\newlabelxx{#1}#2}
\gdef \newlabelxx#1#2#3#4#5#6{\oldnewlabel{#1}{{#2}{#3}}}
\AtEndDocument{\let \contentsline\oldcontentsline
\let \newlabel\oldnewlabel}
\else
\global \let \hyper@last\relax 
\fi

\@writefile{toc}{\contentsline {section}{\numberline {1}Historisches}{2}{section.1}}
\newlabel{hist}{{1}{2}{Historisches\relax }{section.1}{}}
\@writefile{toc}{\contentsline {section}{\numberline {2}Die technische Erfindung}{3}{section.2}}
\newlabel{tech}{{2}{3}{Die technische Erfindung\relax }{section.2}{}}
\@writefile{toc}{\contentsline {subsection}{\numberline {2.1}Die Lehre zum technischen Handeln und ihre Elemente}{4}{subsection.2.1}}
\newlabel{elem}{{2.1}{4}{Die Lehre zum technischen Handeln und ihre Elemente\relax }{subsection.2.1}{}}
\@writefile{toc}{\contentsline {subsection}{\numberline {2.2}Die Regeln f\"{u}r verstandesm\"{a}{\ss }ige T\"{a}tigkeit}{5}{subsection.2.2}}
\newlabel{vers}{{2.2}{5}{Die Regeln f\"{u}r verstandesm\"{a}{\ss }ige T\"{a}tigkeit\relax }{subsection.2.2}{}}
\@writefile{toc}{\contentsline {subsection}{\numberline {2.3}``Fertige'' Lehre und Unmittelbarkeitsgrundsatz}{7}{subsection.2.3}}
\newlabel{fert}{{2.3}{7}{``Fertige'' Lehre und Unmittelbarkeitsgrundsatz\relax }{subsection.2.3}{}}
\@writefile{toc}{\contentsline {subsection}{\numberline {2.4}Pr\"{u}fungsmethode}{8}{subsection.2.4}}
\newlabel{test}{{2.4}{8}{Pr\"{u}fungsmethode\relax }{subsection.2.4}{}}
\@writefile{toc}{\contentsline {section}{\numberline {3}Informatik und Patentrecht}{9}{section.3}}
\newlabel{info}{{3}{9}{Informatik und Patentrecht\relax }{section.3}{}}
\@writefile{toc}{\contentsline {subsection}{\numberline {3.1}Die Dispositionsprogramm-Entscheidung und ihre patentrechtliche W\"{u}rdigung}{9}{subsection.3.1}}
\newlabel{disp}{{3.1}{9}{Die Dispositionsprogramm-Entscheidung und ihre patentrechtliche W\"{u}rdigung\relax }{subsection.3.1}{}}
\@writefile{toc}{\contentsline {subsubsection}{\numberline {3.1.1}Das Verh\"{a}ltnis von Programm und maschineller Schaltung}{10}{subsubsection.3.1.1}}
\newlabel{circ}{{3.1.1}{10}{Das Verh\"{a}ltnis von Programm und maschineller Schaltung\relax }{subsubsection.3.1.1}{}}
\@writefile{toc}{\contentsline {subsection}{\numberline {3.2}Patentschutz f\"{u}r Software: Bleibt noch ein Weg?}{11}{subsection.3.2}}
\newlabel{noch}{{3.2}{11}{Patentschutz f\"{u}r Software: Bleibt noch ein Weg?\relax }{subsection.3.2}{}}
\@writefile{toc}{\contentsline {subsubsection}{\numberline {3.2.1}Algorithmen}{12}{subsubsection.3.2.1}}
\newlabel{algo}{{3.2.1}{12}{Algorithmen\relax }{subsubsection.3.2.1}{}}
\@writefile{toc}{\contentsline {subsubsection}{\numberline {3.2.2}Computerprogramme}{13}{subsubsection.3.2.2}}
\newlabel{prog}{{3.2.2}{13}{Computerprogramme\relax }{subsubsection.3.2.2}{}}
\@writefile{toc}{\contentsline {section}{\numberline {4}Ergebnis und Ausblick}{16}{section.4}}
\newlabel{resu}{{4}{16}{Ergebnis und Ausblick\relax }{section.4}{}}
\gdef\scr@tpo@lst{0}
