\relax 
\ifx\hyper@anchor\@undefined
\global \let \oldcontentsline\contentsline
\gdef \contentsline#1#2#3#4{\oldcontentsline{#1}{#2}{#3}}
\global \let \oldnewlabel\newlabel
\gdef \newlabel#1#2{\newlabelxx{#1}#2}
\gdef \newlabelxx#1#2#3#4#5#6{\oldnewlabel{#1}{{#2}{#3}}}
\AtEndDocument{\let \contentsline\oldcontentsline
\let \newlabel\oldnewlabel}
\else
\global \let \hyper@last\relax 
\fi

\@writefile{toc}{\contentsline {section}{\numberline {1}The Conference}{1}{section.1}}
\newlabel{konf}{{1}{1}{The Conference\relax }{section.1}{}}
\@writefile{toc}{\contentsline {section}{\numberline {2}Priorities according to Hartmut Pilch}{1}{section.2}}
\newlabel{probl}{{2}{1}{Priorities according to Hartmut Pilch\relax }{section.2}{}}
\@writefile{toc}{\contentsline {section}{\numberline {3}Relevant Work, Background Documents}{2}{section.3}}
\newlabel{etc}{{3}{2}{Relevant Work, Background Documents\relax }{section.3}{}}
