\contentsline {section}{\numberline {1}The Conference}{1}{section.1}
\contentsline {section}{\numberline {2}Priorities according to Hartmut Pilch}{1}{section.2}
\contentsline {section}{\numberline {3}Relevant Work, Background Documents}{2}{section.3}
