\BOOKMARK [1][-]{section.1}{Previous Papers}{}
\BOOKMARK [1][-]{section.2}{Outline of the Berlin Presentation}{}
\BOOKMARK [2][-]{subsection.2.1}{Whom do swpatents help? Which economic behaviors do they encourage?}{section.2}
\BOOKMARK [2][-]{subsection.2.2}{Whom do SWPatents hurt? What kind of behaviors do they discourage?}{section.2}
\BOOKMARK [3][-]{subsubsection.2.2.1}{New Entrants}{subsection.2.2}
\BOOKMARK [3][-]{subsubsection.2.2.2}{Stock Market Investors}{subsection.2.2}
\BOOKMARK [3][-]{subsubsection.2.2.3}{Extorsion Victims}{subsection.2.2}
\BOOKMARK [3][-]{subsubsection.2.2.4}{Owners of understimated patents}{subsection.2.2}
\BOOKMARK [3][-]{subsubsection.2.2.5}{Companies that experience delays}{subsection.2.2}
\BOOKMARK [3][-]{subsubsection.2.2.6}{Startups in patent-mined areas}{subsection.2.2}
\BOOKMARK [2][-]{subsection.2.3}{Are the Patent Offices properly equipped to do their job?}{section.2}
\BOOKMARK [2][-]{subsection.2.4}{Are the Europeans missing Chances?}{section.2}
