\relax 
\ifx\hyper@anchor\@undefined
\global \let \oldcontentsline\contentsline
\gdef \contentsline#1#2#3#4{\oldcontentsline{#1}{#2}{#3}}
\global \let \oldnewlabel\newlabel
\gdef \newlabel#1#2{\newlabelxx{#1}#2}
\gdef \newlabelxx#1#2#3#4#5#6{\oldnewlabel{#1}{{#2}{#3}}}
\AtEndDocument{\let \contentsline\oldcontentsline
\let \newlabel\oldnewlabel}
\else
\global \let \hyper@last\relax 
\fi

\@writefile{toc}{\contentsline {section}{\numberline {1}Fr\"{u}here Artikel}{1}{section.1}}
\newlabel{purci}{{1}{1}{Fr\"{u}here Artikel\relax }{section.1}{}}
\@writefile{toc}{\contentsline {section}{\numberline {2}Ger\"{u}st des Berliner Vortrags}{2}{section.2}}
\newlabel{velgaz}{{2}{2}{Ger\"{u}st des Berliner Vortrags\relax }{section.2}{}}
\@writefile{toc}{\contentsline {subsection}{\numberline {2.1}Wem n\"{u}tzen die SWPatente? Was f\"{o}rdern sie?}{2}{subsection.2.1}}
\newlabel{util}{{2.1}{2}{Wem n\"{u}tzen die SWPatente? Was f\"{o}rdern sie?\relax }{subsection.2.1}{}}
\@writefile{toc}{\contentsline {subsection}{\numberline {2.2}Wem schaden die SWPatente? Was hemmen sie?}{2}{subsection.2.2}}
\newlabel{neutil}{{2.2}{2}{Wem schaden die SWPatente? Was hemmen sie?\relax }{subsection.2.2}{}}
\@writefile{toc}{\contentsline {subsubsection}{\numberline {2.2.1}Neuland betretende Firmen}{2}{subsubsection.2.2.1}}
\newlabel{newent}{{2.2.1}{2}{Neuland betretende Firmen\relax }{subsubsection.2.2.1}{}}
\@writefile{toc}{\contentsline {subsubsection}{\numberline {2.2.2}Aktion\"{a}re}{3}{subsubsection.2.2.2}}
\newlabel{investors}{{2.2.2}{3}{Aktion\"{a}re\relax }{subsubsection.2.2.2}{}}
\@writefile{toc}{\contentsline {subsubsection}{\numberline {2.2.3}Opfer von Schutzgelderpressungen}{3}{subsubsection.2.2.3}}
\newlabel{extort}{{2.2.3}{3}{Opfer von Schutzgelderpressungen\relax }{subsubsection.2.2.3}{}}
\@writefile{toc}{\contentsline {subsubsection}{\numberline {2.2.4}Inhaber untersch\"{a}tzter Patente}{3}{subsubsection.2.2.4}}
\newlabel{inflat}{{2.2.4}{3}{Inhaber untersch\"{a}tzter Patente\relax }{subsubsection.2.2.4}{}}
\@writefile{toc}{\contentsline {subsubsection}{\numberline {2.2.5}Flinke Unternehmer, deren Arbeit verz\"{o}gert wird}{3}{subsubsection.2.2.5}}
\newlabel{delay}{{2.2.5}{3}{Flinke Unternehmer, deren Arbeit verz\"{o}gert wird\relax }{subsubsection.2.2.5}{}}
\@writefile{toc}{\contentsline {subsubsection}{\numberline {2.2.6}Neugr\"{u}ndungen in patentvermintem Gel\"{a}nde}{4}{subsubsection.2.2.6}}
\newlabel{startup}{{2.2.6}{4}{Neugr\"{u}ndungen in patentvermintem Gel\"{a}nde\relax }{subsubsection.2.2.6}{}}
\@writefile{toc}{\contentsline {subsection}{\numberline {2.3}Sind die Patent\"{a}mter ihren Aufgaben gewachsen?}{4}{subsection.2.3}}
\newlabel{srch}{{2.3}{4}{Sind die Patent\"{a}mter ihren Aufgaben gewachsen?\relax }{subsection.2.3}{}}
\@writefile{toc}{\contentsline {subsection}{\numberline {2.4}Verpassen die Europ\"{a}er Chancen?}{5}{subsection.2.4}}
\newlabel{entp}{{2.4}{5}{Verpassen die Europ\"{a}er Chancen?\relax }{subsection.2.4}{}}
