\relax 
\ifx\hyper@anchor\@undefined
\global \let \oldcontentsline\contentsline
\gdef \contentsline#1#2#3#4{\oldcontentsline{#1}{#2}{#3}}
\global \let \oldnewlabel\newlabel
\gdef \newlabel#1#2{\newlabelxx{#1}#2}
\gdef \newlabelxx#1#2#3#4#5#6{\oldnewlabel{#1}{{#2}{#3}}}
\AtEndDocument{\let \contentsline\oldcontentsline
\let \newlabel\oldnewlabel}
\else
\global \let \hyper@last\relax 
\fi

\@writefile{toc}{\contentsline {section}{\numberline {1}Previous Papers}{1}{section.1}}
\newlabel{purci}{{1}{1}{Previous Papers\relax }{section.1}{}}
\@writefile{toc}{\contentsline {section}{\numberline {2}Outline of the Berlin Presentation}{2}{section.2}}
\newlabel{velgaz}{{2}{2}{Outline of the Berlin Presentation\relax }{section.2}{}}
\@writefile{toc}{\contentsline {subsection}{\numberline {2.1}Whom do swpatents help? Which economic behaviors do they encourage?}{2}{subsection.2.1}}
\newlabel{util}{{2.1}{2}{Whom do swpatents help? Which economic behaviors do they encourage?\relax }{subsection.2.1}{}}
\@writefile{toc}{\contentsline {subsection}{\numberline {2.2}Whom do SWPatents hurt? What kind of behaviors do they discourage?}{2}{subsection.2.2}}
\newlabel{neutil}{{2.2}{2}{Whom do SWPatents hurt? What kind of behaviors do they discourage?\relax }{subsection.2.2}{}}
\@writefile{toc}{\contentsline {subsubsection}{\numberline {2.2.1}New Entrants}{2}{subsubsection.2.2.1}}
\newlabel{newent}{{2.2.1}{2}{New Entrants\relax }{subsubsection.2.2.1}{}}
\@writefile{toc}{\contentsline {subsubsection}{\numberline {2.2.2}Stock Market Investors}{3}{subsubsection.2.2.2}}
\newlabel{investors}{{2.2.2}{3}{Stock Market Investors\relax }{subsubsection.2.2.2}{}}
\@writefile{toc}{\contentsline {subsubsection}{\numberline {2.2.3}Extorsion Victims}{3}{subsubsection.2.2.3}}
\newlabel{extort}{{2.2.3}{3}{Extorsion Victims\relax }{subsubsection.2.2.3}{}}
\@writefile{toc}{\contentsline {subsubsection}{\numberline {2.2.4}Owners of understimated patents}{3}{subsubsection.2.2.4}}
\newlabel{inflat}{{2.2.4}{3}{Owners of understimated patents\relax }{subsubsection.2.2.4}{}}
\@writefile{toc}{\contentsline {subsubsection}{\numberline {2.2.5}Companies that experience delays}{3}{subsubsection.2.2.5}}
\newlabel{delay}{{2.2.5}{3}{Companies that experience delays\relax }{subsubsection.2.2.5}{}}
\@writefile{toc}{\contentsline {subsubsection}{\numberline {2.2.6}Startups in patent-mined areas}{4}{subsubsection.2.2.6}}
\newlabel{startup}{{2.2.6}{4}{Startups in patent-mined areas\relax }{subsubsection.2.2.6}{}}
\@writefile{toc}{\contentsline {subsection}{\numberline {2.3}Are the Patent Offices properly equipped to do their job?}{4}{subsection.2.3}}
\newlabel{srch}{{2.3}{4}{Are the Patent Offices properly equipped to do their job?\relax }{subsection.2.3}{}}
\@writefile{toc}{\contentsline {subsection}{\numberline {2.4}Are the Europeans missing Chances?}{5}{subsection.2.4}}
\newlabel{entp}{{2.4}{5}{Are the Europeans missing Chances?\relax }{subsection.2.4}{}}
