\relax 
\ifx\hyper@anchor\@undefined
\global \let \oldcontentsline\contentsline
\gdef \contentsline#1#2#3#4{\oldcontentsline{#1}{#2}{#3}}
\global \let \oldnewlabel\newlabel
\gdef \newlabel#1#2{\newlabelxx{#1}#2}
\gdef \newlabelxx#1#2#3#4#5#6{\oldnewlabel{#1}{{#2}{#3}}}
\AtEndDocument{\let \contentsline\oldcontentsline
\let \newlabel\oldnewlabel}
\else
\global \let \hyper@last\relax 
\fi

\@writefile{toc}{\contentsline {subsection}{\numberline {0.1}Ausgleich von Unzul\"{a}nglichkeiten des propriet\"{a}ren Modells}{1}{subsection.0.1}}
\newlabel{open}{{0.1}{1}{Ausgleich von Unzul\"{a}nglichkeiten des propriet\"{a}ren Modells\relax }{subsection.0.1}{}}
\@writefile{toc}{\contentsline {subsection}{\numberline {0.2}Zug\"{a}nglichkeit von Infrastrukturen und \"{o}ffentliche Sicherheit}{3}{subsection.0.2}}
\newlabel{seku}{{0.2}{3}{Zug\"{a}nglichkeit von Infrastrukturen und \"{o}ffentliche Sicherheit\relax }{subsection.0.2}{}}
\@writefile{toc}{\contentsline {subsection}{\numberline {0.3}Direkte und indirekte Wirkungen auf Bildung und Besch\"{a}ftigung}{3}{subsection.0.3}}
\newlabel{okup}{{0.3}{3}{Direkte und indirekte Wirkungen auf Bildung und Besch\"{a}ftigung\relax }{subsection.0.3}{}}
