\relax 
\ifx\hyper@anchor\@undefined
\global \let \oldcontentsline\contentsline
\gdef \contentsline#1#2#3#4{\oldcontentsline{#1}{#2}{#3}}
\global \let \oldnewlabel\newlabel
\gdef \newlabel#1#2{\newlabelxx{#1}#2}
\gdef \newlabelxx#1#2#3#4#5#6{\oldnewlabel{#1}{{#2}{#3}}}
\AtEndDocument{\let \contentsline\oldcontentsline
\let \newlabel\oldnewlabel}
\else
\global \let \hyper@last\relax 
\fi

\@writefile{toc}{\contentsline {subsection}{\numberline {0.1}Making up for Insufficiencies of the Proprietary Mode of Production}{1}{subsection.0.1}}
\newlabel{open}{{0.1}{1}{Making up for Insufficiencies of the Proprietary Mode of Production\relax }{subsection.0.1}{}}
\@writefile{toc}{\contentsline {subsection}{\numberline {0.2}Accessibility of Infrastructure and Public Security}{3}{subsection.0.2}}
\newlabel{seku}{{0.2}{3}{Accessibility of Infrastructure and Public Security\relax }{subsection.0.2}{}}
\@writefile{toc}{\contentsline {subsection}{\numberline {0.3}Direct and Indirect Effects on Education and Employment}{4}{subsection.0.3}}
\newlabel{okup}{{0.3}{4}{Direct and Indirect Effects on Education and Employment\relax }{subsection.0.3}{}}
