\contentsline {subsection}{\numberline {0.1}Ausgleich von Unzul\"{a}nglichkeiten des propriet\"{a}ren Modells}{1}{subsection.0.1}
\contentsline {subsection}{\numberline {0.2}Zug\"{a}nglichkeit von Infrastrukturen und \"{o}ffentliche Sicherheit}{3}{subsection.0.2}
\contentsline {subsection}{\numberline {0.3}Direkte und indirekte Wirkungen auf Bildung und Besch\"{a}ftigung}{3}{subsection.0.3}
