\contentsline {subsection}{\numberline {0.1}Making up for Insufficiencies of the Proprietary Mode of Production}{1}{subsection.0.1}
\contentsline {subsection}{\numberline {0.2}Accessibility of Infrastructure and Public Security}{3}{subsection.0.2}
\contentsline {subsection}{\numberline {0.3}Direct and Indirect Effects on Education and Employment}{4}{subsection.0.3}
