\relax 
\ifx\hyper@anchor\@undefined
\global \let \oldcontentsline\contentsline
\gdef \contentsline#1#2#3#4{\oldcontentsline{#1}{#2}{#3}}
\global \let \oldnewlabel\newlabel
\gdef \newlabel#1#2{\newlabelxx{#1}#2}
\gdef \newlabelxx#1#2#3#4#5#6{\oldnewlabel{#1}{{#2}{#3}}}
\AtEndDocument{\let \contentsline\oldcontentsline
\let \newlabel\oldnewlabel}
\else
\global \let \hyper@last\relax 
\fi

\@writefile{toc}{\contentsline {section}{\numberline {1}Allgemeine Grundlagen und Ausgangslage}{2}{section.1}}
\newlabel{allg}{{1}{2}{Allgemeine Grundlagen und Ausgangslage\relax }{section.1}{}}
\@writefile{toc}{\contentsline {section}{\numberline {2}Wie wird Patentschutz im allgemeinen begr\"{u}ndet?}{2}{section.2}}
\newlabel{begr}{{2}{2}{Wie wird Patentschutz im allgemeinen begr\"{u}ndet?\relax }{section.2}{}}
\@writefile{toc}{\contentsline {section}{\numberline {3}Welche Schutzrechte gibt es f\"{u}r Software und welche Wirkungen haben sie?}{3}{section.3}}
\newlabel{rajt}{{3}{3}{Welche Schutzrechte gibt es f\"{u}r Software und welche Wirkungen haben sie?\relax }{section.3}{}}
\@writefile{toc}{\contentsline {section}{\numberline {4}Was unterscheidet Software von anderen Erfindungen?}{3}{section.4}}
\newlabel{diff}{{4}{3}{Was unterscheidet Software von anderen Erfindungen?\relax }{section.4}{}}
\@writefile{toc}{\contentsline {section}{\numberline {5}Unterscheiden sich Softwarepatente von Patenten f\"{u}r Gesch\"{a}ftsideen, Algorithmen und Dateiformaten und wenn ja, wie?}{3}{section.5}}
\newlabel{ptyp}{{5}{3}{Unterscheiden sich Softwarepatente von Patenten f\"{u}r Gesch\"{a}ftsideen, Algorithmen und Dateiformaten und wenn ja, wie?\relax }{section.5}{}}
