# -*- coding: utf-8 -*-

 person  |                       hname                        |                  tel                   |                                          adr                                          
---------+----------------------------------------------------+----------------------------------------+---------------------------------------------------------------------------------------
 brouw   | Oude Brouwereij Keyser Carel                       | +32-16221481, gsm +32477268977         | BE 3000 Leuven / Lei 15
 corantw | Corinthia Antwerp Hotel (NV Hotel Diamant Antwerp) | Tel: +32 3 2448211, Fax: +32 3 2164712 | BE-2018 Antwerpen / Desguinlei 94 / Corinthia Antwerp Hotel (NV Hotel Diamant Antwerp
 f1leuv  | Formule 1 Leuven                                   |                                        | Leuven DeVunt (Autoroute Louvain-Hasselt E 314 sortie/uitgang/exit nr 20)
 novotel | Novotel Wavre BXL Est                              | +32-10-411922                          | BE 1301 [ Bruxelles Est ] Wavre / Rue de la Wastinne 45 / Novotel Wavre
