# -*- coding: utf-8 -*-

  person  | day | beds |  hotel   | sex | nat |                  pname                   
----------+-----+------+----------+-----+-----+------------------------------------------
 afuchs   |   7 |    3 | f1leuv   | m   | de  | Alexander Fuchs
 agernler |   6 |    4 | f1leuven | m   | de  | Alexander Gernler
 apeters  |   6 |    3 | f1leuv   | m   | nl  | Arno W. Peters
 apeters  |   7 |    3 | f1leuv   | m   | nl  | Arno W. Peters
 arebenti |   7 |    3 | f1leuv   | m   | de  | Andre Rebentisch
 basdoek  |   7 |    2 | corantw  | m   | nl  | Bas Doeksen
 brunge   |   6 |    2 | corantw  | m   | de  | Bernhard Runge
 carvalh  |   6 |    2 | corantw  | m   | pt  | Joaquim Manuel da Paz Duarte de Carvalho
 carvalh  |   7 |    2 | corantw  | m   | pt  | Joaquim Manuel da Paz Duarte de Carvalho
 carvalh  |   8 |    2 | corantw  | m   | pt  | Joaquim Manuel da Paz Duarte de Carvalho
 ciaran   |   7 |    2 | novotel  | m   | ie  | Ciaran O'Riordan
 ciaran   |   8 |    2 | novotel  | m   | ie  | Ciaran O'Riordan
 dewar    |   7 |    1 | novotel  | m   | uk  | Robert Dewar
 eherdt   |   7 |    3 | f1leuv   | m   | de  | Elias Herdt
 erikj    |   7 |    2 | novotel  | m   | se  | Erik Josefsson
 erikj    |   8 |    2 | novotel  | m   | se  | Erik Josefsson
 frapot   |   7 |    2 | novotel  | m   | it  | Francesco Potorti
 frapot   |   8 |    2 | novotel  | m   | it  | Francesco Potorti
 frfrig   |   7 |    2 | novotel  | m   | es  | Francesc Roma Frigole
 frfrig   |   8 |    2 | novotel  | m   | es  | Francesc Roma Frigole
 gibock   |   7 |    2 | f1leuv   | m   | de  | Guido Bockamp
 halber   |   6 |    2 | corantw  | m   | pl  | Jozef Halbersztadt
 halber   |   7 |    2 | corantw  | m   | pl  | Jozef Halbersztadt
 halber   |   8 |    2 | corantw  | m   | pl  | Jozef Halbersztadt
 hbaader  |   6 |    2 | f1leuv   | m   | de  | Hans-Joachim Baader
 hbaader  |   7 |    2 | f1leuv   | m   | de  | Hans-Joachim Baader
 ivgeil   |   7 |    1 | corantw  | m   | de  | Ivo Geilenbruegge
 jharms   |   7 |    2 | f1leuv   | m   | nl  | Jasper Harms
 jmlpeuv  |   7 |    2 | f1leuv   | m   | fr  | Jean-Marc Le Peuvédic
 jpouls   |   7 |    3 | f1leuv   | m   | dk  | Jama Poulsen
 jsiepm   |   7 |    2 | f1leuv   | m   | de  | Juergen Siepmann
 kahin    |   6 |    1 | corantw  | m   | us  | Brian Kahin
 kahin    |   7 |    1 | corantw  | m   | us  | Brian Kahin
 kahin    |   8 |    1 | corantw  | m   | us  | Brian Kahin
 ksouren  |   7 |    3 | brouw    | m   | nl  | Kasper Souren
 ksouren  |   8 |    3 | brouw    | m   | nl  | Kasper Souren
 ksteenh  |   6 |    1 | f1leuv   | m   | be  | Kris Steenhaut
 ksteenh  |   7 |    1 | f1leuv   | m   | be  | Kris Steenhaut
 lpenet   |   7 |    2 | f1leuv   | m   | fr  | Ludovic Pénet
 lsoltau  |   6 |    1 | corantw  | m   | de  | Lars Soltau
 lsoltau  |   7 |    1 | corantw  | m   | de  | Lars Soltau
 lsoltau  |   8 |    1 | corantw  | m   | de  | Lars Soltau
 matthip  |   7 |    2 | f1leuv   | m   | de  | Matthias Posseldt
 mdiefent |   6 |    4 | f1leuven | m   | de  | Markus Diefenthaler
 mpost    |   7 |    2 | f1leuv   | m   | de  | Markus Post
 mrollm   |   7 |    3 | f1leuv   | m   | de  | Markus Rollmann
 mrost    |   6 |    3 | f1leuv   | m   | de  | Martin Rost
 mrost    |   7 |    3 | f1leuv   | m   | de  | Martin Rost
 mrost    |   8 |    3 | novotel  | m   | de  | Martin Rost
 mthomps  |   6 |    1 | corantw  | m   | us  | Mozelle W. Thompson
 mthomps  |   7 |    1 | corantw  | m   | us  | Mozelle W. Thompson
 mthomps  |   8 |    1 | corantw  | m   | us  | Mozelle W. Thompson
 mvhinten |   6 |    4 | f1leuven | m   | de  | Matthias von Hinten
 nhill    |   7 |    2 | f1leuv   | m   | uk  | Nick Hill
 nisse    |   6 |    2 | f1leuv   | m   | se  | Niels Möller
 nisse    |   7 |    2 | f1leuv   | m   | se  | Niels Möller
 pfromb   |   6 |    2 | f1leuv   | m   | de  | Patrick Fromberg
 pfromb   |   7 |    2 | f1leuv   | m   | de  | Patrick Fromberg
 philets  |   7 |    3 | f1leuv   | m   | de  | Philipp Letschert
 phm      |   6 |    2 | corantw  | m   | de  | Hartmut PILCH
 phm      |   7 |    2 | corantw  | m   | de  | Hartmut PILCH
 phm      |   8 |    2 | corantw  | m   | de  | Hartmut PILCH
 rbakels  |   6 |    2 | corantw  | m   | nl  | Reinier Bakels
 rbakels  |   7 |    2 | corantw  | m   | nl  | Reinier Bakels
 rmssea   |   6 |    2 | corantw  | m   | pt  | Rui Miguel Silva Seabra
 rmssea   |   7 |    2 | corantw  | m   | pt  | Rui Miguel Silva Seabra
 rmssea   |   8 |    2 | corantw  | m   | pt  | Rui Miguel Silva Seabra
 ruscof   |   7 |    2 | brouw    | m   | fr  | RUSCONI Filippo
 ruscof   |   8 |    2 | brouw    | m   | fr  | RUSCONI Filippo
 sbieder  |   6 |    2 | corantw  | m   | de  | Sven Biedermann
 sbieder  |   7 |    2 | corantw  | m   | de  | Sven Biedermann
 sbieder  |   8 |    2 | corantw  | m   | de  | Sven Biedermann
 skellner |   6 |    4 | f1leuven | m   | de  | Simon Kellner
 sleske   |   7 |    3 | f1leuv   | m   | de  | Sebastian Leske
 styurda  |   7 |    2 | f1leuv   | f   | de  | Regina Stöber-Yurdakul
 tgranl   |   6 |    2 | f1leuv   | m   | se  | Torbjörn Granlund
 tgranl   |   7 |    2 | f1leuv   | m   | se  | Torbjörn Granlund
 tonimlr  |   7 |    2 | f1leuv   | m   | de  | Antonius Müller
 wbrotzl  |   7 |    2 | novotel  | m   | de  | Wolfgang Brotzler
 wbrotzl  |   8 |    2 | novotel  | m   | de  | Wolfgang Brotzler
 wojtek   |   6 |    2 | corantw  | m   | pl  | Wojtek Narczynski
 wojtek   |   7 |    2 | corantw  | m   | pl  | Wojtek Narczynski
 wojtek   |   8 |    2 | corantw  | m   | pl  | Wojtek Narczynski
 wookey   |   6 |    3 | corantw  | m   | uk  | Wookey
 wookey   |   7 |    3 | corantw  | m   | uk  | Wookey
 wookey   |   8 |    3 | corantw  | m   | uk  | Wookey
