\relax 
\ifx\hyper@anchor\@undefined
\global \let \oldcontentsline\contentsline
\gdef \contentsline#1#2#3#4{\oldcontentsline{#1}{#2}{#3}}
\global \let \oldnewlabel\newlabel
\gdef \newlabel#1#2{\newlabelxx{#1}#2}
\gdef \newlabelxx#1#2#3#4#5#6{\oldnewlabel{#1}{{#2}{#3}}}
\AtEndDocument{\let \contentsline\oldcontentsline
\let \newlabel\oldnewlabel}
\else
\global \let \hyper@last\relax 
\fi

\@writefile{toc}{\contentsline {section}{\numberline {1}Time and Place}{1}{section.1}}
\newlabel{tmplok}{{1}{1}{Time and Place\relax }{section.1}{}}
\gdef \LT@i{\omit \kern 134.09128pt&\omit \kern 133.69128pt&\omit \kern 133.69128pt}
\@writefile{toc}{\contentsline {section}{\numberline {2}Schedule}{2}{section.2}}
\newlabel{prog}{{2}{2}{Schedule\relax }{section.2}{}}
\@writefile{toc}{\contentsline {section}{\numberline {3}Organisers and Sponsors}{2}{section.3}}
\newlabel{sarji}{{3}{2}{Organisers and Sponsors\relax }{section.3}{}}
\@writefile{toc}{\contentsline {section}{\numberline {4}Annotated Links}{2}{section.4}}
\newlabel{links}{{4}{2}{Annotated Links\relax }{section.4}{}}
