\contentsline {section}{\numberline {1}Zeit und Ort}{2}{section.1}
\contentsline {section}{\numberline {2}Programm}{2}{section.2}
\contentsline {section}{\numberline {3}Organisatoren und F\"{o}rderer}{2}{section.3}
\contentsline {section}{\numberline {4}Kommentierte Verweise}{3}{section.4}
