\contentsline {section}{\numberline {1}Time and Place}{1}{section.1}
\contentsline {section}{\numberline {2}Schedule}{2}{section.2}
\contentsline {section}{\numberline {3}Organisers and Sponsors}{2}{section.3}
\contentsline {section}{\numberline {4}Annotated Links}{2}{section.4}
