\contentsline {section}{\numberline {1}Verlangt TRIPs die Patentierbarkeit von Computerprogrammen?}{2}{section.1}
\contentsline {section}{\numberline {2}TRIPs Artikel 10: Computerprogramme und Zusammenstellungen von Daten}{4}{section.2}
\contentsline {section}{\numberline {3}TRIPs Artikel 27(1): Patentf\"{a}hige Gegenst\"{a}nde}{4}{section.3}
\contentsline {section}{\numberline {4}Artikel 30: Exceptions to Rights Conferred}{5}{section.4}
\contentsline {section}{\numberline {5}Artikel 33 verlangt, dass alle Patente eine Mindestlaufzeit von 20 Jahren haben m\"{u}ssen.}{5}{section.5}
\contentsline {section}{\numberline {6}Art 7-8: Ein Freihandelsvertrag und seine Auslegung}{6}{section.6}
\contentsline {section}{\numberline {7}TRIPs violations by EPO and EU directive proposals}{7}{section.7}
\contentsline {section}{\numberline {8}Kommentierte Verweise}{9}{section.8}
