\contentsline {section}{\numberline {1}Does TRIPs require software patents?}{2}{section.1}
\contentsline {section}{\numberline {2}TRIPs Article 10: Computer Programs and Compilations of Data}{4}{section.2}
\contentsline {section}{\numberline {3}TRIPs Article 27(1): Patentable Subject Matter}{4}{section.3}
\contentsline {section}{\numberline {4}Article 30: Exceptions to Rights Conferred}{5}{section.4}
\contentsline {section}{\numberline {5}Article 33 mandates that all patents must have a minimum duration of 20 years.}{5}{section.5}
\contentsline {section}{\numberline {6}Art 7-8: A Treaty for Free Trade and its Interpretation}{5}{section.6}
\contentsline {section}{\numberline {7}TRIPs violations by EPO and EU directive proposals}{7}{section.7}
\contentsline {section}{\numberline {8}Annotated Links}{9}{section.8}
