\relax 
\catcode`:\active
\catcode`;\active
\catcode`!\active
\catcode`?\active
\ifx\hyper@anchor\@undefined
\global \let \oldcontentsline\contentsline
\gdef \contentsline#1#2#3#4{\oldcontentsline{#1}{#2}{#3}}
\global \let \oldnewlabel\newlabel
\gdef \newlabel#1#2{\newlabelxx{#1}#2}
\gdef \newlabelxx#1#2#3#4#5#6{\oldnewlabel{#1}{{#2}{#3}}}
\AtEndDocument{\let \contentsline\oldcontentsline
\let \newlabel\oldnewlabel}
\else
\global \let \hyper@last\relax 
\fi

\select@language{french}
\@writefile{toc}{\select@language{french}}
\@writefile{lof}{\select@language{french}}
\@writefile{lot}{\select@language{french}}
\@writefile{toc}{\contentsline {section}{\numberline {1}Les ADPIC impliquent-ils des brevets logiciels ?}{1}{section.1}}
\newlabel{swp}{{1}{1}{Les ADPIC impliquent-ils des brevets logiciels ?\relax }{section.1}{}}
\@writefile{toc}{\contentsline {section}{\numberline {2}ADPIC Article 10: Programmes d'ordinateur et les compilations de donn\'{e}es}{4}{section.2}}
\newlabel{art10}{{2}{4}{ADPIC Article 10: Programmes d'ordinateur et les compilations de donn\'{e}es\relax }{section.2}{}}
\@writefile{toc}{\contentsline {section}{\numberline {3}ADPIC Article 27(1): Objet brevetable}{4}{section.3}}
\newlabel{art27}{{3}{4}{ADPIC Article 27(1): Objet brevetable\relax }{section.3}{}}
\@writefile{toc}{\contentsline {section}{\numberline {4}Article 30: Exceptions aux droits conf\'{e}r\'{e}s}{5}{section.4}}
\newlabel{art30}{{4}{5}{Article 30: Exceptions aux droits conf\'{e}r\'{e}s\relax }{section.4}{}}
\@writefile{toc}{\contentsline {section}{\numberline {5}L'article 33 stipule que tous les brevets doivent avoir une dur\'{e}e minimale de 20 ans.}{5}{section.5}}
\newlabel{art33}{{5}{5}{L'article 33 stipule que tous les brevets doivent avoir une dur\'{e}e minimale de 20 ans}{section.5}{}}
\@writefile{toc}{\contentsline {section}{\numberline {6}Art 7-8: Un accord pour le libre \'{e}change et son interpr\'{e}tation}{5}{section.6}}
\newlabel{komrc}{{6}{5}{Art 7-8: Un accord pour le libre \'{e}change et son interpr\'{e}tation\relax }{section.6}{}}
\@writefile{toc}{\contentsline {section}{\numberline {7}Infractions aux ADPIC par l'OEB et les propositions de directive de l'UE}{7}{section.7}}
\newlabel{suigen}{{7}{7}{Infractions aux ADPIC par l'OEB et les propositions de directive de l'UE\relax }{section.7}{}}
\@writefile{toc}{\contentsline {section}{\numberline {8}Liens annot\'{e}s}{9}{section.8}}
\newlabel{links}{{8}{9}{Liens annot\'{e}s\relax }{section.8}{}}
\gdef\scr@tpo@lst{0}
