\BOOKMARK [1][-]{section.1}{Les ADPIC impliquent-ils des brevets logiciels ?}{}
\BOOKMARK [1][-]{section.2}{ADPIC Article 10: Programmes d'ordinateur et les compilations de donn\351es}{}
\BOOKMARK [1][-]{section.3}{ADPIC Article 27\(1\): Objet brevetable}{}
\BOOKMARK [1][-]{section.4}{Article 30: Exceptions aux droits conf\351r\351s}{}
\BOOKMARK [1][-]{section.5}{L'article 33 stipule que tous les brevets doivent avoir une dur\351e minimale de 20 ans.}{}
\BOOKMARK [1][-]{section.6}{Art 7-8: Un accord pour le libre \351change et son interpr\351tation}{}
\BOOKMARK [1][-]{section.7}{Infractions aux ADPIC par l'OEB et les propositions de directive de l'UE}{}
\BOOKMARK [1][-]{section.8}{Liens annot\351s}{}
