\relax 
\ifx\hyper@anchor\@undefined
\global \let \oldcontentsline\contentsline
\gdef \contentsline#1#2#3#4{\oldcontentsline{#1}{#2}{#3}}
\global \let \oldnewlabel\newlabel
\gdef \newlabel#1#2{\newlabelxx{#1}#2}
\gdef \newlabelxx#1#2#3#4#5#6{\oldnewlabel{#1}{{#2}{#3}}}
\AtEndDocument{\let \contentsline\oldcontentsline
\let \newlabel\oldnewlabel}
\else
\global \let \hyper@last\relax 
\fi

\@writefile{toc}{\contentsline {section}{\numberline {1}Does TRIPs require software patents?}{2}{section.1}}
\newlabel{swp}{{1}{2}{Does TRIPs require software patents?\relax }{section.1}{}}
\@writefile{toc}{\contentsline {section}{\numberline {2}TRIPs Article 10: Computer Programs and Compilations of Data}{4}{section.2}}
\newlabel{art10}{{2}{4}{TRIPs Article 10: Computer Programs and Compilations of Data\relax }{section.2}{}}
\@writefile{toc}{\contentsline {section}{\numberline {3}TRIPs Article 27(1): Patentable Subject Matter}{4}{section.3}}
\newlabel{art27}{{3}{4}{TRIPs Article 27(1): Patentable Subject Matter\relax }{section.3}{}}
\@writefile{toc}{\contentsline {section}{\numberline {4}Article 30: Exceptions to Rights Conferred}{5}{section.4}}
\newlabel{art30}{{4}{5}{Article 30: Exceptions to Rights Conferred\relax }{section.4}{}}
\@writefile{toc}{\contentsline {section}{\numberline {5}Article 33 mandates that all patents must have a minimum duration of 20 years.}{5}{section.5}}
\newlabel{art33}{{5}{5}{Article 33 mandates that all patents must have a minimum duration of 20 years}{section.5}{}}
\@writefile{toc}{\contentsline {section}{\numberline {6}Art 7-8: A Treaty for Free Trade and its Interpretation}{5}{section.6}}
\newlabel{komrc}{{6}{5}{Art 7-8: A Treaty for Free Trade and its Interpretation\relax }{section.6}{}}
\@writefile{toc}{\contentsline {section}{\numberline {7}TRIPs violations by EPO and EU directive proposals}{7}{section.7}}
\newlabel{suigen}{{7}{7}{TRIPs violations by EPO and EU directive proposals\relax }{section.7}{}}
\@writefile{toc}{\contentsline {section}{\numberline {8}Annotated Links}{9}{section.8}}
\newlabel{links}{{8}{9}{Annotated Links\relax }{section.8}{}}
\gdef\scr@tpo@lst{0}
