\relax 
\ifx\hyper@anchor\@undefined
\global \let \oldcontentsline\contentsline
\gdef \contentsline#1#2#3#4{\oldcontentsline{#1}{#2}{#3}}
\global \let \oldnewlabel\newlabel
\gdef \newlabel#1#2{\newlabelxx{#1}#2}
\gdef \newlabelxx#1#2#3#4#5#6{\oldnewlabel{#1}{{#2}{#3}}}
\AtEndDocument{\let \contentsline\oldcontentsline
\let \newlabel\oldnewlabel}
\else
\global \let \hyper@last\relax 
\fi

\@writefile{toc}{\contentsline {section}{\numberline {1}Verlangt TRIPs die Patentierbarkeit von Computerprogrammen?}{2}{section.1}}
\newlabel{swp}{{1}{2}{Verlangt TRIPs die Patentierbarkeit von Computerprogrammen?\relax }{section.1}{}}
\@writefile{toc}{\contentsline {section}{\numberline {2}TRIPs Artikel 10: Computerprogramme und Zusammenstellungen von Daten}{4}{section.2}}
\newlabel{art10}{{2}{4}{TRIPs Artikel 10: Computerprogramme und Zusammenstellungen von Daten\relax }{section.2}{}}
\@writefile{toc}{\contentsline {section}{\numberline {3}TRIPs Artikel 27(1): Patentf\"{a}hige Gegenst\"{a}nde}{4}{section.3}}
\newlabel{art27}{{3}{4}{TRIPs Artikel 27(1): Patentf\"{a}hige Gegenst\"{a}nde\relax }{section.3}{}}
\@writefile{toc}{\contentsline {section}{\numberline {4}Artikel 30: Exceptions to Rights Conferred}{5}{section.4}}
\newlabel{art30}{{4}{5}{Artikel 30: Exceptions to Rights Conferred\relax }{section.4}{}}
\@writefile{toc}{\contentsline {section}{\numberline {5}Artikel 33 verlangt, dass alle Patente eine Mindestlaufzeit von 20 Jahren haben m\"{u}ssen.}{5}{section.5}}
\newlabel{art33}{{5}{5}{Artikel 33 verlangt, dass alle Patente eine Mindestlaufzeit von 20 Jahren haben m\"{u}ssen}{section.5}{}}
\@writefile{toc}{\contentsline {section}{\numberline {6}Art 7-8: Ein Freihandelsvertrag und seine Auslegung}{6}{section.6}}
\newlabel{komrc}{{6}{6}{Art 7-8: Ein Freihandelsvertrag und seine Auslegung\relax }{section.6}{}}
\@writefile{toc}{\contentsline {section}{\numberline {7}TRIPs violations by EPO and EU directive proposals}{7}{section.7}}
\newlabel{suigen}{{7}{7}{TRIPs violations by EPO and EU directive proposals\relax }{section.7}{}}
\@writefile{toc}{\contentsline {section}{\numberline {8}Kommentierte Verweise}{9}{section.8}}
\newlabel{links}{{8}{9}{Kommentierte Verweise\relax }{section.8}{}}
\gdef\scr@tpo@lst{0}
