\select@language {french}
\contentsline {section}{\numberline {1}Les ADPIC impliquent-ils des brevets logiciels ?}{1}{section.1}
\contentsline {section}{\numberline {2}ADPIC Article 10: Programmes d'ordinateur et les compilations de donn\'{e}es}{4}{section.2}
\contentsline {section}{\numberline {3}ADPIC Article 27(1): Objet brevetable}{4}{section.3}
\contentsline {section}{\numberline {4}Article 30: Exceptions aux droits conf\'{e}r\'{e}s}{5}{section.4}
\contentsline {section}{\numberline {5}L'article 33 stipule que tous les brevets doivent avoir une dur\'{e}e minimale de 20 ans.}{5}{section.5}
\contentsline {section}{\numberline {6}Art 7-8: Un accord pour le libre \'{e}change et son interpr\'{e}tation}{5}{section.6}
\contentsline {section}{\numberline {7}Infractions aux ADPIC par l'OEB et les propositions de directive de l'UE}{7}{section.7}
\contentsline {section}{\numberline {8}Liens annot\'{e}s}{9}{section.8}
