\relax 
\ifx\hyper@anchor\@undefined
\global \let \oldcontentsline\contentsline
\gdef \contentsline#1#2#3#4{\oldcontentsline{#1}{#2}{#3}}
\global \let \oldnewlabel\newlabel
\gdef \newlabel#1#2{\newlabelxx{#1}#2}
\gdef \newlabelxx#1#2#3#4#5#6{\oldnewlabel{#1}{{#2}{#3}}}
\AtEndDocument{\let \contentsline\oldcontentsline
\let \newlabel\oldnewlabel}
\else
\global \let \hyper@last\relax 
\fi

\@writefile{toc}{\contentsline {section}{\numberline {1}I.}{2}{section.1}}
\newlabel{I}{{1}{2}{I}{section.1}{}}
\@writefile{toc}{\contentsline {section}{\numberline {2}II.}{5}{section.2}}
\newlabel{ii}{{2}{5}{II}{section.2}{}}
\@writefile{toc}{\contentsline {subsection}{\numberline {2.1}Zum Hauptantrag:}{5}{subsection.2.1}}
\newlabel{ii1}{{2.1}{5}{Zum Hauptantrag:\relax }{subsection.2.1}{}}
\@writefile{toc}{\contentsline {subsubsection}{\numberline {2.1.1}Zum Verfahren nach den Anspr\"{u}chen 1 bis 18:}{6}{subsubsection.2.1.1}}
\newlabel{ii11}{{2.1.1}{6}{Zum Verfahren nach den Anspr\"{u}chen 1 bis 18:\relax }{subsubsection.2.1.1}{}}
\@writefile{toc}{\contentsline {subsubsection}{\numberline {2.1.2}Zur Technizit\"{a}t des digitalen Speichermediums nach Anspruch 22:}{7}{subsubsection.2.1.2}}
\newlabel{ii12}{{2.1.2}{7}{Zur Technizit\"{a}t des digitalen Speichermediums nach Anspruch 22:\relax }{subsubsection.2.1.2}{}}
\newlabel{ol}{{2.1.2}{7}{Der Bundesgerichtshof hat in der Rechtsbeschwerdeentscheidung festgestellt, dass die im Anspruch 22 enthaltene Lehre nicht schon deshalb patentiert werden k\"{o}nne, weil dieser Anspruch insbesondere auf eine Diskette und damit auf einen k\"{o}rperlichen Gegenstand gerichtet sei (GRUR a.a.0. III 2 6). Wener hat der Bundesger\~chtshof ausgef\"{u}hrt, dass die Suche und/oder Korrektur einer fehlerhaften Zeichenkette in einem Text nicht auf technischem Gebiet liege, auch wenn der zu pr\"{u}fende Text mit einem computergest\"{u}tzten Textverarbeitungssystem erstellt worden sei (GRUR a.a.0., III 2 a)}{section*.3}{}}
\@writefile{toc}{\contentsline {paragraph}{Der Bundesgerichtshof hat in der Rechtsbeschwerdeentscheidung festgestellt, dass die im Anspruch 22 enthaltene Lehre nicht schon deshalb patentiert werden k\"{o}nne, weil dieser Anspruch insbesondere auf eine Diskette und damit auf einen k\"{o}rperlichen Gegenstand gerichtet sei (GRUR a.a.0. III 2 6). Wener hat der Bundesger\~chtshof ausgef\"{u}hrt, dass die Suche und/oder Korrektur einer fehlerhaften Zeichenkette in einem Text nicht auf technischem Gebiet liege, auch wenn der zu pr\"{u}fende Text mit einem computergest\"{u}tzten Textverarbeitungssystem erstellt worden sei (GRUR a.a.0., III 2 a).}{7}{section*.3}}
\@writefile{toc}{\contentsline {subsubsection}{\numberline {2.1.3}Zu Anspruch 23:}{10}{subsubsection.2.1.3}}
\newlabel{ii13}{{2.1.3}{10}{Zu Anspruch 23:\relax }{subsubsection.2.1.3}{}}
\@writefile{toc}{\contentsline {subsubsection}{\numberline {2.1.4}Zu Anspruch 24:}{10}{subsubsection.2.1.4}}
\newlabel{ii14}{{2.1.4}{10}{Zu Anspruch 24:\relax }{subsubsection.2.1.4}{}}
\@writefile{toc}{\contentsline {subsection}{\numberline {2.2}Zum Hilfsantrag:}{10}{subsection.2.2}}
\newlabel{ii2}{{2.2}{10}{Zum Hilfsantrag:\relax }{subsection.2.2}{}}
\@writefile{toc}{\contentsline {section}{\numberline {3}Annotated Links}{11}{section.3}}
\newlabel{links}{{3}{11}{Annotated Links\relax }{section.3}{}}
