\relax 
\ifx\hyper@anchor\@undefined
\global \let \oldcontentsline\contentsline
\gdef \contentsline#1#2#3#4{\oldcontentsline{#1}{#2}{#3}}
\global \let \oldnewlabel\newlabel
\gdef \newlabel#1#2{\newlabelxx{#1}#2}
\gdef \newlabelxx#1#2#3#4#5#6{\oldnewlabel{#1}{{#2}{#3}}}
\AtEndDocument{\let \contentsline\oldcontentsline
\let \newlabel\oldnewlabel}
\else
\global \let \hyper@last\relax 
\fi

\@writefile{toc}{\contentsline {section}{\numberline {1}Header Data}{3}{section.1}}
\newlabel{data}{{1}{3}{Header Data\relax }{section.1}{}}
\@writefile{toc}{\contentsline {section}{\numberline {2}Summary of Facts and Submissions}{4}{section.2}}
\newlabel{sumfs}{{2}{4}{Summary of Facts and Submissions\relax }{section.2}{}}
\@writefile{toc}{\contentsline {subsection}{\numberline {2.1}I.}{4}{subsection.2.1}}
\newlabel{sumfsi}{{2.1}{4}{I}{subsection.2.1}{}}
\@writefile{toc}{\contentsline {subsection}{\numberline {2.2}II.}{4}{subsection.2.2}}
\newlabel{sumfsii}{{2.2}{4}{II}{subsection.2.2}{}}
\@writefile{toc}{\contentsline {subsection}{\numberline {2.3}III.}{5}{subsection.2.3}}
\newlabel{sumfsiii}{{2.3}{5}{III}{subsection.2.3}{}}
\@writefile{toc}{\contentsline {subsection}{\numberline {2.4}IV.}{5}{subsection.2.4}}
\newlabel{sumfsiv}{{2.4}{5}{IV}{subsection.2.4}{}}
\@writefile{toc}{\contentsline {subsection}{\numberline {2.5}V.}{5}{subsection.2.5}}
\newlabel{sumfsv}{{2.5}{5}{V}{subsection.2.5}{}}
\@writefile{toc}{\contentsline {subsection}{\numberline {2.6}VI.}{6}{subsection.2.6}}
\newlabel{sumfsvi}{{2.6}{6}{VI}{subsection.2.6}{}}
\@writefile{toc}{\contentsline {subsection}{\numberline {2.7}VII.}{6}{subsection.2.7}}
\newlabel{sumfsvii}{{2.7}{6}{VII}{subsection.2.7}{}}
\@writefile{toc}{\contentsline {subsection}{\numberline {2.8}VIII.}{6}{subsection.2.8}}
\newlabel{sumfsviii}{{2.8}{6}{VIII}{subsection.2.8}{}}
\@writefile{toc}{\contentsline {section}{\numberline {3}Reasons for the Decision}{7}{section.3}}
\newlabel{ratio}{{3}{7}{Reasons for the Decision\relax }{section.3}{}}
\@writefile{toc}{\contentsline {subsection}{\numberline {3.1}}{7}{subsection.3.1}}
\newlabel{ratio1}{{3.1}{7}{\relax }{subsection.3.1}{}}
\@writefile{toc}{\contentsline {subsection}{\numberline {3.2}2. TRIPS}{8}{subsection.3.2}}
\newlabel{ratio2}{{3.2}{8}{2. TRIPS\relax }{subsection.3.2}{}}
\@writefile{toc}{\contentsline {subsubsection}{\numberline {3.2.1}2.1}{8}{subsubsection.3.2.1}}
\newlabel{ratio221}{{3.2.1}{8}{2.1\relax }{subsubsection.3.2.1}{}}
\@writefile{toc}{\contentsline {subsubsection}{\numberline {3.2.2}2.2}{8}{subsubsection.3.2.2}}
\newlabel{ratio22}{{3.2.2}{8}{2.2\relax }{subsubsection.3.2.2}{}}
\@writefile{toc}{\contentsline {subsubsection}{\numberline {3.2.3}2.3}{8}{subsubsection.3.2.3}}
\newlabel{ratio23}{{3.2.3}{8}{2.3\relax }{subsubsection.3.2.3}{}}
\@writefile{toc}{\contentsline {subsubsection}{\numberline {3.2.4}2.4}{9}{subsubsection.3.2.4}}
\newlabel{ratio24}{{3.2.4}{9}{2.4\relax }{subsubsection.3.2.4}{}}
\@writefile{toc}{\contentsline {subsubsection}{\numberline {3.2.5}2.5}{9}{subsubsection.3.2.5}}
\newlabel{ratio25}{{3.2.5}{9}{2.5\relax }{subsubsection.3.2.5}{}}
\@writefile{toc}{\contentsline {subsubsection}{\numberline {3.2.6}2.6}{9}{subsubsection.3.2.6}}
\newlabel{ratio26}{{3.2.6}{9}{2.6\relax }{subsubsection.3.2.6}{}}
\@writefile{toc}{\contentsline {subsection}{\numberline {3.3}3. The relevant source of substantive patent law}{9}{subsection.3.3}}
\newlabel{ratio3}{{3.3}{9}{3. The relevant source of substantive patent law\relax }{subsection.3.3}{}}
\@writefile{toc}{\contentsline {subsection}{\numberline {3.4}4. Exclusion under Article 52(2) and (3) EPC}{10}{subsection.3.4}}
\newlabel{ratio4}{{3.4}{10}{4. Exclusion under Article 52(2) and (3) EPC\relax }{subsection.3.4}{}}
\@writefile{toc}{\contentsline {subsubsection}{\numberline {3.4.1}4.1}{10}{subsubsection.3.4.1}}
\newlabel{ratio41}{{3.4.1}{10}{4.1\relax }{subsubsection.3.4.1}{}}
\@writefile{toc}{\contentsline {subsubsection}{\numberline {3.4.2}4.2}{10}{subsubsection.3.4.2}}
\newlabel{ratio42}{{3.4.2}{10}{4.2\relax }{subsubsection.3.4.2}{}}
\@writefile{toc}{\contentsline {subsection}{\numberline {3.5}5. Interpretation of ``as such''}{10}{subsection.3.5}}
\newlabel{ratio5}{{3.5}{10}{5. Interpretation of ``as such''\relax }{subsection.3.5}{}}
\@writefile{toc}{\contentsline {subsubsection}{\numberline {3.5.1}5.1}{10}{subsubsection.3.5.1}}
\newlabel{ratio51}{{3.5.1}{10}{5.1\relax }{subsubsection.3.5.1}{}}
\@writefile{toc}{\contentsline {subsubsection}{\numberline {3.5.2}5.2}{10}{subsubsection.3.5.2}}
\newlabel{ratio52}{{3.5.2}{10}{5.2\relax }{subsubsection.3.5.2}{}}
\@writefile{toc}{\contentsline {subsubsection}{\numberline {3.5.3}5.3}{11}{subsubsection.3.5.3}}
\newlabel{ratio53}{{3.5.3}{11}{5.3\relax }{subsubsection.3.5.3}{}}
\@writefile{toc}{\contentsline {subsubsection}{\numberline {3.5.4}5.4}{11}{subsubsection.3.5.4}}
\newlabel{ratio54}{{3.5.4}{11}{5.4\relax }{subsubsection.3.5.4}{}}
\@writefile{toc}{\contentsline {subsubsection}{\numberline {3.5.5}5.5}{11}{subsubsection.3.5.5}}
\newlabel{ratio55}{{3.5.5}{11}{5.5\relax }{subsubsection.3.5.5}{}}
\@writefile{toc}{\contentsline {subsection}{\numberline {3.6}6. Technical character of programs for computers}{11}{subsection.3.6}}
\newlabel{ratio6}{{3.6}{11}{6. Technical character of programs for computers\relax }{subsection.3.6}{}}
\@writefile{toc}{\contentsline {subsubsection}{\numberline {3.6.1}6.1}{11}{subsubsection.3.6.1}}
\newlabel{ratio61}{{3.6.1}{11}{6.1\relax }{subsubsection.3.6.1}{}}
\@writefile{toc}{\contentsline {subsubsection}{\numberline {3.6.2}6.2}{11}{subsubsection.3.6.2}}
\newlabel{ratio62}{{3.6.2}{11}{6.2\relax }{subsubsection.3.6.2}{}}
\@writefile{toc}{\contentsline {subsubsection}{\numberline {3.6.3}6.3}{11}{subsubsection.3.6.3}}
\newlabel{ratio63}{{3.6.3}{11}{6.3\relax }{subsubsection.3.6.3}{}}
\@writefile{toc}{\contentsline {subsubsection}{\numberline {3.6.4}6.4}{12}{subsubsection.3.6.4}}
\newlabel{ratio64}{{3.6.4}{12}{6.4\relax }{subsubsection.3.6.4}{}}
\@writefile{toc}{\contentsline {subsubsection}{\numberline {3.6.5}6.5}{12}{subsubsection.3.6.5}}
\newlabel{ratio65}{{3.6.5}{12}{6.5\relax }{subsubsection.3.6.5}{}}
\@writefile{toc}{\contentsline {subsubsection}{\numberline {3.6.6}6.6}{12}{subsubsection.3.6.6}}
\newlabel{ratio66}{{3.6.6}{12}{6.6\relax }{subsubsection.3.6.6}{}}
\@writefile{toc}{\contentsline {subsection}{\numberline {3.7}7. Case law of the boards of appeal of the EPO}{12}{subsection.3.7}}
\newlabel{ratio7}{{3.7}{12}{7. Case law of the boards of appeal of the EPO\relax }{subsection.3.7}{}}
\@writefile{toc}{\contentsline {subsubsection}{\numberline {3.7.1}7.1}{12}{subsubsection.3.7.1}}
\newlabel{ratio71}{{3.7.1}{12}{7.1\relax }{subsubsection.3.7.1}{}}
\@writefile{toc}{\contentsline {subsubsection}{\numberline {3.7.2}7.2}{13}{subsubsection.3.7.2}}
\newlabel{ratio72}{{3.7.2}{13}{7.2\relax }{subsubsection.3.7.2}{}}
\@writefile{toc}{\contentsline {subsubsection}{\numberline {3.7.3}7.3}{13}{subsubsection.3.7.3}}
\newlabel{ratio73}{{3.7.3}{13}{7.3\relax }{subsubsection.3.7.3}{}}
\@writefile{toc}{\contentsline {subsubsection}{\numberline {3.7.4}7.4}{13}{subsubsection.3.7.4}}
\newlabel{ratio74}{{3.7.4}{13}{7.4\relax }{subsubsection.3.7.4}{}}
\@writefile{toc}{\contentsline {subsection}{\numberline {3.8}8.}{14}{subsection.3.8}}
\newlabel{ratio8}{{3.8}{14}{8}{subsection.3.8}{}}
\@writefile{toc}{\contentsline {subsection}{\numberline {3.9}9. Claim for a computer program product}{14}{subsection.3.9}}
\newlabel{ratio9}{{3.9}{14}{9. Claim for a computer program product\relax }{subsection.3.9}{}}
\@writefile{toc}{\contentsline {subsubsection}{\numberline {3.9.1}9.1}{14}{subsubsection.3.9.1}}
\newlabel{ratio91}{{3.9.1}{14}{9.1\relax }{subsubsection.3.9.1}{}}
\@writefile{toc}{\contentsline {subsubsection}{\numberline {3.9.2}9.2}{14}{subsubsection.3.9.2}}
\newlabel{ratio92}{{3.9.2}{14}{9.2\relax }{subsubsection.3.9.2}{}}
\@writefile{toc}{\contentsline {subsubsection}{\numberline {3.9.3}9.3}{14}{subsubsection.3.9.3}}
\newlabel{ratio93}{{3.9.3}{14}{9.3\relax }{subsubsection.3.9.3}{}}
\@writefile{toc}{\contentsline {subsubsection}{\numberline {3.9.4}9.4}{14}{subsubsection.3.9.4}}
\newlabel{ratio94}{{3.9.4}{14}{9.4\relax }{subsubsection.3.9.4}{}}
\@writefile{toc}{\contentsline {subsubsection}{\numberline {3.9.5}9.5}{15}{subsubsection.3.9.5}}
\newlabel{ratio95}{{3.9.5}{15}{9.5\relax }{subsubsection.3.9.5}{}}
\@writefile{toc}{\contentsline {subsubsection}{\numberline {3.9.6}9.6}{15}{subsubsection.3.9.6}}
\newlabel{ratio96}{{3.9.6}{15}{9.6\relax }{subsubsection.3.9.6}{}}
\@writefile{toc}{\contentsline {subsubsection}{\numberline {3.9.7}9.7}{15}{subsubsection.3.9.7}}
\newlabel{ratio97}{{3.9.7}{15}{9.7\relax }{subsubsection.3.9.7}{}}
\@writefile{toc}{\contentsline {subsubsection}{\numberline {3.9.8}9.8}{16}{subsubsection.3.9.8}}
\newlabel{ratio98}{{3.9.8}{16}{9.8\relax }{subsubsection.3.9.8}{}}
\@writefile{toc}{\contentsline {subsection}{\numberline {3.10}10. Interpretation according to the Vienna Convention}{16}{subsection.3.10}}
\newlabel{ratio10}{{3.10}{16}{10. Interpretation according to the Vienna Convention\relax }{subsection.3.10}{}}
\@writefile{toc}{\contentsline {subsubsection}{\numberline {3.10.1}10.1}{16}{subsubsection.3.10.1}}
\newlabel{ratio10_1}{{3.10.1}{16}{10.1\relax }{subsubsection.3.10.1}{}}
\@writefile{toc}{\contentsline {subsubsection}{\numberline {3.10.2}10.2}{16}{subsubsection.3.10.2}}
\newlabel{ratio10_2}{{3.10.2}{16}{10.2\relax }{subsubsection.3.10.2}{}}
\@writefile{toc}{\contentsline {subsection}{\numberline {3.11}11. Further case law of the boards}{17}{subsection.3.11}}
\newlabel{ratio11}{{3.11}{17}{11. Further case law of the boards\relax }{subsection.3.11}{}}
\@writefile{toc}{\contentsline {subsubsection}{\numberline {3.11.1}11.1}{17}{subsubsection.3.11.1}}
\newlabel{ratio11_1}{{3.11.1}{17}{11.1\relax }{subsubsection.3.11.1}{}}
\@writefile{toc}{\contentsline {subsubsection}{\numberline {3.11.2}11.2}{17}{subsubsection.3.11.2}}
\newlabel{ratio11_2}{{3.11.2}{17}{11.2\relax }{subsubsection.3.11.2}{}}
\@writefile{toc}{\contentsline {subsubsection}{\numberline {3.11.3}11.3}{17}{subsubsection.3.11.3}}
\newlabel{ratio11_3}{{3.11.3}{17}{11.3\relax }{subsubsection.3.11.3}{}}
\@writefile{toc}{\contentsline {subsubsection}{\numberline {3.11.4}11.4}{17}{subsubsection.3.11.4}}
\newlabel{ratio11_4}{{3.11.4}{17}{11.4\relax }{subsubsection.3.11.4}{}}
\newlabel{ratio11_4_1}{{3.11.4}{17}{11.4.1\relax }{section*.3}{}}
\@writefile{toc}{\contentsline {paragraph}{11.4.1}{17}{section*.3}}
\newlabel{ratio11_4_2}{{3.11.4}{18}{11.4.2 \relax }{section*.4}{}}
\@writefile{toc}{\contentsline {paragraph}{11.4.2 }{18}{section*.4}}
\newlabel{ratio11_4_3}{{3.11.4}{18}{11.4.3\relax }{section*.5}{}}
\@writefile{toc}{\contentsline {paragraph}{11.4.3}{18}{section*.5}}
\newlabel{ratio11_4_4}{{3.11.4}{18}{11.4.4\relax }{section*.6}{}}
\@writefile{toc}{\contentsline {paragraph}{11.4.4}{18}{section*.6}}
\@writefile{toc}{\contentsline {subsubsection}{\numberline {3.11.5}11.5}{18}{subsubsection.3.11.5}}
\newlabel{ratio11_5}{{3.11.5}{18}{11.5\relax }{subsubsection.3.11.5}{}}
\@writefile{toc}{\contentsline {subsection}{\numberline {3.12}12. The exact wording of the claims}{18}{subsection.3.12}}
\newlabel{ratio12}{{3.12}{18}{12. The exact wording of the claims\relax }{subsection.3.12}{}}
\@writefile{toc}{\contentsline {subsubsection}{\numberline {3.12.1}12.1}{18}{subsubsection.3.12.1}}
\newlabel{ratio12_1}{{3.12.1}{18}{12.1\relax }{subsubsection.3.12.1}{}}
\@writefile{toc}{\contentsline {subsubsection}{\numberline {3.12.2}12.2}{19}{subsubsection.3.12.2}}
\newlabel{ratio12_2}{{3.12.2}{19}{12.2\relax }{subsubsection.3.12.2}{}}
\@writefile{toc}{\contentsline {subsubsection}{\numberline {3.12.3}12.3}{19}{subsubsection.3.12.3}}
\newlabel{ratio12_3}{{3.12.3}{19}{12.3\relax }{subsubsection.3.12.3}{}}
\@writefile{toc}{\contentsline {subsection}{\numberline {3.13}13. [ Conclusion ]}{19}{subsection.3.13}}
\newlabel{ratio13}{{3.13}{19}{13. [ Conclusion ]\relax }{subsection.3.13}{}}
\@writefile{toc}{\contentsline {section}{\numberline {4}ORDER}{20}{section.4}}
\newlabel{order}{{4}{20}{ORDER\relax }{section.4}{}}
\@writefile{toc}{\contentsline {section}{\numberline {5}Annotated Links}{20}{section.5}}
\newlabel{links}{{5}{20}{Annotated Links\relax }{section.5}{}}
\gdef\scr@tpo@lst{0}
