\BOOKMARK [1][-]{section.1}{Header Data}{}
\BOOKMARK [1][-]{section.2}{Summary of Facts and Submissions}{}
\BOOKMARK [2][-]{subsection.2.1}{I.}{section.2}
\BOOKMARK [2][-]{subsection.2.2}{II.}{section.2}
\BOOKMARK [2][-]{subsection.2.3}{III.}{section.2}
\BOOKMARK [2][-]{subsection.2.4}{IV.}{section.2}
\BOOKMARK [2][-]{subsection.2.5}{V.}{section.2}
\BOOKMARK [2][-]{subsection.2.6}{VI.}{section.2}
\BOOKMARK [2][-]{subsection.2.7}{VII.}{section.2}
\BOOKMARK [2][-]{subsection.2.8}{VIII.}{section.2}
\BOOKMARK [1][-]{section.3}{Reasons for the Decision}{}
\BOOKMARK [2][-]{subsection.3.1}{}{section.3}
\BOOKMARK [2][-]{subsection.3.2}{2. TRIPS}{section.3}
\BOOKMARK [3][-]{subsubsection.3.2.1}{2.1}{subsection.3.2}
\BOOKMARK [3][-]{subsubsection.3.2.2}{2.2}{subsection.3.2}
\BOOKMARK [3][-]{subsubsection.3.2.3}{2.3}{subsection.3.2}
\BOOKMARK [3][-]{subsubsection.3.2.4}{2.4}{subsection.3.2}
\BOOKMARK [3][-]{subsubsection.3.2.5}{2.5}{subsection.3.2}
\BOOKMARK [3][-]{subsubsection.3.2.6}{2.6}{subsection.3.2}
\BOOKMARK [2][-]{subsection.3.3}{3. The relevant source of substantive patent law}{section.3}
\BOOKMARK [2][-]{subsection.3.4}{4. Exclusion under Article 52\(2\) and \(3\) EPC}{section.3}
\BOOKMARK [3][-]{subsubsection.3.4.1}{4.1}{subsection.3.4}
\BOOKMARK [3][-]{subsubsection.3.4.2}{4.2}{subsection.3.4}
\BOOKMARK [2][-]{subsection.3.5}{5. Interpretation of ``as such''}{section.3}
\BOOKMARK [3][-]{subsubsection.3.5.1}{5.1}{subsection.3.5}
\BOOKMARK [3][-]{subsubsection.3.5.2}{5.2}{subsection.3.5}
\BOOKMARK [3][-]{subsubsection.3.5.3}{5.3}{subsection.3.5}
\BOOKMARK [3][-]{subsubsection.3.5.4}{5.4}{subsection.3.5}
\BOOKMARK [3][-]{subsubsection.3.5.5}{5.5}{subsection.3.5}
\BOOKMARK [2][-]{subsection.3.6}{6. Technical character of programs for computers}{section.3}
\BOOKMARK [3][-]{subsubsection.3.6.1}{6.1}{subsection.3.6}
\BOOKMARK [3][-]{subsubsection.3.6.2}{6.2}{subsection.3.6}
\BOOKMARK [3][-]{subsubsection.3.6.3}{6.3}{subsection.3.6}
\BOOKMARK [3][-]{subsubsection.3.6.4}{6.4}{subsection.3.6}
\BOOKMARK [3][-]{subsubsection.3.6.5}{6.5}{subsection.3.6}
\BOOKMARK [3][-]{subsubsection.3.6.6}{6.6}{subsection.3.6}
\BOOKMARK [2][-]{subsection.3.7}{7. Case law of the boards of appeal of the EPO}{section.3}
\BOOKMARK [3][-]{subsubsection.3.7.1}{7.1}{subsection.3.7}
\BOOKMARK [3][-]{subsubsection.3.7.2}{7.2}{subsection.3.7}
\BOOKMARK [3][-]{subsubsection.3.7.3}{7.3}{subsection.3.7}
\BOOKMARK [3][-]{subsubsection.3.7.4}{7.4}{subsection.3.7}
\BOOKMARK [2][-]{subsection.3.8}{8.}{section.3}
\BOOKMARK [2][-]{subsection.3.9}{9. Claim for a computer program product}{section.3}
\BOOKMARK [3][-]{subsubsection.3.9.1}{9.1}{subsection.3.9}
\BOOKMARK [3][-]{subsubsection.3.9.2}{9.2}{subsection.3.9}
\BOOKMARK [3][-]{subsubsection.3.9.3}{9.3}{subsection.3.9}
\BOOKMARK [3][-]{subsubsection.3.9.4}{9.4}{subsection.3.9}
\BOOKMARK [3][-]{subsubsection.3.9.5}{9.5}{subsection.3.9}
\BOOKMARK [3][-]{subsubsection.3.9.6}{9.6}{subsection.3.9}
\BOOKMARK [3][-]{subsubsection.3.9.7}{9.7}{subsection.3.9}
\BOOKMARK [3][-]{subsubsection.3.9.8}{9.8}{subsection.3.9}
\BOOKMARK [2][-]{subsection.3.10}{10. Interpretation according to the Vienna Convention}{section.3}
\BOOKMARK [3][-]{subsubsection.3.10.1}{10.1}{subsection.3.10}
\BOOKMARK [3][-]{subsubsection.3.10.2}{10.2}{subsection.3.10}
\BOOKMARK [2][-]{subsection.3.11}{11. Further case law of the boards}{section.3}
\BOOKMARK [3][-]{subsubsection.3.11.1}{11.1}{subsection.3.11}
\BOOKMARK [3][-]{subsubsection.3.11.2}{11.2}{subsection.3.11}
\BOOKMARK [3][-]{subsubsection.3.11.3}{11.3}{subsection.3.11}
\BOOKMARK [3][-]{subsubsection.3.11.4}{11.4}{subsection.3.11}
\BOOKMARK [3][-]{subsubsection.3.11.5}{11.5}{subsection.3.11}
\BOOKMARK [2][-]{subsection.3.12}{12. The exact wording of the claims}{section.3}
\BOOKMARK [3][-]{subsubsection.3.12.1}{12.1}{subsection.3.12}
\BOOKMARK [3][-]{subsubsection.3.12.2}{12.2}{subsection.3.12}
\BOOKMARK [3][-]{subsubsection.3.12.3}{12.3}{subsection.3.12}
\BOOKMARK [2][-]{subsection.3.13}{13. [ Conclusion ]}{section.3}
