\BOOKMARK [1][-]{section.1}{Positionen von ZVEI, BVMW, FFII, Patentervein u.a.}{}
\BOOKMARK [1][-]{section.2}{Erg\344nzende Dokumente}{}
\BOOKMARK [1][-]{section.3}{Kontakt}{}
\BOOKMARK [1][-]{section.4}{\334ber den FFII}{}
