\contentsline {section}{\numberline {1}Positionen von ZVEI, BVMW, FFII, Patentervein u.a.}{2}{section.1}
\contentsline {section}{\numberline {2}Erg\"{a}nzende Dokumente}{5}{section.2}
\contentsline {section}{\numberline {3}Kontakt}{5}{section.3}
\contentsline {section}{\numberline {4}\"{U}ber den FFII}{5}{section.4}
