\relax 
\ifx\hyper@anchor\@undefined
\global \let \oldcontentsline\contentsline
\gdef \contentsline#1#2#3#4{\oldcontentsline{#1}{#2}{#3}}
\global \let \oldnewlabel\newlabel
\gdef \newlabel#1#2{\newlabelxx{#1}#2}
\gdef \newlabelxx#1#2#3#4#5#6{\oldnewlabel{#1}{{#2}{#3}}}
\AtEndDocument{\let \contentsline\oldcontentsline
\let \newlabel\oldnewlabel}
\else
\global \let \hyper@last\relax 
\fi

\@writefile{toc}{\contentsline {section}{\numberline {1}Positionen von ZVEI, BVMW, FFII, Patentervein u.a.}{2}{section.1}}
\newlabel{text}{{1}{2}{Positionen von ZVEI, BVMW, FFII, Patentervein u.a}{section.1}{}}
\@writefile{toc}{\contentsline {section}{\numberline {2}Erg\"{a}nzende Dokumente}{5}{section.2}}
\newlabel{ref}{{2}{5}{Erg\"{a}nzende Dokumente\relax }{section.2}{}}
\@writefile{toc}{\contentsline {section}{\numberline {3}Kontakt}{5}{section.3}}
\newlabel{kontakt}{{3}{5}{Kontakt\relax }{section.3}{}}
\@writefile{toc}{\contentsline {section}{\numberline {4}\"{U}ber den FFII}{5}{section.4}}
\newlabel{pri}{{4}{5}{\"{U}ber den FFII\relax }{section.4}{}}
\gdef\scr@tpo@lst{0}
