\relax 
\ifx\hyper@anchor\@undefined
\global \let \oldcontentsline\contentsline
\gdef \contentsline#1#2#3#4{\oldcontentsline{#1}{#2}{#3}}
\global \let \oldnewlabel\newlabel
\gdef \newlabel#1#2{\newlabelxx{#1}#2}
\gdef \newlabelxx#1#2#3#4#5#6{\oldnewlabel{#1}{{#2}{#3}}}
\AtEndDocument{\let \contentsline\oldcontentsline
\let \newlabel\oldnewlabel}
\else
\global \let \hyper@last\relax 
\fi

\@writefile{toc}{\contentsline {section}{\numberline {1}Der Erfindungsbegriff des EP\"{U} und der gewohnheitsrechtliche Technikbegriff}{3}{section.1}}
\newlabel{invn}{{1}{3}{Der Erfindungsbegriff des EP\"{U} und der gewohnheitsrechtliche Technikbegriff\relax }{section.1}{}}
\@writefile{toc}{\contentsline {section}{\numberline {2}Technik und untechnische Geistesleistungen}{4}{section.2}}
\newlabel{tech}{{2}{4}{Technik und untechnische Geistesleistungen\relax }{section.2}{}}
\@writefile{toc}{\contentsline {section}{\numberline {3}Programmierl\"{o}sungen vs programmiersprachlich beschriebene Hardware-Erfindungen}{5}{section.3}}
\newlabel{komp}{{3}{5}{Programmierl\"{o}sungen vs programmiersprachlich beschriebene Hardware-Erfindungen\relax }{section.3}{}}
\@writefile{toc}{\contentsline {section}{\numberline {4}Sollte Software patentierbar werden? --- Belohnungsinteresse vs Freihaltungsbed\"{u}rfnis bei Untechnischen Leistungen}{5}{section.4}}
\newlabel{niem}{{4}{5}{Sollte Software patentierbar werden? --- Belohnungsinteresse vs Freihaltungsbed\"{u}rfnis bei Untechnischen Leistungen\relax }{section.4}{}}
\@writefile{toc}{\contentsline {section}{\numberline {5}L\"{u}cken im BGH-Softwareurheberrecht, L\"{o}cher in den EPA-Pr\"{u}fungsrichtlinien und Ausblick}{6}{section.5}}
\newlabel{suig}{{5}{6}{L\"{u}cken im BGH-Softwareurheberrecht, L\"{o}cher in den EPA-Pr\"{u}fungsrichtlinien und Ausblick\relax }{section.5}{}}
