\contentsline {section}{\numberline {1}Der Erfindungsbegriff des EP\"{U} und der gewohnheitsrechtliche Technikbegriff}{3}{section.1}
\contentsline {section}{\numberline {2}Technik und untechnische Geistesleistungen}{4}{section.2}
\contentsline {section}{\numberline {3}Programmierl\"{o}sungen vs programmiersprachlich beschriebene Hardware-Erfindungen}{5}{section.3}
\contentsline {section}{\numberline {4}Sollte Software patentierbar werden? --- Belohnungsinteresse vs Freihaltungsbed\"{u}rfnis bei Untechnischen Leistungen}{5}{section.4}
\contentsline {section}{\numberline {5}L\"{u}cken im BGH-Softwareurheberrecht, L\"{o}cher in den EPA-Pr\"{u}fungsrichtlinien und Ausblick}{6}{section.5}
