\BOOKMARK [1][-]{section.1}{BMJ in Br\374ssel 2002-06-13: Speerspitze der Grenzenlosen Patentierbarkeit}{}
\BOOKMARK [1][-]{section.2}{Beamtenkarrieren innerhalb der Patentfamilie}{}
\BOOKMARK [1][-]{section.3}{Annotated Links}{}
