\relax 
\ifx\hyper@anchor\@undefined
\global \let \oldcontentsline\contentsline
\gdef \contentsline#1#2#3#4{\oldcontentsline{#1}{#2}{#3}}
\global \let \oldnewlabel\newlabel
\gdef \newlabel#1#2{\newlabelxx{#1}#2}
\gdef \newlabelxx#1#2#3#4#5#6{\oldnewlabel{#1}{{#2}{#3}}}
\AtEndDocument{\let \contentsline\oldcontentsline
\let \newlabel\oldnewlabel}
\else
\global \let \hyper@last\relax 
\fi

\@writefile{toc}{\contentsline {section}{\numberline {1}BMJ in Br\"{u}ssel 2002-06-13: Speerspitze der Grenzenlosen Patentierbarkeit}{2}{section.1}}
\newlabel{eurkonc060213}{{1}{2}{BMJ in Br\"{u}ssel 2002-06-13: Speerspitze der Grenzenlosen Patentierbarkeit\relax }{section.1}{}}
\@writefile{toc}{\contentsline {section}{\numberline {2}Beamtenkarrieren innerhalb der Patentfamilie}{3}{section.2}}
\newlabel{karri}{{2}{3}{Beamtenkarrieren innerhalb der Patentfamilie\relax }{section.2}{}}
\@writefile{toc}{\contentsline {section}{\numberline {3}Annotated Links}{3}{section.3}}
\newlabel{links}{{3}{3}{Annotated Links\relax }{section.3}{}}
