\contentsline {section}{\numberline {1}BMJ Br\"{u}ssel 2002-06-13: Speerspitze der Grenzenlosen Patentierbarkeit}{2}{section.1}
\contentsline {section}{\numberline {2}BMJ Br\"{u}ssel 2002-09-13: Text-Patente durchgesetzt}{4}{section.2}
\contentsline {section}{\numberline {3}Beamtenkarrieren innerhalb der Patentfamilie}{6}{section.3}
\contentsline {section}{\numberline {4}Annotated Links}{6}{section.4}
