\relax 
\ifx\hyper@anchor\@undefined
\global \let \oldcontentsline\contentsline
\gdef \contentsline#1#2#3#4{\oldcontentsline{#1}{#2}{#3}}
\global \let \oldnewlabel\newlabel
\gdef \newlabel#1#2{\newlabelxx{#1}#2}
\gdef \newlabelxx#1#2#3#4#5#6{\oldnewlabel{#1}{{#2}{#3}}}
\AtEndDocument{\let \contentsline\oldcontentsline
\let \newlabel\oldnewlabel}
\else
\global \let \hyper@last\relax 
\fi

\@writefile{toc}{\contentsline {section}{\numberline {1}BMJ Br\"{u}ssel 2002-06-13: Speerspitze der Grenzenlosen Patentierbarkeit}{2}{section.1}}
\newlabel{eurkonc060213}{{1}{2}{BMJ Br\"{u}ssel 2002-06-13: Speerspitze der Grenzenlosen Patentierbarkeit\relax }{section.1}{}}
\@writefile{toc}{\contentsline {section}{\numberline {2}BMJ Br\"{u}ssel 2002-09-13: Text-Patente durchgesetzt}{4}{section.2}}
\newlabel{eurkonc020913}{{2}{4}{BMJ Br\"{u}ssel 2002-09-13: Text-Patente durchgesetzt\relax }{section.2}{}}
\@writefile{toc}{\contentsline {section}{\numberline {3}Beamtenkarrieren innerhalb der Patentfamilie}{6}{section.3}}
\newlabel{karri}{{3}{6}{Beamtenkarrieren innerhalb der Patentfamilie\relax }{section.3}{}}
\@writefile{toc}{\contentsline {section}{\numberline {4}Annotated Links}{6}{section.4}}
\newlabel{links}{{4}{6}{Annotated Links\relax }{section.4}{}}
\gdef\scr@tpo@lst{0}
