\relax 
\ifx\hyper@anchor\@undefined
\global \let \oldcontentsline\contentsline
\gdef \contentsline#1#2#3#4{\oldcontentsline{#1}{#2}{#3}}
\global \let \oldnewlabel\newlabel
\gdef \newlabel#1#2{\newlabelxx{#1}#2}
\gdef \newlabelxx#1#2#3#4#5#6{\oldnewlabel{#1}{{#2}{#3}}}
\AtEndDocument{\let \contentsline\oldcontentsline
\let \newlabel\oldnewlabel}
\else
\global \let \hyper@last\relax 
\fi

\csname auxWARNINGii\endcsname {\typeout {-34- this file and other auxiliary files require to use the following}}
\csname auxWARNINGii\endcsname {\typeout {-34- LaTeX packages: french and babel!}}
\csname auxWARNINGii\endcsname {\typeout {-34- check \protect \usepackage \space or remove these files. Typesetting is aborted!} \stop }
\select@language{french}
\@writefile{toc}{\select@language{french}}
\@writefile{lof}{\select@language{french}}
\@writefile{lot}{\select@language{french}}
\select@language{french}
\@writefile{toc}{\select@language{french}}
\@writefile{lof}{\select@language{french}}
\@writefile{lot}{\select@language{french}}
\@writefile{toc}{\contentsline {section}{\numberline {1}BMJ Br\"{u}ssel 2002-06-13\@DP  Speerspitze der Grenzenlosen Patentierbarkeit}{2}{section.0.1}}
\newlabel{eurkonc060213}{{1}{2}{BMJ Br\"{u}ssel 2002-06-13: Speerspitze der Grenzenlosen Patentierbarkeit\relax }{section.0.1}{}}
\@writefile{toc}{\contentsline {section}{\numberline {2}BMJ Br\"{u}ssel 2002-09-13\@DP  Text-Patente durchgesetzt}{3}{section.0.2}}
\newlabel{eurkonc020913}{{2}{3}{BMJ Br\"{u}ssel 2002-09-13: Text-Patente durchgesetzt\relax }{section.0.2}{}}
\@writefile{toc}{\contentsline {section}{\numberline {3}Beamtenkarrieren innerhalb der Patentfamilie}{4}{section.0.3}}
\newlabel{karri}{{3}{4}{Beamtenkarrieren innerhalb der Patentfamilie\relax }{section.0.3}{}}
\@writefile{toc}{\contentsline {section}{\numberline {4}Liens Annot\'{e}s}{4}{section.0.4}}
\newlabel{links}{{4}{4}{Liens Annot\'{e}s\relax }{section.0.4}{}}
