This is pdfTeX, Version 3.14159-1.00a-pretest-20011114-ojmw (Web2C 7.3.7) (format=pdflatex 2002.12.19)  29 SEP 2003 12:09
**plenresu0309.it
(./plenresu0309.it.tex{/usr/share/texmf/pdftex/config/pdftex.cfg}
LaTeX2e <2001/06/01>
Babel <v3.7h> and hyphenation patterns for american, french, german, ngerman, n
ohyphenation, loaded.
(/usr/share/texmf/tex/latex/koma-script/scrreprt.cls
Document Class: scrreprt 2001/08/17 v2.8l LaTeX2e KOMA document class
(/usr/share/texmf/tex/latex/base/size10.clo
File: size10.clo 2001/04/21 v1.4e Standard LaTeX file (size option)
)
(/usr/share/texmf/tex/latex/koma-script/typearea.sty
Package: typearea 2001/08/17 v2.8l LaTeX2e KOMA package

Package: typearea, Copyright (C) Frank Neukam, 1992-1994 
                   Copyright (C) Markus Kohm, 1994-2001
\ta@bcor=\skip41
\ta@div=\count79
\ta@hblk=\skip42
\ta@vblk=\skip43
\ta@temp=\skip44
Package typearea Info: These are the values describing the layout:
(typearea)             DIV  = 8
(typearea)             BCOR = 0.0pt
(typearea)             \paperwidth      = 597.50793pt
(typearea)              \textwidth      = 373.44246pt
(typearea)              DIV-departure   = -4/100
(typearea)              \evensidemargin = 39.76274pt
(typearea)              \oddsidemargin  = 39.76274pt
(typearea)             \paperheight     = 845.04694pt
(typearea)              \textheight     = 538.0pt
(typearea)              \topmargin      = 0.36087pt
(typearea)              \headheight     = 15.0pt
(typearea)              \headsep        = 18.0pt
(typearea)              \topskip        = 10.0pt
(typearea)              \footskip       = 42.0pt
(typearea)              \baselineskip   = 12.0pt
(typearea)              on input line 558.
)
\c@part=\count80
\c@chapter=\count81
\c@section=\count82
\c@subsection=\count83
\c@subsubsection=\count84
\c@paragraph=\count85
\c@subparagraph=\count86
\c@figure=\count87
\c@table=\count88
\abovecaptionskip=\skip45
\belowcaptionskip=\skip46
\bibindent=\dimen102
LaTeX Info: Redefining \KOMAScript on input line 1382.
) (/usr/share/texmf/tex/generic/babel/babel.sty
Package: babel 2001/03/01 v3.7h The Babel package

(/usr/share/texmf/tex/generic/babel/italian.ldf
Language: italian 2001/01/19 v1.2o Italian support from the babel system

(/usr/share/texmf/tex/generic/babel/babel.def
File: babel.def 2001/03/01 v3.7h Babel common definitions
\babel@savecnt=\count89
\U@D=\dimen103
)

Package babel Warning: No hyphenation patterns were loaded for
(babel)                the language `Italian'
(babel)                I will use the patterns loaded for \language=0 instead.

\l@italian = a dialect from \language0
Package babel Info: Making " an active character on input line 72.
)) (/usr/share/texmf/tex/latex/TXP/TXM/ansidate.sty)
(/usr/share/texmf/tex/latex/hyperref/hyperref.sty
Package: hyperref 2002/01/14 v6.72d Hypertext links for LaTeX

(/usr/share/texmf/tex/latex/graphics/keyval.sty
Package: keyval 1999/03/16 v1.13 key=value parser (DPC)
\KV@toks@=\toks14
)
\@linkdim=\dimen104
\Hy@linkcounter=\count90
\Hy@pagecounter=\count91

(/usr/share/texmf/tex/latex/hyperref/pd1enc.def
File: pd1enc.def 2002/01/14 v6.72d Hyperref: PDFDocEncoding definition (HO)
)
Package hyperref Info: Bookmarks ON on input line 1717.
Package hyperref Info: Hyper figures OFF on input line 1736.
Package hyperref Info: Link nesting OFF on input line 1741.
Package hyperref Info: Hyper index ON on input line 1744.
Package hyperref Info: Plain pages ON on input line 1749.
Package hyperref Info: Backreferencing OFF on input line 1756.

Implicit mode ON; LaTeX internals redefined
(/usr/share/texmf/tex/latex/html/url.sty
Package: url 1999/03/02  ver 1.4  Verb mode for urls, email addresses, and file
 names
)
LaTeX Info: Redefining \url on input line 1966.
\Fld@menulength=\count92
\Field@Width=\dimen105
\Fld@charsize=\dimen106
\Choice@toks=\toks15
\Field@toks=\toks16
Package hyperref Info: Hyper figures OFF on input line 2424.
Package hyperref Info: Link nesting OFF on input line 2429.
Package hyperref Info: Hyper index ON on input line 2432.
Package hyperref Info: backreferencing OFF on input line 2439.
Package hyperref Info: Link coloring OFF on input line 2444.
\c@Item=\count93
\c@Hfootnote=\count94
)
*hyperref using default driver hpdftex*
(/usr/share/texmf/tex/latex/hyperref/hpdftex.def
File: hpdftex.def 2002/01/14 v6.72d Hyperref driver for pdfTeX

(/usr/share/texmf/tex/latex/psnfss/pifont.sty
Package: pifont 2001/06/04 PSNFSS-v8.2 Pi font support (SPQR) 
LaTeX Font Info:    Try loading font information for U+pzd on input line 62.

(/usr/share/texmf/tex/latex/psnfss/upzd.fd
File: upzd.fd 2001/06/04 font definitions for U/pzd.
)
LaTeX Font Info:    Try loading font information for U+psy on input line 63.

(/usr/share/texmf/tex/latex/psnfss/upsy.fd
File: upsy.fd 2001/06/04 font definitions for U/psy.
))
\Fld@listcount=\count95
\@outlinefile=\write3
)
(/usr/share/texmf/tex/latex/graphics/graphicx.sty
Package: graphicx 1999/02/16 v1.0f Enhanced LaTeX Graphics (DPC,SPQR)

(/usr/share/texmf/tex/latex/graphics/graphics.sty
Package: graphics 2001/07/07 v1.0n Standard LaTeX Graphics (DPC,SPQR)

(/usr/share/texmf/tex/latex/graphics/trig.sty
Package: trig 1999/03/16 v1.09 sin cos tan (DPC)
)
(/usr/share/texmf/tex/latex/config/graphics.cfg
File: graphics.cfg 2001/08/31 v1.1 graphics configuration of teTeX/TeXLive
)
Package graphics Info: Driver file: pdftex.def on input line 80.

(/usr/share/texmf/tex/latex/graphics/pdftex.def
File: pdftex.def 2001/11/29 v0.03i graphics/color for pdftex
\Gread@gobject=\count96
))
\Gin@req@height=\dimen107
\Gin@req@width=\dimen108
)
(/usr/share/texmf/tex/latex/TXP/TXK/tools/array.sty
Package: array 1994/06/01 v2.2e Tabular extension package (FMi)
\col@sep=\dimen109
\extrarowheight=\dimen110
\NC@list=\toks17
)
(/usr/share/texmf/tex/latex/misc/wrapfig.sty
\wrapoverhang=\dimen111
\WF@size=\dimen112
\c@WF@wrappedlines=\count97
\WF@box=\box26
\WF@everypar=\toks18
Package: wrapfig 1999/10/12  v 3.3
)
(/usr/share/texmf/tex/latex/misc/a4wide.sty
Package: a4wide 1994/08/30

(/usr/share/texmf/tex/latex/TXP/TXK/a4.sty
Style option `A4' 1.2 <26 Feb 90> (NP and JLB)
English documentation   <26 Feb 90> (JLB)
)) (/usr/share/texmf/tex/latex/TXP/TXM/mlht/el2tex.tex
\sectlevel=\count98
\toplevel=\count99
)
(/usr/share/texmf/tex/latex/TXP/TXM/mlht/coldef.tex) (./plenresu0309.it.aux)
\openout1 = `plenresu0309.it.aux'.

LaTeX Font Info:    Checking defaults for OML/cmm/m/it on input line 13.
LaTeX Font Info:    ... okay on input line 13.
LaTeX Font Info:    Checking defaults for T1/cmr/m/n on input line 13.
LaTeX Font Info:    ... okay on input line 13.
LaTeX Font Info:    Checking defaults for OT1/cmr/m/n on input line 13.
LaTeX Font Info:    ... okay on input line 13.
LaTeX Font Info:    Checking defaults for OMS/cmsy/m/n on input line 13.
LaTeX Font Info:    ... okay on input line 13.
LaTeX Font Info:    Checking defaults for OMX/cmex/m/n on input line 13.
LaTeX Font Info:    ... okay on input line 13.
LaTeX Font Info:    Checking defaults for U/cmr/m/n on input line 13.
LaTeX Font Info:    ... okay on input line 13.
LaTeX Font Info:    Checking defaults for OT2/cmr/m/n on input line 13.
LaTeX Font Info:    Try loading font information for OT2+cmr on input line 13.

(/usr/share/texmf/tex/latex/cyrillic/ot2cmr.fd
File: ot2cmr.fd 2001/08/11 v3.2c Computer Modern Cyrillic font definitions
)
LaTeX Font Info:    ... okay on input line 13.
LaTeX Font Info:    Checking defaults for PD1/pdf/m/n on input line 13.
LaTeX Font Info:    ... okay on input line 13.
Package hyperref Info: Link coloring OFF on input line 13.

(/usr/share/texmf/tex/latex/hyperref/nameref.sty
Package: nameref 2001/01/27 v2.19 Cross-referencing by name of section
\c@section@level=\count100
)
LaTeX Info: Redefining \ref on input line 13.
LaTeX Info: Redefining \pageref on input line 13.
 (./plenresu0309.it.out)
(./plenresu0309.it.out)
\openout3 = `plenresu0309.it.out'.

 (/usr/share/texmf/tex/context/base/supp-pdf.tex
(/usr/share/texmf/tex/context/base/supp-mis.tex
loading : Context Support Macros / Missing
\protectiondepth=\count101
\scratchcounter=\count102
\scratchtoks=\toks19
\scratchdimen=\dimen113
\scratchskip=\skip47
\scratchmuskip=\muskip10
\scratchbox=\box27
\scratchread=\read1
\scratchwrite=\write4
\zeropoint=\dimen114
\nextbox=\box28
\nextdepth=\dimen115
\everyline=\toks20
\!!counta=\count103
\!!countb=\count104
\recursecounter=\count105
)
loading : Context Support Macros / PDF
\nofMPsegments=\count106
\nofMParguments=\count107
\everyMPtoPDFconversion=\toks21
)
(/ul/sig/srv/res/www/ffii/swpat/papri/eubsa-swpat0202/plen0309/resu/plenresu030
9.it.sub
Europarl 2003-09-24: Amended Software Patent Directive
LaTeX Font Info:    External font `cmex10' loaded for size
(Font)              <14.4> on input line 1.
LaTeX Font Info:    External font `cmex10' loaded for size
(Font)              <7> on input line 1.
[1


{/usr/share/texmf/dvips/config/pdftex.map}{/usr/share/texmf/dvips/config/wadala
b.map}] [2

] (./plenresu0309.it.toc)
\tf@toc=\write5
\openout5 = `plenresu0309.it.toc'.

 [3

]
Capitolo 1.
[4

] [5]
Capitolo 2.
LaTeX Font Info:    Try loading font information for OMS+cmr on input line 61.
(/usr/share/texmf/tex/latex/base/omscmr.fd
File: omscmr.fd 1999/05/25 v2.5h Standard LaTeX font definitions
)
LaTeX Font Info:    Font shape `OMS/cmr/m/n' in size <10> not available
(Font)              Font shape `OMS/cmsy/m/n' tried instead on input line 61.
LaTeX Font Info:    External font `cmex10' loaded for size
(Font)              <5> on input line 61.
LaTeX Font Info:    External font `cmex10' loaded for size
(Font)              <8> on input line 61.
LaTeX Font Info:    External font `cmex10' loaded for size
(Font)              <6> on input line 61.

Overfull \hbox (1055.12984pt too wide) in paragraph at lines 61--61
[][][]/cmr8/http://www3.europarl.eu.int/omk/omnsapir.so/pv2?PRG=DOCPV&APP=PV2&L
ANGUE=EN&SDOCTA=2&TXTLST=1&POS=1&Type[]Doc=RESOL&TPV=PROV&DATE=240903&PrgPrev=P
RG@TITRE|APP@PV2|TYPEF@TITRE|YEAR@03|Find@%2a%69%6e%76%65%6e%74%69%6f%6e%73|FIL
E@BIBLIO03|PLAGE@1&TYPEF=TITRE&NUMB=1&DATEF=030924| 
 []

) [6

] (./plenresu0309.it.aux)

LaTeX Warning: Label(s) may have changed. Rerun to get cross-references right.

 ) 
Here is how much of TeX's memory you used:
 3308 strings out of 25428
 44064 string characters out of 190380
 99933 words of memory out of 384000
 6229 multiletter control sequences out of 10000+15000
 10120 words of font info for 36 fonts, out of 400000 for 1000
 14 hyphenation exceptions out of 1000
 27i,8n,38p,721b,407s stack positions out of 300i,100n,500p,50000b,4000s

! pdfTeX warning (dest): name{chapter.7} has been referenced but does not exist
, replaced by a fixed one

! pdfTeX warning (dest): name{chapter.6} has been referenced but does not exist
, replaced by a fixed one

! pdfTeX warning (dest): name{chapter.5} has been referenced but does not exist
, replaced by a fixed one

! pdfTeX warning (dest): name{chapter.4} has been referenced but does not exist
, replaced by a fixed one

! pdfTeX warning (dest): name{chapter.3} has been referenced but does not exist
, replaced by a fixed one

</usr/share/texmf/fonts/type1/bluesky/cm/cmr8.pfb></usr/share/texmf/fonts/type1
/bluesky/cm/cmr6.pfb></usr/share/texmf/fonts/type1/bluesky/cm/cmr7.pfb></usr/sh
are/texmf/fonts/type1/bluesky/cm/cmbx10.pfb></usr/share/texmf/fonts/type1/blues
ky/cm/cmsy10.pfb></usr/share/texmf/fonts/type1/bluesky/cm/cmr10.pfb></usr/share
/texmf/fonts/type1/bluesky/cm/cmr12.pfb></usr/share/texmf/fonts/type1/bluesky/c
m/cmtt10.pfb></usr/share/texmf/fonts/type1/bluesky/cm/cmssbx10.pfb>
Output written on plenresu0309.it.pdf (6 pages, 79622 bytes).
