\relax 
\ifx\hyper@anchor\@undefined
\global \let \oldcontentsline\contentsline
\gdef \contentsline#1#2#3#4{\oldcontentsline{#1}{#2}{#3}}
\global \let \oldnewlabel\newlabel
\gdef \newlabel#1#2{\newlabelxx{#1}#2}
\gdef \newlabelxx#1#2#3#4#5#6{\oldnewlabel{#1}{{#2}{#3}}}
\AtEndDocument{\let \contentsline\oldcontentsline
\let \newlabel\oldnewlabel}
\else
\global \let \hyper@last\relax 
\fi

\csname auxWARNINGii\endcsname {\typeout {-34- this file and other auxiliary files require to use the following}}
\csname auxWARNINGii\endcsname {\typeout {-34- LaTeX packages: french and babel!}}
\csname auxWARNINGii\endcsname {\typeout {-34- check \protect \usepackage \space or remove these files. Typesetting is aborted!} \stop }
\select@language{french}
\@writefile{toc}{\select@language{french}}
\@writefile{lof}{\select@language{french}}
\@writefile{lot}{\select@language{french}}
\select@language{french}
\@writefile{toc}{\select@language{french}}
\@writefile{lof}{\select@language{french}}
\@writefile{lot}{\select@language{french}}
\@writefile{toc}{\contentsline {chapter}{\numberline {1}Le Texte}{4}{chapter.1}}
\@writefile{lof}{\addvspace {10\p@ }}
\@writefile{lot}{\addvspace {10\p@ }}
\newlabel{text}{{1}{4}{Le Texte\relax }{chapter.1}{}}
\@writefile{toc}{\contentsline {section}{\numberline {1.1}Article 1\@DP  Objectif}{4}{section.1.1}}
\newlabel{art1}{{1.1}{4}{Article 1: Objectif\relax }{section.1.1}{}}
\@writefile{toc}{\contentsline {section}{\numberline {1.2}Article 2\@DP  D\'{e}finitions}{4}{section.1.2}}
\newlabel{art2}{{1.2}{4}{Article 2: D\'{e}finitions\relax }{section.1.2}{}}
\@writefile{toc}{\contentsline {section}{\numberline {1.3}Article 3a\@DP  Champs de Technique}{4}{section.1.3}}
\newlabel{art3a}{{1.3}{4}{Article 3a: Champs de Technique\relax }{section.1.3}{}}
\@writefile{toc}{\contentsline {section}{\numberline {1.4}Article 4\@DP  R\`{e}les de Brevetabilit\'{e}}{4}{section.1.4}}
\newlabel{art4}{{1.4}{4}{Article 4: R\`{e}les de Brevetabilit\'{e}\relax }{section.1.4}{}}
\@writefile{toc}{\contentsline {section}{\numberline {1.5}Article 4a\@DP  Exclusions de la brevetabilit\'{e}}{5}{section.1.5}}
\newlabel{art4a}{{1.5}{5}{Article 4a: Exclusions de la brevetabilit\'{e}\relax }{section.1.5}{}}
\@writefile{toc}{\contentsline {section}{\numberline {1.6}Article 5\@DP  Formulation de la revendication et autres dispositions}{5}{section.1.6}}
\newlabel{art5}{{1.6}{5}{Article 5: Formulation de la revendication et autres dispositions\relax }{section.1.6}{}}
\@writefile{toc}{\contentsline {section}{\numberline {1.7}Article 6\@DP  Interop\'{e}rabilit\'{e}}{5}{section.1.7}}
\newlabel{art6}{{1.7}{5}{Article 6: Interop\'{e}rabilit\'{e}\relax }{section.1.7}{}}
\@writefile{toc}{\contentsline {chapter}{\numberline {2}Liens Annot\'{e}s}{7}{chapter.2}}
\@writefile{lof}{\addvspace {10\p@ }}
\@writefile{lot}{\addvspace {10\p@ }}
\newlabel{links}{{2}{7}{Liens Annot\'{e}s\relax }{chapter.2}{}}
