\BOOKMARK [0][-]{chapter.1}{The Text}{}
\BOOKMARK [1][-]{section.1.1}{Article 1: Purpose}{chapter.1}
\BOOKMARK [1][-]{section.1.2}{Article 2: Definitions}{chapter.1}
\BOOKMARK [1][-]{section.1.3}{Article 3a: Fields of Technology}{chapter.1}
\BOOKMARK [1][-]{section.1.4}{Article 4: Rules of Patentability}{chapter.1}
\BOOKMARK [1][-]{section.1.5}{Article 4a: Cause di esclusione dalla brevettabilit\340}{chapter.1}
\BOOKMARK [1][-]{section.1.6}{Article 5: Form of Claims; and further provisions}{chapter.1}
\BOOKMARK [1][-]{section.1.7}{Article 6: Interoperability}{chapter.1}
\BOOKMARK [0][-]{chapter.2}{Annotated Links}{}
