\contentsline {chapter}{\numberline {1}Der Text}{4}{chapter.1}
\contentsline {section}{\numberline {1.1}Artikel 1: Zweck}{4}{section.1.1}
\contentsline {section}{\numberline {1.2}Artikel 2: Definitionen}{4}{section.1.2}
\contentsline {section}{\numberline {1.3}Artikel 3a: Gebiete der Technik}{4}{section.1.3}
\contentsline {section}{\numberline {1.4}Artikel 4: Regeln der Patentierbarkeit}{4}{section.1.4}
\contentsline {section}{\numberline {1.5}Artikel 4a: Ausschluss von der Patentierbarkeit}{5}{section.1.5}
\contentsline {section}{\numberline {1.6}Artikel 5: Anspruchsformen und weitere Bestimmungen}{5}{section.1.6}
\contentsline {section}{\numberline {1.7}Artikel 6: Interoperabilit\"{a}t}{5}{section.1.7}
\contentsline {chapter}{\numberline {2}Kommentierte Verweise}{6}{chapter.2}
