\select@language {french}
\select@language {french}
\contentsline {chapter}{\numberline {1}Le Texte}{4}{chapter.1}
\contentsline {section}{\numberline {1.1}Article 1\@DP Objectif}{4}{section.1.1}
\contentsline {section}{\numberline {1.2}Article 2\@DP D\'{e}finitions}{4}{section.1.2}
\contentsline {section}{\numberline {1.3}Article 3a\@DP Champs de Technique}{4}{section.1.3}
\contentsline {section}{\numberline {1.4}Article 4\@DP R\`{e}les de Brevetabilit\'{e}}{4}{section.1.4}
\contentsline {section}{\numberline {1.5}Article 4a\@DP Exclusions de la brevetabilit\'{e}}{5}{section.1.5}
\contentsline {section}{\numberline {1.6}Article 5\@DP Formulation de la revendication et autres dispositions}{5}{section.1.6}
\contentsline {section}{\numberline {1.7}Article 6\@DP Interop\'{e}rabilit\'{e}}{5}{section.1.7}
\contentsline {chapter}{\numberline {2}Liens Annot\'{e}s}{7}{chapter.2}
