\relax 
\ifx\hyper@anchor\@undefined
\global \let \oldcontentsline\contentsline
\gdef \contentsline#1#2#3#4{\oldcontentsline{#1}{#2}{#3}}
\global \let \oldnewlabel\newlabel
\gdef \newlabel#1#2{\newlabelxx{#1}#2}
\gdef \newlabelxx#1#2#3#4#5#6{\oldnewlabel{#1}{{#2}{#3}}}
\AtEndDocument{\let \contentsline\oldcontentsline
\let \newlabel\oldnewlabel}
\else
\global \let \hyper@last\relax 
\fi

\@writefile{toc}{\contentsline {chapter}{\numberline {1}Der Text}{4}{chapter.1}}
\@writefile{lof}{\addvspace {10\p@ }}
\@writefile{lot}{\addvspace {10\p@ }}
\newlabel{text}{{1}{4}{Der Text\relax }{chapter.1}{}}
\@writefile{toc}{\contentsline {section}{\numberline {1.1}Artikel 1: Zweck}{4}{section.1.1}}
\newlabel{art1}{{1.1}{4}{Artikel 1: Zweck\relax }{section.1.1}{}}
\@writefile{toc}{\contentsline {section}{\numberline {1.2}Artikel 2: Definitionen}{4}{section.1.2}}
\newlabel{art2}{{1.2}{4}{Artikel 2: Definitionen\relax }{section.1.2}{}}
\@writefile{toc}{\contentsline {section}{\numberline {1.3}Artikel 3a: Gebiete der Technik}{4}{section.1.3}}
\newlabel{art3a}{{1.3}{4}{Artikel 3a: Gebiete der Technik\relax }{section.1.3}{}}
\@writefile{toc}{\contentsline {section}{\numberline {1.4}Artikel 4: Regeln der Patentierbarkeit}{4}{section.1.4}}
\newlabel{art4}{{1.4}{4}{Artikel 4: Regeln der Patentierbarkeit\relax }{section.1.4}{}}
\@writefile{toc}{\contentsline {section}{\numberline {1.5}Artikel 4a: Ausschluss von der Patentierbarkeit}{5}{section.1.5}}
\newlabel{art4a}{{1.5}{5}{Artikel 4a: Ausschluss von der Patentierbarkeit\relax }{section.1.5}{}}
\@writefile{toc}{\contentsline {section}{\numberline {1.6}Artikel 5: Anspruchsformen und weitere Bestimmungen}{5}{section.1.6}}
\newlabel{art5}{{1.6}{5}{Artikel 5: Anspruchsformen und weitere Bestimmungen\relax }{section.1.6}{}}
\@writefile{toc}{\contentsline {section}{\numberline {1.7}Artikel 6: Interoperabilit\"{a}t}{5}{section.1.7}}
\newlabel{art6}{{1.7}{5}{Artikel 6: Interoperabilit\"{a}t\relax }{section.1.7}{}}
\@writefile{toc}{\contentsline {chapter}{\numberline {2}Kommentierte Verweise}{6}{chapter.2}}
\@writefile{lof}{\addvspace {10\p@ }}
\@writefile{lot}{\addvspace {10\p@ }}
\newlabel{links}{{2}{6}{Kommentierte Verweise\relax }{chapter.2}{}}
