\relax 
\catcode`"\active
\ifx\hyper@anchor\@undefined
\global \let \oldcontentsline\contentsline
\gdef \contentsline#1#2#3#4{\oldcontentsline{#1}{#2}{#3}}
\global \let \oldnewlabel\newlabel
\gdef \newlabel#1#2{\newlabelxx{#1}#2}
\gdef \newlabelxx#1#2#3#4#5#6{\oldnewlabel{#1}{{#2}{#3}}}
\AtEndDocument{\let \contentsline\oldcontentsline
\let \newlabel\oldnewlabel}
\else
\global \let \hyper@last\relax 
\fi

\select@language{italian}
\@writefile{toc}{\select@language{italian}}
\@writefile{lof}{\select@language{italian}}
\@writefile{lot}{\select@language{italian}}
\@writefile{toc}{\contentsline {chapter}{\numberline {1}The Text}{4}{chapter.1}}
\@writefile{lof}{\addvspace {10\p@ }}
\@writefile{lot}{\addvspace {10\p@ }}
\newlabel{text}{{1}{4}{The Text\relax }{chapter.1}{}}
\@writefile{toc}{\contentsline {section}{\numberline {1.1}Article 1: Purpose}{4}{section.1.1}}
\newlabel{art1}{{1.1}{4}{Article 1: Purpose\relax }{section.1.1}{}}
\@writefile{toc}{\contentsline {section}{\numberline {1.2}Article 2: Definitions}{4}{section.1.2}}
\newlabel{art2}{{1.2}{4}{Article 2: Definitions\relax }{section.1.2}{}}
\@writefile{toc}{\contentsline {section}{\numberline {1.3}Article 3a: Fields of Technology}{4}{section.1.3}}
\newlabel{art3a}{{1.3}{4}{Article 3a: Fields of Technology\relax }{section.1.3}{}}
\@writefile{toc}{\contentsline {section}{\numberline {1.4}Article 4: Rules of Patentability}{4}{section.1.4}}
\newlabel{art4}{{1.4}{4}{Article 4: Rules of Patentability\relax }{section.1.4}{}}
\@writefile{toc}{\contentsline {section}{\numberline {1.5}Article 4a: Cause di esclusione dalla brevettabilit\`{a}}{5}{section.1.5}}
\newlabel{art4a}{{1.5}{5}{Article 4a: Cause di esclusione dalla brevettabilit\`{a}\relax }{section.1.5}{}}
\@writefile{toc}{\contentsline {section}{\numberline {1.6}Article 5: Form of Claims; and further provisions}{5}{section.1.6}}
\newlabel{art5}{{1.6}{5}{Article 5: Form of Claims; and further provisions\relax }{section.1.6}{}}
\@writefile{toc}{\contentsline {section}{\numberline {1.7}Article 6: Interoperability}{5}{section.1.7}}
\newlabel{art6}{{1.7}{5}{Article 6: Interoperability\relax }{section.1.7}{}}
\@writefile{toc}{\contentsline {chapter}{\numberline {2}Annotated Links}{6}{chapter.2}}
\@writefile{lof}{\addvspace {10\p@ }}
\@writefile{lot}{\addvspace {10\p@ }}
\newlabel{links}{{2}{6}{Annotated Links\relax }{chapter.2}{}}
