\relax 
\ifx\hyper@anchor\@undefined
\global \let \oldcontentsline\contentsline
\gdef \contentsline#1#2#3#4{\oldcontentsline{#1}{#2}{#3}}
\global \let \oldnewlabel\newlabel
\gdef \newlabel#1#2{\newlabelxx{#1}#2}
\gdef \newlabelxx#1#2#3#4#5#6{\oldnewlabel{#1}{{#2}{#3}}}
\AtEndDocument{\let \contentsline\oldcontentsline
\let \newlabel\oldnewlabel}
\else
\global \let \hyper@last\relax 
\fi

\@writefile{toc}{\contentsline {section}{\numberline {1}Time and Place}{1}{section.1}}
\newlabel{tmplok}{{1}{1}{Time and Place\relax }{section.1}{}}
\@writefile{toc}{\contentsline {section}{\numberline {2}Program Proposal}{1}{section.2}}
\newlabel{prog}{{2}{1}{Program Proposal\relax }{section.2}{}}
\gdef \LT@i{\omit \kern 184.78835pt&\omit \kern 184.38835pt}
\@writefile{toc}{\contentsline {section}{\numberline {3}Annotated Links}{3}{section.3}}
\newlabel{links}{{3}{3}{Annotated Links\relax }{section.3}{}}
\@writefile{toc}{\contentsline {section}{\numberline {4}Questions, Things To Do, How you can Help}{3}{section.4}}
\newlabel{tasks}{{4}{3}{Questions, Things To Do, How you can Help\relax }{section.4}{}}
