\relax 
\ifx\hyper@anchor\@undefined
\global \let \oldcontentsline\contentsline
\gdef \contentsline#1#2#3#4{\oldcontentsline{#1}{#2}{#3}}
\global \let \oldnewlabel\newlabel
\gdef \newlabel#1#2{\newlabelxx{#1}#2}
\gdef \newlabelxx#1#2#3#4#5#6{\oldnewlabel{#1}{{#2}{#3}}}
\AtEndDocument{\let \contentsline\oldcontentsline
\let \newlabel\oldnewlabel}
\else
\global \let \hyper@last\relax 
\fi

\@writefile{toc}{\contentsline {section}{\numberline {1}Zeit und Ort}{1}{section.1}}
\newlabel{tmplok}{{1}{1}{Zeit und Ort\relax }{section.1}{}}
\@writefile{toc}{\contentsline {section}{\numberline {2}Programmvorschlag}{1}{section.2}}
\newlabel{prog}{{2}{1}{Programmvorschlag\relax }{section.2}{}}
\gdef \LT@i{\omit \kern 184.78835pt&\omit \kern 184.38835pt}
\@writefile{toc}{\contentsline {section}{\numberline {3}Kommentierte Verweise}{3}{section.3}}
\newlabel{links}{{3}{3}{Kommentierte Verweise\relax }{section.3}{}}
\@writefile{toc}{\contentsline {section}{\numberline {4}Fragen, Aufgaben, Wie Sie helfen k\"{o}nnen}{3}{section.4}}
\newlabel{tasks}{{4}{3}{Fragen, Aufgaben, Wie Sie helfen k\"{o}nnen\relax }{section.4}{}}
