\select@language {french}
\select@language {french}
\contentsline {section}{\numberline {1}Temp et Lieu}{1}{section.0.1}
\contentsline {section}{\numberline {2}Propos de Programme}{2}{section.0.2}
\contentsline {section}{\numberline {3}Liens Annot\'{e}s}{3}{section.0.3}
\contentsline {section}{\numberline {4}Questions, Choses \`{a} faires, Comment vous pouvez aider}{3}{section.0.4}
