\contentsline {section}{\numberline {1}Time and Place}{1}{section.1}
\contentsline {section}{\numberline {2}Program Proposal}{1}{section.2}
\contentsline {section}{\numberline {3}Annotated Links}{3}{section.3}
\contentsline {section}{\numberline {4}Questions, Things To Do, How you can Help}{3}{section.4}
