\contentsline {section}{\numberline {1}Zeit und Ort}{1}{section.1}
\contentsline {section}{\numberline {2}Programmvorschlag}{1}{section.2}
\contentsline {section}{\numberline {3}Kommentierte Verweise}{3}{section.3}
\contentsline {section}{\numberline {4}Fragen, Aufgaben, Wie Sie helfen k\"{o}nnen}{3}{section.4}
