\contentsline {section}{\numberline {1}Media Contacts}{2}{section.1}
\contentsline {section}{\numberline {2}Permanent URL of this Press Release}{2}{section.2}
\contentsline {section}{\numberline {3}Annotated Links}{2}{section.3}
