\contentsline {paragraph}{Duitsland}{1}{section*.3}
\contentsline {paragraph}{Hongarije}{2}{section*.4}
\contentsline {paragraph}{Polen}{2}{section*.5}
\contentsline {paragraph}{Denemarken}{2}{section*.6}
\contentsline {paragraph}{Nederland}{3}{section*.7}
\contentsline {paragraph}{Luxemburg, Estland, Letland, Sloveni\"{e}}{3}{section*.8}
\contentsline {paragraph}{Frankrijk\ etc}{3}{section*.9}
\contentsline {paragraph}{Commissie: DG Interne Markt liegt om andere DG's programmaconclusies te laten aanvaarden}{3}{section*.10}
