\relax 
\ifx\hyper@anchor\@undefined
\global \let \oldcontentsline\contentsline
\gdef \contentsline#1#2#3#4{\oldcontentsline{#1}{#2}{#3}}
\global \let \oldnewlabel\newlabel
\gdef \newlabel#1#2{\newlabelxx{#1}#2}
\gdef \newlabelxx#1#2#3#4#5#6{\oldnewlabel{#1}{{#2}{#3}}}
\AtEndDocument{\let \contentsline\oldcontentsline
\let \newlabel\oldnewlabel}
\else
\global \let \hyper@last\relax 
\fi

\newlabel{de}{{}{1}{Duitsland\relax }{section*.3}{}}
\@writefile{toc}{\contentsline {paragraph}{Duitsland}{1}{section*.3}}
\newlabel{hu}{{}{2}{Hongarije\relax }{section*.4}{}}
\@writefile{toc}{\contentsline {paragraph}{Hongarije}{2}{section*.4}}
\newlabel{pl}{{}{2}{Polen\relax }{section*.5}{}}
\@writefile{toc}{\contentsline {paragraph}{Polen}{2}{section*.5}}
\newlabel{dk}{{}{2}{Denemarken\relax }{section*.6}{}}
\@writefile{toc}{\contentsline {paragraph}{Denemarken}{2}{section*.6}}
\newlabel{nl}{{}{3}{Nederland\relax }{section*.7}{}}
\@writefile{toc}{\contentsline {paragraph}{Nederland}{3}{section*.7}}
\newlabel{ee}{{}{3}{Luxemburg, Estland, Letland, Sloveni\"{e}\relax }{section*.8}{}}
\@writefile{toc}{\contentsline {paragraph}{Luxemburg, Estland, Letland, Sloveni\"{e}}{3}{section*.8}}
\newlabel{fr}{{}{3}{Frankrijk\ etc\relax }{section*.9}{}}
\@writefile{toc}{\contentsline {paragraph}{Frankrijk\ etc}{3}{section*.9}}
\newlabel{cec}{{}{3}{Commissie: DG Interne Markt liegt om andere DG's programmaconclusies te laten aanvaarden\relax }{section*.10}{}}
\@writefile{toc}{\contentsline {paragraph}{Commissie: DG Interne Markt liegt om andere DG's programmaconclusies te laten aanvaarden}{3}{section*.10}}
\gdef\scr@tpo@lst{0}
