\relax 
\ifx\hyper@anchor\@undefined
\global \let \oldcontentsline\contentsline
\gdef \contentsline#1#2#3#4{\oldcontentsline{#1}{#2}{#3}}
\global \let \oldnewlabel\newlabel
\gdef \newlabel#1#2{\newlabelxx{#1}#2}
\gdef \newlabelxx#1#2#3#4#5#6{\oldnewlabel{#1}{{#2}{#3}}}
\AtEndDocument{\let \contentsline\oldcontentsline
\let \newlabel\oldnewlabel}
\else
\global \let \hyper@last\relax 
\fi

\newlabel{intro}{{1}{1}{Introduction\label {intro}\relax }{section.1}{}}
\@writefile{toc}{\contentsline {section}{\numberline {1}Introduction}{1}{section.1}}
\newlabel{text}{{2}{1}{The Annotated Text\label {text}\relax }{section.2}{}}
\@writefile{toc}{\contentsline {section}{\numberline {2}The Annotated Text}{1}{section.2}}
\newlabel{emem}{{2.1}{1}{``EXPLANATORY MEMORANDUM''\label {emem}\relax }{subsection.2.1}{}}
\@writefile{toc}{\contentsline {subsection}{\numberline {2.1}``EXPLANATORY MEMORANDUM''}{1}{subsection.2.1}}
\newlabel{appr}{{2.2}{8}{``The approach adopted''\label {appr}\relax }{subsection.2.2}{}}
\@writefile{toc}{\contentsline {subsection}{\numberline {2.2}``The approach adopted''}{8}{subsection.2.2}}
\newlabel{legb}{{2.3}{10}{``The legal basis for harmonisation''\label {legb}\relax }{subsection.2.3}{}}
\@writefile{toc}{\contentsline {subsection}{\numberline {2.3}``The legal basis for harmonisation''}{10}{subsection.2.3}}
\newlabel{expa}{{2.4}{10}{``Explanation of the Directive article by article''\label {expa}\relax }{subsection.2.4}{}}
\@writefile{toc}{\contentsline {subsection}{\numberline {2.4}``Explanation of the Directive article by article''}{10}{subsection.2.4}}
\newlabel{prop}{{2.5}{12}{The Proposal\label {prop}\relax }{subsection.2.5}{}}
\@writefile{toc}{\contentsline {subsection}{\numberline {2.5}The Proposal}{12}{subsection.2.5}}
\newlabel{fins}{{2.6}{16}{``FINANCIAL STATEMENT''\label {fins}\relax }{subsection.2.6}{}}
\@writefile{toc}{\contentsline {subsection}{\numberline {2.6}``FINANCIAL STATEMENT''}{16}{subsection.2.6}}
\newlabel{aims}{{2.7}{17}{``The Proposal''\label {aims}\relax }{subsection.2.7}{}}
\@writefile{toc}{\contentsline {subsection}{\numberline {2.7}``The Proposal''}{17}{subsection.2.7}}
\newlabel{fnot}{{2.8}{22}{Footnotes\label {fnot}\relax }{subsection.2.8}{}}
\@writefile{toc}{\contentsline {subsection}{\numberline {2.8}Footnotes}{22}{subsection.2.8}}
\newlabel{ref}{{3}{25}{Further Reading\label {ref}\relax }{section.3}{}}
\@writefile{toc}{\contentsline {section}{\numberline {3}Further Reading}{25}{section.3}}
