\relax 
\ifx\hyper@anchor\@undefined
\global \let \oldcontentsline\contentsline
\gdef \contentsline#1#2#3#4{\oldcontentsline{#1}{#2}{#3}}
\global \let \oldnewlabel\newlabel
\gdef \newlabel#1#2{\newlabelxx{#1}#2}
\gdef \newlabelxx#1#2#3#4#5#6{\oldnewlabel{#1}{{#2}{#3}}}
\AtEndDocument{\let \contentsline\oldcontentsline
\let \newlabel\oldnewlabel}
\else
\global \let \hyper@last\relax 
\fi

\@writefile{toc}{\contentsline {section}{\numberline {1}2004-07-05 Brief von BVMW, Patentverein und FFII}{2}{section.1}}
\newlabel{bvmw}{{1}{2}{2004-07-05 Brief von BVMW, Patentverein und FFII\relax }{section.1}{}}
\@writefile{toc}{\contentsline {section}{\numberline {2}2004-09-01 Antwort von Brigitte Zypries}{3}{section.2}}
\newlabel{zypries}{{2}{3}{2004-09-01 Antwort von Brigitte Zypries\relax }{section.2}{}}
\@writefile{toc}{\contentsline {section}{\numberline {3}Kritik an Zypries-Brief}{4}{section.3}}
\newlabel{kritik}{{3}{4}{Kritik an Zypries-Brief\relax }{section.3}{}}
\gdef\scr@tpo@lst{0}
