\contentsline {section}{\numberline {1}2004-07-05 Brief von BVMW, Patentverein und FFII}{2}{section.1}
\contentsline {section}{\numberline {2}2004-09-01 Antwort von Brigitte Zypries}{3}{section.2}
\contentsline {section}{\numberline {3}Kritik an Zypries-Brief}{4}{section.3}
