\relax 
\ifx\hyper@anchor\@undefined
\global \let \oldcontentsline\contentsline
\gdef \contentsline#1#2#3#4{\oldcontentsline{#1}{#2}{#3}}
\global \let \oldnewlabel\newlabel
\gdef \newlabel#1#2{\newlabelxx{#1}#2}
\gdef \newlabelxx#1#2#3#4#5#6{\oldnewlabel{#1}{{#2}{#3}}}
\AtEndDocument{\let \contentsline\oldcontentsline
\let \newlabel\oldnewlabel}
\else
\global \let \hyper@last\relax 
\fi

\@writefile{toc}{\contentsline {section}{\numberline {1}Questions submitted by Piia-Noora Kauppi MEP}{1}{section.1}}
\newlabel{kauppi}{{1}{1}{Questions submitted by Piia-Noora Kauppi MEP\relax }{section.1}{}}
\@writefile{toc}{\contentsline {section}{\numberline {2}Other Issues}{3}{section.2}}
\newlabel{etc}{{2}{3}{Other Issues\relax }{section.2}{}}
\@writefile{toc}{\contentsline {section}{\numberline {3}Annotated Links}{4}{section.3}}
\newlabel{links}{{3}{4}{Annotated Links\relax }{section.3}{}}
