\contentsline {section}{\numberline {1}Questions submitted by Piia-Noora Kauppi MEP}{1}{section.1}
\contentsline {section}{\numberline {2}Other Issues}{3}{section.2}
\contentsline {section}{\numberline {3}Annotated Links}{4}{section.3}
