\relax 
\catcode`"\active
\ifx\hyper@anchor\@undefined
\global \let \oldcontentsline\contentsline
\gdef \contentsline#1#2#3#4{\oldcontentsline{#1}{#2}{#3}}
\global \let \oldnewlabel\newlabel
\gdef \newlabel#1#2{\newlabelxx{#1}#2}
\gdef \newlabelxx#1#2#3#4#5#6{\oldnewlabel{#1}{{#2}{#3}}}
\AtEndDocument{\let \contentsline\oldcontentsline
\let \newlabel\oldnewlabel}
\else
\global \let \hyper@last\relax 
\fi

\select@language{portuguese}
\@writefile{toc}{\select@language{portuguese}}
\@writefile{lof}{\select@language{portuguese}}
\@writefile{lot}{\select@language{portuguese}}
\@writefile{toc}{\contentsline {section}{\numberline {1}Reac\c {c}\~{o}es \`{a} posi\c {c}\~{a}o do Grupo de Trabalho do Conselho}{2}{section.1}}
\newlabel{reag}{{1}{2}{Reac\c {c}\~{o}es \`{a} posi\c {c}\~{a}o do Grupo de Trabalho do Conselho\relax }{section.1}{}}
\@writefile{toc}{\contentsline {subsection}{\numberline {1.1}Anne Van Lancker (Eurodeputado, BE, PES): Parlamento Anulado por Administradores de Gabinetes de Patentes}{2}{subsection.1.1}}
\newlabel{lancker}{{1.1}{2}{Anne Van Lancker (Eurodeputado, BE, PES): Parlamento Anulado por Administradores de Gabinetes de Patentes\relax }{subsection.1.1}{}}
\@writefile{toc}{\contentsline {subsection}{\numberline {1.2}Piia-Noora Kauppi (Eurodeputado, FI, EPP-DE): Conselho Ignora Representantes Eleitos}{3}{subsection.1.2}}
\newlabel{pkauppi}{{1.2}{3}{Piia-Noora Kauppi (Eurodeputado, FI, EPP-DE): Conselho Ignora Representantes Eleitos\relax }{subsection.1.2}{}}
\@writefile{toc}{\contentsline {subsection}{\numberline {1.3}Pernille Frahm (Eurodeputado, DK, GUE): Conselho e Comiss\~{a}o Falham no Trabalho-de-casa}{3}{subsection.1.3}}
\newlabel{pfrahm}{{1.3}{3}{Pernille Frahm (Eurodeputado, DK, GUE): Conselho e Comiss\~{a}o Falham no Trabalho-de-casa\relax }{subsection.1.3}{}}
\@writefile{toc}{\contentsline {subsection}{\numberline {1.4}Daniel Cohn-Bendit (Eurodeputado, FR, VERD): Administradores de Patentes N\~{a}o Est\~{a}o Interessados em ``Harmoniza\c {c}\~{a}o nem Clarifica\c {c}\~{a}o'' mas apenas em ...}{3}{subsection.1.4}}
\newlabel{dcb}{{1.4}{3}{Daniel Cohn-Bendit (Eurodeputado, FR, VERD): Administradores de Patentes N\~{a}o Est\~{a}o Interessados em ``Harmoniza\c {c}\~{a}o nem Clarifica\c {c}\~{a}o'' mas apenas em ..}{subsection.1.4}{}}
\@writefile{toc}{\contentsline {subsection}{\numberline {1.5}Bent Hindrup Andersen (Eurodeputado, DK, EDD): Movimenta\c {c}\~{a}o do Conselho Exp\~{o}e Falta de Democracia na UE}{4}{subsection.1.5}}
\newlabel{hindrup}{{1.5}{4}{Bent Hindrup Andersen (Eurodeputado, DK, EDD): Movimenta\c {c}\~{a}o do Conselho Exp\~{o}e Falta de Democracia na UE\relax }{subsection.1.5}{}}
\@writefile{toc}{\contentsline {subsection}{\numberline {1.6}Johanna Boogerd-Quaak (Eurodeputado, NL, ELDR): Presidencia Irlandesa Protege Companhias dos EUA de Competi\c {c}\~{a}o Europeia}{4}{subsection.1.6}}
\newlabel{boogerd}{{1.6}{4}{Johanna Boogerd-Quaak (Eurodeputado, NL, ELDR): Presidencia Irlandesa Protege Companhias dos EUA de Competi\c {c}\~{a}o Europeia\relax }{subsection.1.6}{}}
\@writefile{toc}{\contentsline {subsection}{\numberline {1.7}Aufrufe zum Handeln}{5}{subsection.1.7}}
\newlabel{cpedu}{{1.7}{5}{Aufrufe zum Handeln\relax }{subsection.1.7}{}}
\@writefile{toc}{\contentsline {section}{\numberline {2}Detaily}{5}{section.2}}
\newlabel{detal}{{2}{5}{Detaily\relax }{section.2}{}}
\@writefile{toc}{\contentsline {section}{\numberline {3}Mais informa\c {c}\~{a}o ppreparativa}{6}{section.3}}
\newlabel{bakgr}{{3}{6}{Mais informa\c {c}\~{a}o ppreparativa\relax }{section.3}{}}
\@writefile{toc}{\contentsline {section}{\numberline {4}Contactos para os media}{6}{section.4}}
\newlabel{media}{{4}{6}{Contactos para os media\relax }{section.4}{}}
\@writefile{toc}{\contentsline {section}{\numberline {5}Sobre a FFII -- www.ffii.org}{7}{section.5}}
\newlabel{ffii}{{5}{7}{Sobre a FFII -- www.ffii.org\relax }{section.5}{}}
\@writefile{toc}{\contentsline {section}{\numberline {6}URL permanente deste Press Release}{7}{section.6}}
\newlabel{url}{{6}{7}{URL permanente deste Press Release\relax }{section.6}{}}
\gdef\scr@tpo@lst{0}
