\relax 
\ifx\hyper@anchor\@undefined
\global \let \oldcontentsline\contentsline
\gdef \contentsline#1#2#3#4{\oldcontentsline{#1}{#2}{#3}}
\global \let \oldnewlabel\newlabel
\gdef \newlabel#1#2{\newlabelxx{#1}#2}
\gdef \newlabelxx#1#2#3#4#5#6{\oldnewlabel{#1}{{#2}{#3}}}
\AtEndDocument{\let \contentsline\oldcontentsline
\let \newlabel\oldnewlabel}
\else
\global \let \hyper@last\relax 
\fi

\@writefile{toc}{\contentsline {section}{\numberline {1}Ratsvorschl\"{a}ge von MdEPs aller Fraktionen verurteilt}{2}{section.1}}
\newlabel{reag}{{1}{2}{Ratsvorschl\"{a}ge von MdEPs aller Fraktionen verurteilt\relax }{section.1}{}}
\@writefile{toc}{\contentsline {subsection}{\numberline {1.1}Anne Van Lancker (MdEP, BE, PES): Parlament durch Patentamtsfunktion\"{a}re \"{u}berstimmt}{2}{subsection.1.1}}
\newlabel{lancker}{{1.1}{2}{Anne Van Lancker (MdEP, BE, PES): Parlament durch Patentamtsfunktion\"{a}re \"{u}berstimmt\relax }{subsection.1.1}{}}
\@writefile{toc}{\contentsline {subsection}{\numberline {1.2}Piia-Noora Kauppi (MdEP, FI, EPP-DE): Rat ignoriert gew\"{a}hlte Vertreter}{3}{subsection.1.2}}
\newlabel{pkauppi}{{1.2}{3}{Piia-Noora Kauppi (MdEP, FI, EPP-DE): Rat ignoriert gew\"{a}hlte Vertreter\relax }{subsection.1.2}{}}
\@writefile{toc}{\contentsline {subsection}{\numberline {1.3}Pernille Frahm (MdEP, DK, GUE): Rat und Kommission machten ihre Hausarbeiten nicht}{3}{subsection.1.3}}
\newlabel{pfrahm}{{1.3}{3}{Pernille Frahm (MdEP, DK, GUE): Rat und Kommission machten ihre Hausarbeiten nicht\relax }{subsection.1.3}{}}
\@writefile{toc}{\contentsline {subsection}{\numberline {1.4}Daniel Cohn-Bendit (MdEP, FR, VERD): Patentfunktion\"{a}re nicht interessiert an ``Harmonisierung und Klarstellung''}{3}{subsection.1.4}}
\newlabel{dcb}{{1.4}{3}{Daniel Cohn-Bendit (MdEP, FR, VERD): Patentfunktion\"{a}re nicht interessiert an ``Harmonisierung und Klarstellung''\relax }{subsection.1.4}{}}
\@writefile{toc}{\contentsline {subsection}{\numberline {1.5}Bent Hindrup Andersen (MdEP, DK, EDD): Ratsman\"{o}ver zeigt Demokratiedefizit der EU auf}{4}{subsection.1.5}}
\newlabel{hindrup}{{1.5}{4}{Bent Hindrup Andersen (MdEP, DK, EDD): Ratsman\"{o}ver zeigt Demokratiedefizit der EU auf\relax }{subsection.1.5}{}}
\@writefile{toc}{\contentsline {subsection}{\numberline {1.6}Johanna Boogerd-Quaak (MdEP, NL, ELDR): Irische Ratspr\"{a}sidentschaft sch\"{u}tzt US-Konzerne vor EU-Wettbewerb}{4}{subsection.1.6}}
\newlabel{boogerd}{{1.6}{4}{Johanna Boogerd-Quaak (MdEP, NL, ELDR): Irische Ratspr\"{a}sidentschaft sch\"{u}tzt US-Konzerne vor EU-Wettbewerb\relax }{subsection.1.6}{}}
\@writefile{toc}{\contentsline {subsection}{\numberline {1.7}Aufrufe zum Handeln}{5}{subsection.1.7}}
\newlabel{cpedu}{{1.7}{5}{Aufrufe zum Handeln\relax }{subsection.1.7}{}}
\@writefile{toc}{\contentsline {section}{\numberline {2}Detaily}{5}{section.2}}
\newlabel{detal}{{2}{5}{Detaily\relax }{section.2}{}}
\@writefile{toc}{\contentsline {section}{\numberline {3}Weitere Hintergrundinformationen}{6}{section.3}}
\newlabel{bakgr}{{3}{6}{Weitere Hintergrundinformationen\relax }{section.3}{}}
\@writefile{toc}{\contentsline {section}{\numberline {4}Pressekontakte}{7}{section.4}}
\newlabel{media}{{4}{7}{Pressekontakte\relax }{section.4}{}}
\@writefile{toc}{\contentsline {section}{\numberline {5}\"{U}ber den FFII -- www.ffii.org}{7}{section.5}}
\newlabel{ffii}{{5}{7}{\"{U}ber den FFII -- www.ffii.org\relax }{section.5}{}}
\@writefile{toc}{\contentsline {section}{\numberline {6}St\"{a}ndige Netzadresse dieser Mitteilung}{7}{section.6}}
\newlabel{url}{{6}{7}{St\"{a}ndige Netzadresse dieser Mitteilung\relax }{section.6}{}}
\gdef\scr@tpo@lst{0}
