\relax 
\catcode`:\active
\catcode`;\active
\catcode`!\active
\catcode`?\active
\ifx\hyper@anchor\@undefined
\global \let \oldcontentsline\contentsline
\gdef \contentsline#1#2#3#4{\oldcontentsline{#1}{#2}{#3}}
\global \let \oldnewlabel\newlabel
\gdef \newlabel#1#2{\newlabelxx{#1}#2}
\gdef \newlabelxx#1#2#3#4#5#6{\oldnewlabel{#1}{{#2}{#3}}}
\AtEndDocument{\let \contentsline\oldcontentsline
\let \newlabel\oldnewlabel}
\else
\global \let \hyper@last\relax 
\fi

\select@language{french}
\@writefile{toc}{\select@language{french}}
\@writefile{lof}{\select@language{french}}
\@writefile{lot}{\select@language{french}}
\@writefile{toc}{\contentsline {section}{\numberline {1}Une proposition fustig\'{e}e par des d\'{e}put\'{e}s europ\'{e}ens de tous bords}{2}{section.1}}
\newlabel{reag}{{1}{2}{Une proposition fustig\'{e}e par des d\'{e}put\'{e}s europ\'{e}ens de tous bords\relax }{section.1}{}}
\@writefile{toc}{\contentsline {subsection}{\numberline {1.1}Anne Van Lancker (D\'{e}put\'{e} europ\'{e}en, BE, PSE): Les administrateurs des bureaux des brevets passent outre le Parlement}{2}{subsection.1.1}}
\newlabel{lancker}{{1.1}{2}{Anne Van Lancker (D\'{e}put\'{e} europ\'{e}en, BE, PSE): Les administrateurs des bureaux des brevets passent outre le Parlement\relax }{subsection.1.1}{}}
\@writefile{toc}{\contentsline {subsection}{\numberline {1.2}Piia-Noora Kauppi (D\'{e}put\'{e} europ\'{e}en, FI, EPP-DE): Le Conseil ignore les repr\'{e}sentants \'{e}lus}{2}{subsection.1.2}}
\newlabel{pkauppi}{{1.2}{2}{Piia-Noora Kauppi (D\'{e}put\'{e} europ\'{e}en, FI, EPP-DE): Le Conseil ignore les repr\'{e}sentants \'{e}lus\relax }{subsection.1.2}{}}
\@writefile{toc}{\contentsline {subsection}{\numberline {1.3}Pernille Frahm (D\'{e}put\'{e} europ\'{e}en, DK, GUE): Le Conseil et la Commission n'ont pas fait leur travail}{2}{subsection.1.3}}
\newlabel{pfrahm}{{1.3}{2}{Pernille Frahm (D\'{e}put\'{e} europ\'{e}en, DK, GUE): Le Conseil et la Commission n'ont pas fait leur travail\relax }{subsection.1.3}{}}
\@writefile{toc}{\contentsline {subsection}{\numberline {1.4}Daniel Cohn-Bendit (D\'{e}put\'{e} europ\'{e}en, FR, VERD): Les administrateurs de brevets ne s'int\'{e}ressent pas ``\`{a} l'harmonisation ni \`{a} la clarification''}{3}{subsection.1.4}}
\newlabel{dcb}{{1.4}{3}{Daniel Cohn-Bendit (D\'{e}put\'{e} europ\'{e}en, FR, VERD): Les administrateurs de brevets ne s'int\'{e}ressent pas ``\`{a} l'harmonisation ni \`{a} la clarification''\relax }{subsection.1.4}{}}
\@writefile{toc}{\contentsline {subsection}{\numberline {1.5}Bent Hindrup Andersen (D\'{e}put\'{e} europ\'{e}en, DK, EDD): Le comportement du Conseil souligne le manque de d\'{e}mocratie dans l'UE}{3}{subsection.1.5}}
\newlabel{hindrup}{{1.5}{3}{Bent Hindrup Andersen (D\'{e}put\'{e} europ\'{e}en, DK, EDD): Le comportement du Conseil souligne le manque de d\'{e}mocratie dans l'UE\relax }{subsection.1.5}{}}
\@writefile{toc}{\contentsline {subsection}{\numberline {1.6}Johanna Boogerd-Quaak (D\'{e}put\'{e} europ\'{e}en, NL, ELDR): La pr\'{e}sidence irlandaise prot\`{e}ge les entreprises des USA contre la concurrence de l'UE}{4}{subsection.1.6}}
\newlabel{boogerd}{{1.6}{4}{Johanna Boogerd-Quaak (D\'{e}put\'{e} europ\'{e}en, NL, ELDR): La pr\'{e}sidence irlandaise prot\`{e}ge les entreprises des USA contre la concurrence de l'UE\relax }{subsection.1.6}{}}
\@writefile{toc}{\contentsline {subsection}{\numberline {1.7}Aufrufe zum Handeln}{4}{subsection.1.7}}
\newlabel{cpedu}{{1.7}{4}{Aufrufe zum Handeln\relax }{subsection.1.7}{}}
\@writefile{toc}{\contentsline {section}{\numberline {2}D\'{e}tails}{4}{section.2}}
\newlabel{detal}{{2}{4}{D\'{e}tails\relax }{section.2}{}}
\@writefile{toc}{\contentsline {section}{\numberline {3}Informations compl\'{e}mentaires sur la situation}{5}{section.3}}
\newlabel{bakgr}{{3}{5}{Informations compl\'{e}mentaires sur la situation\relax }{section.3}{}}
\@writefile{toc}{\contentsline {section}{\numberline {4}Contacts m\'{e}dia}{6}{section.4}}
\newlabel{media}{{4}{6}{Contacts m\'{e}dia\relax }{section.4}{}}
\@writefile{toc}{\contentsline {section}{\numberline {5}\`{A} propos de la FFII -- www.ffii.org}{6}{section.5}}
\newlabel{ffii}{{5}{6}{\`{A} propos de la FFII -- www.ffii.org\relax }{section.5}{}}
\@writefile{toc}{\contentsline {section}{\numberline {6}URL permanente de ce communiqu\'{e} de presse}{6}{section.6}}
\newlabel{url}{{6}{6}{URL permanente de ce communiqu\'{e} de presse\relax }{section.6}{}}
\gdef\scr@tpo@lst{0}
