\relax 
\ifx\hyper@anchor\@undefined
\global \let \oldcontentsline\contentsline
\gdef \contentsline#1#2#3#4{\oldcontentsline{#1}{#2}{#3}}
\global \let \oldnewlabel\newlabel
\gdef \newlabel#1#2{\newlabelxx{#1}#2}
\gdef \newlabelxx#1#2#3#4#5#6{\oldnewlabel{#1}{{#2}{#3}}}
\AtEndDocument{\let \contentsline\oldcontentsline
\let \newlabel\oldnewlabel}
\else
\global \let \hyper@last\relax 
\fi

\@writefile{toc}{\contentsline {section}{\numberline {1}Proposals slammed by MEPs from all sides}{2}{section.1}}
\newlabel{reag}{{1}{2}{Proposals slammed by MEPs from all sides\relax }{section.1}{}}
\@writefile{toc}{\contentsline {subsection}{\numberline {1.1}Anne Van Lancker (MEP, BE, PES): Parliament Overruled by Patent Office Administrators}{2}{subsection.1.1}}
\newlabel{lancker}{{1.1}{2}{Anne Van Lancker (MEP, BE, PES): Parliament Overruled by Patent Office Administrators\relax }{subsection.1.1}{}}
\@writefile{toc}{\contentsline {subsection}{\numberline {1.2}Piia-Noora Kauppi (MEP, FI, EPP-DE): Council Ignores Elected Representatives}{3}{subsection.1.2}}
\newlabel{pkauppi}{{1.2}{3}{Piia-Noora Kauppi (MEP, FI, EPP-DE): Council Ignores Elected Representatives\relax }{subsection.1.2}{}}
\@writefile{toc}{\contentsline {subsection}{\numberline {1.3}Pernille Frahm (MEP, DK, GUE): Council and Commission Failed to do their Homework}{3}{subsection.1.3}}
\newlabel{pfrahm}{{1.3}{3}{Pernille Frahm (MEP, DK, GUE): Council and Commission Failed to do their Homework\relax }{subsection.1.3}{}}
\@writefile{toc}{\contentsline {subsection}{\numberline {1.4}Daniel Cohn-Bendit (MEP, FR, VERD): Patent Administrators Not Interested in ``Harmonisation and Clarification''}{3}{subsection.1.4}}
\newlabel{dcb}{{1.4}{3}{Daniel Cohn-Bendit (MEP, FR, VERD): Patent Administrators Not Interested in ``Harmonisation and Clarification''\relax }{subsection.1.4}{}}
\@writefile{toc}{\contentsline {subsection}{\numberline {1.5}Bent Hindrup Andersen (MEP, DK, EDD): Council Moves Highlight Lack of Democracy in the EU}{4}{subsection.1.5}}
\newlabel{hindrup}{{1.5}{4}{Bent Hindrup Andersen (MEP, DK, EDD): Council Moves Highlight Lack of Democracy in the EU\relax }{subsection.1.5}{}}
\@writefile{toc}{\contentsline {subsection}{\numberline {1.6}Johanna Boogerd-Quaak (MEP, NL, ELDR): Irish Presidencey Protecting US Companies from EU Competition}{4}{subsection.1.6}}
\newlabel{boogerd}{{1.6}{4}{Johanna Boogerd-Quaak (MEP, NL, ELDR): Irish Presidencey Protecting US Companies from EU Competition\relax }{subsection.1.6}{}}
\@writefile{toc}{\contentsline {subsection}{\numberline {1.7}Aufrufe zum Handeln}{5}{subsection.1.7}}
\newlabel{cpedu}{{1.7}{5}{Aufrufe zum Handeln\relax }{subsection.1.7}{}}
\@writefile{toc}{\contentsline {section}{\numberline {2}Details}{5}{section.2}}
\newlabel{detal}{{2}{5}{Details\relax }{section.2}{}}
\@writefile{toc}{\contentsline {section}{\numberline {3}More Background Information}{5}{section.3}}
\newlabel{bakgr}{{3}{5}{More Background Information\relax }{section.3}{}}
\@writefile{toc}{\contentsline {section}{\numberline {4}Media contacts}{6}{section.4}}
\newlabel{media}{{4}{6}{Media contacts\relax }{section.4}{}}
\@writefile{toc}{\contentsline {section}{\numberline {5}About the FFII -- www.ffii.org}{6}{section.5}}
\newlabel{ffii}{{5}{6}{About the FFII -- www.ffii.org\relax }{section.5}{}}
\@writefile{toc}{\contentsline {section}{\numberline {6}Permanent URL of this Press Release}{7}{section.6}}
\newlabel{url}{{6}{7}{Permanent URL of this Press Release\relax }{section.6}{}}
\gdef\scr@tpo@lst{0}
