\BOOKMARK [0][-]{chapter.1}{Legende und Kommentiertes Beispiel}{}
\BOOKMARK [1][-]{section.1.1}{Titel}{chapter.1}
\BOOKMARK [0][-]{chapter.2}{Artikel und Beschlussantr\344ge}{}
\BOOKMARK [1][-]{section.2.1}{Artikel 1}{chapter.2}
\BOOKMARK [1][-]{section.2.2}{Artikel 2 \(a\)}{chapter.2}
\BOOKMARK [1][-]{section.2.3}{Artikel 2 \(b\)}{chapter.2}
\BOOKMARK [1][-]{section.2.4}{Artikel 2 \(ba\) \(neu\)}{chapter.2}
\BOOKMARK [1][-]{section.2.5}{Artikel 2 \(bb\) \(neu\)}{chapter.2}
\BOOKMARK [1][-]{section.2.6}{Artikel 2 \(bc\) \(neu\)}{chapter.2}
\BOOKMARK [1][-]{section.2.7}{Artikel 3}{chapter.2}
\BOOKMARK [1][-]{section.2.8}{Artikel 3 \(a\) \(neu\)}{chapter.2}
\BOOKMARK [1][-]{section.2.9}{Artikel 4}{chapter.2}
\BOOKMARK [1][-]{section.2.10}{Artikel 4.1}{chapter.2}
\BOOKMARK [1][-]{section.2.11}{}{chapter.2}
\BOOKMARK [1][-]{section.2.12}{Artikel 4.1 \(b\) \(neu\)}{chapter.2}
\BOOKMARK [1][-]{section.2.13}{Artikel 4.2}{chapter.2}
\BOOKMARK [1][-]{section.2.14}{Artikel 4.3}{chapter.2}
\BOOKMARK [1][-]{section.2.15}{Artikel 4.3 \(a\) \(neu\)}{chapter.2}
\BOOKMARK [1][-]{section.2.16}{Artikel 4 \(a\) \(neu\)}{chapter.2}
\BOOKMARK [1][-]{section.2.17}{Artikel 4.4 \(b\) \(neu\)}{chapter.2}
\BOOKMARK [1][-]{section.2.18}{Artikel 4 \(c\) \(neu\)}{chapter.2}
\BOOKMARK [1][-]{section.2.19}{Artikel 4.4 \(d\) \(neu\)}{chapter.2}
\BOOKMARK [1][-]{section.2.20}{Artikel 5}{chapter.2}
\BOOKMARK [1][-]{section.2.21}{Artikel 5 \(a\) \(neu\)}{chapter.2}
\BOOKMARK [1][-]{section.2.22}{Artikel 5.1a}{chapter.2}
\BOOKMARK [1][-]{section.2.23}{Artikel 5 \(b\) \(neu\)}{chapter.2}
\BOOKMARK [1][-]{section.2.24}{Artikel 5 \(c\)}{chapter.2}
\BOOKMARK [1][-]{section.2.25}{Artikel 5 \(d\)}{chapter.2}
\BOOKMARK [1][-]{section.2.26}{Artikel 6}{chapter.2}
\BOOKMARK [1][-]{section.2.27}{Artikel 6 \(a\)}{chapter.2}
\BOOKMARK [1][-]{section.2.28}{Artikel 6 \(b\)}{chapter.2}
\BOOKMARK [1][-]{section.2.29}{Artikel 7}{chapter.2}
\BOOKMARK [1][-]{section.2.30}{Artikel 7 \(Patent Insurance Extensions\)}{chapter.2}
\BOOKMARK [1][-]{section.2.31}{Artikel 8}{chapter.2}
\BOOKMARK [0][-]{chapter.3}{Ablehnung/Annahme, Titel und Erw\344gungsgr\374nde}{}
\BOOKMARK [1][-]{section.3.1}{Ablehnung/Annahme}{chapter.3}
\BOOKMARK [1][-]{section.3.2}{Titel}{chapter.3}
\BOOKMARK [1][-]{section.3.3}{Erw\344gung 1}{chapter.3}
\BOOKMARK [1][-]{section.3.4}{Erw\344gung 5}{chapter.3}
\BOOKMARK [1][-]{section.3.5}{Erw\344gung 5 \(a\) \(neu\)}{chapter.3}
\BOOKMARK [1][-]{section.3.6}{Erw\344gung 6}{chapter.3}
\BOOKMARK [1][-]{section.3.7}{Erw\344gung 7}{chapter.3}
\BOOKMARK [1][-]{section.3.8}{Erw\344gung 7 \(a\) \(neu\)}{chapter.3}
\BOOKMARK [1][-]{section.3.9}{Erw\344gung 7 \(b\) \(neu\)}{chapter.3}
\BOOKMARK [1][-]{section.3.10}{Erw\344gung 9 \(a\) \(neu\)}{chapter.3}
\BOOKMARK [1][-]{section.3.11}{Erw\344gung 11}{chapter.3}
\BOOKMARK [1][-]{section.3.12}{Erw\344gung 11 \(a\) \(neu\)}{chapter.3}
\BOOKMARK [1][-]{section.3.13}{Erw\344gung 11 \(b\) \(neu\)}{chapter.3}
\BOOKMARK [1][-]{section.3.14}{Erw\344gung 12}{chapter.3}
\BOOKMARK [1][-]{section.3.15}{Erw\344gung 13}{chapter.3}
\BOOKMARK [1][-]{section.3.16}{Erw\344gung 13a}{chapter.3}
\BOOKMARK [1][-]{section.3.17}{Erw\344gung 13b}{chapter.3}
\BOOKMARK [1][-]{section.3.18}{}{chapter.3}
\BOOKMARK [1][-]{section.3.19}{Erw\344gung 13d}{chapter.3}
\BOOKMARK [1][-]{section.3.20}{Erw\344gung 14}{chapter.3}
\BOOKMARK [1][-]{section.3.21}{Erw\344gung 16}{chapter.3}
\BOOKMARK [1][-]{section.3.22}{Erw\344gung 17}{chapter.3}
\BOOKMARK [1][-]{section.3.23}{Erw\344gung 18}{chapter.3}
\BOOKMARK [1][-]{section.3.24}{Erw\344gung 18 bis \(neu\)}{chapter.3}
\BOOKMARK [1][-]{section.3.25}{Erw\344gung 18 ter \(neu\)}{chapter.3}
\BOOKMARK [0][-]{chapter.4}{Kommentierte Verweise}{}
\BOOKMARK [0][-]{chapter.5}{Fragen, Aufgaben, Wie Sie helfen k\366nnen}{}
