\select@language {french}
\select@language {french}
\contentsline {chapter}{\numberline {1}L\'{e}gende et exemple comment\'{e}}{4}{chapter.1}
\contentsline {section}{\numberline {1.1}Titre}{4}{section.1.1}
\contentsline {chapter}{\numberline {2}Articles et Motions}{5}{chapter.2}
\contentsline {section}{\numberline {2.1}Article 1}{5}{section.2.1}
\contentsline {section}{\numberline {2.2}Article 2 (a)}{5}{section.2.2}
\contentsline {section}{\numberline {2.3}Article 2 (b)}{6}{section.2.3}
\contentsline {section}{\numberline {2.4}Article 2 (ba) (nouveau)}{8}{section.2.4}
\contentsline {section}{\numberline {2.5}Article 2 (bb) (nouveau)}{8}{section.2.5}
\contentsline {section}{\numberline {2.6}Article 2 (bc) (nouveau)}{9}{section.2.6}
\contentsline {section}{\numberline {2.7}Article 3}{9}{section.2.7}
\contentsline {section}{\numberline {2.8}Article 3 (a) (nouveau)}{10}{section.2.8}
\contentsline {section}{\numberline {2.9}Article 4}{10}{section.2.9}
\contentsline {section}{\numberline {2.10}Article 4.1}{11}{section.2.10}
\contentsline {section}{\numberline {2.11}}{11}{section.2.11}
\contentsline {section}{\numberline {2.12}Article 4.1 (b) (nouveau)}{11}{section.2.12}
\contentsline {section}{\numberline {2.13}Article 4.2}{12}{section.2.13}
\contentsline {section}{\numberline {2.14}Article 4.3}{13}{section.2.14}
\contentsline {section}{\numberline {2.15}Article 4.3 (a) (nouveau)}{14}{section.2.15}
\contentsline {section}{\numberline {2.16}Article 4.4 (b) (nouveau)}{14}{section.2.16}
\contentsline {section}{\numberline {2.17}Article 4 (c) (nouveau)}{15}{section.2.17}
\contentsline {section}{\numberline {2.18}Article 4.4 (d) (nouveau)}{15}{section.2.18}
\contentsline {section}{\numberline {2.19}Article 5}{16}{section.2.19}
\contentsline {section}{\numberline {2.20}Article 5 (a) (nouveau)}{17}{section.2.20}
\contentsline {section}{\numberline {2.21}Article 5.1a}{18}{section.2.21}
\contentsline {section}{\numberline {2.22}Article 5 (b) (nouveau)}{18}{section.2.22}
\contentsline {section}{\numberline {2.23}Article 5 (c)}{18}{section.2.23}
\contentsline {section}{\numberline {2.24}Article 6}{19}{section.2.24}
\contentsline {section}{\numberline {2.25}Article 6 (a)}{19}{section.2.25}
\contentsline {section}{\numberline {2.26}Article 6 (b)}{21}{section.2.26}
\contentsline {section}{\numberline {2.27}Article 7}{21}{section.2.27}
\contentsline {section}{\numberline {2.28}Article 7 (Patent Insurance Extensions)}{22}{section.2.28}
\contentsline {section}{\numberline {2.29}Article 8}{23}{section.2.29}
\contentsline {chapter}{\numberline {3}Rejet/Acceptation, Titre et Consid\'{e}rant}{25}{chapter.3}
\contentsline {section}{\numberline {3.1}Rejet/Acceptation}{25}{section.3.1}
\contentsline {section}{\numberline {3.2}Titre}{25}{section.3.2}
\contentsline {section}{\numberline {3.3}Recital 1}{26}{section.3.3}
\contentsline {section}{\numberline {3.4}Recital 5}{26}{section.3.4}
\contentsline {section}{\numberline {3.5}Recital 5 (a) (nouveau)}{27}{section.3.5}
\contentsline {section}{\numberline {3.6}Recital 6}{27}{section.3.6}
\contentsline {section}{\numberline {3.7}Recital 7}{28}{section.3.7}
\contentsline {section}{\numberline {3.8}Recital 7 (a) (nouveau)}{29}{section.3.8}
\contentsline {section}{\numberline {3.9}Recital 7 (b) (nouveau)}{29}{section.3.9}
\contentsline {section}{\numberline {3.10}Recital 9 (a) (nouveau)}{29}{section.3.10}
\contentsline {section}{\numberline {3.11}Recital 11}{30}{section.3.11}
\contentsline {section}{\numberline {3.12}Recital 11 (a) (nouveau)}{30}{section.3.12}
\contentsline {section}{\numberline {3.13}Recital 11 (b) (nouveau)}{31}{section.3.13}
\contentsline {section}{\numberline {3.14}Recital 12}{31}{section.3.14}
\contentsline {section}{\numberline {3.15}Recital 13}{32}{section.3.15}
\contentsline {section}{\numberline {3.16}Recital 13b}{33}{section.3.16}
\contentsline {section}{\numberline {3.17}}{33}{section.3.17}
\contentsline {section}{\numberline {3.18}Recital 13d}{33}{section.3.18}
\contentsline {section}{\numberline {3.19}Recital 14}{34}{section.3.19}
\contentsline {section}{\numberline {3.20}Recital 16}{35}{section.3.20}
\contentsline {section}{\numberline {3.21}Recital 17}{36}{section.3.21}
\contentsline {section}{\numberline {3.22}Recital 18}{37}{section.3.22}
\contentsline {section}{\numberline {3.23}Recital 18 bis (nouveau)}{37}{section.3.23}
\contentsline {section}{\numberline {3.24}Recital 18 ter (nouveau)}{38}{section.3.24}
\contentsline {chapter}{\numberline {4}Liens Annot\'{e}s}{39}{chapter.4}
\contentsline {chapter}{\numberline {5}Questions, Choses \`{a} faires, Comment vous pouvez aider}{41}{chapter.5}
