\relax 
\ifx\hyper@anchor\@undefined
\global \let \oldcontentsline\contentsline
\gdef \contentsline#1#2#3#4{\oldcontentsline{#1}{#2}{#3}}
\global \let \oldnewlabel\newlabel
\gdef \newlabel#1#2{\newlabelxx{#1}#2}
\gdef \newlabelxx#1#2#3#4#5#6{\oldnewlabel{#1}{{#2}{#3}}}
\AtEndDocument{\let \contentsline\oldcontentsline
\let \newlabel\oldnewlabel}
\else
\global \let \hyper@last\relax 
\fi

\@writefile{toc}{\contentsline {chapter}{\numberline {1}Legend and Commented Example}{4}{chapter.1}}
\@writefile{lof}{\addvspace {10\p@ }}
\@writefile{lot}{\addvspace {10\p@ }}
\newlabel{legen}{{1}{4}{Legend and Commented Example\relax }{chapter.1}{}}
\@writefile{toc}{\contentsline {section}{\numberline {1.1}Title}{4}{section.1.1}}
\newlabel{exem}{{1.1}{4}{Title\relax }{section.1.1}{}}
\newlabel{Am29}{{1.1}{4}{Title\relax }{Hfootnote.1}{}}
\newlabel{Am59}{{1.1}{4}{Title\relax }{Hfootnote.1}{}}
\newlabel{Am41}{{1.1}{4}{Title\relax }{Hfootnote.1}{}}
\@writefile{toc}{\contentsline {chapter}{\numberline {2}Articles and Motions}{5}{chapter.2}}
\@writefile{lof}{\addvspace {10\p@ }}
\@writefile{lot}{\addvspace {10\p@ }}
\newlabel{artik}{{2}{5}{Articles and Motions\relax }{chapter.2}{}}
\@writefile{toc}{\contentsline {section}{\numberline {2.1}Article 1}{5}{section.2.1}}
\newlabel{art1}{{2.1}{5}{Article 1\relax }{section.2.1}{}}
\newlabel{Am116}{{2.1}{5}{Article 1\relax }{section.2.1}{}}
\@writefile{toc}{\contentsline {section}{\numberline {2.2}Article 2 (a)}{5}{section.2.2}}
\newlabel{art2a}{{2.2}{5}{Article 2 (a)\relax }{section.2.2}{}}
\newlabel{Am36}{{2.2}{6}{Article 2 (a)\relax }{section.2.2}{}}
\newlabel{Am42}{{2.2}{6}{Article 2 (a)\relax }{section.2.2}{}}
\newlabel{Am117}{{2.2}{6}{Article 2 (a)\relax }{section.2.2}{}}
\newlabel{Am14}{{2.2}{6}{Article 2 (a)\relax }{section.2.2}{}}
\@writefile{toc}{\contentsline {section}{\numberline {2.3}Article 2 (b)}{6}{section.2.3}}
\newlabel{art2b}{{2.3}{6}{Article 2 (b)\relax }{section.2.3}{}}
\newlabel{Am69}{{2.3}{7}{Article 2 (b)\relax }{section.2.3}{}}
\newlabel{Am107}{{2.3}{7}{Article 2 (b)\relax }{section.2.3}{}}
\newlabel{Am96}{{2.3}{7}{Article 2 (b)\relax }{section.2.3}{}}
\@writefile{toc}{\contentsline {section}{\numberline {2.4}Article 2 (ba) (new)}{8}{section.2.4}}
\newlabel{art2ba}{{2.4}{8}{Article 2 (ba) (new)\relax }{section.2.4}{}}
\newlabel{Am55}{{2.4}{8}{Article 2 (ba) (new)\relax }{section.2.4}{}}
\newlabel{Am97}{{2.4}{8}{Article 2 (ba) (new)\relax }{section.2.4}{}}
\newlabel{Am108}{{2.4}{8}{Article 2 (ba) (new)\relax }{section.2.4}{}}
\newlabel{Am37}{{2.4}{8}{Article 2 (ba) (new)\relax }{section.2.4}{}}
\@writefile{toc}{\contentsline {section}{\numberline {2.5}Article 2 (bb) (new)}{8}{section.2.5}}
\newlabel{art2bb}{{2.5}{8}{Article 2 (bb) (new)\relax }{section.2.5}{}}
\newlabel{Am39}{{2.5}{8}{Article 2 (bb) (new)\relax }{section.2.5}{}}
\newlabel{Am43}{{2.5}{8}{Article 2 (bb) (new)\relax }{section.2.5}{}}
\@writefile{toc}{\contentsline {section}{\numberline {2.6}Article 2 (bc) (new)}{9}{section.2.6}}
\newlabel{art2bc}{{2.6}{9}{Article 2 (bc) (new)\relax }{section.2.6}{}}
\newlabel{Am38}{{2.6}{9}{Article 2 (bc) (new)\relax }{section.2.6}{}}
\newlabel{Am44}{{2.6}{9}{Article 2 (bc) (new)\relax }{section.2.6}{}}
\newlabel{Am118}{{2.6}{9}{Article 2 (bc) (new)\relax }{section.2.6}{}}
\@writefile{toc}{\contentsline {section}{\numberline {2.7}Article 3}{9}{section.2.7}}
\newlabel{art3}{{2.7}{9}{Article 3\relax }{section.2.7}{}}
\newlabel{Am15}{{2.7}{9}{Article 3\relax }{section.2.7}{}}
\@writefile{toc}{\contentsline {section}{\numberline {2.8}Article 3 (a) (new)}{10}{section.2.8}}
\newlabel{art3a}{{2.8}{10}{Article 3 (a) (new)\relax }{section.2.8}{}}
\newlabel{Am45}{{2.8}{10}{Article 3 (a) (new)\relax }{section.2.8}{}}
\@writefile{toc}{\contentsline {section}{\numberline {2.9}Article 4}{10}{section.2.9}}
\newlabel{art4}{{2.9}{10}{Article 4\relax }{section.2.9}{}}
\newlabel{Am}{{2.9}{11}{Article 4\relax }{Item.3}{}}
\@writefile{toc}{\contentsline {section}{\numberline {2.10}Article 4.1}{11}{section.2.10}}
\newlabel{art41}{{2.10}{11}{Article 4.1\relax }{section.2.10}{}}
\newlabel{Am16}{{2.10}{11}{Article 4.1\relax }{section.2.10}{}}
\newlabel{Am56}{{2.10}{11}{Article 4.1\relax }{section.2.10}{}}
\newlabel{Am98}{{2.10}{11}{Article 4.1\relax }{section.2.10}{}}
\newlabel{Am109}{{2.10}{11}{Article 4.1\relax }{section.2.10}{}}
\@writefile{toc}{\contentsline {section}{\numberline {2.11}}{11}{section.2.11}}
\newlabel{art41a}{{2.11}{11}{\relax }{section.2.11}{}}
\@writefile{toc}{\contentsline {section}{\numberline {2.12}Article 4.1 (b) (new)}{12}{section.2.12}}
\newlabel{art41b}{{2.12}{12}{Article 4.1 (b) (new)\relax }{section.2.12}{}}
\newlabel{Am48}{{2.12}{12}{Article 4.1 (b) (new)\relax }{section.2.12}{}}
\@writefile{toc}{\contentsline {section}{\numberline {2.13}Article 4.2}{12}{section.2.13}}
\newlabel{art42}{{2.13}{12}{Article 4.2\relax }{section.2.13}{}}
\newlabel{Am16}{{2.13}{12}{Article 4.2\relax }{section.2.13}{}}
\newlabel{Am82}{{2.13}{12}{Article 4.2\relax }{section.2.13}{}}
\@writefile{toc}{\contentsline {section}{\numberline {2.14}Article 4.3}{13}{section.2.14}}
\newlabel{art43}{{2.14}{13}{Article 4.3\relax }{section.2.14}{}}
\newlabel{Am16}{{2.14}{13}{Article 4.3\relax }{section.2.14}{}}
\newlabel{Am57}{{2.14}{13}{Article 4.3\relax }{section.2.14}{}}
\newlabel{Am99}{{2.14}{13}{Article 4.3\relax }{section.2.14}{}}
\newlabel{Am110}{{2.14}{13}{Article 4.3\relax }{section.2.14}{}}
\newlabel{Am100}{{2.14}{13}{Article 4.3\relax }{section.2.14}{}}
\@writefile{toc}{\contentsline {section}{\numberline {2.15}Article 4.3 (a) (new)}{14}{section.2.15}}
\newlabel{art43a}{{2.15}{14}{Article 4.3 (a) (new)\relax }{section.2.15}{}}
\newlabel{Am70}{{2.15}{14}{Article 4.3 (a) (new)\relax }{section.2.15}{}}
\@writefile{toc}{\contentsline {section}{\numberline {2.16}Article 4 (a) (new)}{14}{section.2.16}}
\newlabel{art4a}{{2.16}{14}{Article 4 (a) (new)\relax }{section.2.16}{}}
\newlabel{Am17}{{2.16}{14}{Article 4 (a) (new)\relax }{section.2.16}{}}
\@writefile{toc}{\contentsline {section}{\numberline {2.17}Article 4.4 (b) (new)}{15}{section.2.17}}
\newlabel{art4b}{{2.17}{15}{Article 4.4 (b) (new)\relax }{section.2.17}{}}
\newlabel{Am87}{{2.17}{15}{Article 4.4 (b) (new)\relax }{section.2.17}{}}
\@writefile{toc}{\contentsline {section}{\numberline {2.18}Article 4 (c) (new)}{15}{section.2.18}}
\newlabel{art4c}{{2.18}{15}{Article 4 (c) (new)\relax }{section.2.18}{}}
\newlabel{Am47}{{2.18}{15}{Article 4 (c) (new)\relax }{section.2.18}{}}
\newlabel{Am60}{{2.18}{15}{Article 4 (c) (new)\relax }{section.2.18}{}}
\@writefile{toc}{\contentsline {section}{\numberline {2.19}Article 4.4 (d) (new)}{16}{section.2.19}}
\newlabel{art4d}{{2.19}{16}{Article 4.4 (d) (new)\relax }{section.2.19}{}}
\newlabel{Am46}{{2.19}{16}{Article 4.4 (d) (new)\relax }{section.2.19}{}}
\newlabel{Am83}{{2.19}{16}{Article 4.4 (d) (new)\relax }{section.2.19}{}}
\@writefile{toc}{\contentsline {section}{\numberline {2.20}Article 5}{16}{section.2.20}}
\newlabel{art5}{{2.20}{16}{Article 5\relax }{section.2.20}{}}
\newlabel{Am18}{{2.20}{17}{Article 5\relax }{section.2.20}{}}
\newlabel{Am49}{{2.20}{17}{Article 5\relax }{section.2.20}{}}
\newlabel{Am58}{{2.20}{17}{Article 5\relax }{section.2.20}{}}
\newlabel{Am101}{{2.20}{17}{Article 5\relax }{section.2.20}{}}
\newlabel{Am102}{{2.20}{17}{Article 5\relax }{section.2.20}{}}
\newlabel{Am111}{{2.20}{17}{Article 5\relax }{section.2.20}{}}
\@writefile{toc}{\contentsline {section}{\numberline {2.21}Article 5 (a) (new)}{17}{section.2.21}}
\newlabel{art5a}{{2.21}{17}{Article 5 (a) (new)\relax }{section.2.21}{}}
\newlabel{Am62}{{2.21}{18}{Article 5 (a) (new)\relax }{section.2.21}{}}
\@writefile{toc}{\contentsline {section}{\numberline {2.22}Article 5.1a}{18}{section.2.22}}
\newlabel{art51a}{{2.22}{18}{Article 5.1a\relax }{section.2.22}{}}
\newlabel{Am72}{{2.22}{18}{Article 5.1a\relax }{section.2.22}{}}
\@writefile{toc}{\contentsline {section}{\numberline {2.23}Article 5 (b) (new)}{19}{section.2.23}}
\newlabel{art5b}{{2.23}{19}{Article 5 (b) (new)\relax }{section.2.23}{}}
\newlabel{Am103}{{2.23}{19}{Article 5 (b) (new)\relax }{section.2.23}{}}
\newlabel{Am119}{{2.23}{19}{Article 5 (b) (new)\relax }{section.2.23}{}}
\@writefile{toc}{\contentsline {section}{\numberline {2.24}Article 5 (c)}{19}{section.2.24}}
\newlabel{art5c}{{2.24}{19}{Article 5 (c)\relax }{section.2.24}{}}
\newlabel{Am104}{{2.24}{19}{Article 5 (c)\relax }{section.2.24}{}}
\newlabel{Am120}{{2.24}{19}{Article 5 (c)\relax }{section.2.24}{}}
\@writefile{toc}{\contentsline {section}{\numberline {2.25}Article 5 (d)}{19}{section.2.25}}
\newlabel{art5d}{{2.25}{19}{Article 5 (d)\relax }{section.2.25}{}}
\newlabel{Am104}{{2.25}{19}{Article 5 (d)\relax }{section.2.25}{}}
\@writefile{toc}{\contentsline {section}{\numberline {2.26}Article 6}{20}{section.2.26}}
\newlabel{art6}{{2.26}{20}{Article 6\relax }{section.2.26}{}}
\newlabel{Am19}{{2.26}{20}{Article 6\relax }{section.2.26}{}}
\@writefile{toc}{\contentsline {section}{\numberline {2.27}Article 6 (a)}{20}{section.2.27}}
\newlabel{art6a}{{2.27}{20}{Article 6 (a)\relax }{section.2.27}{}}
\newlabel{Am50}{{2.27}{21}{Article 6 (a)\relax }{section.2.27}{}}
\newlabel{Am20}{{2.27}{21}{Article 6 (a)\relax }{section.2.27}{}}
\newlabel{Am76}{{2.27}{21}{Article 6 (a)\relax }{section.2.27}{}}
\newlabel{Am105}{{2.27}{21}{Article 6 (a)\relax }{section.2.27}{}}
\@writefile{toc}{\contentsline {section}{\numberline {2.28}Article 6 (b)}{22}{section.2.28}}
\newlabel{art6b}{{2.28}{22}{Article 6 (b)\relax }{section.2.28}{}}
\newlabel{Am106}{{2.28}{22}{Article 6 (b)\relax }{section.2.28}{}}
\@writefile{toc}{\contentsline {section}{\numberline {2.29}Article 7}{22}{section.2.29}}
\newlabel{art7}{{2.29}{22}{Article 7\relax }{section.2.29}{}}
\newlabel{Am21}{{2.29}{23}{Article 7\relax }{section.2.29}{}}
\newlabel{Am91}{{2.29}{23}{Article 7\relax }{section.2.29}{}}
\@writefile{toc}{\contentsline {section}{\numberline {2.30}Article 7 (Patent Insurance Extensions)}{23}{section.2.30}}
\newlabel{art7PI}{{2.30}{23}{Article 7 (Patent Insurance Extensions)\relax }{section.2.30}{}}
\newlabel{Am90}{{2.30}{24}{Article 7 (Patent Insurance Extensions)\relax }{section.2.30}{}}
\newlabel{Am71}{{2.30}{24}{Article 7 (Patent Insurance Extensions)\relax }{section.2.30}{}}
\@writefile{toc}{\contentsline {section}{\numberline {2.31}Article 8}{24}{section.2.31}}
\newlabel{art8}{{2.31}{24}{Article 8\relax }{section.2.31}{}}
\newlabel{Am89}{{2.31}{25}{Article 8\relax }{section.2.31}{}}
\newlabel{Am92}{{2.31}{25}{Article 8\relax }{section.2.31}{}}
\newlabel{Am93}{{2.31}{25}{Article 8\relax }{section.2.31}{}}
\newlabel{Am94}{{2.31}{25}{Article 8\relax }{section.2.31}{}}
\@writefile{toc}{\contentsline {chapter}{\numberline {3}Rejection/Acceptance, Title and Recitals}{26}{chapter.3}}
\@writefile{lof}{\addvspace {10\p@ }}
\@writefile{lot}{\addvspace {10\p@ }}
\newlabel{recit}{{3}{26}{Rejection/Acceptance, Title and Recitals\relax }{chapter.3}{}}
\@writefile{toc}{\contentsline {section}{\numberline {3.1}Rejection/Acceptance}{26}{section.3.1}}
\newlabel{rej}{{3.1}{26}{Rejection/Acceptance\relax }{section.3.1}{}}
\newlabel{Am52}{{3.1}{26}{Rejection/Acceptance\relax }{section.3.1}{}}
\newlabel{Am54}{{3.1}{26}{Rejection/Acceptance\relax }{section.3.1}{}}
\newlabel{Am68}{{3.1}{26}{Rejection/Acceptance\relax }{section.3.1}{}}
\@writefile{toc}{\contentsline {section}{\numberline {3.2}Title}{26}{section.3.2}}
\newlabel{tit}{{3.2}{26}{Title\relax }{section.3.2}{}}
\newlabel{Am29}{{3.2}{26}{Title\relax }{section.3.2}{}}
\newlabel{Am41}{{3.2}{26}{Title\relax }{section.3.2}{}}
\newlabel{Am41}{{3.2}{26}{Title\relax }{section.3.2}{}}
\@writefile{toc}{\contentsline {section}{\numberline {3.3}Recital 1}{27}{section.3.3}}
\newlabel{rec1}{{3.3}{27}{Recital 1\relax }{section.3.3}{}}
\newlabel{Am30}{{3.3}{27}{Recital 1\relax }{section.3.3}{}}
\newlabel{Am1}{{3.3}{27}{Recital 1\relax }{section.3.3}{}}
\@writefile{toc}{\contentsline {section}{\numberline {3.4}Recital 5}{27}{section.3.4}}
\newlabel{rec5}{{3.4}{27}{Recital 5\relax }{section.3.4}{}}
\newlabel{Am2}{{3.4}{28}{Recital 5\relax }{section.3.4}{}}
\@writefile{toc}{\contentsline {section}{\numberline {3.5}Recital 5 (a) (new)}{28}{section.3.5}}
\newlabel{rec5a}{{3.5}{28}{Recital 5 (a) (new)\relax }{section.3.5}{}}
\newlabel{Am88}{{3.5}{28}{Recital 5 (a) (new)\relax }{section.3.5}{}}
\@writefile{toc}{\contentsline {section}{\numberline {3.6}Recital 6}{28}{section.3.6}}
\newlabel{rec6}{{3.6}{28}{Recital 6\relax }{section.3.6}{}}
\newlabel{Am31}{{3.6}{29}{Recital 6\relax }{section.3.6}{}}
\@writefile{toc}{\contentsline {section}{\numberline {3.7}Recital 7}{29}{section.3.7}}
\newlabel{rec7}{{3.7}{29}{Recital 7\relax }{section.3.7}{}}
\newlabel{Am32}{{3.7}{29}{Recital 7\relax }{section.3.7}{}}
\newlabel{Am112}{{3.7}{29}{Recital 7\relax }{section.3.7}{}}
\@writefile{toc}{\contentsline {section}{\numberline {3.8}Recital 7 (a) (new)}{30}{section.3.8}}
\newlabel{rec7a}{{3.8}{30}{Recital 7 (a) (new)\relax }{section.3.8}{}}
\newlabel{Am3}{{3.8}{30}{Recital 7 (a) (new)\relax }{section.3.8}{}}
\@writefile{toc}{\contentsline {section}{\numberline {3.9}Recital 7 (b) (new)}{30}{section.3.9}}
\newlabel{rec7b}{{3.9}{30}{Recital 7 (b) (new)\relax }{section.3.9}{}}
\newlabel{Am95}{{3.9}{30}{Recital 7 (b) (new)\relax }{section.3.9}{}}
\@writefile{toc}{\contentsline {section}{\numberline {3.10}Recital 9 (a) (new)}{30}{section.3.10}}
\newlabel{rec9a}{{3.10}{30}{Recital 9 (a) (new)\relax }{section.3.10}{}}
\newlabel{Am61}{{3.10}{30}{Recital 9 (a) (new)\relax }{section.3.10}{}}
\@writefile{toc}{\contentsline {section}{\numberline {3.11}Recital 11}{31}{section.3.11}}
\newlabel{rec11}{{3.11}{31}{Recital 11\relax }{section.3.11}{}}
\newlabel{Am113}{{3.11}{31}{Recital 11\relax }{section.3.11}{}}
\newlabel{Am33}{{3.11}{31}{Recital 11\relax }{section.3.11}{}}
\newlabel{Am4}{{3.11}{31}{Recital 11\relax }{section.3.11}{}}
\newlabel{Am84}{{3.11}{31}{Recital 11\relax }{section.3.11}{}}
\@writefile{toc}{\contentsline {section}{\numberline {3.12}Recital 11 (a) (new)}{31}{section.3.12}}
\newlabel{rec11a}{{3.12}{31}{Recital 11 (a) (new)\relax }{section.3.12}{}}
\newlabel{Am51}{{3.12}{32}{Recital 11 (a) (new)\relax }{section.3.12}{}}
\@writefile{toc}{\contentsline {section}{\numberline {3.13}Recital 11 (b) (new)}{32}{section.3.13}}
\newlabel{rec11b}{{3.13}{32}{Recital 11 (b) (new)\relax }{section.3.13}{}}
\newlabel{Am73}{{3.13}{32}{Recital 11 (b) (new)\relax }{section.3.13}{}}
\@writefile{toc}{\contentsline {section}{\numberline {3.14}Recital 12}{32}{section.3.14}}
\newlabel{rec12}{{3.14}{32}{Recital 12\relax }{section.3.14}{}}
\newlabel{Am5}{{3.14}{32}{Recital 12\relax }{section.3.14}{}}
\newlabel{Am114}{{3.14}{32}{Recital 12\relax }{section.3.14}{}}
\newlabel{Am125}{{3.14}{32}{Recital 12\relax }{section.3.14}{}}
\@writefile{toc}{\contentsline {section}{\numberline {3.15}Recital 13}{33}{section.3.15}}
\newlabel{rec13}{{3.15}{33}{Recital 13\relax }{section.3.15}{}}
\newlabel{Am34}{{3.15}{33}{Recital 13\relax }{section.3.15}{}}
\newlabel{Am115}{{3.15}{33}{Recital 13\relax }{section.3.15}{}}
\@writefile{toc}{\contentsline {section}{\numberline {3.16}Recital 13a}{33}{section.3.16}}
\newlabel{rec13a}{{3.16}{33}{Recital 13a\relax }{section.3.16}{}}
\newlabel{Am6}{{3.16}{33}{Recital 13a\relax }{section.3.16}{}}
\@writefile{toc}{\contentsline {section}{\numberline {3.17}Recital 13b}{34}{section.3.17}}
\newlabel{rec13b}{{3.17}{34}{Recital 13b\relax }{section.3.17}{}}
\newlabel{Am7}{{3.17}{34}{Recital 13b\relax }{section.3.17}{}}
\@writefile{toc}{\contentsline {section}{\numberline {3.18}}{34}{section.3.18}}
\newlabel{rec13c}{{3.18}{34}{\relax }{section.3.18}{}}
\newlabel{Am8}{{3.18}{34}{\relax }{section.3.18}{}}
\@writefile{toc}{\contentsline {section}{\numberline {3.19}Recital 13d}{35}{section.3.19}}
\newlabel{recital13d}{{3.19}{35}{Recital 13d\relax }{section.3.19}{}}
\newlabel{Am9}{{3.19}{35}{Recital 13d\relax }{section.3.19}{}}
\@writefile{toc}{\contentsline {section}{\numberline {3.20}Recital 14}{35}{section.3.20}}
\newlabel{rec14}{{3.20}{35}{Recital 14\relax }{section.3.20}{}}
\newlabel{Am10}{{3.20}{36}{Recital 14\relax }{section.3.20}{}}
\newlabel{Am86}{{3.20}{36}{Recital 14\relax }{section.3.20}{}}
\@writefile{toc}{\contentsline {section}{\numberline {3.21}Recital 16}{36}{section.3.21}}
\newlabel{rec16}{{3.21}{36}{Recital 16\relax }{section.3.21}{}}
\newlabel{Am11}{{3.21}{37}{Recital 16\relax }{section.3.21}{}}
\newlabel{Am35}{{3.21}{37}{Recital 16\relax }{section.3.21}{}}
\@writefile{toc}{\contentsline {section}{\numberline {3.22}Recital 17}{37}{section.3.22}}
\newlabel{rec17}{{3.22}{37}{Recital 17\relax }{section.3.22}{}}
\newlabel{Am12}{{3.22}{37}{Recital 17\relax }{section.3.22}{}}
\@writefile{toc}{\contentsline {section}{\numberline {3.23}Recital 18}{38}{section.3.23}}
\newlabel{rec18}{{3.23}{38}{Recital 18\relax }{section.3.23}{}}
\newlabel{Am13}{{3.23}{38}{Recital 18\relax }{section.3.23}{}}
\@writefile{toc}{\contentsline {section}{\numberline {3.24}Recital 18 bis (new)}{38}{section.3.24}}
\newlabel{rec18b}{{3.24}{38}{Recital 18 bis (new)\relax }{section.3.24}{}}
\newlabel{Am74}{{3.24}{38}{Recital 18 bis (new)\relax }{section.3.24}{}}
\@writefile{toc}{\contentsline {section}{\numberline {3.25}Recital 18 ter (new)}{39}{section.3.25}}
\newlabel{rec18t}{{3.25}{39}{Recital 18 ter (new)\relax }{section.3.25}{}}
\newlabel{Am75}{{3.25}{39}{Recital 18 ter (new)\relax }{section.3.25}{}}
\@writefile{toc}{\contentsline {chapter}{\numberline {4}Annotated Links}{40}{chapter.4}}
\@writefile{lof}{\addvspace {10\p@ }}
\@writefile{lot}{\addvspace {10\p@ }}
\newlabel{links}{{4}{40}{Annotated Links\relax }{chapter.4}{}}
\@writefile{toc}{\contentsline {chapter}{\numberline {5}Questions, Things To Do, How you can Help}{42}{chapter.5}}
\@writefile{lof}{\addvspace {10\p@ }}
\@writefile{lot}{\addvspace {10\p@ }}
\newlabel{tasks}{{5}{42}{Questions, Things To Do, How you can Help\relax }{chapter.5}{}}
