\relax 
\ifx\hyper@anchor\@undefined
\global \let \oldcontentsline\contentsline
\gdef \contentsline#1#2#3#4{\oldcontentsline{#1}{#2}{#3}}
\global \let \oldnewlabel\newlabel
\gdef \newlabel#1#2{\newlabelxx{#1}#2}
\gdef \newlabelxx#1#2#3#4#5#6{\oldnewlabel{#1}{{#2}{#3}}}
\AtEndDocument{\let \contentsline\oldcontentsline
\let \newlabel\oldnewlabel}
\else
\global \let \hyper@last\relax 
\fi

\@writefile{toc}{\contentsline {chapter}{\numberline {1}Legende en Becommentarieerde Voorbeelden}{4}{chapter.1}}
\@writefile{lof}{\addvspace {10\p@ }}
\@writefile{lot}{\addvspace {10\p@ }}
\newlabel{legen}{{1}{4}{Legende en Becommentarieerde Voorbeelden\relax }{chapter.1}{}}
\@writefile{toc}{\contentsline {section}{\numberline {1.1}Titel}{4}{section.1.1}}
\newlabel{exem}{{1.1}{4}{Titel\relax }{section.1.1}{}}
\newlabel{Am29}{{1.1}{4}{Titel\relax }{Hfootnote.1}{}}
\newlabel{Am59}{{1.1}{4}{Titel\relax }{Hfootnote.1}{}}
\newlabel{Am41}{{1.1}{4}{Titel\relax }{Hfootnote.1}{}}
\@writefile{toc}{\contentsline {chapter}{\numberline {2}Artikels en Moties}{5}{chapter.2}}
\@writefile{lof}{\addvspace {10\p@ }}
\@writefile{lot}{\addvspace {10\p@ }}
\newlabel{artik}{{2}{5}{Artikels en Moties\relax }{chapter.2}{}}
\@writefile{toc}{\contentsline {section}{\numberline {2.1}Artikel 1}{5}{section.2.1}}
\newlabel{art1}{{2.1}{5}{Artikel 1\relax }{section.2.1}{}}
\newlabel{Am116}{{2.1}{5}{Artikel 1\relax }{section.2.1}{}}
\@writefile{toc}{\contentsline {section}{\numberline {2.2}Artikel 2 (a)}{5}{section.2.2}}
\newlabel{art2a}{{2.2}{5}{Artikel 2 (a)\relax }{section.2.2}{}}
\newlabel{Am36}{{2.2}{6}{Artikel 2 (a)\relax }{section.2.2}{}}
\newlabel{Am42}{{2.2}{6}{Artikel 2 (a)\relax }{section.2.2}{}}
\newlabel{Am117}{{2.2}{6}{Artikel 2 (a)\relax }{section.2.2}{}}
\newlabel{Am14}{{2.2}{6}{Artikel 2 (a)\relax }{section.2.2}{}}
\@writefile{toc}{\contentsline {section}{\numberline {2.3}Artikel 2 (b)}{6}{section.2.3}}
\newlabel{art2b}{{2.3}{6}{Artikel 2 (b)\relax }{section.2.3}{}}
\newlabel{Am69}{{2.3}{7}{Artikel 2 (b)\relax }{section.2.3}{}}
\newlabel{Am107}{{2.3}{7}{Artikel 2 (b)\relax }{section.2.3}{}}
\newlabel{Am96}{{2.3}{7}{Artikel 2 (b)\relax }{section.2.3}{}}
\@writefile{toc}{\contentsline {section}{\numberline {2.4}Artikel 2 (ba) (new)}{8}{section.2.4}}
\newlabel{art2ba}{{2.4}{8}{Artikel 2 (ba) (new)\relax }{section.2.4}{}}
\newlabel{Am55}{{2.4}{8}{Artikel 2 (ba) (new)\relax }{section.2.4}{}}
\newlabel{Am97}{{2.4}{8}{Artikel 2 (ba) (new)\relax }{section.2.4}{}}
\newlabel{Am108}{{2.4}{8}{Artikel 2 (ba) (new)\relax }{section.2.4}{}}
\newlabel{Am37}{{2.4}{8}{Artikel 2 (ba) (new)\relax }{section.2.4}{}}
\@writefile{toc}{\contentsline {section}{\numberline {2.5}Artikel 2 (bb) (new)}{8}{section.2.5}}
\newlabel{art2bb}{{2.5}{8}{Artikel 2 (bb) (new)\relax }{section.2.5}{}}
\newlabel{Am39}{{2.5}{9}{Artikel 2 (bb) (new)\relax }{section.2.5}{}}
\newlabel{Am43}{{2.5}{9}{Artikel 2 (bb) (new)\relax }{section.2.5}{}}
\@writefile{toc}{\contentsline {section}{\numberline {2.6}Artikel 2 (bc) (new)}{9}{section.2.6}}
\newlabel{art2bc}{{2.6}{9}{Artikel 2 (bc) (new)\relax }{section.2.6}{}}
\newlabel{Am38}{{2.6}{9}{Artikel 2 (bc) (new)\relax }{section.2.6}{}}
\newlabel{Am44}{{2.6}{9}{Artikel 2 (bc) (new)\relax }{section.2.6}{}}
\newlabel{Am118}{{2.6}{9}{Artikel 2 (bc) (new)\relax }{section.2.6}{}}
\@writefile{toc}{\contentsline {section}{\numberline {2.7}Artikel 3}{9}{section.2.7}}
\newlabel{art3}{{2.7}{9}{Artikel 3\relax }{section.2.7}{}}
\newlabel{Am15}{{2.7}{9}{Artikel 3\relax }{section.2.7}{}}
\@writefile{toc}{\contentsline {section}{\numberline {2.8}Artikel 3 (a) (new)}{10}{section.2.8}}
\newlabel{art3a}{{2.8}{10}{Artikel 3 (a) (new)\relax }{section.2.8}{}}
\newlabel{Am45}{{2.8}{10}{Artikel 3 (a) (new)\relax }{section.2.8}{}}
\@writefile{toc}{\contentsline {section}{\numberline {2.9}Artikel 4}{10}{section.2.9}}
\newlabel{art4}{{2.9}{10}{Artikel 4\relax }{section.2.9}{}}
\newlabel{Am}{{2.9}{11}{Artikel 4\relax }{Item.3}{}}
\@writefile{toc}{\contentsline {section}{\numberline {2.10}Artikel 4.1}{11}{section.2.10}}
\newlabel{art41}{{2.10}{11}{Artikel 4.1\relax }{section.2.10}{}}
\newlabel{Am16}{{2.10}{11}{Artikel 4.1\relax }{section.2.10}{}}
\newlabel{Am56}{{2.10}{11}{Artikel 4.1\relax }{section.2.10}{}}
\newlabel{Am98}{{2.10}{11}{Artikel 4.1\relax }{section.2.10}{}}
\newlabel{Am109}{{2.10}{11}{Artikel 4.1\relax }{section.2.10}{}}
\@writefile{toc}{\contentsline {section}{\numberline {2.11}}{11}{section.2.11}}
\newlabel{art41a}{{2.11}{11}{\relax }{section.2.11}{}}
\@writefile{toc}{\contentsline {section}{\numberline {2.12}Artikel 4.1 (b) (new)}{12}{section.2.12}}
\newlabel{art41b}{{2.12}{12}{Artikel 4.1 (b) (new)\relax }{section.2.12}{}}
\newlabel{Am48}{{2.12}{12}{Artikel 4.1 (b) (new)\relax }{section.2.12}{}}
\@writefile{toc}{\contentsline {section}{\numberline {2.13}Artikel 4.2}{12}{section.2.13}}
\newlabel{art42}{{2.13}{12}{Artikel 4.2\relax }{section.2.13}{}}
\newlabel{Am16}{{2.13}{12}{Artikel 4.2\relax }{section.2.13}{}}
\newlabel{Am82}{{2.13}{12}{Artikel 4.2\relax }{section.2.13}{}}
\@writefile{toc}{\contentsline {section}{\numberline {2.14}Artikel 4.3}{13}{section.2.14}}
\newlabel{art43}{{2.14}{13}{Artikel 4.3\relax }{section.2.14}{}}
\newlabel{Am16}{{2.14}{13}{Artikel 4.3\relax }{section.2.14}{}}
\newlabel{Am57}{{2.14}{13}{Artikel 4.3\relax }{section.2.14}{}}
\newlabel{Am99}{{2.14}{13}{Artikel 4.3\relax }{section.2.14}{}}
\newlabel{Am110}{{2.14}{13}{Artikel 4.3\relax }{section.2.14}{}}
\newlabel{Am100}{{2.14}{13}{Artikel 4.3\relax }{section.2.14}{}}
\@writefile{toc}{\contentsline {section}{\numberline {2.15}Artikel 4.3 (a) (new)}{14}{section.2.15}}
\newlabel{art43a}{{2.15}{14}{Artikel 4.3 (a) (new)\relax }{section.2.15}{}}
\newlabel{Am70}{{2.15}{14}{Artikel 4.3 (a) (new)\relax }{section.2.15}{}}
\@writefile{toc}{\contentsline {section}{\numberline {2.16}Artikel 4 (a) (new)}{15}{section.2.16}}
\newlabel{art4a}{{2.16}{15}{Artikel 4 (a) (new)\relax }{section.2.16}{}}
\newlabel{Am17}{{2.16}{15}{Artikel 4 (a) (new)\relax }{section.2.16}{}}
\@writefile{toc}{\contentsline {section}{\numberline {2.17}Artikel 4.4 (b) (new)}{15}{section.2.17}}
\newlabel{art4b}{{2.17}{15}{Artikel 4.4 (b) (new)\relax }{section.2.17}{}}
\newlabel{Am87}{{2.17}{16}{Artikel 4.4 (b) (new)\relax }{section.2.17}{}}
\@writefile{toc}{\contentsline {section}{\numberline {2.18}Artikel 4 (c) (new)}{16}{section.2.18}}
\newlabel{art4c}{{2.18}{16}{Artikel 4 (c) (new)\relax }{section.2.18}{}}
\newlabel{Am47}{{2.18}{16}{Artikel 4 (c) (new)\relax }{section.2.18}{}}
\newlabel{Am60}{{2.18}{16}{Artikel 4 (c) (new)\relax }{section.2.18}{}}
\@writefile{toc}{\contentsline {section}{\numberline {2.19}Artikel 4.4 (d) (new)}{16}{section.2.19}}
\newlabel{art4d}{{2.19}{16}{Artikel 4.4 (d) (new)\relax }{section.2.19}{}}
\newlabel{Am46}{{2.19}{17}{Artikel 4.4 (d) (new)\relax }{section.2.19}{}}
\newlabel{Am83}{{2.19}{17}{Artikel 4.4 (d) (new)\relax }{section.2.19}{}}
\@writefile{toc}{\contentsline {section}{\numberline {2.20}Artikel 5}{17}{section.2.20}}
\newlabel{art5}{{2.20}{17}{Artikel 5\relax }{section.2.20}{}}
\newlabel{Am18}{{2.20}{17}{Artikel 5\relax }{section.2.20}{}}
\newlabel{Am49}{{2.20}{17}{Artikel 5\relax }{section.2.20}{}}
\newlabel{Am58}{{2.20}{17}{Artikel 5\relax }{section.2.20}{}}
\newlabel{Am101}{{2.20}{17}{Artikel 5\relax }{section.2.20}{}}
\newlabel{Am102}{{2.20}{17}{Artikel 5\relax }{section.2.20}{}}
\newlabel{Am111}{{2.20}{17}{Artikel 5\relax }{section.2.20}{}}
\@writefile{toc}{\contentsline {section}{\numberline {2.21}Artikel 5 (a) (new)}{18}{section.2.21}}
\newlabel{art5a}{{2.21}{18}{Artikel 5 (a) (new)\relax }{section.2.21}{}}
\newlabel{Am62}{{2.21}{18}{Artikel 5 (a) (new)\relax }{section.2.21}{}}
\@writefile{toc}{\contentsline {section}{\numberline {2.22}Artikel 5.1a}{18}{section.2.22}}
\newlabel{art51a}{{2.22}{18}{Artikel 5.1a\relax }{section.2.22}{}}
\newlabel{Am72}{{2.22}{19}{Artikel 5.1a\relax }{section.2.22}{}}
\@writefile{toc}{\contentsline {section}{\numberline {2.23}Artikel 5 (b) (new)}{19}{section.2.23}}
\newlabel{art5b}{{2.23}{19}{Artikel 5 (b) (new)\relax }{section.2.23}{}}
\newlabel{Am103}{{2.23}{19}{Artikel 5 (b) (new)\relax }{section.2.23}{}}
\newlabel{Am119}{{2.23}{19}{Artikel 5 (b) (new)\relax }{section.2.23}{}}
\@writefile{toc}{\contentsline {section}{\numberline {2.24}Artikel 5 (c)}{19}{section.2.24}}
\newlabel{art5c}{{2.24}{19}{Artikel 5 (c)\relax }{section.2.24}{}}
\newlabel{Am104}{{2.24}{19}{Artikel 5 (c)\relax }{section.2.24}{}}
\newlabel{Am120}{{2.24}{19}{Artikel 5 (c)\relax }{section.2.24}{}}
\@writefile{toc}{\contentsline {section}{\numberline {2.25}Artikel 5 (d)}{20}{section.2.25}}
\newlabel{art5d}{{2.25}{20}{Artikel 5 (d)\relax }{section.2.25}{}}
\newlabel{Am104}{{2.25}{20}{Artikel 5 (d)\relax }{section.2.25}{}}
\@writefile{toc}{\contentsline {section}{\numberline {2.26}Artikel 6}{20}{section.2.26}}
\newlabel{art6}{{2.26}{20}{Artikel 6\relax }{section.2.26}{}}
\newlabel{Am19}{{2.26}{20}{Artikel 6\relax }{section.2.26}{}}
\@writefile{toc}{\contentsline {section}{\numberline {2.27}Artikel 6 (a)}{21}{section.2.27}}
\newlabel{art6a}{{2.27}{21}{Artikel 6 (a)\relax }{section.2.27}{}}
\newlabel{Am50}{{2.27}{22}{Artikel 6 (a)\relax }{section.2.27}{}}
\newlabel{Am20}{{2.27}{22}{Artikel 6 (a)\relax }{section.2.27}{}}
\newlabel{Am76}{{2.27}{22}{Artikel 6 (a)\relax }{section.2.27}{}}
\newlabel{Am105}{{2.27}{22}{Artikel 6 (a)\relax }{section.2.27}{}}
\@writefile{toc}{\contentsline {section}{\numberline {2.28}Artikel 6 (b)}{23}{section.2.28}}
\newlabel{art6b}{{2.28}{23}{Artikel 6 (b)\relax }{section.2.28}{}}
\newlabel{Am106}{{2.28}{23}{Artikel 6 (b)\relax }{section.2.28}{}}
\@writefile{toc}{\contentsline {section}{\numberline {2.29}Artikel 7}{23}{section.2.29}}
\newlabel{art7}{{2.29}{23}{Artikel 7\relax }{section.2.29}{}}
\newlabel{Am21}{{2.29}{24}{Artikel 7\relax }{section.2.29}{}}
\newlabel{Am91}{{2.29}{24}{Artikel 7\relax }{section.2.29}{}}
\@writefile{toc}{\contentsline {section}{\numberline {2.30}Artikel 7 (Patent Insurance Extensions)}{24}{section.2.30}}
\newlabel{art7PI}{{2.30}{24}{Artikel 7 (Patent Insurance Extensions)\relax }{section.2.30}{}}
\newlabel{Am90}{{2.30}{24}{Artikel 7 (Patent Insurance Extensions)\relax }{section.2.30}{}}
\newlabel{Am71}{{2.30}{24}{Artikel 7 (Patent Insurance Extensions)\relax }{section.2.30}{}}
\@writefile{toc}{\contentsline {section}{\numberline {2.31}Artikel 8}{25}{section.2.31}}
\newlabel{art8}{{2.31}{25}{Artikel 8\relax }{section.2.31}{}}
\newlabel{Am89}{{2.31}{25}{Artikel 8\relax }{section.2.31}{}}
\newlabel{Am92}{{2.31}{25}{Artikel 8\relax }{section.2.31}{}}
\newlabel{Am93}{{2.31}{25}{Artikel 8\relax }{section.2.31}{}}
\newlabel{Am94}{{2.31}{25}{Artikel 8\relax }{section.2.31}{}}
\@writefile{toc}{\contentsline {chapter}{\numberline {3}Verwerping/Aanvaarding, Titel en Overwegingen}{27}{chapter.3}}
\@writefile{lof}{\addvspace {10\p@ }}
\@writefile{lot}{\addvspace {10\p@ }}
\newlabel{recit}{{3}{27}{Verwerping/Aanvaarding, Titel en Overwegingen\relax }{chapter.3}{}}
\@writefile{toc}{\contentsline {section}{\numberline {3.1}Rejection/Acceptance}{27}{section.3.1}}
\newlabel{rej}{{3.1}{27}{Rejection/Acceptance\relax }{section.3.1}{}}
\newlabel{Am52}{{3.1}{27}{Rejection/Acceptance\relax }{section.3.1}{}}
\newlabel{Am54}{{3.1}{27}{Rejection/Acceptance\relax }{section.3.1}{}}
\newlabel{Am68}{{3.1}{27}{Rejection/Acceptance\relax }{section.3.1}{}}
\@writefile{toc}{\contentsline {section}{\numberline {3.2}Titel}{27}{section.3.2}}
\newlabel{tit}{{3.2}{27}{Titel\relax }{section.3.2}{}}
\newlabel{Am29}{{3.2}{27}{Titel\relax }{section.3.2}{}}
\newlabel{Am41}{{3.2}{27}{Titel\relax }{section.3.2}{}}
\newlabel{Am41}{{3.2}{27}{Titel\relax }{section.3.2}{}}
\@writefile{toc}{\contentsline {section}{\numberline {3.3}Toelichting 1}{28}{section.3.3}}
\newlabel{rec1}{{3.3}{28}{Toelichting 1\relax }{section.3.3}{}}
\newlabel{Am30}{{3.3}{28}{Toelichting 1\relax }{section.3.3}{}}
\newlabel{Am1}{{3.3}{28}{Toelichting 1\relax }{section.3.3}{}}
\@writefile{toc}{\contentsline {section}{\numberline {3.4}Toelichting 5}{28}{section.3.4}}
\newlabel{rec5}{{3.4}{28}{Toelichting 5\relax }{section.3.4}{}}
\newlabel{Am2}{{3.4}{29}{Toelichting 5\relax }{section.3.4}{}}
\@writefile{toc}{\contentsline {section}{\numberline {3.5}Toelichting 5 (a) (new)}{29}{section.3.5}}
\newlabel{rec5a}{{3.5}{29}{Toelichting 5 (a) (new)\relax }{section.3.5}{}}
\newlabel{Am88}{{3.5}{29}{Toelichting 5 (a) (new)\relax }{section.3.5}{}}
\@writefile{toc}{\contentsline {section}{\numberline {3.6}Toelichting 6}{29}{section.3.6}}
\newlabel{rec6}{{3.6}{29}{Toelichting 6\relax }{section.3.6}{}}
\newlabel{Am31}{{3.6}{30}{Toelichting 6\relax }{section.3.6}{}}
\@writefile{toc}{\contentsline {section}{\numberline {3.7}Toelichting 7}{30}{section.3.7}}
\newlabel{rec7}{{3.7}{30}{Toelichting 7\relax }{section.3.7}{}}
\newlabel{Am32}{{3.7}{30}{Toelichting 7\relax }{section.3.7}{}}
\newlabel{Am112}{{3.7}{30}{Toelichting 7\relax }{section.3.7}{}}
\@writefile{toc}{\contentsline {section}{\numberline {3.8}Toelichting 7 (a) (new)}{31}{section.3.8}}
\newlabel{rec7a}{{3.8}{31}{Toelichting 7 (a) (new)\relax }{section.3.8}{}}
\newlabel{Am3}{{3.8}{31}{Toelichting 7 (a) (new)\relax }{section.3.8}{}}
\@writefile{toc}{\contentsline {section}{\numberline {3.9}Toelichting 7 (b) (new)}{31}{section.3.9}}
\newlabel{rec7b}{{3.9}{31}{Toelichting 7 (b) (new)\relax }{section.3.9}{}}
\newlabel{Am95}{{3.9}{31}{Toelichting 7 (b) (new)\relax }{section.3.9}{}}
\@writefile{toc}{\contentsline {section}{\numberline {3.10}Toelichting 9 (a) (new)}{31}{section.3.10}}
\newlabel{rec9a}{{3.10}{31}{Toelichting 9 (a) (new)\relax }{section.3.10}{}}
\newlabel{Am61}{{3.10}{32}{Toelichting 9 (a) (new)\relax }{section.3.10}{}}
\@writefile{toc}{\contentsline {section}{\numberline {3.11}Toelichting 11}{32}{section.3.11}}
\newlabel{rec11}{{3.11}{32}{Toelichting 11\relax }{section.3.11}{}}
\newlabel{Am113}{{3.11}{32}{Toelichting 11\relax }{section.3.11}{}}
\newlabel{Am33}{{3.11}{32}{Toelichting 11\relax }{section.3.11}{}}
\newlabel{Am4}{{3.11}{32}{Toelichting 11\relax }{section.3.11}{}}
\newlabel{Am84}{{3.11}{32}{Toelichting 11\relax }{section.3.11}{}}
\@writefile{toc}{\contentsline {section}{\numberline {3.12}Toelichting 11 (a) (new)}{33}{section.3.12}}
\newlabel{rec11a}{{3.12}{33}{Toelichting 11 (a) (new)\relax }{section.3.12}{}}
\newlabel{Am51}{{3.12}{33}{Toelichting 11 (a) (new)\relax }{section.3.12}{}}
\@writefile{toc}{\contentsline {section}{\numberline {3.13}Toelichting 11 (b) (new)}{33}{section.3.13}}
\newlabel{rec11b}{{3.13}{33}{Toelichting 11 (b) (new)\relax }{section.3.13}{}}
\newlabel{Am73}{{3.13}{33}{Toelichting 11 (b) (new)\relax }{section.3.13}{}}
\@writefile{toc}{\contentsline {section}{\numberline {3.14}Toelichting 12}{33}{section.3.14}}
\newlabel{rec12}{{3.14}{33}{Toelichting 12\relax }{section.3.14}{}}
\newlabel{Am5}{{3.14}{34}{Toelichting 12\relax }{section.3.14}{}}
\newlabel{Am114}{{3.14}{34}{Toelichting 12\relax }{section.3.14}{}}
\newlabel{Am125}{{3.14}{34}{Toelichting 12\relax }{section.3.14}{}}
\@writefile{toc}{\contentsline {section}{\numberline {3.15}Toelichting 13}{34}{section.3.15}}
\newlabel{rec13}{{3.15}{34}{Toelichting 13\relax }{section.3.15}{}}
\newlabel{Am34}{{3.15}{34}{Toelichting 13\relax }{section.3.15}{}}
\newlabel{Am115}{{3.15}{34}{Toelichting 13\relax }{section.3.15}{}}
\@writefile{toc}{\contentsline {section}{\numberline {3.16}Toelichting 13a}{35}{section.3.16}}
\newlabel{rec13a}{{3.16}{35}{Toelichting 13a\relax }{section.3.16}{}}
\newlabel{Am6}{{3.16}{35}{Toelichting 13a\relax }{section.3.16}{}}
\@writefile{toc}{\contentsline {section}{\numberline {3.17}Toelichting 13b}{35}{section.3.17}}
\newlabel{rec13b}{{3.17}{35}{Toelichting 13b\relax }{section.3.17}{}}
\newlabel{Am7}{{3.17}{35}{Toelichting 13b\relax }{section.3.17}{}}
\@writefile{toc}{\contentsline {section}{\numberline {3.18}}{35}{section.3.18}}
\newlabel{rec13c}{{3.18}{35}{\relax }{section.3.18}{}}
\newlabel{Am8}{{3.18}{36}{\relax }{section.3.18}{}}
\@writefile{toc}{\contentsline {section}{\numberline {3.19}Toelichting 13d}{36}{section.3.19}}
\newlabel{recital13d}{{3.19}{36}{Toelichting 13d\relax }{section.3.19}{}}
\newlabel{Am9}{{3.19}{36}{Toelichting 13d\relax }{section.3.19}{}}
\@writefile{toc}{\contentsline {section}{\numberline {3.20}Toelichting 14}{36}{section.3.20}}
\newlabel{rec14}{{3.20}{36}{Toelichting 14\relax }{section.3.20}{}}
\newlabel{Am10}{{3.20}{37}{Toelichting 14\relax }{section.3.20}{}}
\newlabel{Am86}{{3.20}{37}{Toelichting 14\relax }{section.3.20}{}}
\@writefile{toc}{\contentsline {section}{\numberline {3.21}Toelichting 16}{37}{section.3.21}}
\newlabel{rec16}{{3.21}{37}{Toelichting 16\relax }{section.3.21}{}}
\newlabel{Am11}{{3.21}{38}{Toelichting 16\relax }{section.3.21}{}}
\newlabel{Am35}{{3.21}{38}{Toelichting 16\relax }{section.3.21}{}}
\@writefile{toc}{\contentsline {section}{\numberline {3.22}Toelichting 17}{38}{section.3.22}}
\newlabel{rec17}{{3.22}{38}{Toelichting 17\relax }{section.3.22}{}}
\newlabel{Am12}{{3.22}{38}{Toelichting 17\relax }{section.3.22}{}}
\@writefile{toc}{\contentsline {section}{\numberline {3.23}Toelichting 18}{39}{section.3.23}}
\newlabel{rec18}{{3.23}{39}{Toelichting 18\relax }{section.3.23}{}}
\newlabel{Am13}{{3.23}{39}{Toelichting 18\relax }{section.3.23}{}}
\@writefile{toc}{\contentsline {section}{\numberline {3.24}Toelichting 18 bis (new)}{39}{section.3.24}}
\newlabel{rec18b}{{3.24}{39}{Toelichting 18 bis (new)\relax }{section.3.24}{}}
\newlabel{Am74}{{3.24}{39}{Toelichting 18 bis (new)\relax }{section.3.24}{}}
\@writefile{toc}{\contentsline {section}{\numberline {3.25}Toelichting 18 ter (new)}{40}{section.3.25}}
\newlabel{rec18t}{{3.25}{40}{Toelichting 18 ter (new)\relax }{section.3.25}{}}
\newlabel{Am75}{{3.25}{40}{Toelichting 18 ter (new)\relax }{section.3.25}{}}
\@writefile{toc}{\contentsline {chapter}{\numberline {4}koppelingen met voetnoten}{41}{chapter.4}}
\@writefile{lof}{\addvspace {10\p@ }}
\@writefile{lot}{\addvspace {10\p@ }}
\newlabel{links}{{4}{41}{koppelingen met voetnoten\relax }{chapter.4}{}}
\@writefile{toc}{\contentsline {chapter}{\numberline {5}Vragen, Wat moet er nog gebeuren, Hoe kun je helpen}{43}{chapter.5}}
\@writefile{lof}{\addvspace {10\p@ }}
\@writefile{lot}{\addvspace {10\p@ }}
\newlabel{tasks}{{5}{43}{Vragen, Wat moet er nog gebeuren, Hoe kun je helpen\relax }{chapter.5}{}}
