\relax 
\ifx\hyper@anchor\@undefined
\global \let \oldcontentsline\contentsline
\gdef \contentsline#1#2#3#4{\oldcontentsline{#1}{#2}{#3}}
\global \let \oldnewlabel\newlabel
\gdef \newlabel#1#2{\newlabelxx{#1}#2}
\gdef \newlabelxx#1#2#3#4#5#6{\oldnewlabel{#1}{{#2}{#3}}}
\AtEndDocument{\let \contentsline\oldcontentsline
\let \newlabel\oldnewlabel}
\else
\global \let \hyper@last\relax 
\fi

\csname auxWARNINGii\endcsname {\typeout {-34- this file and other auxiliary files require to use the following}}
\csname auxWARNINGii\endcsname {\typeout {-34- LaTeX packages: french and babel!}}
\csname auxWARNINGii\endcsname {\typeout {-34- check \protect \usepackage \space or remove these files. Typesetting is aborted!} \stop }
\select@language{french}
\@writefile{toc}{\select@language{french}}
\@writefile{lof}{\select@language{french}}
\@writefile{lot}{\select@language{french}}
\select@language{french}
\@writefile{toc}{\select@language{french}}
\@writefile{lof}{\select@language{french}}
\@writefile{lot}{\select@language{french}}
\@writefile{toc}{\contentsline {chapter}{\numberline {1}L\'{e}gende et exemple comment\'{e}}{4}{chapter.1}}
\@writefile{lof}{\addvspace {10\p@ }}
\@writefile{lot}{\addvspace {10\p@ }}
\newlabel{legen}{{1}{4}{L\'{e}gende et exemple comment\'{e}\relax }{chapter.1}{}}
\@writefile{toc}{\contentsline {section}{\numberline {1.1}Titre}{4}{section.1.1}}
\newlabel{exem}{{1.1}{4}{Titre\relax }{section.1.1}{}}
\newlabel{Am29}{{1.1}{4}{Titre\relax }{section.1.1}{}}
\newlabel{Am59}{{1.1}{4}{Titre\relax }{section.1.1}{}}
\newlabel{Am41}{{1.1}{4}{Titre\relax }{section.1.1}{}}
\@writefile{toc}{\contentsline {chapter}{\numberline {2}Articles et Motions}{5}{chapter.2}}
\@writefile{lof}{\addvspace {10\p@ }}
\@writefile{lot}{\addvspace {10\p@ }}
\newlabel{artik}{{2}{5}{Articles et Motions\relax }{chapter.2}{}}
\@writefile{toc}{\contentsline {section}{\numberline {2.1}Article 1}{5}{section.2.1}}
\newlabel{art1}{{2.1}{5}{Article 1\relax }{section.2.1}{}}
\newlabel{Am116}{{2.1}{5}{Article 1\relax }{section.2.1}{}}
\@writefile{toc}{\contentsline {section}{\numberline {2.2}Article 2 (a)}{5}{section.2.2}}
\newlabel{art2a}{{2.2}{5}{Article 2 (a)\relax }{section.2.2}{}}
\newlabel{Am36}{{2.2}{6}{Article 2 (a)\relax }{section.2.2}{}}
\newlabel{Am42}{{2.2}{6}{Article 2 (a)\relax }{section.2.2}{}}
\newlabel{Am117}{{2.2}{6}{Article 2 (a)\relax }{section.2.2}{}}
\newlabel{Am14}{{2.2}{6}{Article 2 (a)\relax }{section.2.2}{}}
\@writefile{toc}{\contentsline {section}{\numberline {2.3}Article 2 (b)}{6}{section.2.3}}
\newlabel{art2b}{{2.3}{6}{Article 2 (b)\relax }{section.2.3}{}}
\newlabel{Am69}{{2.3}{7}{Article 2 (b)\relax }{section.2.3}{}}
\newlabel{Am107}{{2.3}{7}{Article 2 (b)\relax }{section.2.3}{}}
\newlabel{Am96}{{2.3}{7}{Article 2 (b)\relax }{section.2.3}{}}
\@writefile{toc}{\contentsline {section}{\numberline {2.4}Article 2 (ba) (nouveau)}{8}{section.2.4}}
\newlabel{art2ba}{{2.4}{8}{Article 2 (ba) (nouveau)\relax }{section.2.4}{}}
\newlabel{Am55}{{2.4}{8}{Article 2 (ba) (nouveau)\relax }{section.2.4}{}}
\newlabel{Am97}{{2.4}{8}{Article 2 (ba) (nouveau)\relax }{section.2.4}{}}
\newlabel{Am108}{{2.4}{8}{Article 2 (ba) (nouveau)\relax }{section.2.4}{}}
\newlabel{Am37}{{2.4}{8}{Article 2 (ba) (nouveau)\relax }{section.2.4}{}}
\@writefile{toc}{\contentsline {section}{\numberline {2.5}Article 2 (bb) (nouveau)}{8}{section.2.5}}
\newlabel{art2bb}{{2.5}{8}{Article 2 (bb) (nouveau)\relax }{section.2.5}{}}
\newlabel{Am39}{{2.5}{9}{Article 2 (bb) (nouveau)\relax }{section.2.5}{}}
\newlabel{Am43}{{2.5}{9}{Article 2 (bb) (nouveau)\relax }{section.2.5}{}}
\@writefile{toc}{\contentsline {section}{\numberline {2.6}Article 2 (bc) (nouveau)}{9}{section.2.6}}
\newlabel{art2bc}{{2.6}{9}{Article 2 (bc) (nouveau)\relax }{section.2.6}{}}
\newlabel{Am38}{{2.6}{9}{Article 2 (bc) (nouveau)\relax }{section.2.6}{}}
\newlabel{Am44}{{2.6}{9}{Article 2 (bc) (nouveau)\relax }{section.2.6}{}}
\newlabel{Am118}{{2.6}{9}{Article 2 (bc) (nouveau)\relax }{section.2.6}{}}
\@writefile{toc}{\contentsline {section}{\numberline {2.7}Article 3}{9}{section.2.7}}
\newlabel{art3}{{2.7}{9}{Article 3\relax }{section.2.7}{}}
\newlabel{Am15}{{2.7}{9}{Article 3\relax }{section.2.7}{}}
\@writefile{toc}{\contentsline {section}{\numberline {2.8}Article 3 (a) (nouveau)}{10}{section.2.8}}
\newlabel{art3a}{{2.8}{10}{Article 3 (a) (nouveau)\relax }{section.2.8}{}}
\newlabel{Am45}{{2.8}{10}{Article 3 (a) (nouveau)\relax }{section.2.8}{}}
\@writefile{toc}{\contentsline {section}{\numberline {2.9}Article 4}{10}{section.2.9}}
\newlabel{art4}{{2.9}{10}{Article 4\relax }{section.2.9}{}}
\newlabel{Am}{{2.9}{11}{Article 4\relax }{Item.3}{}}
\@writefile{toc}{\contentsline {section}{\numberline {2.10}Article 4.1}{11}{section.2.10}}
\newlabel{art41}{{2.10}{11}{Article 4.1\relax }{section.2.10}{}}
\newlabel{Am16}{{2.10}{11}{Article 4.1\relax }{section.2.10}{}}
\newlabel{Am56}{{2.10}{11}{Article 4.1\relax }{section.2.10}{}}
\newlabel{Am98}{{2.10}{11}{Article 4.1\relax }{section.2.10}{}}
\newlabel{Am109}{{2.10}{11}{Article 4.1\relax }{section.2.10}{}}
\@writefile{toc}{\contentsline {section}{\numberline {2.11}}{11}{section.2.11}}
\newlabel{art41a}{{2.11}{11}{\relax }{section.2.11}{}}
\@writefile{toc}{\contentsline {section}{\numberline {2.12}Article 4.1 (b) (nouveau)}{11}{section.2.12}}
\newlabel{art41b}{{2.12}{11}{Article 4.1 (b) (nouveau)\relax }{section.2.12}{}}
\newlabel{Am48}{{2.12}{12}{Article 4.1 (b) (nouveau)\relax }{section.2.12}{}}
\@writefile{toc}{\contentsline {section}{\numberline {2.13}Article 4.2}{12}{section.2.13}}
\newlabel{art42}{{2.13}{12}{Article 4.2\relax }{section.2.13}{}}
\newlabel{Am16}{{2.13}{12}{Article 4.2\relax }{section.2.13}{}}
\newlabel{Am82}{{2.13}{12}{Article 4.2\relax }{section.2.13}{}}
\@writefile{toc}{\contentsline {section}{\numberline {2.14}Article 4.3}{13}{section.2.14}}
\newlabel{art43}{{2.14}{13}{Article 4.3\relax }{section.2.14}{}}
\newlabel{Am16}{{2.14}{13}{Article 4.3\relax }{section.2.14}{}}
\newlabel{Am57}{{2.14}{13}{Article 4.3\relax }{section.2.14}{}}
\newlabel{Am99}{{2.14}{13}{Article 4.3\relax }{section.2.14}{}}
\newlabel{Am110}{{2.14}{13}{Article 4.3\relax }{section.2.14}{}}
\newlabel{Am100}{{2.14}{13}{Article 4.3\relax }{section.2.14}{}}
\@writefile{toc}{\contentsline {section}{\numberline {2.15}Article 4.3 (a) (nouveau)}{14}{section.2.15}}
\newlabel{art43a}{{2.15}{14}{Article 4.3 (a) (nouveau)\relax }{section.2.15}{}}
\newlabel{Am70}{{2.15}{14}{Article 4.3 (a) (nouveau)\relax }{section.2.15}{}}
\@writefile{toc}{\contentsline {section}{\numberline {2.16}Article 4.4 (b) (nouveau)}{14}{section.2.16}}
\newlabel{art4b}{{2.16}{14}{Article 4.4 (b) (nouveau)\relax }{section.2.16}{}}
\newlabel{Am87}{{2.16}{15}{Article 4.4 (b) (nouveau)\relax }{section.2.16}{}}
\@writefile{toc}{\contentsline {section}{\numberline {2.17}Article 4 (c) (nouveau)}{15}{section.2.17}}
\newlabel{art4c}{{2.17}{15}{Article 4 (c) (nouveau)\relax }{section.2.17}{}}
\newlabel{Am47}{{2.17}{15}{Article 4 (c) (nouveau)\relax }{section.2.17}{}}
\newlabel{Am60}{{2.17}{15}{Article 4 (c) (nouveau)\relax }{section.2.17}{}}
\@writefile{toc}{\contentsline {section}{\numberline {2.18}Article 4.4 (d) (nouveau)}{15}{section.2.18}}
\newlabel{art4d}{{2.18}{15}{Article 4.4 (d) (nouveau)\relax }{section.2.18}{}}
\newlabel{Am46}{{2.18}{16}{Article 4.4 (d) (nouveau)\relax }{section.2.18}{}}
\newlabel{Am83}{{2.18}{16}{Article 4.4 (d) (nouveau)\relax }{section.2.18}{}}
\@writefile{toc}{\contentsline {section}{\numberline {2.19}Article 5}{16}{section.2.19}}
\newlabel{art5}{{2.19}{16}{Article 5\relax }{section.2.19}{}}
\newlabel{Am18}{{2.19}{16}{Article 5\relax }{section.2.19}{}}
\newlabel{Am49}{{2.19}{16}{Article 5\relax }{section.2.19}{}}
\newlabel{Am58}{{2.19}{16}{Article 5\relax }{section.2.19}{}}
\newlabel{Am101}{{2.19}{16}{Article 5\relax }{section.2.19}{}}
\newlabel{Am102}{{2.19}{16}{Article 5\relax }{section.2.19}{}}
\newlabel{Am111}{{2.19}{16}{Article 5\relax }{section.2.19}{}}
\@writefile{toc}{\contentsline {section}{\numberline {2.20}Article 5 (a) (nouveau)}{17}{section.2.20}}
\newlabel{art5a}{{2.20}{17}{Article 5 (a) (nouveau)\relax }{section.2.20}{}}
\newlabel{Am62}{{2.20}{17}{Article 5 (a) (nouveau)\relax }{section.2.20}{}}
\@writefile{toc}{\contentsline {section}{\numberline {2.21}Article 5.1a}{18}{section.2.21}}
\newlabel{art51a}{{2.21}{18}{Article 5.1a\relax }{section.2.21}{}}
\newlabel{Am72}{{2.21}{18}{Article 5.1a\relax }{section.2.21}{}}
\@writefile{toc}{\contentsline {section}{\numberline {2.22}Article 5 (b) (nouveau)}{18}{section.2.22}}
\newlabel{art5b}{{2.22}{18}{Article 5 (b) (nouveau)\relax }{section.2.22}{}}
\newlabel{Am103}{{2.22}{18}{Article 5 (b) (nouveau)\relax }{section.2.22}{}}
\newlabel{Am119}{{2.22}{18}{Article 5 (b) (nouveau)\relax }{section.2.22}{}}
\@writefile{toc}{\contentsline {section}{\numberline {2.23}Article 5 (c)}{18}{section.2.23}}
\newlabel{art5c}{{2.23}{18}{Article 5 (c)\relax }{section.2.23}{}}
\newlabel{Am104}{{2.23}{19}{Article 5 (c)\relax }{section.2.23}{}}
\newlabel{Am120}{{2.23}{19}{Article 5 (c)\relax }{section.2.23}{}}
\@writefile{toc}{\contentsline {section}{\numberline {2.24}Article 6}{19}{section.2.24}}
\newlabel{art6}{{2.24}{19}{Article 6\relax }{section.2.24}{}}
\newlabel{Am19}{{2.24}{19}{Article 6\relax }{section.2.24}{}}
\@writefile{toc}{\contentsline {section}{\numberline {2.25}Article 6 (a)}{19}{section.2.25}}
\newlabel{art6a}{{2.25}{19}{Article 6 (a)\relax }{section.2.25}{}}
\newlabel{Am50}{{2.25}{20}{Article 6 (a)\relax }{section.2.25}{}}
\newlabel{Am20}{{2.25}{20}{Article 6 (a)\relax }{section.2.25}{}}
\newlabel{Am76}{{2.25}{20}{Article 6 (a)\relax }{section.2.25}{}}
\newlabel{Am105}{{2.25}{20}{Article 6 (a)\relax }{section.2.25}{}}
\@writefile{toc}{\contentsline {section}{\numberline {2.26}Article 6 (b)}{21}{section.2.26}}
\newlabel{art6b}{{2.26}{21}{Article 6 (b)\relax }{section.2.26}{}}
\newlabel{Am106}{{2.26}{21}{Article 6 (b)\relax }{section.2.26}{}}
\@writefile{toc}{\contentsline {section}{\numberline {2.27}Article 7}{21}{section.2.27}}
\newlabel{art7}{{2.27}{21}{Article 7\relax }{section.2.27}{}}
\newlabel{Am21}{{2.27}{22}{Article 7\relax }{section.2.27}{}}
\newlabel{Am91}{{2.27}{22}{Article 7\relax }{section.2.27}{}}
\@writefile{toc}{\contentsline {section}{\numberline {2.28}Article 7 (Patent Insurance Extensions)}{22}{section.2.28}}
\newlabel{art7PI}{{2.28}{22}{Article 7 (Patent Insurance Extensions)\relax }{section.2.28}{}}
\newlabel{Am90}{{2.28}{22}{Article 7 (Patent Insurance Extensions)\relax }{section.2.28}{}}
\newlabel{Am71}{{2.28}{22}{Article 7 (Patent Insurance Extensions)\relax }{section.2.28}{}}
\@writefile{toc}{\contentsline {section}{\numberline {2.29}Article 8}{23}{section.2.29}}
\newlabel{art8}{{2.29}{23}{Article 8\relax }{section.2.29}{}}
\newlabel{Am89}{{2.29}{23}{Article 8\relax }{section.2.29}{}}
\newlabel{Am92}{{2.29}{23}{Article 8\relax }{section.2.29}{}}
\newlabel{Am93}{{2.29}{23}{Article 8\relax }{section.2.29}{}}
\newlabel{Am94}{{2.29}{23}{Article 8\relax }{section.2.29}{}}
\@writefile{toc}{\contentsline {chapter}{\numberline {3}Rejet/Acceptation, Titre et Consid\'{e}rant}{25}{chapter.3}}
\@writefile{lof}{\addvspace {10\p@ }}
\@writefile{lot}{\addvspace {10\p@ }}
\newlabel{recit}{{3}{25}{Rejet/Acceptation, Titre et Consid\'{e}rant\relax }{chapter.3}{}}
\@writefile{toc}{\contentsline {section}{\numberline {3.1}Rejet/Acceptation}{25}{section.3.1}}
\newlabel{rej}{{3.1}{25}{Rejet/Acceptation\relax }{section.3.1}{}}
\newlabel{Am52}{{3.1}{25}{Rejet/Acceptation\relax }{section.3.1}{}}
\newlabel{Am54}{{3.1}{25}{Rejet/Acceptation\relax }{section.3.1}{}}
\newlabel{Am68}{{3.1}{25}{Rejet/Acceptation\relax }{section.3.1}{}}
\@writefile{toc}{\contentsline {section}{\numberline {3.2}Titre}{25}{section.3.2}}
\newlabel{tit}{{3.2}{25}{Titre\relax }{section.3.2}{}}
\newlabel{Am29}{{3.2}{25}{Titre\relax }{section.3.2}{}}
\newlabel{Am41}{{3.2}{25}{Titre\relax }{section.3.2}{}}
\newlabel{Am41}{{3.2}{25}{Titre\relax }{section.3.2}{}}
\@writefile{toc}{\contentsline {section}{\numberline {3.3}Recital 1}{26}{section.3.3}}
\newlabel{rec1}{{3.3}{26}{Recital 1\relax }{section.3.3}{}}
\newlabel{Am30}{{3.3}{26}{Recital 1\relax }{section.3.3}{}}
\newlabel{Am1}{{3.3}{26}{Recital 1\relax }{section.3.3}{}}
\@writefile{toc}{\contentsline {section}{\numberline {3.4}Recital 5}{26}{section.3.4}}
\newlabel{rec5}{{3.4}{26}{Recital 5\relax }{section.3.4}{}}
\newlabel{Am2}{{3.4}{27}{Recital 5\relax }{section.3.4}{}}
\@writefile{toc}{\contentsline {section}{\numberline {3.5}Recital 5 (a) (nouveau)}{27}{section.3.5}}
\newlabel{rec5a}{{3.5}{27}{Recital 5 (a) (nouveau)\relax }{section.3.5}{}}
\newlabel{Am88}{{3.5}{27}{Recital 5 (a) (nouveau)\relax }{section.3.5}{}}
\@writefile{toc}{\contentsline {section}{\numberline {3.6}Recital 6}{27}{section.3.6}}
\newlabel{rec6}{{3.6}{27}{Recital 6\relax }{section.3.6}{}}
\newlabel{Am31}{{3.6}{28}{Recital 6\relax }{section.3.6}{}}
\@writefile{toc}{\contentsline {section}{\numberline {3.7}Recital 7}{28}{section.3.7}}
\newlabel{rec7}{{3.7}{28}{Recital 7\relax }{section.3.7}{}}
\newlabel{Am32}{{3.7}{28}{Recital 7\relax }{section.3.7}{}}
\newlabel{Am112}{{3.7}{28}{Recital 7\relax }{section.3.7}{}}
\@writefile{toc}{\contentsline {section}{\numberline {3.8}Recital 7 (a) (nouveau)}{29}{section.3.8}}
\newlabel{rec7a}{{3.8}{29}{Recital 7 (a) (nouveau)\relax }{section.3.8}{}}
\newlabel{Am3}{{3.8}{29}{Recital 7 (a) (nouveau)\relax }{section.3.8}{}}
\@writefile{toc}{\contentsline {section}{\numberline {3.9}Recital 7 (b) (nouveau)}{29}{section.3.9}}
\newlabel{rec7b}{{3.9}{29}{Recital 7 (b) (nouveau)\relax }{section.3.9}{}}
\newlabel{Am95}{{3.9}{29}{Recital 7 (b) (nouveau)\relax }{section.3.9}{}}
\@writefile{toc}{\contentsline {section}{\numberline {3.10}Recital 9 (a) (nouveau)}{29}{section.3.10}}
\newlabel{rec9a}{{3.10}{29}{Recital 9 (a) (nouveau)\relax }{section.3.10}{}}
\newlabel{Am61}{{3.10}{29}{Recital 9 (a) (nouveau)\relax }{section.3.10}{}}
\@writefile{toc}{\contentsline {section}{\numberline {3.11}Recital 11}{30}{section.3.11}}
\newlabel{rec11}{{3.11}{30}{Recital 11\relax }{section.3.11}{}}
\newlabel{Am113}{{3.11}{30}{Recital 11\relax }{section.3.11}{}}
\newlabel{Am33}{{3.11}{30}{Recital 11\relax }{section.3.11}{}}
\newlabel{Am4}{{3.11}{30}{Recital 11\relax }{section.3.11}{}}
\newlabel{Am84}{{3.11}{30}{Recital 11\relax }{section.3.11}{}}
\@writefile{toc}{\contentsline {section}{\numberline {3.12}Recital 11 (a) (nouveau)}{30}{section.3.12}}
\newlabel{rec11a}{{3.12}{30}{Recital 11 (a) (nouveau)\relax }{section.3.12}{}}
\newlabel{Am51}{{3.12}{30}{Recital 11 (a) (nouveau)\relax }{section.3.12}{}}
\@writefile{toc}{\contentsline {section}{\numberline {3.13}Recital 11 (b) (nouveau)}{31}{section.3.13}}
\newlabel{rec11b}{{3.13}{31}{Recital 11 (b) (nouveau)\relax }{section.3.13}{}}
\newlabel{Am73}{{3.13}{31}{Recital 11 (b) (nouveau)\relax }{section.3.13}{}}
\@writefile{toc}{\contentsline {section}{\numberline {3.14}Recital 12}{31}{section.3.14}}
\newlabel{rec12}{{3.14}{31}{Recital 12\relax }{section.3.14}{}}
\newlabel{Am5}{{3.14}{32}{Recital 12\relax }{section.3.14}{}}
\newlabel{Am114}{{3.14}{32}{Recital 12\relax }{section.3.14}{}}
\newlabel{Am125}{{3.14}{32}{Recital 12\relax }{section.3.14}{}}
\@writefile{toc}{\contentsline {section}{\numberline {3.15}Recital 13}{32}{section.3.15}}
\newlabel{rec13}{{3.15}{32}{Recital 13\relax }{section.3.15}{}}
\newlabel{Am34}{{3.15}{32}{Recital 13\relax }{section.3.15}{}}
\newlabel{Am115}{{3.15}{32}{Recital 13\relax }{section.3.15}{}}
\@writefile{toc}{\contentsline {section}{\numberline {3.16}Recital 13b}{33}{section.3.16}}
\newlabel{rec13b}{{3.16}{33}{Recital 13b\relax }{section.3.16}{}}
\newlabel{Am7}{{3.16}{33}{Recital 13b\relax }{section.3.16}{}}
\@writefile{toc}{\contentsline {section}{\numberline {3.17}}{33}{section.3.17}}
\newlabel{rec13c}{{3.17}{33}{\relax }{section.3.17}{}}
\newlabel{Am8}{{3.17}{33}{\relax }{section.3.17}{}}
\@writefile{toc}{\contentsline {section}{\numberline {3.18}Recital 13d}{33}{section.3.18}}
\newlabel{recital13d}{{3.18}{33}{Recital 13d\relax }{section.3.18}{}}
\newlabel{Am9}{{3.18}{34}{Recital 13d\relax }{section.3.18}{}}
\@writefile{toc}{\contentsline {section}{\numberline {3.19}Recital 14}{34}{section.3.19}}
\newlabel{rec14}{{3.19}{34}{Recital 14\relax }{section.3.19}{}}
\newlabel{Am10}{{3.19}{35}{Recital 14\relax }{section.3.19}{}}
\newlabel{Am86}{{3.19}{35}{Recital 14\relax }{section.3.19}{}}
\@writefile{toc}{\contentsline {section}{\numberline {3.20}Recital 16}{35}{section.3.20}}
\newlabel{rec16}{{3.20}{35}{Recital 16\relax }{section.3.20}{}}
\newlabel{Am11}{{3.20}{36}{Recital 16\relax }{section.3.20}{}}
\newlabel{Am35}{{3.20}{36}{Recital 16\relax }{section.3.20}{}}
\@writefile{toc}{\contentsline {section}{\numberline {3.21}Recital 17}{36}{section.3.21}}
\newlabel{rec17}{{3.21}{36}{Recital 17\relax }{section.3.21}{}}
\newlabel{Am12}{{3.21}{36}{Recital 17\relax }{section.3.21}{}}
\@writefile{toc}{\contentsline {section}{\numberline {3.22}Recital 18}{37}{section.3.22}}
\newlabel{rec18}{{3.22}{37}{Recital 18\relax }{section.3.22}{}}
\newlabel{Am13}{{3.22}{37}{Recital 18\relax }{section.3.22}{}}
\@writefile{toc}{\contentsline {section}{\numberline {3.23}Recital 18 bis (nouveau)}{37}{section.3.23}}
\newlabel{rec18b}{{3.23}{37}{Recital 18 bis (nouveau)\relax }{section.3.23}{}}
\newlabel{Am74}{{3.23}{37}{Recital 18 bis (nouveau)\relax }{section.3.23}{}}
\@writefile{toc}{\contentsline {section}{\numberline {3.24}Recital 18 ter (nouveau)}{38}{section.3.24}}
\newlabel{rec18t}{{3.24}{38}{Recital 18 ter (nouveau)\relax }{section.3.24}{}}
\newlabel{Am75}{{3.24}{38}{Recital 18 ter (nouveau)\relax }{section.3.24}{}}
\@writefile{toc}{\contentsline {chapter}{\numberline {4}Liens Annot\'{e}s}{39}{chapter.4}}
\@writefile{lof}{\addvspace {10\p@ }}
\@writefile{lot}{\addvspace {10\p@ }}
\newlabel{links}{{4}{39}{Liens Annot\'{e}s\relax }{chapter.4}{}}
\@writefile{toc}{\contentsline {chapter}{\numberline {5}Questions, Choses \`{a} faires, Comment vous pouvez aider}{41}{chapter.5}}
\@writefile{lof}{\addvspace {10\p@ }}
\@writefile{lot}{\addvspace {10\p@ }}
\newlabel{tasks}{{5}{41}{Questions, Choses \`{a} faires, Comment vous pouvez aider\relax }{chapter.5}{}}
