\relax 
\ifx\hyper@anchor\@undefined
\global \let \oldcontentsline\contentsline
\gdef \contentsline#1#2#3#4{\oldcontentsline{#1}{#2}{#3}}
\global \let \oldnewlabel\newlabel
\gdef \newlabel#1#2{\newlabelxx{#1}#2}
\gdef \newlabelxx#1#2#3#4#5#6{\oldnewlabel{#1}{{#2}{#3}}}
\AtEndDocument{\let \contentsline\oldcontentsline
\let \newlabel\oldnewlabel}
\else
\global \let \hyper@last\relax 
\fi

\@writefile{toc}{\contentsline {section}{\numberline {1}McCarthy/Labour PR: ``MEPs must back EU plans for patents for inventions''}{2}{section.1}}
\newlabel{text}{{1}{2}{McCarthy/Labour PR: ``MEPs must back EU plans for patents for inventions''\relax }{section.1}{}}
\@writefile{toc}{\contentsline {section}{\numberline {2}backgrounds}{4}{section.2}}
\newlabel{bakgr}{{2}{4}{backgrounds\relax }{section.2}{}}
\@writefile{toc}{\contentsline {section}{\numberline {3}Annotated Links}{5}{section.3}}
\newlabel{links}{{3}{5}{Annotated Links\relax }{section.3}{}}
