\contentsline {section}{\numberline {1}McCarthy/Labour PR: ``MEPs must back EU plans for patents for inventions''}{2}{section.1}
\contentsline {section}{\numberline {2}backgrounds}{4}{section.2}
\contentsline {section}{\numberline {3}Annotated Links}{5}{section.3}
