\relax 
\ifx\hyper@anchor\@undefined
\global \let \oldcontentsline\contentsline
\gdef \contentsline#1#2#3#4{\oldcontentsline{#1}{#2}{#3}}
\global \let \oldnewlabel\newlabel
\gdef \newlabel#1#2{\newlabelxx{#1}#2}
\gdef \newlabelxx#1#2#3#4#5#6{\oldnewlabel{#1}{{#2}{#3}}}
\AtEndDocument{\let \contentsline\oldcontentsline
\let \newlabel\oldnewlabel}
\else
\global \let \hyper@last\relax 
\fi

\csname auxWARNINGii\endcsname {\typeout {-34- this file and other auxiliary files require to use the following}}
\csname auxWARNINGii\endcsname {\typeout {-34- LaTeX packages: french and babel!}}
\csname auxWARNINGii\endcsname {\typeout {-34- check \protect \usepackage \space or remove these files. Typesetting is aborted!} \stop }
\select@language{french}
\@writefile{toc}{\select@language{french}}
\@writefile{lof}{\select@language{french}}
\@writefile{lot}{\select@language{french}}
\select@language{french}
\@writefile{toc}{\select@language{french}}
\@writefile{lof}{\select@language{french}}
\@writefile{lot}{\select@language{french}}
\newlabel{dat}{{1}{4}{Renseignements Pratiques\label {dat}\relax }{section.0.1}{}}
\@writefile{toc}{\contentsline {section}{\numberline {1}Renseignements Pratiques}{4}{section.0.1}}
\newlabel{pro}{{2}{5}{Protocole de session\label {pro}\relax }{section.0.2}{}}
\@writefile{toc}{\contentsline {section}{\numberline {2}Protocole de session}{5}{section.0.2}}
\newlabel{vors1}{{2.1}{5}{Einleitungsworte des Gespr\"{a}chsleiters MdB J\"{o}rg Tauss\label {vors1}\relax }{subsection.0.2.1}{}}
\@writefile{toc}{\contentsline {subsection}{\numberline {2.1}Einleitungsworte des Gespr\"{a}chsleiters MdB J\"{o}rg Tauss}{5}{subsection.0.2.1}}
\newlabel{probst1}{{2.2}{8}{Probst: innovationsf\"{o}rdernde Wirkungen von Swpat nicht zu erkennen\label {probst1}\relax }{subsection.0.2.2}{}}
\@writefile{toc}{\contentsline {subsection}{\numberline {2.2}Probst\@DP  innovationsf\"{o}rdernde Wirkungen von Swpat nicht zu erkennen}{8}{subsection.0.2.2}}
\newlabel{bremer1}{{2.3}{9}{Bremer: EPA-Rechtsprechung sollte im Gesetz etabliert werden, KMU profitieren von Softwarepatenten\label {bremer1}\relax }{subsection.0.2.3}{}}
\@writefile{toc}{\contentsline {subsection}{\numberline {2.3}Bremer\@DP  EPA-Rechtsprechung sollte im Gesetz etabliert werden, KMU profitieren von Softwarepatenten}{9}{subsection.0.2.3}}
\newlabel{schiuma1}{{2.4}{11}{Schiuma: Urheberrecht unzureichend, KMU brauchen Swpat, TRIPS erfordert Gesetzes\"{a}nderung\label {schiuma1}\relax }{subsection.0.2.4}{}}
\@writefile{toc}{\contentsline {subsection}{\numberline {2.4}Schiuma\@DP  Urheberrecht unzureichend, KMU brauchen Swpat, TRIPS erfordert Gesetzes\"{a}nderung}{11}{subsection.0.2.4}}
\newlabel{siepmann1}{{2.5}{11}{Siepmann: Urheberrecht leistet f\"{u}r Software das, was Patente f\"{u}r Pharma leisten\label {siepmann1}\relax }{subsection.0.2.5}{}}
\@writefile{toc}{\contentsline {subsection}{\numberline {2.5}Siepmann\@DP  Urheberrecht leistet f\"{u}r Software das, was Patente f\"{u}r Pharma leisten}{11}{subsection.0.2.5}}
\newlabel{kiesew1}{{2.6}{14}{Kiesewetter-K\"{o}binger: Ungereimtheiten bei der Patentpr\"{u}fung von Datenverarbeitungsprogrammen\label {kiesew1}\relax }{subsection.0.2.6}{}}
\@writefile{toc}{\contentsline {subsection}{\numberline {2.6}Kiesewetter-K\"{o}binger\@DP  Ungereimtheiten bei der Patentpr\"{u}fung von Datenverarbeitungsprogrammen}{14}{subsection.0.2.6}}
\newlabel{bouillon1}{{2.7}{15}{Bouillon: Patente gef\"{a}hrden innovative KMU im Bereich der propriet\"{a}ren Software\label {bouillon1}\relax }{subsection.0.2.7}{}}
\@writefile{toc}{\contentsline {subsection}{\numberline {2.7}Bouillon\@DP  Patente gef\"{a}hrden innovative KMU im Bereich der propriet\"{a}ren Software}{15}{subsection.0.2.7}}
\newlabel{henckel1}{{2.8}{17}{Henckel: Quelloffene Software besonders gef\"{a}hrdet\label {henckel1}\relax }{subsection.0.2.8}{}}
\@writefile{toc}{\contentsline {subsection}{\numberline {2.8}Henckel\@DP  Quelloffene Software besonders gef\"{a}hrdet}{17}{subsection.0.2.8}}
\newlabel{lutter1}{{2.9}{18}{Lutterbeck: \"{O}konomen gegen Swpat, viele Juristen daf\"{u}r\label {lutter1}\relax }{subsection.0.2.9}{}}
\@writefile{toc}{\contentsline {subsection}{\numberline {2.9}Lutterbeck\@DP  \"{O}konomen gegen Swpat, viele Juristen daf\"{u}r}{18}{subsection.0.2.9}}
\newlabel{vors2}{{2.10}{19}{MdB Tauss: Themenkomplexe der heutigen Diskussion\label {vors2}\relax }{subsection.0.2.10}{}}
\@writefile{toc}{\contentsline {subsection}{\numberline {2.10}MdB Tauss\@DP  Themenkomplexe der heutigen Diskussion}{19}{subsection.0.2.10}}
\newlabel{mayer1}{{2.11}{20}{MdB Mayer: Was sagen die swpat-freundlichen Studien zur Wirkung auf Innovation?\label {mayer1}\relax }{subsection.0.2.11}{}}
\@writefile{toc}{\contentsline {subsection}{\numberline {2.11}MdB Mayer\@DP  Was sagen die swpat-freundlichen Studien zur Wirkung auf Innovation\@PI }{20}{subsection.0.2.11}}
\newlabel{griefahn1}{{2.12}{21}{MdB Griefahn: Ist Widerstand gegen US-Trends nicht zwecklos?\label {griefahn1}\relax }{subsection.0.2.12}{}}
\@writefile{toc}{\contentsline {subsection}{\numberline {2.12}MdB Griefahn\@DP  Ist Widerstand gegen US-Trends nicht zwecklos\@PI }{21}{subsection.0.2.12}}
\newlabel{otto1}{{2.13}{22}{MdB Otto: Fragen zum Unterschied US-DE, Urheberrecht-Patentrecht\label {otto1}\relax }{subsection.0.2.13}{}}
\@writefile{toc}{\contentsline {subsection}{\numberline {2.13}MdB Otto\@DP  Fragen zum Unterschied US-DE, Urheberrecht-Patentrecht}{22}{subsection.0.2.13}}
\newlabel{neumann1}{{2.14}{23}{MdB Neumann: Gegen Swpat oder gegen Patente allgemein?\label {neumann1}\relax }{subsection.0.2.14}{}}
\@writefile{toc}{\contentsline {subsection}{\numberline {2.14}MdB Neumann\@DP  Gegen Swpat oder gegen Patente allgemein\@PI }{23}{subsection.0.2.14}}
\newlabel{kelber1}{{2.15}{24}{MdB Kelber: Erfordert Bedeutung der Standardisierung nicht \"{A}nderungen im Patentrecht? Vertritt Bremer wirklich Meinung der Bitkom-Firmen?\label {kelber1}\relax }{subsection.0.2.15}{}}
\@writefile{toc}{\contentsline {subsection}{\numberline {2.15}MdB Kelber\@DP  Erfordert Bedeutung der Standardisierung nicht \"{A}nderungen im Patentrecht\@PI  Vertritt Bremer wirklich Meinung der Bitkom-Firmen\@PI }{24}{subsection.0.2.15}}
\newlabel{schiuma2}{{2.16}{24}{Schiuma: Patentpools gew\"{a}hrleisten, dass Standardisierung m\"{o}glich bleibt\label {schiuma2}\relax }{subsection.0.2.16}{}}
\@writefile{toc}{\contentsline {subsection}{\numberline {2.16}Schiuma\@DP  Patentpools gew\"{a}hrleisten, dass Standardisierung m\"{o}glich bleibt}{24}{subsection.0.2.16}}
\newlabel{lutter2}{{2.17}{26}{Lutterbeck: Begrenzung der Patentierbarkeit schwierig, Quelltextprivileg als L\"{o}sung\label {lutter2}\relax }{subsection.0.2.17}{}}
\@writefile{toc}{\contentsline {subsection}{\numberline {2.17}Lutterbeck\@DP  Begrenzung der Patentierbarkeit schwierig, Quelltextprivileg als L\"{o}sung}{26}{subsection.0.2.17}}
\newlabel{probst2}{{2.18}{28}{Probst: Zahlreiche Studien, nichts spricht f\"{u}r Swpat\label {probst2}\relax }{subsection.0.2.18}{}}
\@writefile{toc}{\contentsline {subsection}{\numberline {2.18}Probst\@DP  Zahlreiche Studien, nichts spricht f\"{u}r Swpat}{28}{subsection.0.2.18}}
\newlabel{bouillon2}{{2.19}{30}{Bouillon: Urheberrecht angemessen, denn die Leistung liegt mehr im Werk als in der Einzelidee\label {bouillon2}\relax }{subsection.0.2.19}{}}
\@writefile{toc}{\contentsline {subsection}{\numberline {2.19}Bouillon\@DP  Urheberrecht angemessen, denn die Leistung liegt mehr im Werk als in der Einzelidee}{30}{subsection.0.2.19}}
\newlabel{bremer2}{{2.20}{31}{Bremer: Volkswirtschaftliche Studien nicht aussagekr\"{a}ftig, OpenSource-Lager muss sich an Rechtslage anpassen, Schwierigkeiten gibt es sowieso auch beim Urheberrecht\label {bremer2}\relax }{subsection.0.2.20}{}}
\@writefile{toc}{\contentsline {subsection}{\numberline {2.20}Bremer\@DP  Volkswirtschaftliche Studien nicht aussagekr\"{a}ftig, OpenSource-Lager muss sich an Rechtslage anpassen, Schwierigkeiten gibt es sowieso auch beim Urheberrecht}{31}{subsection.0.2.20}}
\newlabel{siepmann2}{{2.21}{32}{Siepmann: Auch aus rechtlicher Sicht spricht wenig f\"{u}r Softwarepatente und viel dagegen\label {siepmann2}\relax }{subsection.0.2.21}{}}
\@writefile{toc}{\contentsline {subsection}{\numberline {2.21}Siepmann\@DP  Auch aus rechtlicher Sicht spricht wenig f\"{u}r Softwarepatente und viel dagegen}{32}{subsection.0.2.21}}
\newlabel{schiuma3}{{2.22}{34}{Schiuma: Kein Bedarf nach geringerer Patentlaufzeit, denn gut formulierte Patente wirken viel l\"{a}nger als 1 Produktzyklus\label {schiuma3}\relax }{subsection.0.2.22}{}}
\@writefile{toc}{\contentsline {subsection}{\numberline {2.22}Schiuma\@DP  Kein Bedarf nach geringerer Patentlaufzeit, denn gut formulierte Patente wirken viel l\"{a}nger als 1 Produktzyklus}{34}{subsection.0.2.22}}
\newlabel{vors3}{{2.23}{35}{Tauss: Deutet die Unstetigkeit der Rechtsprechung auf Gesetzgebungsbedarf?\label {vors3}\relax }{subsection.0.2.23}{}}
\@writefile{toc}{\contentsline {subsection}{\numberline {2.23}Tauss\@DP  Deutet die Unstetigkeit der Rechtsprechung auf Gesetzgebungsbedarf\@PI }{35}{subsection.0.2.23}}
\newlabel{otto2}{{2.24}{36}{MdB Otto: Freistellung von OpenSource-Software als L\"{o}sung?\label {otto2}\relax }{subsection.0.2.24}{}}
\@writefile{toc}{\contentsline {subsection}{\numberline {2.24}MdB Otto\@DP  Freistellung von OpenSource-Software als L\"{o}sung\@PI }{36}{subsection.0.2.24}}
\newlabel{griefahn2}{{2.25}{37}{MdB Griefahn: Was ist trivial? Wo sind die Grenzen?\label {griefahn2}\relax }{subsection.0.2.25}{}}
\@writefile{toc}{\contentsline {subsection}{\numberline {2.25}MdB Griefahn\@DP  Was ist trivial\@PI  Wo sind die Grenzen\@PI }{37}{subsection.0.2.25}}
\newlabel{siepmann3}{{2.26}{37}{Siepmann: R\"{u}ckkehr zu EP\"{U} und fr\"{u}herer BGH-Rechtsprechung ohne weiteres m\"{o}glich\label {siepmann3}\relax }{subsection.0.2.26}{}}
\@writefile{toc}{\contentsline {subsection}{\numberline {2.26}Siepmann\@DP  R\"{u}ckkehr zu EP\"{U} und fr\"{u}herer BGH-Rechtsprechung ohne weiteres m\"{o}glich}{37}{subsection.0.2.26}}
\newlabel{schiuma4}{{2.27}{38}{Schiuma: Heutige Rechtsprechung klar und sinnvoll, Gesetzgebung von 1973 veraltet und irref\"{u}hrend\label {schiuma4}\relax }{subsection.0.2.27}{}}
\@writefile{toc}{\contentsline {subsection}{\numberline {2.27}Schiuma\@DP  Heutige Rechtsprechung klar und sinnvoll, Gesetzgebung von 1973 veraltet und irref\"{u}hrend}{38}{subsection.0.2.27}}
\newlabel{lutter3}{{2.28}{39}{Lutterbeck: Juristische Diskussionen nutzlos, lieber an Quelltextprivileg und Verj\"{a}hrungsfristen denken\label {lutter3}\relax }{subsection.0.2.28}{}}
\@writefile{toc}{\contentsline {subsection}{\numberline {2.28}Lutterbeck\@DP  Juristische Diskussionen nutzlos, lieber an Quelltextprivileg und Verj\"{a}hrungsfristen denken}{39}{subsection.0.2.28}}
\newlabel{bremer3}{{2.29}{40}{Bremer: Status Quo = neuere Rechtsprechung + TRIPS, Gesetz muss angepasst werden\label {bremer3}\relax }{subsection.0.2.29}{}}
\@writefile{toc}{\contentsline {subsection}{\numberline {2.29}Bremer\@DP  Status Quo = neuere Rechtsprechung + TRIPS, Gesetz muss angepasst werden}{40}{subsection.0.2.29}}
\newlabel{bouillon3}{{2.30}{40}{Bouillon: Swpat grunds\"{a}tzlich nicht sinnvoll, Laufzeitverk\"{u}rzung und Wettbewerbsrechts\"{a}nderung etc nur als Notbehelfe vorgeschlagen\label {bouillon3}\relax }{subsection.0.2.30}{}}
\@writefile{toc}{\contentsline {subsection}{\numberline {2.30}Bouillon\@DP  Swpat grunds\"{a}tzlich nicht sinnvoll, Laufzeitverk\"{u}rzung und Wettbewerbsrechts\"{a}nderung etc nur als Notbehelfe vorgeschlagen}{40}{subsection.0.2.30}}
\newlabel{kiesew2}{{2.31}{41}{Kiesewetter-K\"{o}binger: Schwierigkeiten der Neuheitspr\"{u}fung bei Softwarepatenten\label {kiesew2}\relax }{subsection.0.2.31}{}}
\@writefile{toc}{\contentsline {subsection}{\numberline {2.31}Kiesewetter-K\"{o}binger\@DP  Schwierigkeiten der Neuheitspr\"{u}fung bei Softwarepatenten}{41}{subsection.0.2.31}}
\newlabel{vors4}{{2.32}{42}{Tauss: Auswirkungen auf Produktivit\"{a}t, IT-Sicherheit etc\label {vors4}\relax }{subsection.0.2.32}{}}
\@writefile{toc}{\contentsline {subsection}{\numberline {2.32}Tauss\@DP  Auswirkungen auf Produktivit\"{a}t, IT-Sicherheit etc}{42}{subsection.0.2.32}}
\newlabel{lutter4}{{2.33}{43}{Lutterbeck: IT-Sicherheit erfordert Freiraum f\"{u}r OpenSource\label {lutter4}\relax }{subsection.0.2.33}{}}
\@writefile{toc}{\contentsline {subsection}{\numberline {2.33}Lutterbeck\@DP  IT-Sicherheit erfordert Freiraum f\"{u}r OpenSource}{43}{subsection.0.2.33}}
\newlabel{henckel2}{{2.34}{44}{Henckel: Swpat f\"{o}rdern Abh\"{a}ngigkeit von Verk\"{a}ufern intransparenter Informationssysteme\label {henckel2}\relax }{subsection.0.2.34}{}}
\@writefile{toc}{\contentsline {subsection}{\numberline {2.34}Henckel\@DP  Swpat f\"{o}rdern Abh\"{a}ngigkeit von Verk\"{a}ufern intransparenter Informationssysteme}{44}{subsection.0.2.34}}
\newlabel{mayer2}{{2.35}{45}{MdB Mayer: Werden kleine Entwicklergruppen behindert?\label {mayer2}\relax }{subsection.0.2.35}{}}
\@writefile{toc}{\contentsline {subsection}{\numberline {2.35}MdB Mayer\@DP  Werden kleine Entwicklergruppen behindert\@PI }{45}{subsection.0.2.35}}
\newlabel{kiesew3}{{2.36}{45}{Kieswetter-K\"{o}binger: Patentdrohung demotiviert Entwickler und Unternehmensgr\"{u}nder\label {kiesew3}\relax }{subsection.0.2.36}{}}
\@writefile{toc}{\contentsline {subsection}{\numberline {2.36}Kieswetter-K\"{o}binger\@DP  Patentdrohung demotiviert Entwickler und Unternehmensgr\"{u}nder}{45}{subsection.0.2.36}}
\newlabel{siepmann4}{{2.37}{46}{Siepmann: Gefahr schleichender Abw\"{u}rgung der freien Software, Quelltextprivileg gen\"{u}gt nicht\label {siepmann4}\relax }{subsection.0.2.37}{}}
\@writefile{toc}{\contentsline {subsection}{\numberline {2.37}Siepmann\@DP  Gefahr schleichender Abw\"{u}rgung der freien Software, Quelltextprivileg gen\"{u}gt nicht}{46}{subsection.0.2.37}}
\newlabel{mayer3}{{2.38}{47}{MdB Mayer: M\"{u}sste patentierte Software nicht grunds\"{a}tzlich offengelegt werden?\label {mayer3}\relax }{subsection.0.2.38}{}}
\@writefile{toc}{\contentsline {subsection}{\numberline {2.38}MdB Mayer\@DP  M\"{u}sste patentierte Software nicht grunds\"{a}tzlich offengelegt werden\@PI }{47}{subsection.0.2.38}}
\newlabel{schiuma5}{{2.39}{47}{Schiuma: Patentbeschreibungen zur Offenbarung von Funktionalit\"{a}ten geeigneter als Programm-Quelltexte\label {schiuma5}\relax }{subsection.0.2.39}{}}
\@writefile{toc}{\contentsline {subsection}{\numberline {2.39}Schiuma\@DP  Patentbeschreibungen zur Offenbarung von Funktionalit\"{a}ten geeigneter als Programm-Quelltexte}{47}{subsection.0.2.39}}
\newlabel{lutter5}{{2.40}{48}{Lutterbeck: Gesetzgebung sollte weltf\"{u}hrende Stellung Europas und Deutschlands im Bereich der Quelloffenen Software wiederspiegeln\label {lutter5}\relax }{subsection.0.2.40}{}}
\@writefile{toc}{\contentsline {subsection}{\numberline {2.40}Lutterbeck\@DP  Gesetzgebung sollte weltf\"{u}hrende Stellung Europas und Deutschlands im Bereich der Quelloffenen Software wiederspiegeln}{48}{subsection.0.2.40}}
\newlabel{henckel3}{{2.41}{49}{Henckel: Swpat untergraben Urheberrecht, enteignen Software-Autoren\label {henckel3}\relax }{subsection.0.2.41}{}}
\@writefile{toc}{\contentsline {subsection}{\numberline {2.41}Henckel\@DP  Swpat untergraben Urheberrecht, enteignen Software-Autoren}{49}{subsection.0.2.41}}
\newlabel{bouillon4}{{2.42}{50}{Bouillon: Wir Entwickler f\"{u}hlen uns enteignet\label {bouillon4}\relax }{subsection.0.2.42}{}}
\@writefile{toc}{\contentsline {subsection}{\numberline {2.42}Bouillon\@DP  Wir Entwickler f\"{u}hlen uns enteignet}{50}{subsection.0.2.42}}
\newlabel{kiesew4}{{2.43}{50}{Kiesewetter-K\"{o}binger: Quelltext einerseits f\"{u}r Pr\"{u}fer nicht bew\"{a}ltigbar, andererseits f\"{u}r seri\"{o}se Patentpr\"{u}fung unabdingbar\label {kiesew4}\relax }{subsection.0.2.43}{}}
\@writefile{toc}{\contentsline {subsection}{\numberline {2.43}Kiesewetter-K\"{o}binger\@DP  Quelltext einerseits f\"{u}r Pr\"{u}fer nicht bew\"{a}ltigbar, andererseits f\"{u}r seri\"{o}se Patentpr\"{u}fung unabdingbar}{50}{subsection.0.2.43}}
\newlabel{siepmann5}{{2.44}{50}{Siepmann: Quelltext verst\"{a}ndlicher als Patentsprache, Beispiel IDEA\label {siepmann5}\relax }{subsection.0.2.44}{}}
\@writefile{toc}{\contentsline {subsection}{\numberline {2.44}Siepmann\@DP  Quelltext verst\"{a}ndlicher als Patentsprache, Beispiel IDEA}{50}{subsection.0.2.44}}
\newlabel{bremer4}{{2.45}{51}{Bremer: Existierende Rechte m\"{u}ssen aufrechterhalten werden und OpenSource-Bewegung wird es \"{u}berleben\label {bremer4}\relax }{subsection.0.2.45}{}}
\@writefile{toc}{\contentsline {subsection}{\numberline {2.45}Bremer\@DP  Existierende Rechte m\"{u}ssen aufrechterhalten werden und OpenSource-Bewegung wird es \"{u}berleben}{51}{subsection.0.2.45}}
\newlabel{probst3}{{2.46}{52}{Probst: Gesamtwirtschaftliches Interesse sollte entscheidend sein\label {probst3}\relax }{subsection.0.2.46}{}}
\@writefile{toc}{\contentsline {subsection}{\numberline {2.46}Probst\@DP  Gesamtwirtschaftliches Interesse sollte entscheidend sein}{52}{subsection.0.2.46}}
\newlabel{vors5}{{2.47}{52}{Schlussworte des Gespr\"{a}chsleiters\label {vors5}\relax }{subsection.0.2.47}{}}
\@writefile{toc}{\contentsline {subsection}{\numberline {2.47}Schlussworte des Gespr\"{a}chsleiters}{52}{subsection.0.2.47}}
\newlabel{fra}{{3}{52}{Questions de Consultation et reponses possibles\label {fra}\relax }{section.0.3}{}}
\@writefile{toc}{\contentsline {section}{\numberline {3}Questions de Consultation et reponses possibles}{52}{section.0.3}}
\newlabel{kial}{{3.1}{52}{Pour quoi accorde-t-on des brevets en g\'{e}n\'{e}ral?\label {kial}\relax }{subsection.0.3.1}{}}
\@writefile{toc}{\contentsline {subsection}{\numberline {3.1}Pour quoi accorde-t-on des brevets en g\'{e}n\'{e}ral\@PI }{52}{subsection.0.3.1}}
\newlabel{rajt}{{3.2}{53}{Quelle protection juridique existe pour le logiciel et comment fonctionne-t-elle ?\label {rajt}\relax }{subsection.0.3.2}{}}
\@writefile{toc}{\contentsline {subsection}{\numberline {3.2}Quelle protection juridique existe pour le logiciel et comment fonctionne-t-elle \@PI }{53}{subsection.0.3.2}}
\newlabel{soft}{{3.3}{53}{An quoi le logiciel est-il diff\'{e}rent des autres inventions?\label {soft}\relax }{subsection.0.3.3}{}}
\@writefile{toc}{\contentsline {subsection}{\numberline {3.3}An quoi le logiciel est-il diff\'{e}rent des autres inventions\@PI }{53}{subsection.0.3.3}}
\newlabel{defn}{{3.4}{53}{Qu'est-ce qu'un brevet logiciel?\label {defn}\relax }{subsection.0.3.4}{}}
\@writefile{toc}{\contentsline {subsection}{\numberline {3.4}Qu'est-ce qu'un brevet logiciel\@PI }{53}{subsection.0.3.4}}
\newlabel{nobv}{{3.5}{54}{Comment doit-on juger de l'inventivit\'{e} des brevets logiciels ?\label {nobv}\relax }{subsection.0.3.5}{}}
\@writefile{toc}{\contentsline {subsection}{\numberline {3.5}Comment doit-on juger de l'inventivit\'{e} des brevets logiciels \@PI }{54}{subsection.0.3.5}}
\newlabel{algo}{{3.6}{54}{Les brevets logiciels diff\`{e}rent-ils des brevets sur les m\'{e}thodes de gestion, les algorithmes et les formats de fichier ? Si oui, dans quel sens ?\label {algo}\relax }{subsection.0.3.6}{}}
\@writefile{toc}{\contentsline {subsection}{\numberline {3.6}Les brevets logiciels diff\`{e}rent-ils des brevets sur les m\'{e}thodes de gestion, les algorithmes et les formats de fichier \@PI  Si oui, dans quel sens \@PI }{54}{subsection.0.3.6}}
\newlabel{deeu}{{3.7}{55}{Quelle diff\'{e}rence y a-t-il dans le syst\`{e}me de droit de protection du logiciel en Allemagne et dans les autres pays \`{a} l'int\'{e}rieur et en-dehors de l'Europe ?\label {deeu}\relax }{subsection.0.3.7}{}}
\@writefile{toc}{\contentsline {subsection}{\numberline {3.7}Quelle diff\'{e}rence y a-t-il dans le syst\`{e}me de droit de protection du logiciel en Allemagne et dans les autres pays \`{a} l'int\'{e}rieur et en-dehors de l'Europe \@PI }{55}{subsection.0.3.7}}
\newlabel{bpat}{{3.8}{55}{Selon quels crit\`{e}res l'OEB, la Cour F\'{e}d\'{e}rale (BGH) et la Cour F\'{e}d\'{e}rale des Brevets (BPatG) jugent-ils de la brevetabilit\'{e} du logiciel ? Ces crit\`{e}res sont-ils sans ambigu\"{\i }t\'{e} et quelles ont \'{e}t\'{e} les formulations les plus utiles ?\label {bpat}\relax }{subsection.0.3.8}{}}
\@writefile{toc}{\contentsline {subsection}{\numberline {3.8}Selon quels crit\`{e}res l'OEB, la Cour F\'{e}d\'{e}rale (BGH) et la Cour F\'{e}d\'{e}rale des Brevets (BPatG) jugent-ils de la brevetabilit\'{e} du logiciel \@PI  Ces crit\`{e}res sont-ils sans ambigu\"{\i }t\'{e} et quelles ont \'{e}t\'{e} les formulations les plus utiles \@PI }{55}{subsection.0.3.8}}
\newlabel{nomb}{{3.9}{56}{Combien y a-t-il de brevets logiciels en Allemagne, en Europe et dans le monde?\label {nomb}\relax }{subsection.0.3.9}{}}
\@writefile{toc}{\contentsline {subsection}{\numberline {3.9}Combien y a-t-il de brevets logiciels en Allemagne, en Europe et dans le monde\@PI }{56}{subsection.0.3.9}}
\newlabel{inno}{{3.10}{56}{Dans combien de cas de brevets logiciels parmi les 30000 (environ) accord\'{e}s jusqu'au pr\'{e}sent par l'OEB la contribution \`{a} l'innovation est-elle suffisamment importante pour qu'on puisse consid\'{e}rer que la soci\'{e}t\'{e} y gagne en les r\'{e}mun\'{e}rant par un monopole de 20 ans ?\label {inno}\relax }{subsection.0.3.10}{}}
\@writefile{toc}{\contentsline {subsection}{\numberline {3.10}Dans combien de cas de brevets logiciels parmi les 30000 (environ) accord\'{e}s jusqu'au pr\'{e}sent par l'OEB la contribution \`{a} l'innovation est-elle suffisamment importante pour qu'on puisse consid\'{e}rer que la soci\'{e}t\'{e} y gagne en les r\'{e}mun\'{e}rant par un monopole de 20 ans \@PI }{56}{subsection.0.3.10}}
\newlabel{trip}{{3.11}{56}{Existe-t-il des contraintes d'ordre l\'{e}gal - constitution, trait\'{e}s internationaux - qui n\'{e}cessiteraient l'extension de la notion de brevetabilit\'{e} au domaine du logiciel ?\label {trip}\relax }{subsection.0.3.11}{}}
\@writefile{toc}{\contentsline {subsection}{\numberline {3.11}Existe-t-il des contraintes d'ordre l\'{e}gal - constitution, trait\'{e}s internationaux - qui n\'{e}cessiteraient l'extension de la notion de brevetabilit\'{e} au domaine du logiciel \@PI }{56}{subsection.0.3.11}}
\newlabel{gg14}{{3.11.1}{57}{Art 14 GG: La Protection de la Propri\'{e}t\'{e} Priv\'{e}e contenue dans la Constitution \label {gg14}\relax }{subsubsection.0.3.11.1}{}}
\@writefile{toc}{\contentsline {subsubsection}{\numberline {3.11.1}Art 14 GG\@DP  La Protection de la Propri\'{e}t\'{e} Priv\'{e}e contenue dans la Constitution }{57}{subsubsection.0.3.11.1}}
\newlabel{trips27}{{3.11.2}{57}{Art 27 TRIPS: Des clauses contraires aux exceptions \`{a} la brevetabilit\'{e} dans un contrat de libre \'{e}change\label {trips27}\relax }{subsubsection.0.3.11.2}{}}
\@writefile{toc}{\contentsline {subsubsection}{\numberline {3.11.2}Art 27 TRIPS\@DP  Des clauses contraires aux exceptions \`{a} la brevetabilit\'{e} dans un contrat de libre \'{e}change}{57}{subsubsection.0.3.11.2}}
\newlabel{suig}{{3.12}{58}{Comment jugez vous l'id\'{e}e d'introduction d'un droit sp\'{e}cialis\'{e} (droit sui generis) pour le logiciel?\label {suig}\relax }{subsection.0.3.12}{}}
\@writefile{toc}{\contentsline {subsection}{\numberline {3.12}Comment jugez vous l'id\'{e}e d'introduction d'un droit sp\'{e}cialis\'{e} (droit sui generis) pour le logiciel\@PI }{58}{subsection.0.3.12}}
\newlabel{imit}{{3.13}{59}{Et dans le domaine du droit d'auteur y a-t-il des insuffisances de protection contre l'imitation ? Quel devrait \^{e}tre le contenu d'un ``droit sui generis adapt\'{e} pour le logiciel'' ?\label {imit}\relax }{subsection.0.3.13}{}}
\@writefile{toc}{\contentsline {subsection}{\numberline {3.13}Et dans le domaine du droit d'auteur y a-t-il des insuffisances de protection contre l'imitation \@PI  Quel devrait \^{e}tre le contenu d'un ``droit sui generis adapt\'{e} pour le logiciel'' \@PI }{59}{subsection.0.3.13}}
\newlabel{diff}{{3.14}{60}{Doit-on distinguer les biens brevetables et non-brevetables\&nbsp;?\label {diff}\relax }{subsection.0.3.14}{}}
\@writefile{toc}{\contentsline {subsection}{\numberline {3.14}Doit-on distinguer les biens brevetables et non-brevetables\&nbsp\@PV \@PI }{60}{subsection.0.3.14}}
\newlabel{krit}{{3.15}{60}{Si oui, selon quels crit\`{e}res doit-on distinguer entre ces deux types de biens (d'inventions)?\label {krit}\relax }{subsection.0.3.15}{}}
\@writefile{toc}{\contentsline {subsection}{\numberline {3.15}Si oui, selon quels crit\`{e}res doit-on distinguer entre ces deux types de biens (d'inventions)\@PI }{60}{subsection.0.3.15}}
\newlabel{vbwl}{{3.16}{60}{Quels seraient les effets macro- et micro-\'{e}conomiques d'une brevetabilit\'{e} sans limitation clairement \'{e}tablie des soi-disant produits logiciels?\label {vbwl}\relax }{subsection.0.3.16}{}}
\@writefile{toc}{\contentsline {subsection}{\numberline {3.16}Quels seraient les effets macro- et micro-\'{e}conomiques d'une brevetabilit\'{e} sans limitation clairement \'{e}tablie des soi-disant produits logiciels\@PI }{60}{subsection.0.3.16}}
\newlabel{osmv}{{3.17}{60}{Quels sont les m\'{e}thodes de travail et les fondements \'{e}conomiques du mouvement du logiciel libre ?\label {osmv}\relax }{subsection.0.3.17}{}}
\@writefile{toc}{\contentsline {subsection}{\numberline {3.17}Quels sont les m\'{e}thodes de travail et les fondements \'{e}conomiques du mouvement du logiciel libre \@PI }{60}{subsection.0.3.17}}
\newlabel{ossl}{{3.18}{61}{Quels sont les effets d'une brevetabilit\'{e} \'{e}tendue du logiciel sous des licenses libres (opensource) ?\label {ossl}\relax }{subsection.0.3.18}{}}
\@writefile{toc}{\contentsline {subsection}{\numberline {3.18}Quels sont les effets d'une brevetabilit\'{e} \'{e}tendue du logiciel sous des licenses libres (opensource) \@PI }{61}{subsection.0.3.18}}
\newlabel{osxr}{{3.19}{61}{Est-ce qu'une extension de la brevetabilit\'{e} au logiciel pourrait freiner le d\'{e}veloppement des logiciels libres ? Si oui, comment pourrait-on \'{e}viter ces inconv\'{e}nients?\label {osxr}\relax }{subsection.0.3.19}{}}
\@writefile{toc}{\contentsline {subsection}{\numberline {3.19}Est-ce qu'une extension de la brevetabilit\'{e} au logiciel pourrait freiner le d\'{e}veloppement des logiciels libres \@PI  Si oui, comment pourrait-on \'{e}viter ces inconv\'{e}nients\@PI }{61}{subsection.0.3.19}}
\newlabel{ekmu}{{3.20}{62}{Quels seraient les effets d'une extension de la brevetabilit\'{e} pour les petites et moyennes entreprises?\label {ekmu}\relax }{subsection.0.3.20}{}}
\@writefile{toc}{\contentsline {subsection}{\numberline {3.20}Quels seraient les effets d'une extension de la brevetabilit\'{e} pour les petites et moyennes entreprises\@PI }{62}{subsection.0.3.20}}
\newlabel{seqi}{{3.21}{62}{Reconnaissez-vous que l'extension de la brevetabilit\'{e} du logiciel puisse mettre en danger la capacit\'{e} d'innovations dans ce domaine\&nbsp;? Dans ce contexte, comment voyez-vous l'\'{e}tude du MIT {\it Sequential Innovation, Patents and Imitation} par James Bessen et Eric Maskin (1999 (http://www.researchoninnovation.org/))\&nbsp;?\label {seqi}\relax }{subsection.0.3.21}{}}
\@writefile{toc}{\contentsline {subsection}{\numberline {3.21}Reconnaissez-vous que l'extension de la brevetabilit\'{e} du logiciel puisse mettre en danger la capacit\'{e} d'innovations dans ce domaine\&nbsp\@PV \@PI  Dans ce contexte, comment voyez-vous l'\'{e}tude du MIT {\it  Sequential Innovation, Patents and Imitation} par James Bessen et Eric Maskin (1999 (http\@DP //www.researchoninnovation.org/))\&nbsp\@PV \@PI }{62}{subsection.0.3.21}}
\newlabel{patr}{{3.22}{62}{Le droit de brevet constitue-t-il selon vous un outil adapt\'{e} \`{a} la stimulation de l'innovation et du progr\`{e}s dans le domaine du logiciel?\label {patr}\relax }{subsection.0.3.22}{}}
\@writefile{toc}{\contentsline {subsection}{\numberline {3.22}Le droit de brevet constitue-t-il selon vous un outil adapt\'{e} \`{a} la stimulation de l'innovation et du progr\`{e}s dans le domaine du logiciel\@PI }{62}{subsection.0.3.22}}
\newlabel{alte}{{3.23}{63}{Existe-t-il des alternatives plus efficaces et si oui, lesquelles?\label {alte}\relax }{subsection.0.3.23}{}}
\@writefile{toc}{\contentsline {subsection}{\numberline {3.23}Existe-t-il des alternatives plus efficaces et si oui, lesquelles\@PI }{63}{subsection.0.3.23}}
\newlabel{klar}{{3.24}{63}{Si demain entrait en vigueur une annulation au niveau de l'UE ayant pour effet une non brevetabilit\'{e} des logiciels ou autres concepts abstraits, en quoi cela affecterait-il les brevets d\'{e}j\`{a} accord\'{e}s dans ces secteurs ?\label {klar}\relax }{subsection.0.3.24}{}}
\@writefile{toc}{\contentsline {subsection}{\numberline {3.24}Si demain entrait en vigueur une annulation au niveau de l'UE ayant pour effet une non brevetabilit\'{e} des logiciels ou autres concepts abstraits, en quoi cela affecterait-il les brevets d\'{e}j\`{a} accord\'{e}s dans ces secteurs \@PI }{63}{subsection.0.3.24}}
\newlabel{rsp}{{4}{63}{R\'{e}ponses d\'{e}j\`{a} re\c {c}ues\label {rsp}\relax }{section.0.4}{}}
\@writefile{toc}{\contentsline {section}{\numberline {4}R\'{e}ponses d\'{e}j\`{a} re\c {c}ues}{63}{section.0.4}}
\newlabel{etc}{{5}{67}{Autres Textes\label {etc}\relax }{section.0.5}{}}
\@writefile{toc}{\contentsline {section}{\numberline {5}Autres Textes}{67}{section.0.5}}
