\relax 
\ifx\hyper@anchor\@undefined
\global \let \oldcontentsline\contentsline
\gdef \contentsline#1#2#3#4{\oldcontentsline{#1}{#2}{#3}}
\global \let \oldnewlabel\newlabel
\gdef \newlabel#1#2{\newlabelxx{#1}#2}
\gdef \newlabelxx#1#2#3#4#5#6{\oldnewlabel{#1}{{#2}{#3}}}
\AtEndDocument{\let \contentsline\oldcontentsline
\let \newlabel\oldnewlabel}
\else
\global \let \hyper@last\relax 
\fi

\newlabel{dat}{{1}{4}{General Data\label {dat}\relax }{section.1}{}}
\@writefile{toc}{\contentsline {section}{\numberline {1}General Data}{4}{section.1}}
\newlabel{pro}{{2}{5}{Session protocol\label {pro}\relax }{section.2}{}}
\@writefile{toc}{\contentsline {section}{\numberline {2}Session protocol}{5}{section.2}}
\newlabel{vors1}{{2.1}{5}{Einleitungsworte des Gespr\"{a}chsleiters MdB J\"{o}rg Tauss\label {vors1}\relax }{subsection.2.1}{}}
\@writefile{toc}{\contentsline {subsection}{\numberline {2.1}Einleitungsworte des Gespr\"{a}chsleiters MdB J\"{o}rg Tauss}{5}{subsection.2.1}}
\newlabel{probst1}{{2.2}{8}{Probst: innovationsf\"{o}rdernde Wirkungen von Swpat nicht zu erkennen\label {probst1}\relax }{subsection.2.2}{}}
\@writefile{toc}{\contentsline {subsection}{\numberline {2.2}Probst: innovationsf\"{o}rdernde Wirkungen von Swpat nicht zu erkennen}{8}{subsection.2.2}}
\newlabel{bremer1}{{2.3}{9}{Bremer: EPA-Rechtsprechung sollte im Gesetz etabliert werden, KMU profitieren von Softwarepatenten\label {bremer1}\relax }{subsection.2.3}{}}
\@writefile{toc}{\contentsline {subsection}{\numberline {2.3}Bremer: EPA-Rechtsprechung sollte im Gesetz etabliert werden, KMU profitieren von Softwarepatenten}{9}{subsection.2.3}}
\newlabel{schiuma1}{{2.4}{11}{Schiuma: Urheberrecht unzureichend, KMU brauchen Swpat, TRIPS erfordert Gesetzes\"{a}nderung\label {schiuma1}\relax }{subsection.2.4}{}}
\@writefile{toc}{\contentsline {subsection}{\numberline {2.4}Schiuma: Urheberrecht unzureichend, KMU brauchen Swpat, TRIPS erfordert Gesetzes\"{a}nderung}{11}{subsection.2.4}}
\newlabel{siepmann1}{{2.5}{11}{Siepmann: Urheberrecht leistet f\"{u}r Software das, was Patente f\"{u}r Pharma leisten\label {siepmann1}\relax }{subsection.2.5}{}}
\@writefile{toc}{\contentsline {subsection}{\numberline {2.5}Siepmann: Urheberrecht leistet f\"{u}r Software das, was Patente f\"{u}r Pharma leisten}{11}{subsection.2.5}}
\newlabel{kiesew1}{{2.6}{14}{Kiesewetter-K\"{o}binger: Ungereimtheiten bei der Patentpr\"{u}fung von Datenverarbeitungsprogrammen\label {kiesew1}\relax }{subsection.2.6}{}}
\@writefile{toc}{\contentsline {subsection}{\numberline {2.6}Kiesewetter-K\"{o}binger: Ungereimtheiten bei der Patentpr\"{u}fung von Datenverarbeitungsprogrammen}{14}{subsection.2.6}}
\newlabel{bouillon1}{{2.7}{15}{Bouillon: Patente gef\"{a}hrden innovative KMU im Bereich der propriet\"{a}ren Software\label {bouillon1}\relax }{subsection.2.7}{}}
\@writefile{toc}{\contentsline {subsection}{\numberline {2.7}Bouillon: Patente gef\"{a}hrden innovative KMU im Bereich der propriet\"{a}ren Software}{15}{subsection.2.7}}
\newlabel{henckel1}{{2.8}{17}{Henckel: Quelloffene Software besonders gef\"{a}hrdet\label {henckel1}\relax }{subsection.2.8}{}}
\@writefile{toc}{\contentsline {subsection}{\numberline {2.8}Henckel: Quelloffene Software besonders gef\"{a}hrdet}{17}{subsection.2.8}}
\newlabel{lutter1}{{2.9}{18}{Lutterbeck: \"{O}konomen gegen Swpat, viele Juristen daf\"{u}r\label {lutter1}\relax }{subsection.2.9}{}}
\@writefile{toc}{\contentsline {subsection}{\numberline {2.9}Lutterbeck: \"{O}konomen gegen Swpat, viele Juristen daf\"{u}r}{18}{subsection.2.9}}
\newlabel{vors2}{{2.10}{20}{MdB Tauss: Themenkomplexe der heutigen Diskussion\label {vors2}\relax }{subsection.2.10}{}}
\@writefile{toc}{\contentsline {subsection}{\numberline {2.10}MdB Tauss: Themenkomplexe der heutigen Diskussion}{20}{subsection.2.10}}
\newlabel{mayer1}{{2.11}{20}{MdB Mayer: Was sagen die swpat-freundlichen Studien zur Wirkung auf Innovation?\label {mayer1}\relax }{subsection.2.11}{}}
\@writefile{toc}{\contentsline {subsection}{\numberline {2.11}MdB Mayer: Was sagen die swpat-freundlichen Studien zur Wirkung auf Innovation?}{20}{subsection.2.11}}
\newlabel{griefahn1}{{2.12}{22}{MdB Griefahn: Ist Widerstand gegen US-Trends nicht zwecklos?\label {griefahn1}\relax }{subsection.2.12}{}}
\@writefile{toc}{\contentsline {subsection}{\numberline {2.12}MdB Griefahn: Ist Widerstand gegen US-Trends nicht zwecklos?}{22}{subsection.2.12}}
\newlabel{otto1}{{2.13}{22}{MdB Otto: Fragen zum Unterschied US-DE, Urheberrecht-Patentrecht\label {otto1}\relax }{subsection.2.13}{}}
\@writefile{toc}{\contentsline {subsection}{\numberline {2.13}MdB Otto: Fragen zum Unterschied US-DE, Urheberrecht-Patentrecht}{22}{subsection.2.13}}
\newlabel{neumann1}{{2.14}{23}{MdB Neumann: Gegen Swpat oder gegen Patente allgemein?\label {neumann1}\relax }{subsection.2.14}{}}
\@writefile{toc}{\contentsline {subsection}{\numberline {2.14}MdB Neumann: Gegen Swpat oder gegen Patente allgemein?}{23}{subsection.2.14}}
\newlabel{kelber1}{{2.15}{24}{MdB Kelber: Erfordert Bedeutung der Standardisierung nicht \"{A}nderungen im Patentrecht? Vertritt Bremer wirklich Meinung der Bitkom-Firmen?\label {kelber1}\relax }{subsection.2.15}{}}
\@writefile{toc}{\contentsline {subsection}{\numberline {2.15}MdB Kelber: Erfordert Bedeutung der Standardisierung nicht \"{A}nderungen im Patentrecht? Vertritt Bremer wirklich Meinung der Bitkom-Firmen?}{24}{subsection.2.15}}
\newlabel{schiuma2}{{2.16}{25}{Schiuma: Patentpools gew\"{a}hrleisten, dass Standardisierung m\"{o}glich bleibt\label {schiuma2}\relax }{subsection.2.16}{}}
\@writefile{toc}{\contentsline {subsection}{\numberline {2.16}Schiuma: Patentpools gew\"{a}hrleisten, dass Standardisierung m\"{o}glich bleibt}{25}{subsection.2.16}}
\newlabel{lutter2}{{2.17}{27}{Lutterbeck: Begrenzung der Patentierbarkeit schwierig, Quelltextprivileg als L\"{o}sung\label {lutter2}\relax }{subsection.2.17}{}}
\@writefile{toc}{\contentsline {subsection}{\numberline {2.17}Lutterbeck: Begrenzung der Patentierbarkeit schwierig, Quelltextprivileg als L\"{o}sung}{27}{subsection.2.17}}
\newlabel{probst2}{{2.18}{29}{Probst: Zahlreiche Studien, nichts spricht f\"{u}r Swpat\label {probst2}\relax }{subsection.2.18}{}}
\@writefile{toc}{\contentsline {subsection}{\numberline {2.18}Probst: Zahlreiche Studien, nichts spricht f\"{u}r Swpat}{29}{subsection.2.18}}
\newlabel{bouillon2}{{2.19}{31}{Bouillon: Urheberrecht angemessen, denn die Leistung liegt mehr im Werk als in der Einzelidee\label {bouillon2}\relax }{subsection.2.19}{}}
\@writefile{toc}{\contentsline {subsection}{\numberline {2.19}Bouillon: Urheberrecht angemessen, denn die Leistung liegt mehr im Werk als in der Einzelidee}{31}{subsection.2.19}}
\newlabel{bremer2}{{2.20}{32}{Bremer: Volkswirtschaftliche Studien nicht aussagekr\"{a}ftig, OpenSource-Lager muss sich an Rechtslage anpassen, Schwierigkeiten gibt es sowieso auch beim Urheberrecht\label {bremer2}\relax }{subsection.2.20}{}}
\@writefile{toc}{\contentsline {subsection}{\numberline {2.20}Bremer: Volkswirtschaftliche Studien nicht aussagekr\"{a}ftig, OpenSource-Lager muss sich an Rechtslage anpassen, Schwierigkeiten gibt es sowieso auch beim Urheberrecht}{32}{subsection.2.20}}
\newlabel{siepmann2}{{2.21}{33}{Siepmann: Auch aus rechtlicher Sicht spricht wenig f\"{u}r Softwarepatente und viel dagegen\label {siepmann2}\relax }{subsection.2.21}{}}
\@writefile{toc}{\contentsline {subsection}{\numberline {2.21}Siepmann: Auch aus rechtlicher Sicht spricht wenig f\"{u}r Softwarepatente und viel dagegen}{33}{subsection.2.21}}
\newlabel{schiuma3}{{2.22}{35}{Schiuma: Kein Bedarf nach geringerer Patentlaufzeit, denn gut formulierte Patente wirken viel l\"{a}nger als 1 Produktzyklus\label {schiuma3}\relax }{subsection.2.22}{}}
\@writefile{toc}{\contentsline {subsection}{\numberline {2.22}Schiuma: Kein Bedarf nach geringerer Patentlaufzeit, denn gut formulierte Patente wirken viel l\"{a}nger als 1 Produktzyklus}{35}{subsection.2.22}}
\newlabel{vors3}{{2.23}{36}{Tauss: Deutet die Unstetigkeit der Rechtsprechung auf Gesetzgebungsbedarf?\label {vors3}\relax }{subsection.2.23}{}}
\@writefile{toc}{\contentsline {subsection}{\numberline {2.23}Tauss: Deutet die Unstetigkeit der Rechtsprechung auf Gesetzgebungsbedarf?}{36}{subsection.2.23}}
\newlabel{otto2}{{2.24}{37}{MdB Otto: Freistellung von OpenSource-Software als L\"{o}sung?\label {otto2}\relax }{subsection.2.24}{}}
\@writefile{toc}{\contentsline {subsection}{\numberline {2.24}MdB Otto: Freistellung von OpenSource-Software als L\"{o}sung?}{37}{subsection.2.24}}
\newlabel{griefahn2}{{2.25}{38}{MdB Griefahn: Was ist trivial? Wo sind die Grenzen?\label {griefahn2}\relax }{subsection.2.25}{}}
\@writefile{toc}{\contentsline {subsection}{\numberline {2.25}MdB Griefahn: Was ist trivial? Wo sind die Grenzen?}{38}{subsection.2.25}}
\newlabel{siepmann3}{{2.26}{38}{Siepmann: R\"{u}ckkehr zu EP\"{U} und fr\"{u}herer BGH-Rechtsprechung ohne weiteres m\"{o}glich\label {siepmann3}\relax }{subsection.2.26}{}}
\@writefile{toc}{\contentsline {subsection}{\numberline {2.26}Siepmann: R\"{u}ckkehr zu EP\"{U} und fr\"{u}herer BGH-Rechtsprechung ohne weiteres m\"{o}glich}{38}{subsection.2.26}}
\newlabel{schiuma4}{{2.27}{39}{Schiuma: Heutige Rechtsprechung klar und sinnvoll, Gesetzgebung von 1973 veraltet und irref\"{u}hrend\label {schiuma4}\relax }{subsection.2.27}{}}
\@writefile{toc}{\contentsline {subsection}{\numberline {2.27}Schiuma: Heutige Rechtsprechung klar und sinnvoll, Gesetzgebung von 1973 veraltet und irref\"{u}hrend}{39}{subsection.2.27}}
\newlabel{lutter3}{{2.28}{40}{Lutterbeck: Juristische Diskussionen nutzlos, lieber an Quelltextprivileg und Verj\"{a}hrungsfristen denken\label {lutter3}\relax }{subsection.2.28}{}}
\@writefile{toc}{\contentsline {subsection}{\numberline {2.28}Lutterbeck: Juristische Diskussionen nutzlos, lieber an Quelltextprivileg und Verj\"{a}hrungsfristen denken}{40}{subsection.2.28}}
\newlabel{bremer3}{{2.29}{41}{Bremer: Status Quo = neuere Rechtsprechung + TRIPS, Gesetz muss angepasst werden\label {bremer3}\relax }{subsection.2.29}{}}
\@writefile{toc}{\contentsline {subsection}{\numberline {2.29}Bremer: Status Quo = neuere Rechtsprechung + TRIPS, Gesetz muss angepasst werden}{41}{subsection.2.29}}
\newlabel{bouillon3}{{2.30}{42}{Bouillon: Swpat grunds\"{a}tzlich nicht sinnvoll, Laufzeitverk\"{u}rzung und Wettbewerbsrechts\"{a}nderung etc nur als Notbehelfe vorgeschlagen\label {bouillon3}\relax }{subsection.2.30}{}}
\@writefile{toc}{\contentsline {subsection}{\numberline {2.30}Bouillon: Swpat grunds\"{a}tzlich nicht sinnvoll, Laufzeitverk\"{u}rzung und Wettbewerbsrechts\"{a}nderung etc nur als Notbehelfe vorgeschlagen}{42}{subsection.2.30}}
\newlabel{kiesew2}{{2.31}{43}{Kiesewetter-K\"{o}binger: Schwierigkeiten der Neuheitspr\"{u}fung bei Softwarepatenten\label {kiesew2}\relax }{subsection.2.31}{}}
\@writefile{toc}{\contentsline {subsection}{\numberline {2.31}Kiesewetter-K\"{o}binger: Schwierigkeiten der Neuheitspr\"{u}fung bei Softwarepatenten}{43}{subsection.2.31}}
\newlabel{vors4}{{2.32}{44}{Tauss: Auswirkungen auf Produktivit\"{a}t, IT-Sicherheit etc\label {vors4}\relax }{subsection.2.32}{}}
\@writefile{toc}{\contentsline {subsection}{\numberline {2.32}Tauss: Auswirkungen auf Produktivit\"{a}t, IT-Sicherheit etc}{44}{subsection.2.32}}
\newlabel{lutter4}{{2.33}{44}{Lutterbeck: IT-Sicherheit erfordert Freiraum f\"{u}r OpenSource\label {lutter4}\relax }{subsection.2.33}{}}
\@writefile{toc}{\contentsline {subsection}{\numberline {2.33}Lutterbeck: IT-Sicherheit erfordert Freiraum f\"{u}r OpenSource}{44}{subsection.2.33}}
\newlabel{henckel2}{{2.34}{45}{Henckel: Swpat f\"{o}rdern Abh\"{a}ngigkeit von Verk\"{a}ufern intransparenter Informationssysteme\label {henckel2}\relax }{subsection.2.34}{}}
\@writefile{toc}{\contentsline {subsection}{\numberline {2.34}Henckel: Swpat f\"{o}rdern Abh\"{a}ngigkeit von Verk\"{a}ufern intransparenter Informationssysteme}{45}{subsection.2.34}}
\newlabel{mayer2}{{2.35}{46}{MdB Mayer: Werden kleine Entwicklergruppen behindert?\label {mayer2}\relax }{subsection.2.35}{}}
\@writefile{toc}{\contentsline {subsection}{\numberline {2.35}MdB Mayer: Werden kleine Entwicklergruppen behindert?}{46}{subsection.2.35}}
\newlabel{kiesew3}{{2.36}{46}{Kieswetter-K\"{o}binger: Patentdrohung demotiviert Entwickler und Unternehmensgr\"{u}nder\label {kiesew3}\relax }{subsection.2.36}{}}
\@writefile{toc}{\contentsline {subsection}{\numberline {2.36}Kieswetter-K\"{o}binger: Patentdrohung demotiviert Entwickler und Unternehmensgr\"{u}nder}{46}{subsection.2.36}}
\newlabel{siepmann4}{{2.37}{47}{Siepmann: Gefahr schleichender Abw\"{u}rgung der freien Software, Quelltextprivileg gen\"{u}gt nicht\label {siepmann4}\relax }{subsection.2.37}{}}
\@writefile{toc}{\contentsline {subsection}{\numberline {2.37}Siepmann: Gefahr schleichender Abw\"{u}rgung der freien Software, Quelltextprivileg gen\"{u}gt nicht}{47}{subsection.2.37}}
\newlabel{mayer3}{{2.38}{48}{MdB Mayer: M\"{u}sste patentierte Software nicht grunds\"{a}tzlich offengelegt werden?\label {mayer3}\relax }{subsection.2.38}{}}
\@writefile{toc}{\contentsline {subsection}{\numberline {2.38}MdB Mayer: M\"{u}sste patentierte Software nicht grunds\"{a}tzlich offengelegt werden?}{48}{subsection.2.38}}
\newlabel{schiuma5}{{2.39}{49}{Schiuma: Patentbeschreibungen zur Offenbarung von Funktionalit\"{a}ten geeigneter als Programm-Quelltexte\label {schiuma5}\relax }{subsection.2.39}{}}
\@writefile{toc}{\contentsline {subsection}{\numberline {2.39}Schiuma: Patentbeschreibungen zur Offenbarung von Funktionalit\"{a}ten geeigneter als Programm-Quelltexte}{49}{subsection.2.39}}
\newlabel{lutter5}{{2.40}{50}{Lutterbeck: Gesetzgebung sollte weltf\"{u}hrende Stellung Europas und Deutschlands im Bereich der Quelloffenen Software wiederspiegeln\label {lutter5}\relax }{subsection.2.40}{}}
\@writefile{toc}{\contentsline {subsection}{\numberline {2.40}Lutterbeck: Gesetzgebung sollte weltf\"{u}hrende Stellung Europas und Deutschlands im Bereich der Quelloffenen Software wiederspiegeln}{50}{subsection.2.40}}
\newlabel{henckel3}{{2.41}{51}{Henckel: Swpat untergraben Urheberrecht, enteignen Software-Autoren\label {henckel3}\relax }{subsection.2.41}{}}
\@writefile{toc}{\contentsline {subsection}{\numberline {2.41}Henckel: Swpat untergraben Urheberrecht, enteignen Software-Autoren}{51}{subsection.2.41}}
\newlabel{bouillon4}{{2.42}{51}{Bouillon: Wir Entwickler f\"{u}hlen uns enteignet\label {bouillon4}\relax }{subsection.2.42}{}}
\@writefile{toc}{\contentsline {subsection}{\numberline {2.42}Bouillon: Wir Entwickler f\"{u}hlen uns enteignet}{51}{subsection.2.42}}
\newlabel{kiesew4}{{2.43}{51}{Kiesewetter-K\"{o}binger: Quelltext einerseits f\"{u}r Pr\"{u}fer nicht bew\"{a}ltigbar, andererseits f\"{u}r seri\"{o}se Patentpr\"{u}fung unabdingbar\label {kiesew4}\relax }{subsection.2.43}{}}
\@writefile{toc}{\contentsline {subsection}{\numberline {2.43}Kiesewetter-K\"{o}binger: Quelltext einerseits f\"{u}r Pr\"{u}fer nicht bew\"{a}ltigbar, andererseits f\"{u}r seri\"{o}se Patentpr\"{u}fung unabdingbar}{51}{subsection.2.43}}
\newlabel{siepmann5}{{2.44}{52}{Siepmann: Quelltext verst\"{a}ndlicher als Patentsprache, Beispiel IDEA\label {siepmann5}\relax }{subsection.2.44}{}}
\@writefile{toc}{\contentsline {subsection}{\numberline {2.44}Siepmann: Quelltext verst\"{a}ndlicher als Patentsprache, Beispiel IDEA}{52}{subsection.2.44}}
\newlabel{bremer4}{{2.45}{52}{Bremer: Existierende Rechte m\"{u}ssen aufrechterhalten werden und OpenSource-Bewegung wird es \"{u}berleben\label {bremer4}\relax }{subsection.2.45}{}}
\@writefile{toc}{\contentsline {subsection}{\numberline {2.45}Bremer: Existierende Rechte m\"{u}ssen aufrechterhalten werden und OpenSource-Bewegung wird es \"{u}berleben}{52}{subsection.2.45}}
\newlabel{probst3}{{2.46}{53}{Probst: Gesamtwirtschaftliches Interesse sollte entscheidend sein\label {probst3}\relax }{subsection.2.46}{}}
\@writefile{toc}{\contentsline {subsection}{\numberline {2.46}Probst: Gesamtwirtschaftliches Interesse sollte entscheidend sein}{53}{subsection.2.46}}
\newlabel{vors5}{{2.47}{53}{Schlussworte des Gespr\"{a}chsleiters\label {vors5}\relax }{subsection.2.47}{}}
\@writefile{toc}{\contentsline {subsection}{\numberline {2.47}Schlussworte des Gespr\"{a}chsleiters}{53}{subsection.2.47}}
\newlabel{fra}{{3}{54}{Consultation Questions and possible answers\label {fra}\relax }{section.3}{}}
\@writefile{toc}{\contentsline {section}{\numberline {3}Consultation Questions and possible answers}{54}{section.3}}
\newlabel{kial}{{3.1}{54}{What is the rationale for patent protection in general?\label {kial}\relax }{subsection.3.1}{}}
\@writefile{toc}{\contentsline {subsection}{\numberline {3.1}What is the rationale for patent protection in general?}{54}{subsection.3.1}}
\newlabel{rajt}{{3.2}{54}{What protection rights exist for software and how do they work?\label {rajt}\relax }{subsection.3.2}{}}
\@writefile{toc}{\contentsline {subsection}{\numberline {3.2}What protection rights exist for software and how do they work?}{54}{subsection.3.2}}
\newlabel{soft}{{3.3}{54}{How is software different from other inventions?\label {soft}\relax }{subsection.3.3}{}}
\@writefile{toc}{\contentsline {subsection}{\numberline {3.3}How is software different from other inventions?}{54}{subsection.3.3}}
\newlabel{defn}{{3.4}{55}{What are software patents?\label {defn}\relax }{subsection.3.4}{}}
\@writefile{toc}{\contentsline {subsection}{\numberline {3.4}What are software patents?}{55}{subsection.3.4}}
\newlabel{nobv}{{3.5}{55}{How is the inventive height (non-obviousness) of software patents to be assessed?\label {nobv}\relax }{subsection.3.5}{}}
\@writefile{toc}{\contentsline {subsection}{\numberline {3.5}How is the inventive height (non-obviousness) of software patents to be assessed?}{55}{subsection.3.5}}
\newlabel{algo}{{3.6}{56}{Are software patents different from patents on business ideas, algorithms and file formats? If yes, in what way?\label {algo}\relax }{subsection.3.6}{}}
\@writefile{toc}{\contentsline {subsection}{\numberline {3.6}Are software patents different from patents on business ideas, algorithms and file formats? If yes, in what way?}{56}{subsection.3.6}}
\newlabel{deeu}{{3.7}{56}{Where does the protection of software in Germany differ from that in other countries in and outside Europe?\label {deeu}\relax }{subsection.3.7}{}}
\@writefile{toc}{\contentsline {subsection}{\numberline {3.7}Where does the protection of software in Germany differ from that in other countries in and outside Europe?}{56}{subsection.3.7}}
\newlabel{bpat}{{3.8}{57}{According to which criteria do the EPO, the Federal Court (BGH) and the Federal Patent Court (BPatG) judge the patentability of software? Are these criteria and rules unambiguous and which formulas have proven to be useful?\label {bpat}\relax }{subsection.3.8}{}}
\@writefile{toc}{\contentsline {subsection}{\numberline {3.8}According to which criteria do the EPO, the Federal Court (BGH) and the Federal Patent Court (BPatG) judge the patentability of software? Are these criteria and rules unambiguous and which formulas have proven to be useful?}{57}{subsection.3.8}}
\newlabel{nomb}{{3.9}{57}{How many software patents exist in Germany, Europe and worldwide?\label {nomb}\relax }{subsection.3.9}{}}
\@writefile{toc}{\contentsline {subsection}{\numberline {3.9}How many software patents exist in Germany, Europe and worldwide?}{57}{subsection.3.9}}
\newlabel{inno}{{3.10}{58}{In how many of the 30000 software patents granted so far by the EPO is the claimed contribution to innovation so significant that it could considered a good deal for society to grant a 20 year monopoly on them?\label {inno}\relax }{subsection.3.10}{}}
\@writefile{toc}{\contentsline {subsection}{\numberline {3.10}In how many of the 30000 software patents granted so far by the EPO is the claimed contribution to innovation so significant that it could considered a good deal for society to grant a 20 year monopoly on them?}{58}{subsection.3.10}}
\newlabel{trip}{{3.11}{58}{Are there legal constraints (constitution, international treaties) that necessitate an extension of the patent system to software?\label {trip}\relax }{subsection.3.11}{}}
\@writefile{toc}{\contentsline {subsection}{\numberline {3.11}Are there legal constraints (constitution, international treaties) that necessitate an extension of the patent system to software?}{58}{subsection.3.11}}
\newlabel{gg14}{{3.11.1}{58}{Art 14 GG: Eigentumsgarantie des Grundgesetzes\label {gg14}\relax }{subsubsection.3.11.1}{}}
\@writefile{toc}{\contentsline {subsubsection}{\numberline {3.11.1}Art 14 GG: Eigentumsgarantie des Grundgesetzes}{58}{subsubsection.3.11.1}}
\newlabel{trips27}{{3.11.2}{59}{Art 27 TRIPS: Klausel gegen unsystematische Patentierbarkeitsausnahmen in einem Freihandelsvertrag\label {trips27}\relax }{subsubsection.3.11.2}{}}
\@writefile{toc}{\contentsline {subsubsection}{\numberline {3.11.2}Art 27 TRIPS: Klausel gegen unsystematische Patentierbarkeitsausnahmen in einem Freihandelsvertrag}{59}{subsubsection.3.11.2}}
\newlabel{suig}{{3.12}{60}{How do you find the idea of introducing a special protection right (sui generis right) for software?\label {suig}\relax }{subsection.3.12}{}}
\@writefile{toc}{\contentsline {subsection}{\numberline {3.12}How do you find the idea of introducing a special protection right (sui generis right) for software?}{60}{subsection.3.12}}
\newlabel{imit}{{3.13}{61}{Where could copyright offer insufficient protection against imitation? What could a ``specially tailored software protection right'' look like?\label {imit}\relax }{subsection.3.13}{}}
\@writefile{toc}{\contentsline {subsection}{\numberline {3.13}Where could copyright offer insufficient protection against imitation? What could a ``specially tailored software protection right'' look like?}{61}{subsection.3.13}}
\newlabel{diff}{{3.14}{62}{Does it make sense to distnguish patentable goods from non patentable ones?\label {diff}\relax }{subsection.3.14}{}}
\@writefile{toc}{\contentsline {subsection}{\numberline {3.14}Does it make sense to distnguish patentable goods from non patentable ones?}{62}{subsection.3.14}}
\newlabel{krit}{{3.15}{62}{If yes, according to which criteria should the distinction between these two kinds of goods (kinds of inventions) be made?\label {krit}\relax }{subsection.3.15}{}}
\@writefile{toc}{\contentsline {subsection}{\numberline {3.15}If yes, according to which criteria should the distinction between these two kinds of goods (kinds of inventions) be made?}{62}{subsection.3.15}}
\newlabel{vbwl}{{3.16}{62}{Which macro- and micro-economic effects would a largely unlimited patentability of so-called software products have?\label {vbwl}\relax }{subsection.3.16}{}}
\@writefile{toc}{\contentsline {subsection}{\numberline {3.16}Which macro- and micro-economic effects would a largely unlimited patentability of so-called software products have?}{62}{subsection.3.16}}
\newlabel{osmv}{{3.17}{62}{Which are the methods of work and economic foundations of the open source movement?\label {osmv}\relax }{subsection.3.17}{}}
\@writefile{toc}{\contentsline {subsection}{\numberline {3.17}Which are the methods of work and economic foundations of the open source movement?}{62}{subsection.3.17}}
\newlabel{ossl}{{3.18}{63}{What are the effects of extended patentability of software on the framework of software development under so-called open-source licenses?\label {ossl}\relax }{subsection.3.18}{}}
\@writefile{toc}{\contentsline {subsection}{\numberline {3.18}What are the effects of extended patentability of software on the framework of software development under so-called open-source licenses?}{63}{subsection.3.18}}
\newlabel{osxr}{{3.19}{63}{Would an extension of patent protection for software hamper the open source movement? If yes, how could these disadvantages be removed?\label {osxr}\relax }{subsection.3.19}{}}
\@writefile{toc}{\contentsline {subsection}{\numberline {3.19}Would an extension of patent protection for software hamper the open source movement? If yes, how could these disadvantages be removed?}{63}{subsection.3.19}}
\newlabel{ekmu}{{3.20}{64}{Which effects would the extension of patent protection to software have on the development of small and medium enterprises?\label {ekmu}\relax }{subsection.3.20}{}}
\@writefile{toc}{\contentsline {subsection}{\numberline {3.20}Which effects would the extension of patent protection to software have on the development of small and medium enterprises?}{64}{subsection.3.20}}
\newlabel{seqi}{{3.21}{64}{Do you think that an extension of patentability for software would endanger innovations in this area? How do you view the MIT study {\it Sequential Innovation, Patents and Imitation} by James Bessen and Eric Maskin (1999 (http://www.researchoninnovation.org/)) in this context?\label {seqi}\relax }{subsection.3.21}{}}
\@writefile{toc}{\contentsline {subsection}{\numberline {3.21}Do you think that an extension of patentability for software would endanger innovations in this area? How do you view the MIT study {\it  Sequential Innovation, Patents and Imitation} by James Bessen and Eric Maskin (1999 (http://www.researchoninnovation.org/)) in this context?}{64}{subsection.3.21}}
\newlabel{patr}{{3.22}{64}{Is patent law a suitable tool for promoting innovation and progress in the field of software?\label {patr}\relax }{subsection.3.22}{}}
\@writefile{toc}{\contentsline {subsection}{\numberline {3.22}Is patent law a suitable tool for promoting innovation and progress in the field of software?}{64}{subsection.3.22}}
\newlabel{alte}{{3.23}{64}{Are there more effective alternatives and, if yes, which? \label {alte}\relax }{subsection.3.23}{}}
\@writefile{toc}{\contentsline {subsection}{\numberline {3.23}Are there more effective alternatives and, if yes, which? }{64}{subsection.3.23}}
\newlabel{klar}{{3.24}{65}{If it was now to be clarified at the EU level that software and abstract concepts are not patentable, how would this affect already existing patents in this area?\label {klar}\relax }{subsection.3.24}{}}
\@writefile{toc}{\contentsline {subsection}{\numberline {3.24}If it was now to be clarified at the EU level that software and abstract concepts are not patentable, how would this affect already existing patents in this area?}{65}{subsection.3.24}}
\newlabel{rsp}{{4}{65}{Responses so far\label {rsp}\relax }{section.4}{}}
\@writefile{toc}{\contentsline {section}{\numberline {4}Responses so far}{65}{section.4}}
\newlabel{etc}{{5}{69}{Further Reading\label {etc}\relax }{section.5}{}}
\@writefile{toc}{\contentsline {section}{\numberline {5}Further Reading}{69}{section.5}}
