\relax 
\ifx\hyper@anchor\@undefined
\global \let \oldcontentsline\contentsline
\gdef \contentsline#1#2#3#4{\oldcontentsline{#1}{#2}{#3}}
\global \let \oldnewlabel\newlabel
\gdef \newlabel#1#2{\newlabelxx{#1}#2}
\gdef \newlabelxx#1#2#3#4#5#6{\oldnewlabel{#1}{{#2}{#3}}}
\AtEndDocument{\let \contentsline\oldcontentsline
\let \newlabel\oldnewlabel}
\else
\global \let \hyper@last\relax 
\fi

\@writefile{toc}{\contentsline {section}{\numberline {1}General Data}{4}{section.1}}
\newlabel{dat}{{1}{4}{General Data\relax }{section.1}{}}
\@writefile{toc}{\contentsline {section}{\numberline {2}session protocol}{5}{section.2}}
\newlabel{pro}{{2}{5}{session protocol\relax }{section.2}{}}
\@writefile{toc}{\contentsline {subsection}{\numberline {2.1}Introduction by the Moderator J\"{o}rg Tauss}{5}{subsection.2.1}}
\newlabel{vors1}{{2.1}{5}{Introduction by the Moderator J\"{o}rg Tauss\relax }{subsection.2.1}{}}
\@writefile{toc}{\contentsline {subsection}{\numberline {2.2}Probst: Economists Skeptical about Effects of Software Patents}{8}{subsection.2.2}}
\newlabel{probst1}{{2.2}{8}{Probst: Economists Skeptical about Effects of Software Patents\relax }{subsection.2.2}{}}
\@writefile{toc}{\contentsline {subsection}{\numberline {2.3}Bremer: Copyright does not adequately reflect Technicity of Software}{9}{subsection.2.3}}
\newlabel{bremer1}{{2.3}{9}{Bremer: Copyright does not adequately reflect Technicity of Software\relax }{subsection.2.3}{}}
\@writefile{toc}{\contentsline {subsection}{\numberline {2.4}Schiuma: Copyright protection insufficient, TRIPs requires change of law}{10}{subsection.2.4}}
\newlabel{schiuma1}{{2.4}{10}{Schiuma: Copyright protection insufficient, TRIPs requires change of law\relax }{subsection.2.4}{}}
\@writefile{toc}{\contentsline {subsection}{\numberline {2.5}Siepmann: Copyright achieves for Software what Patents achieve for Pharma}{11}{subsection.2.5}}
\newlabel{siepmann1}{{2.5}{11}{Siepmann: Copyright achieves for Software what Patents achieve for Pharma\relax }{subsection.2.5}{}}
\@writefile{toc}{\contentsline {subsection}{\numberline {2.6}Kiesewetter-K\"{o}binger: Incompatibility of Patent Concepts with Software Concepts}{14}{subsection.2.6}}
\newlabel{kiesew1}{{2.6}{14}{Kiesewetter-K\"{o}binger: Incompatibility of Patent Concepts with Software Concepts\relax }{subsection.2.6}{}}
\@writefile{toc}{\contentsline {subsection}{\numberline {2.7}Bouillon: Patents endanger innovative SMEs in the field of proprietary software}{15}{subsection.2.7}}
\newlabel{bouillon1}{{2.7}{15}{Bouillon: Patents endanger innovative SMEs in the field of proprietary software\relax }{subsection.2.7}{}}
\@writefile{toc}{\contentsline {subsection}{\numberline {2.8}Henckel: Open Source Software unduly threatened}{17}{subsection.2.8}}
\newlabel{henckel1}{{2.8}{17}{Henckel: Open Source Software unduly threatened\relax }{subsection.2.8}{}}
\@writefile{toc}{\contentsline {subsection}{\numberline {2.9}Lutterbeck: Economists against Software Patents, lawyers in favor}{18}{subsection.2.9}}
\newlabel{lutter1}{{2.9}{18}{Lutterbeck: Economists against Software Patents, lawyers in favor\relax }{subsection.2.9}{}}
\@writefile{toc}{\contentsline {subsection}{\numberline {2.10}MdB Tauss: Themes of Today's Discussion}{19}{subsection.2.10}}
\newlabel{vors2}{{2.10}{19}{MdB Tauss: Themes of Today's Discussion\relax }{subsection.2.10}{}}
\@writefile{toc}{\contentsline {subsection}{\numberline {2.11}MdB Mayer: What do pro-swpat studies say about the effects on innovation}{20}{subsection.2.11}}
\newlabel{mayer1}{{2.11}{20}{MdB Mayer: What do pro-swpat studies say about the effects on innovation\relax }{subsection.2.11}{}}
\@writefile{toc}{\contentsline {subsection}{\numberline {2.12}MdB Griefahn: Isn't Resistance to US Trends Futile?}{21}{subsection.2.12}}
\newlabel{griefahn1}{{2.12}{21}{MdB Griefahn: Isn't Resistance to US Trends Futile?\relax }{subsection.2.12}{}}
\@writefile{toc}{\contentsline {subsection}{\numberline {2.13}MdB Otto: Questions about Differences between US and EU, Copyright and Patents}{22}{subsection.2.13}}
\newlabel{otto1}{{2.13}{22}{MdB Otto: Questions about Differences between US and EU, Copyright and Patents\relax }{subsection.2.13}{}}
\@writefile{toc}{\contentsline {subsection}{\numberline {2.14}MdB Neumann: Against Software Patents or against all Patents?}{22}{subsection.2.14}}
\newlabel{neumann1}{{2.14}{22}{MdB Neumann: Against Software Patents or against all Patents?\relax }{subsection.2.14}{}}
\@writefile{toc}{\contentsline {subsection}{\numberline {2.15}MdB Kelber: Conflict between Standardisation and Patentability? Does Bremer represent consensus of Bitkom members?}{24}{subsection.2.15}}
\newlabel{kelber1}{{2.15}{24}{MdB Kelber: Conflict between Standardisation and Patentability? Does Bremer represent consensus of Bitkom members?\relax }{subsection.2.15}{}}
\@writefile{toc}{\contentsline {subsection}{\numberline {2.16}Schiuma: Self-Regulation through Patent Pools Keeps Standards Open}{24}{subsection.2.16}}
\newlabel{schiuma2}{{2.16}{24}{Schiuma: Self-Regulation through Patent Pools Keeps Standards Open\relax }{subsection.2.16}{}}
\@writefile{toc}{\contentsline {subsection}{\numberline {2.17}Lutterbeck: Patentability can't be limited, Solution lies in Source Code Privilege}{26}{subsection.2.17}}
\newlabel{lutter2}{{2.17}{26}{Lutterbeck: Patentability can't be limited, Solution lies in Source Code Privilege\relax }{subsection.2.17}{}}
\@writefile{toc}{\contentsline {subsection}{\numberline {2.18}Probst: Numerous Economic Studies, nothing in support of Software Patentability}{28}{subsection.2.18}}
\newlabel{probst2}{{2.18}{28}{Probst: Numerous Economic Studies, nothing in support of Software Patentability\relax }{subsection.2.18}{}}
\@writefile{toc}{\contentsline {subsection}{\numberline {2.19}Bouillon: Copyright is Adequate, because the effort resides in the complex tissue rather than in single ideas}{30}{subsection.2.19}}
\newlabel{bouillon2}{{2.19}{30}{Bouillon: Copyright is Adequate, because the effort resides in the complex tissue rather than in single ideas\relax }{subsection.2.19}{}}
\@writefile{toc}{\contentsline {subsection}{\numberline {2.20}Bremer: The Economic Studies are Inconclusive, the Opensource Camp doesn't understand the Law}{31}{subsection.2.20}}
\newlabel{bremer2}{{2.20}{31}{Bremer: The Economic Studies are Inconclusive, the Opensource Camp doesn't understand the Law\relax }{subsection.2.20}{}}
\@writefile{toc}{\contentsline {subsection}{\numberline {2.21}Siepmann: Most Legal Arguments work against Software Patentability}{32}{subsection.2.21}}
\newlabel{siepmann2}{{2.21}{32}{Siepmann: Most Legal Arguments work against Software Patentability\relax }{subsection.2.21}{}}
\@writefile{toc}{\contentsline {subsection}{\numberline {2.22}Schiuma: No need to reduce patent term, because well-written claims last much longer than 1 product cycle}{34}{subsection.2.22}}
\newlabel{schiuma3}{{2.22}{34}{Schiuma: No need to reduce patent term, because well-written claims last much longer than 1 product cycle\relax }{subsection.2.22}{}}
\@writefile{toc}{\contentsline {subsection}{\numberline {2.23}Tauss: Does the Volatility of Caselaw indicate a need for Legislation?}{35}{subsection.2.23}}
\newlabel{vors3}{{2.23}{35}{Tauss: Does the Volatility of Caselaw indicate a need for Legislation?\relax }{subsection.2.23}{}}
\@writefile{toc}{\contentsline {subsection}{\numberline {2.24}MdB Otto: Could an OpenSource Exception be the Solution?}{36}{subsection.2.24}}
\newlabel{otto2}{{2.24}{36}{MdB Otto: Could an OpenSource Exception be the Solution?\relax }{subsection.2.24}{}}
\@writefile{toc}{\contentsline {subsection}{\numberline {2.25}MdB Griefahn: What is ``trivial''? Where are the limits?}{37}{subsection.2.25}}
\newlabel{griefahn2}{{2.25}{37}{MdB Griefahn: What is ``trivial''? Where are the limits?\relax }{subsection.2.25}{}}
\@writefile{toc}{\contentsline {subsection}{\numberline {2.26}Siepmann: Return to EPC and Earlier Caselaw possible without difficulties}{37}{subsection.2.26}}
\newlabel{siepmann3}{{2.26}{37}{Siepmann: Return to EPC and Earlier Caselaw possible without difficulties\relax }{subsection.2.26}{}}
\@writefile{toc}{\contentsline {subsection}{\numberline {2.27}Schiuma: Today's Caselaw is Clear, Legislation of 1973 is outdated and misleading}{38}{subsection.2.27}}
\newlabel{schiuma4}{{2.27}{38}{Schiuma: Today's Caselaw is Clear, Legislation of 1973 is outdated and misleading\relax }{subsection.2.27}{}}
\@writefile{toc}{\contentsline {subsection}{\numberline {2.28}Lutterbeck: Legal discussions pointless, better think about source code privileges and expiration terms}{40}{subsection.2.28}}
\newlabel{lutter3}{{2.28}{40}{Lutterbeck: Legal discussions pointless, better think about source code privileges and expiration terms\relax }{subsection.2.28}{}}
\@writefile{toc}{\contentsline {subsection}{\numberline {2.29}Bremer: Status Quo = new caselaw + TRIPs, law must be adapted}{42}{subsection.2.29}}
\newlabel{bremer3}{{2.29}{42}{Bremer: Status Quo = new caselaw + TRIPs, law must be adapted\relax }{subsection.2.29}{}}
\@writefile{toc}{\contentsline {subsection}{\numberline {2.30}Bouillon: Software Patents principally unjustified, fiddling with expiry terms and competition law is not a lasting solution}{42}{subsection.2.30}}
\newlabel{bouillon3}{{2.30}{42}{Bouillon: Software Patents principally unjustified, fiddling with expiry terms and competition law is not a lasting solution\relax }{subsection.2.30}{}}
\@writefile{toc}{\contentsline {subsection}{\numberline {2.31}Kiesewetter-K\"{o}binger: Difficulties in Novelty Examination of Software Patents}{43}{subsection.2.31}}
\newlabel{kiesew2}{{2.31}{43}{Kiesewetter-K\"{o}binger: Difficulties in Novelty Examination of Software Patents\relax }{subsection.2.31}{}}
\@writefile{toc}{\contentsline {subsection}{\numberline {2.32}Tauss: Effects on Productivity, IT Security etc}{44}{subsection.2.32}}
\newlabel{vors4}{{2.32}{44}{Tauss: Effects on Productivity, IT Security etc\relax }{subsection.2.32}{}}
\@writefile{toc}{\contentsline {subsection}{\numberline {2.33}Lutterbeck: IT security demands freedom for opensource software}{45}{subsection.2.33}}
\newlabel{lutter4}{{2.33}{45}{Lutterbeck: IT security demands freedom for opensource software\relax }{subsection.2.33}{}}
\@writefile{toc}{\contentsline {subsection}{\numberline {2.34}Henckel: Software Patents reinforce Dependence on Insecure Proprietary Solutions}{45}{subsection.2.34}}
\newlabel{henckel2}{{2.34}{45}{Henckel: Software Patents reinforce Dependence on Insecure Proprietary Solutions\relax }{subsection.2.34}{}}
\@writefile{toc}{\contentsline {subsection}{\numberline {2.35}MdB Mayer: Are Small Groups of Developpers Hampered?}{46}{subsection.2.35}}
\newlabel{mayer2}{{2.35}{46}{MdB Mayer: Are Small Groups of Developpers Hampered?\relax }{subsection.2.35}{}}
\@writefile{toc}{\contentsline {subsection}{\numberline {2.36}Kieswetter-K\"{o}binger: Patent Threat Demotivates Developpers and Entrepreneurs}{47}{subsection.2.36}}
\newlabel{kiesew3}{{2.36}{47}{Kieswetter-K\"{o}binger: Patent Threat Demotivates Developpers and Entrepreneurs\relax }{subsection.2.36}{}}
\@writefile{toc}{\contentsline {subsection}{\numberline {2.37}Siepmann: Danger of gradual suffocation of Free Software, Source Code Privilege not enough}{47}{subsection.2.37}}
\newlabel{siepmann4}{{2.37}{47}{Siepmann: Danger of gradual suffocation of Free Software, Source Code Privilege not enough\relax }{subsection.2.37}{}}
\@writefile{toc}{\contentsline {subsection}{\numberline {2.38}MdB Mayer: Shouldn't Patented Software be made open in principle?}{48}{subsection.2.38}}
\newlabel{mayer3}{{2.38}{48}{MdB Mayer: Shouldn't Patented Software be made open in principle?\relax }{subsection.2.38}{}}
\@writefile{toc}{\contentsline {subsection}{\numberline {2.39}Schiuma: Patent Descriptions better suited for disclosure of software functionalities than source code}{49}{subsection.2.39}}
\newlabel{schiuma5}{{2.39}{49}{Schiuma: Patent Descriptions better suited for disclosure of software functionalities than source code\relax }{subsection.2.39}{}}
\@writefile{toc}{\contentsline {subsection}{\numberline {2.40}Lutterbeck: Legislation should reflect leading position of Europe and Germany in the Area of Opensource Software}{50}{subsection.2.40}}
\newlabel{lutter5}{{2.40}{50}{Lutterbeck: Legislation should reflect leading position of Europe and Germany in the Area of Opensource Software\relax }{subsection.2.40}{}}
\@writefile{toc}{\contentsline {subsection}{\numberline {2.41}Henckel: Software Patents undermine Copyright, expropriate Software Authors}{51}{subsection.2.41}}
\newlabel{henckel3}{{2.41}{51}{Henckel: Software Patents undermine Copyright, expropriate Software Authors\relax }{subsection.2.41}{}}
\@writefile{toc}{\contentsline {subsection}{\numberline {2.42}Bouillon: We, the Developpers, feel Expropriated}{51}{subsection.2.42}}
\newlabel{bouillon4}{{2.42}{51}{Bouillon: We, the Developpers, feel Expropriated\relax }{subsection.2.42}{}}
\@writefile{toc}{\contentsline {subsection}{\numberline {2.43}Kiesewetter-K\"{o}binger: Studying Source Code impossible but yet necessary for serious patent examination}{51}{subsection.2.43}}
\newlabel{kiesew4}{{2.43}{51}{Kiesewetter-K\"{o}binger: Studying Source Code impossible but yet necessary for serious patent examination\relax }{subsection.2.43}{}}
\@writefile{toc}{\contentsline {subsection}{\numberline {2.44}Siepmann: Source code better understandable than patent language}{52}{subsection.2.44}}
\newlabel{siepmann5}{{2.44}{52}{Siepmann: Source code better understandable than patent language\relax }{subsection.2.44}{}}
\@writefile{toc}{\contentsline {subsection}{\numberline {2.45}Bremer: Existing inventor privileges must be upheld, Open Source Movement will survive}{53}{subsection.2.45}}
\newlabel{bremer4}{{2.45}{53}{Bremer: Existing inventor privileges must be upheld, Open Source Movement will survive\relax }{subsection.2.45}{}}
\@writefile{toc}{\contentsline {subsection}{\numberline {2.46}Probst: Overall Economic Interest must be the Decisive Criterion}{53}{subsection.2.46}}
\newlabel{probst3}{{2.46}{53}{Probst: Overall Economic Interest must be the Decisive Criterion\relax }{subsection.2.46}{}}
\@writefile{toc}{\contentsline {subsection}{\numberline {2.47}Moderator's Concluding Remarks}{53}{subsection.2.47}}
\newlabel{vors5}{{2.47}{53}{Moderator's Concluding Remarks\relax }{subsection.2.47}{}}
\@writefile{toc}{\contentsline {section}{\numberline {3}Consultation Questions and possible answers}{54}{section.3}}
\newlabel{fra}{{3}{54}{Consultation Questions and possible answers\relax }{section.3}{}}
\@writefile{toc}{\contentsline {subsection}{\numberline {3.1}What is the rationale for patent protection in general?}{54}{subsection.3.1}}
\newlabel{kial}{{3.1}{54}{What is the rationale for patent protection in general?\relax }{subsection.3.1}{}}
\@writefile{toc}{\contentsline {subsection}{\numberline {3.2}What protection rights exist for software and how do they work?}{54}{subsection.3.2}}
\newlabel{rajt}{{3.2}{54}{What protection rights exist for software and how do they work?\relax }{subsection.3.2}{}}
\@writefile{toc}{\contentsline {subsection}{\numberline {3.3}How is software different from other inventions?}{55}{subsection.3.3}}
\newlabel{soft}{{3.3}{55}{How is software different from other inventions?\relax }{subsection.3.3}{}}
\@writefile{toc}{\contentsline {subsection}{\numberline {3.4}What are software patents?}{55}{subsection.3.4}}
\newlabel{defn}{{3.4}{55}{What are software patents?\relax }{subsection.3.4}{}}
\@writefile{toc}{\contentsline {subsection}{\numberline {3.5}How is the inventive height (non-obviousness) of software patents to be assessed?}{55}{subsection.3.5}}
\newlabel{nobv}{{3.5}{55}{How is the inventive height (non-obviousness) of software patents to be assessed?\relax }{subsection.3.5}{}}
\@writefile{toc}{\contentsline {subsection}{\numberline {3.6}Are software patents different from patents on business ideas, algorithms and file formats? If yes, in what way?}{56}{subsection.3.6}}
\newlabel{algo}{{3.6}{56}{Are software patents different from patents on business ideas, algorithms and file formats? If yes, in what way?\relax }{subsection.3.6}{}}
\@writefile{toc}{\contentsline {subsection}{\numberline {3.7}Where does the protection of software in Germany differ from that in other countries in and outside Europe?}{56}{subsection.3.7}}
\newlabel{deeu}{{3.7}{56}{Where does the protection of software in Germany differ from that in other countries in and outside Europe?\relax }{subsection.3.7}{}}
\@writefile{toc}{\contentsline {subsection}{\numberline {3.8}According to which criteria do the EPO, the Federal Court (BGH) and the Federal Patent Court (BPatG) judge the patentability of software? Are these criteria and rules unambiguous and which formulas have proven to be useful?}{57}{subsection.3.8}}
\newlabel{bpat}{{3.8}{57}{According to which criteria do the EPO, the Federal Court (BGH) and the Federal Patent Court (BPatG) judge the patentability of software? Are these criteria and rules unambiguous and which formulas have proven to be useful?\relax }{subsection.3.8}{}}
\@writefile{toc}{\contentsline {subsection}{\numberline {3.9}How many software patents exist in Germany, Europe and worldwide?}{57}{subsection.3.9}}
\newlabel{nomb}{{3.9}{57}{How many software patents exist in Germany, Europe and worldwide?\relax }{subsection.3.9}{}}
\@writefile{toc}{\contentsline {subsection}{\numberline {3.10}In how many of the 30000 software patents granted so far by the EPO is the claimed contribution to innovation so significant that it could considered a good deal for society to grant a 20 year monopoly on them?}{58}{subsection.3.10}}
\newlabel{inno}{{3.10}{58}{In how many of the 30000 software patents granted so far by the EPO is the claimed contribution to innovation so significant that it could considered a good deal for society to grant a 20 year monopoly on them?\relax }{subsection.3.10}{}}
\@writefile{toc}{\contentsline {subsection}{\numberline {3.11}Are there legal constraints (constitution, international treaties) that necessitate an extension of the patent system to software?}{58}{subsection.3.11}}
\newlabel{trip}{{3.11}{58}{Are there legal constraints (constitution, international treaties) that necessitate an extension of the patent system to software?\relax }{subsection.3.11}{}}
\@writefile{toc}{\contentsline {subsubsection}{\numberline {3.11.1}Art 14 GG: Eigentumsgarantie des Grundgesetzes}{58}{subsubsection.3.11.1}}
\newlabel{gg14}{{3.11.1}{58}{Art 14 GG: Eigentumsgarantie des Grundgesetzes\relax }{subsubsection.3.11.1}{}}
\@writefile{toc}{\contentsline {subsubsection}{\numberline {3.11.2}Art 27 TRIPS: Klausel gegen unsystematische Patentierbarkeitsausnahmen in einem Freihandelsvertrag}{59}{subsubsection.3.11.2}}
\newlabel{trips27}{{3.11.2}{59}{Art 27 TRIPS: Klausel gegen unsystematische Patentierbarkeitsausnahmen in einem Freihandelsvertrag\relax }{subsubsection.3.11.2}{}}
\@writefile{toc}{\contentsline {subsection}{\numberline {3.12}How do you find the idea of introducing a special protection right (sui generis right) for software?}{61}{subsection.3.12}}
\newlabel{suig}{{3.12}{61}{How do you find the idea of introducing a special protection right (sui generis right) for software?\relax }{subsection.3.12}{}}
\@writefile{toc}{\contentsline {subsection}{\numberline {3.13}Where could copyright offer insufficient protection against imitation? What could a ``specially tailored software protection right'' look like?}{61}{subsection.3.13}}
\newlabel{imit}{{3.13}{61}{Where could copyright offer insufficient protection against imitation? What could a ``specially tailored software protection right'' look like?\relax }{subsection.3.13}{}}
\@writefile{toc}{\contentsline {subsection}{\numberline {3.14}Does it make sense to distnguish patentable goods from non patentable ones?}{62}{subsection.3.14}}
\newlabel{diff}{{3.14}{62}{Does it make sense to distnguish patentable goods from non patentable ones?\relax }{subsection.3.14}{}}
\@writefile{toc}{\contentsline {subsection}{\numberline {3.15}If yes, according to which criteria should the distinction between these two kinds of goods (kinds of inventions) be made?}{62}{subsection.3.15}}
\newlabel{krit}{{3.15}{62}{If yes, according to which criteria should the distinction between these two kinds of goods (kinds of inventions) be made?\relax }{subsection.3.15}{}}
\@writefile{toc}{\contentsline {subsection}{\numberline {3.16}Which macro- and micro-economic effects would a largely unlimited patentability of so-called software products have?}{63}{subsection.3.16}}
\newlabel{vbwl}{{3.16}{63}{Which macro- and micro-economic effects would a largely unlimited patentability of so-called software products have?\relax }{subsection.3.16}{}}
\@writefile{toc}{\contentsline {subsection}{\numberline {3.17}Which are the methods of work and economic foundations of the open source movement?}{63}{subsection.3.17}}
\newlabel{osmv}{{3.17}{63}{Which are the methods of work and economic foundations of the open source movement?\relax }{subsection.3.17}{}}
\@writefile{toc}{\contentsline {subsection}{\numberline {3.18}What are the effects of extended patentability of software on the framework of software development under so-called open-source licenses?}{63}{subsection.3.18}}
\newlabel{ossl}{{3.18}{63}{What are the effects of extended patentability of software on the framework of software development under so-called open-source licenses?\relax }{subsection.3.18}{}}
\@writefile{toc}{\contentsline {subsection}{\numberline {3.19}Would an extension of patent protection for software hamper the open source movement? If yes, how could these disadvantages be removed?}{63}{subsection.3.19}}
\newlabel{osxr}{{3.19}{63}{Would an extension of patent protection for software hamper the open source movement? If yes, how could these disadvantages be removed?\relax }{subsection.3.19}{}}
\@writefile{toc}{\contentsline {subsection}{\numberline {3.20}Which effects would the extension of patent protection to software have on the development of small and medium enterprises?}{64}{subsection.3.20}}
\newlabel{ekmu}{{3.20}{64}{Which effects would the extension of patent protection to software have on the development of small and medium enterprises?\relax }{subsection.3.20}{}}
\@writefile{toc}{\contentsline {subsection}{\numberline {3.21}Is patent law a suitable tool for promoting innovation and progress in the field of software?}{65}{subsection.3.21}}
\newlabel{patr}{{3.21}{65}{Is patent law a suitable tool for promoting innovation and progress in the field of software?\relax }{subsection.3.21}{}}
\@writefile{toc}{\contentsline {subsection}{\numberline {3.22}Are there more effective alternatives and, if yes, which? }{65}{subsection.3.22}}
\newlabel{alte}{{3.22}{65}{Are there more effective alternatives and, if yes, which? \relax }{subsection.3.22}{}}
\@writefile{toc}{\contentsline {subsection}{\numberline {3.23}If it was now to be clarified at the EU level that software and abstract concepts are not patentable, how would this affect already existing patents in this area?}{65}{subsection.3.23}}
\newlabel{klar}{{3.23}{65}{If it was now to be clarified at the EU level that software and abstract concepts are not patentable, how would this affect already existing patents in this area?\relax }{subsection.3.23}{}}
\@writefile{toc}{\contentsline {section}{\numberline {4}Responses so far}{65}{section.4}}
\newlabel{rsp}{{4}{65}{Responses so far\relax }{section.4}{}}
\@writefile{toc}{\contentsline {section}{\numberline {5}Further Reading}{69}{section.5}}
\newlabel{etc}{{5}{69}{Further Reading\relax }{section.5}{}}
