\relax 
\ifx\hyper@anchor\@undefined
\global \let \oldcontentsline\contentsline
\gdef \contentsline#1#2#3#4{\oldcontentsline{#1}{#2}{#3}}
\global \let \oldnewlabel\newlabel
\gdef \newlabel#1#2{\newlabelxx{#1}#2}
\gdef \newlabelxx#1#2#3#4#5#6{\oldnewlabel{#1}{{#2}{#3}}}
\AtEndDocument{\let \contentsline\oldcontentsline
\let \newlabel\oldnewlabel}
\else
\global \let \hyper@last\relax 
\fi

\@writefile{toc}{\contentsline {section}{\numberline {1}Allgemeine Angaben}{4}{section.1}}
\newlabel{dat}{{1}{4}{Allgemeine Angaben\relax }{section.1}{}}
\@writefile{toc}{\contentsline {section}{\numberline {2}Sitzungsprotokoll}{5}{section.2}}
\newlabel{pro}{{2}{5}{Sitzungsprotokoll\relax }{section.2}{}}
\@writefile{toc}{\contentsline {subsection}{\numberline {2.1}Einleitungsworte des Gespr\"{a}chsleiters MdB J\"{o}rg Tauss}{5}{subsection.2.1}}
\newlabel{vors1}{{2.1}{5}{Einleitungsworte des Gespr\"{a}chsleiters MdB J\"{o}rg Tauss\relax }{subsection.2.1}{}}
\@writefile{toc}{\contentsline {subsection}{\numberline {2.2}Probst: Innovationsf\"{o}rdernde Wirkungen von Swpat nicht zu erkennen}{8}{subsection.2.2}}
\newlabel{probst1}{{2.2}{8}{Probst: Innovationsf\"{o}rdernde Wirkungen von Swpat nicht zu erkennen\relax }{subsection.2.2}{}}
\@writefile{toc}{\contentsline {subsection}{\numberline {2.3}Bremer: Urheberrecht wird der Technizit\"{a}t der Software nicht gerecht}{9}{subsection.2.3}}
\newlabel{bremer1}{{2.3}{9}{Bremer: Urheberrecht wird der Technizit\"{a}t der Software nicht gerecht\relax }{subsection.2.3}{}}
\@writefile{toc}{\contentsline {subsection}{\numberline {2.4}Schiuma: Urheberrecht unzureichend, TRIPS erfordert Gesetzes\"{a}nderung}{11}{subsection.2.4}}
\newlabel{schiuma1}{{2.4}{11}{Schiuma: Urheberrecht unzureichend, TRIPS erfordert Gesetzes\"{a}nderung\relax }{subsection.2.4}{}}
\@writefile{toc}{\contentsline {subsection}{\numberline {2.5}Siepmann: Urheberrecht leistet f\"{u}r Software das, was Patente f\"{u}r Pharma leisten}{11}{subsection.2.5}}
\newlabel{siepmann1}{{2.5}{11}{Siepmann: Urheberrecht leistet f\"{u}r Software das, was Patente f\"{u}r Pharma leisten\relax }{subsection.2.5}{}}
\@writefile{toc}{\contentsline {subsection}{\numberline {2.6}Kiesewetter-K\"{o}binger: Ungereimtheiten bei der Patentpr\"{u}fung von Datenverarbeitungsprogrammen}{14}{subsection.2.6}}
\newlabel{kiesew1}{{2.6}{14}{Kiesewetter-K\"{o}binger: Ungereimtheiten bei der Patentpr\"{u}fung von Datenverarbeitungsprogrammen\relax }{subsection.2.6}{}}
\@writefile{toc}{\contentsline {subsection}{\numberline {2.7}Bouillon: Patente gef\"{a}hrden innovative KMU im Bereich der propriet\"{a}ren Software}{15}{subsection.2.7}}
\newlabel{bouillon1}{{2.7}{15}{Bouillon: Patente gef\"{a}hrden innovative KMU im Bereich der propriet\"{a}ren Software\relax }{subsection.2.7}{}}
\@writefile{toc}{\contentsline {subsection}{\numberline {2.8}Henckel: Quelloffene Software besonders gef\"{a}hrdet}{17}{subsection.2.8}}
\newlabel{henckel1}{{2.8}{17}{Henckel: Quelloffene Software besonders gef\"{a}hrdet\relax }{subsection.2.8}{}}
\@writefile{toc}{\contentsline {subsection}{\numberline {2.9}Lutterbeck: \"{O}konomen gegen Swpat, viele Juristen daf\"{u}r}{18}{subsection.2.9}}
\newlabel{lutter1}{{2.9}{18}{Lutterbeck: \"{O}konomen gegen Swpat, viele Juristen daf\"{u}r\relax }{subsection.2.9}{}}
\@writefile{toc}{\contentsline {subsection}{\numberline {2.10}MdB Tauss: Themenkomplexe der heutigen Diskussion}{20}{subsection.2.10}}
\newlabel{vors2}{{2.10}{20}{MdB Tauss: Themenkomplexe der heutigen Diskussion\relax }{subsection.2.10}{}}
\@writefile{toc}{\contentsline {subsection}{\numberline {2.11}MdB Mayer: Was sagen die swpat-freundlichen Studien zur Wirkung auf Innovation?}{20}{subsection.2.11}}
\newlabel{mayer1}{{2.11}{20}{MdB Mayer: Was sagen die swpat-freundlichen Studien zur Wirkung auf Innovation?\relax }{subsection.2.11}{}}
\@writefile{toc}{\contentsline {subsection}{\numberline {2.12}MdB Griefahn: Ist Widerstand gegen US-Trends nicht zwecklos?}{21}{subsection.2.12}}
\newlabel{griefahn1}{{2.12}{21}{MdB Griefahn: Ist Widerstand gegen US-Trends nicht zwecklos?\relax }{subsection.2.12}{}}
\@writefile{toc}{\contentsline {subsection}{\numberline {2.13}MdB Otto: Unterschiede US-EU, Urheberrecht-Patentrecht}{22}{subsection.2.13}}
\newlabel{otto1}{{2.13}{22}{MdB Otto: Unterschiede US-EU, Urheberrecht-Patentrecht\relax }{subsection.2.13}{}}
\@writefile{toc}{\contentsline {subsection}{\numberline {2.14}MdB Neumann: Gegen Swpat oder gegen Patente allgemein?}{23}{subsection.2.14}}
\newlabel{neumann1}{{2.14}{23}{MdB Neumann: Gegen Swpat oder gegen Patente allgemein?\relax }{subsection.2.14}{}}
\@writefile{toc}{\contentsline {subsection}{\numberline {2.15}MdB Kelber: Konflikt zwischen Standardisierung und Patentierbarkeit? Konsens der Bitkom-Firmen?}{24}{subsection.2.15}}
\newlabel{kelber1}{{2.15}{24}{MdB Kelber: Konflikt zwischen Standardisierung und Patentierbarkeit? Konsens der Bitkom-Firmen?\relax }{subsection.2.15}{}}
\@writefile{toc}{\contentsline {subsection}{\numberline {2.16}Schiuma: Patentpools gew\"{a}hrleisten, dass Standardisierung m\"{o}glich bleibt}{24}{subsection.2.16}}
\newlabel{schiuma2}{{2.16}{24}{Schiuma: Patentpools gew\"{a}hrleisten, dass Standardisierung m\"{o}glich bleibt\relax }{subsection.2.16}{}}
\@writefile{toc}{\contentsline {subsection}{\numberline {2.17}Lutterbeck: Begrenzung der Patentierbarkeit schwierig, Quelltextprivileg als L\"{o}sung}{26}{subsection.2.17}}
\newlabel{lutter2}{{2.17}{26}{Lutterbeck: Begrenzung der Patentierbarkeit schwierig, Quelltextprivileg als L\"{o}sung\relax }{subsection.2.17}{}}
\@writefile{toc}{\contentsline {subsection}{\numberline {2.18}Probst: Zahlreiche Studien, nichts spricht f\"{u}r Swpat}{28}{subsection.2.18}}
\newlabel{probst2}{{2.18}{28}{Probst: Zahlreiche Studien, nichts spricht f\"{u}r Swpat\relax }{subsection.2.18}{}}
\@writefile{toc}{\contentsline {subsection}{\numberline {2.19}Bouillon: Urheberrecht angemessen, denn die Leistung liegt mehr im Werk als in der Einzelidee}{30}{subsection.2.19}}
\newlabel{bouillon2}{{2.19}{30}{Bouillon: Urheberrecht angemessen, denn die Leistung liegt mehr im Werk als in der Einzelidee\relax }{subsection.2.19}{}}
\@writefile{toc}{\contentsline {subsection}{\numberline {2.20}Bremer: Volkswirtschaftliche Studien nicht aussagekr\"{a}ftig, OpenSource-Lager versteht zu wenig von Recht}{31}{subsection.2.20}}
\newlabel{bremer2}{{2.20}{31}{Bremer: Volkswirtschaftliche Studien nicht aussagekr\"{a}ftig, OpenSource-Lager versteht zu wenig von Recht\relax }{subsection.2.20}{}}
\@writefile{toc}{\contentsline {subsection}{\numberline {2.21}Siepmann: Auch aus rechtlicher Sicht spricht wenig f\"{u}r Softwarepatente und viel dagegen}{32}{subsection.2.21}}
\newlabel{siepmann2}{{2.21}{32}{Siepmann: Auch aus rechtlicher Sicht spricht wenig f\"{u}r Softwarepatente und viel dagegen\relax }{subsection.2.21}{}}
\@writefile{toc}{\contentsline {subsection}{\numberline {2.22}Schiuma: Kein Bedarf nach geringerer Patentlaufzeit, denn gut formulierte Patente wirken viel l\"{a}nger als 1 Produktzyklus}{35}{subsection.2.22}}
\newlabel{schiuma3}{{2.22}{35}{Schiuma: Kein Bedarf nach geringerer Patentlaufzeit, denn gut formulierte Patente wirken viel l\"{a}nger als 1 Produktzyklus\relax }{subsection.2.22}{}}
\@writefile{toc}{\contentsline {subsection}{\numberline {2.23}Tauss: Deutet die Unstetigkeit der Rechtsprechung auf Gesetzgebungsbedarf?}{36}{subsection.2.23}}
\newlabel{vors3}{{2.23}{36}{Tauss: Deutet die Unstetigkeit der Rechtsprechung auf Gesetzgebungsbedarf?\relax }{subsection.2.23}{}}
\@writefile{toc}{\contentsline {subsection}{\numberline {2.24}MdB Otto: Freistellung von OpenSource-Software als L\"{o}sung?}{36}{subsection.2.24}}
\newlabel{otto2}{{2.24}{36}{MdB Otto: Freistellung von OpenSource-Software als L\"{o}sung?\relax }{subsection.2.24}{}}
\@writefile{toc}{\contentsline {subsection}{\numberline {2.25}MdB Griefahn: Was ist trivial? Wo sind die Grenzen?}{37}{subsection.2.25}}
\newlabel{griefahn2}{{2.25}{37}{MdB Griefahn: Was ist trivial? Wo sind die Grenzen?\relax }{subsection.2.25}{}}
\@writefile{toc}{\contentsline {subsection}{\numberline {2.26}Siepmann: R\"{u}ckkehr zu EP\"{U} und fr\"{u}herer BGH-Rechtsprechung ohne weiteres m\"{o}glich}{38}{subsection.2.26}}
\newlabel{siepmann3}{{2.26}{38}{Siepmann: R\"{u}ckkehr zu EP\"{U} und fr\"{u}herer BGH-Rechtsprechung ohne weiteres m\"{o}glich\relax }{subsection.2.26}{}}
\@writefile{toc}{\contentsline {subsection}{\numberline {2.27}Schiuma: Heutige Rechtsprechung klar und sinnvoll, Gesetzgebung von 1973 veraltet und irref\"{u}hrend}{38}{subsection.2.27}}
\newlabel{schiuma4}{{2.27}{38}{Schiuma: Heutige Rechtsprechung klar und sinnvoll, Gesetzgebung von 1973 veraltet und irref\"{u}hrend\relax }{subsection.2.27}{}}
\@writefile{toc}{\contentsline {subsection}{\numberline {2.28}Lutterbeck: Juristische Diskussionen nutzlos, lieber an Quelltextprivileg und Verj\"{a}hrungsfristen (?) denken}{41}{subsection.2.28}}
\newlabel{lutter3}{{2.28}{41}{Lutterbeck: Juristische Diskussionen nutzlos, lieber an Quelltextprivileg und Verj\"{a}hrungsfristen (?) denken\relax }{subsection.2.28}{}}
\@writefile{toc}{\contentsline {subsection}{\numberline {2.29}Bremer: Status Quo = neuere Rechtsprechung + TRIPS, Gesetz muss angepasst werden}{42}{subsection.2.29}}
\newlabel{bremer3}{{2.29}{42}{Bremer: Status Quo = neuere Rechtsprechung + TRIPS, Gesetz muss angepasst werden\relax }{subsection.2.29}{}}
\@writefile{toc}{\contentsline {subsection}{\numberline {2.30}Bouillon: Swpat grunds\"{a}tzlich nicht sinnvoll, Laufzeitverk\"{u}rzung und Wettbewerbsrechts\"{a}nderung etc nur als Notbehelfe vorgeschlagen}{43}{subsection.2.30}}
\newlabel{bouillon3}{{2.30}{43}{Bouillon: Swpat grunds\"{a}tzlich nicht sinnvoll, Laufzeitverk\"{u}rzung und Wettbewerbsrechts\"{a}nderung etc nur als Notbehelfe vorgeschlagen\relax }{subsection.2.30}{}}
\@writefile{toc}{\contentsline {subsection}{\numberline {2.31}Kiesewetter-K\"{o}binger: Schwierigkeiten der Neuheitspr\"{u}fung bei Softwarepatenten}{44}{subsection.2.31}}
\newlabel{kiesew2}{{2.31}{44}{Kiesewetter-K\"{o}binger: Schwierigkeiten der Neuheitspr\"{u}fung bei Softwarepatenten\relax }{subsection.2.31}{}}
\@writefile{toc}{\contentsline {subsection}{\numberline {2.32}Tauss: Auswirkungen auf Produktivit\"{a}t, IT-Sicherheit etc}{45}{subsection.2.32}}
\newlabel{vors4}{{2.32}{45}{Tauss: Auswirkungen auf Produktivit\"{a}t, IT-Sicherheit etc\relax }{subsection.2.32}{}}
\@writefile{toc}{\contentsline {subsection}{\numberline {2.33}Lutterbeck: IT-Sicherheit erfordert Freiraum f\"{u}r OpenSource}{45}{subsection.2.33}}
\newlabel{lutter4}{{2.33}{45}{Lutterbeck: IT-Sicherheit erfordert Freiraum f\"{u}r OpenSource\relax }{subsection.2.33}{}}
\@writefile{toc}{\contentsline {subsection}{\numberline {2.34}Henckel: Swpat f\"{o}rdern Abh\"{a}ngigkeit von Verk\"{a}ufern intransparenter Informationssysteme}{46}{subsection.2.34}}
\newlabel{henckel2}{{2.34}{46}{Henckel: Swpat f\"{o}rdern Abh\"{a}ngigkeit von Verk\"{a}ufern intransparenter Informationssysteme\relax }{subsection.2.34}{}}
\@writefile{toc}{\contentsline {subsection}{\numberline {2.35}MdB Mayer: Werden kleine Entwicklergruppen behindert?}{47}{subsection.2.35}}
\newlabel{mayer2}{{2.35}{47}{MdB Mayer: Werden kleine Entwicklergruppen behindert?\relax }{subsection.2.35}{}}
\@writefile{toc}{\contentsline {subsection}{\numberline {2.36}Kieswetter-K\"{o}binger: Patentdrohung demotiviert Entwickler und Unternehmensgr\"{u}nder}{47}{subsection.2.36}}
\newlabel{kiesew3}{{2.36}{47}{Kieswetter-K\"{o}binger: Patentdrohung demotiviert Entwickler und Unternehmensgr\"{u}nder\relax }{subsection.2.36}{}}
\@writefile{toc}{\contentsline {subsection}{\numberline {2.37}Siepmann: Gefahr schleichender Abw\"{u}rgung der freien Software, Quelltextprivileg gen\"{u}gt nicht}{48}{subsection.2.37}}
\newlabel{siepmann4}{{2.37}{48}{Siepmann: Gefahr schleichender Abw\"{u}rgung der freien Software, Quelltextprivileg gen\"{u}gt nicht\relax }{subsection.2.37}{}}
\@writefile{toc}{\contentsline {subsection}{\numberline {2.38}MdB Mayer: M\"{u}sste patentierte Software nicht grunds\"{a}tzlich offengelegt werden?}{49}{subsection.2.38}}
\newlabel{mayer3}{{2.38}{49}{MdB Mayer: M\"{u}sste patentierte Software nicht grunds\"{a}tzlich offengelegt werden?\relax }{subsection.2.38}{}}
\@writefile{toc}{\contentsline {subsection}{\numberline {2.39}Schiuma: Patentbeschreibungen zur Offenbarung von Funktionalit\"{a}ten geeigneter als Programm-Quelltexte}{49}{subsection.2.39}}
\newlabel{schiuma5}{{2.39}{49}{Schiuma: Patentbeschreibungen zur Offenbarung von Funktionalit\"{a}ten geeigneter als Programm-Quelltexte\relax }{subsection.2.39}{}}
\@writefile{toc}{\contentsline {subsection}{\numberline {2.40}Lutterbeck: Gesetzgebung sollte weltf\"{u}hrende Stellung Europas und Deutschlands im Bereich der Quelloffenen Software wiederspiegeln}{50}{subsection.2.40}}
\newlabel{lutter5}{{2.40}{50}{Lutterbeck: Gesetzgebung sollte weltf\"{u}hrende Stellung Europas und Deutschlands im Bereich der Quelloffenen Software wiederspiegeln\relax }{subsection.2.40}{}}
\@writefile{toc}{\contentsline {subsection}{\numberline {2.41}Henckel: Swpat untergraben Urheberrecht, enteignen Software-Autoren}{51}{subsection.2.41}}
\newlabel{henckel3}{{2.41}{51}{Henckel: Swpat untergraben Urheberrecht, enteignen Software-Autoren\relax }{subsection.2.41}{}}
\@writefile{toc}{\contentsline {subsection}{\numberline {2.42}Bouillon: Wir Entwickler f\"{u}hlen uns enteignet}{52}{subsection.2.42}}
\newlabel{bouillon4}{{2.42}{52}{Bouillon: Wir Entwickler f\"{u}hlen uns enteignet\relax }{subsection.2.42}{}}
\@writefile{toc}{\contentsline {subsection}{\numberline {2.43}Kiesewetter-K\"{o}binger: Quelltext einerseits f\"{u}r Pr\"{u}fer nicht bew\"{a}ltigbar, andererseits f\"{u}r seri\"{o}se Patentpr\"{u}fung unabdingbar}{52}{subsection.2.43}}
\newlabel{kiesew4}{{2.43}{52}{Kiesewetter-K\"{o}binger: Quelltext einerseits f\"{u}r Pr\"{u}fer nicht bew\"{a}ltigbar, andererseits f\"{u}r seri\"{o}se Patentpr\"{u}fung unabdingbar\relax }{subsection.2.43}{}}
\@writefile{toc}{\contentsline {subsection}{\numberline {2.44}Siepmann: Quelltext verst\"{a}ndlicher als Patentsprache}{53}{subsection.2.44}}
\newlabel{siepmann5}{{2.44}{53}{Siepmann: Quelltext verst\"{a}ndlicher als Patentsprache\relax }{subsection.2.44}{}}
\@writefile{toc}{\contentsline {subsection}{\numberline {2.45}Bremer: Existierende Erfinderprivilegien m\"{u}ssen aufrechterhalten werden und OpenSource-Bewegung wird es \"{u}berleben}{53}{subsection.2.45}}
\newlabel{bremer4}{{2.45}{53}{Bremer: Existierende Erfinderprivilegien m\"{u}ssen aufrechterhalten werden und OpenSource-Bewegung wird es \"{u}berleben\relax }{subsection.2.45}{}}
\@writefile{toc}{\contentsline {subsection}{\numberline {2.46}Probst: Gesamtwirtschaftliches Interesse sollte entscheidend sein}{54}{subsection.2.46}}
\newlabel{probst3}{{2.46}{54}{Probst: Gesamtwirtschaftliches Interesse sollte entscheidend sein\relax }{subsection.2.46}{}}
\@writefile{toc}{\contentsline {subsection}{\numberline {2.47}Schlussworte des Gespr\"{a}chsleiters}{54}{subsection.2.47}}
\newlabel{vors5}{{2.47}{54}{Schlussworte des Gespr\"{a}chsleiters\relax }{subsection.2.47}{}}
\@writefile{toc}{\contentsline {section}{\numberline {3}Die Konsultationsfragen und m\"{o}gliche Antworten}{54}{section.3}}
\newlabel{fra}{{3}{54}{Die Konsultationsfragen und m\"{o}gliche Antworten\relax }{section.3}{}}
\@writefile{toc}{\contentsline {subsection}{\numberline {3.1}Wie wird Patentschutz im Allgemeinen begr\"{u}ndet?}{54}{subsection.3.1}}
\newlabel{kial}{{3.1}{54}{Wie wird Patentschutz im Allgemeinen begr\"{u}ndet?\relax }{subsection.3.1}{}}
\@writefile{toc}{\contentsline {subsection}{\numberline {3.2}Welche Schutzrechte gibt es f\"{u}r Software und welche Wirkungen haben sie?}{55}{subsection.3.2}}
\newlabel{rajt}{{3.2}{55}{Welche Schutzrechte gibt es f\"{u}r Software und welche Wirkungen haben sie?\relax }{subsection.3.2}{}}
\@writefile{toc}{\contentsline {subsection}{\numberline {3.3}Was unterscheidet Software von anderen Erfindungen?}{55}{subsection.3.3}}
\newlabel{soft}{{3.3}{55}{Was unterscheidet Software von anderen Erfindungen?\relax }{subsection.3.3}{}}
\@writefile{toc}{\contentsline {subsection}{\numberline {3.4}Was sind Softwarepatente?}{55}{subsection.3.4}}
\newlabel{defn}{{3.4}{55}{Was sind Softwarepatente?\relax }{subsection.3.4}{}}
\@writefile{toc}{\contentsline {subsection}{\numberline {3.5}Wie sind Softwarepatente hinsichtlich der Erfindungsh\"{o}he zu beurteilen?}{56}{subsection.3.5}}
\newlabel{nobv}{{3.5}{56}{Wie sind Softwarepatente hinsichtlich der Erfindungsh\"{o}he zu beurteilen?\relax }{subsection.3.5}{}}
\@writefile{toc}{\contentsline {subsection}{\numberline {3.6}Unterscheiden sich Softwarepatente von Patenten f\"{u}r Gesch\"{a}ftsideen, Algorithmen und Dateiformaten und wenn ja, wie?}{56}{subsection.3.6}}
\newlabel{algo}{{3.6}{56}{Unterscheiden sich Softwarepatente von Patenten f\"{u}r Gesch\"{a}ftsideen, Algorithmen und Dateiformaten und wenn ja, wie?\relax }{subsection.3.6}{}}
\@writefile{toc}{\contentsline {subsection}{\numberline {3.7}Welche Unterschiede gibt es beim Schutz von Software in Deutschland im Vergleich zu anderen EU-L\"{a}ndern und im internationalen Vergleich?}{57}{subsection.3.7}}
\newlabel{deeu}{{3.7}{57}{Welche Unterschiede gibt es beim Schutz von Software in Deutschland im Vergleich zu anderen EU-L\"{a}ndern und im internationalen Vergleich?\relax }{subsection.3.7}{}}
\@writefile{toc}{\contentsline {subsection}{\numberline {3.8}Nach welchen Kriterien beurteilen EPA, BGH und BPatG heute die Patentierbarkeit von Software? Sind diese Kriterien und Regeln eindeutig und welche Formulierung erweist sich bisher am praktikabelsten?}{57}{subsection.3.8}}
\newlabel{bpat}{{3.8}{57}{Nach welchen Kriterien beurteilen EPA, BGH und BPatG heute die Patentierbarkeit von Software? Sind diese Kriterien und Regeln eindeutig und welche Formulierung erweist sich bisher am praktikabelsten?\relax }{subsection.3.8}{}}
\@writefile{toc}{\contentsline {subsection}{\numberline {3.9}Wie viele Patente f\"{u}r Software gibt es in Deutschland, Europa und weltweit?}{58}{subsection.3.9}}
\newlabel{nomb}{{3.9}{58}{Wie viele Patente f\"{u}r Software gibt es in Deutschland, Europa und weltweit?\relax }{subsection.3.9}{}}
\@writefile{toc}{\contentsline {subsection}{\numberline {3.10}Bei wie viel Prozent der bislang vom EPA gew\"{a}hrten 30000 Softwarepatente ist die beanspruchte Innovationsleistung so bedeutend, dass es sich f\"{u}r die Gesellschaft ann\"{a}hernd lohnen k\"{o}nnte, darauf ein 20j\"{a}hriges Monopol zu vergeben?}{58}{subsection.3.10}}
\newlabel{inno}{{3.10}{58}{Bei wie viel Prozent der bislang vom EPA gew\"{a}hrten 30000 Softwarepatente ist die beanspruchte Innovationsleistung so bedeutend, dass es sich f\"{u}r die Gesellschaft ann\"{a}hernd lohnen k\"{o}nnte, darauf ein 20j\"{a}hriges Monopol zu vergeben?\relax }{subsection.3.10}{}}
\@writefile{toc}{\contentsline {subsection}{\numberline {3.11}Gibt es zwingende rechtliche Gr\"{u}nde (Verfassung, Internationale Vertr\"{a}ge), die eine Ausdehnung des Patentwesens auf Software erforderlich machen?}{59}{subsection.3.11}}
\newlabel{trip}{{3.11}{59}{Gibt es zwingende rechtliche Gr\"{u}nde (Verfassung, Internationale Vertr\"{a}ge), die eine Ausdehnung des Patentwesens auf Software erforderlich machen?\relax }{subsection.3.11}{}}
\@writefile{toc}{\contentsline {subsubsection}{\numberline {3.11.1}Art 14 GG: Eigentumsgarantie des Grundgesetzes}{59}{subsubsection.3.11.1}}
\newlabel{gg14}{{3.11.1}{59}{Art 14 GG: Eigentumsgarantie des Grundgesetzes\relax }{subsubsection.3.11.1}{}}
\@writefile{toc}{\contentsline {subsubsection}{\numberline {3.11.2}Art 27 TRIPS: Klausel gegen unsystematische Patentierbarkeitsausnahmen in einem Freihandelsvertrag}{60}{subsubsection.3.11.2}}
\newlabel{trips27}{{3.11.2}{60}{Art 27 TRIPS: Klausel gegen unsystematische Patentierbarkeitsausnahmen in einem Freihandelsvertrag\relax }{subsubsection.3.11.2}{}}
\@writefile{toc}{\contentsline {subsection}{\numberline {3.12}Wie beurteilen Sie die Einf\"{u}hrung eines eigenen Schutzrechtes f\"{u}r Software?}{61}{subsection.3.12}}
\newlabel{suig}{{3.12}{61}{Wie beurteilen Sie die Einf\"{u}hrung eines eigenen Schutzrechtes f\"{u}r Software?\relax }{subsection.3.12}{}}
\@writefile{toc}{\contentsline {subsection}{\numberline {3.13}Wo k\"{o}nnte es beim Urheberrecht Unzul\"{a}nglichkeiten hinsichtlich des hinreichenden Schutzes von Software vor Nachahmung geben? Wie k\"{o}nnte ein ``ma{\ss }geschneidertes Software-Schutzrecht'' aussehen?}{61}{subsection.3.13}}
\newlabel{imit}{{3.13}{61}{Wo k\"{o}nnte es beim Urheberrecht Unzul\"{a}nglichkeiten hinsichtlich des hinreichenden Schutzes von Software vor Nachahmung geben? Wie k\"{o}nnte ein ``ma{\ss }geschneidertes Software-Schutzrecht'' aussehen?\relax }{subsection.3.13}{}}
\@writefile{toc}{\contentsline {subsection}{\numberline {3.14}Ist eine Differenzierung patentierbarer und nichtpatentierbarer G\"{u}ter sinnvoll?}{62}{subsection.3.14}}
\newlabel{diff}{{3.14}{62}{Ist eine Differenzierung patentierbarer und nichtpatentierbarer G\"{u}ter sinnvoll?\relax }{subsection.3.14}{}}
\@writefile{toc}{\contentsline {subsection}{\numberline {3.15}Wenn ja, nach welchen Kriterien sollte Ihrer Ansicht nach zwischen beiden G\"{u}terarten (Erfindungsarten) unterschieden werden?}{63}{subsection.3.15}}
\newlabel{krit}{{3.15}{63}{Wenn ja, nach welchen Kriterien sollte Ihrer Ansicht nach zwischen beiden G\"{u}terarten (Erfindungsarten) unterschieden werden?\relax }{subsection.3.15}{}}
\@writefile{toc}{\contentsline {subsection}{\numberline {3.16}Welche volkswirtschaftlichen und betriebswirtschaftlichen Effekte h\"{a}tte ihrer Meinung nach eine weitestgehend uneingeschr\"{a}nkte Patentierbarkeit von sog. Softwareprodukten? Worauf beruhen diese Annahmen?}{63}{subsection.3.16}}
\newlabel{vbwl}{{3.16}{63}{Welche volkswirtschaftlichen und betriebswirtschaftlichen Effekte h\"{a}tte ihrer Meinung nach eine weitestgehend uneingeschr\"{a}nkte Patentierbarkeit von sog. Softwareprodukten? Worauf beruhen diese Annahmen?\relax }{subsection.3.16}{}}
\@writefile{toc}{\contentsline {subsection}{\numberline {3.17}Welches sind die Arbeitsmethoden und wirtschaftlichen Grundlagen der OpenSource-Bewegung?}{63}{subsection.3.17}}
\newlabel{osmv}{{3.17}{63}{Welches sind die Arbeitsmethoden und wirtschaftlichen Grundlagen der OpenSource-Bewegung?\relax }{subsection.3.17}{}}
\@writefile{toc}{\contentsline {subsection}{\numberline {3.18}Welche Auswirkungen erweiterter Patentierbarkeit von Software erwarten Sie auf die Rahmenbedingungen der Softwareentwicklung unter sog. OpenSource-Lizenzen?}{63}{subsection.3.18}}
\newlabel{ossl}{{3.18}{63}{Welche Auswirkungen erweiterter Patentierbarkeit von Software erwarten Sie auf die Rahmenbedingungen der Softwareentwicklung unter sog. OpenSource-Lizenzen?\relax }{subsection.3.18}{}}
\@writefile{toc}{\contentsline {subsection}{\numberline {3.19}W\"{u}rde eine Ausdehnung des Patentschutzes f\"{u}r Software die OpenSource-Bewegung behindern? Wenn ja, wie k\"{o}nnten diese Nachteile beseitigt werden?}{64}{subsection.3.19}}
\newlabel{osxr}{{3.19}{64}{W\"{u}rde eine Ausdehnung des Patentschutzes f\"{u}r Software die OpenSource-Bewegung behindern? Wenn ja, wie k\"{o}nnten diese Nachteile beseitigt werden?\relax }{subsection.3.19}{}}
\@writefile{toc}{\contentsline {subsection}{\numberline {3.20}Welche Auswirkungen h\"{a}tte die Ausdehnung des Patentschutzes f\"{u}r Software auf die Entwicklung von kleinen und mittelst\"{a}ndischen Unternehmen?}{65}{subsection.3.20}}
\newlabel{ekmu}{{3.20}{65}{Welche Auswirkungen h\"{a}tte die Ausdehnung des Patentschutzes f\"{u}r Software auf die Entwicklung von kleinen und mittelst\"{a}ndischen Unternehmen?\relax }{subsection.3.20}{}}
\@writefile{toc}{\contentsline {subsection}{\numberline {3.21}Ist das Patentrecht aus Ihrer Sicht das geeignete Werkzeug, um im Softwarebereich Innovation und Fortschritt zu f\"{o}rdern?}{65}{subsection.3.21}}
\newlabel{patr}{{3.21}{65}{Ist das Patentrecht aus Ihrer Sicht das geeignete Werkzeug, um im Softwarebereich Innovation und Fortschritt zu f\"{o}rdern?\relax }{subsection.3.21}{}}
\@writefile{toc}{\contentsline {subsection}{\numberline {3.22}Sind effektivere Alternativen denkbar, und wenn ja, welche?}{65}{subsection.3.22}}
\newlabel{alte}{{3.22}{65}{Sind effektivere Alternativen denkbar, und wenn ja, welche?\relax }{subsection.3.22}{}}
\@writefile{toc}{\contentsline {subsection}{\numberline {3.23}Wie wirkt sich Ihrer Ansicht nach eine Klarstellung auf EU-Ebene dahingehend, dass Software und gedankliche Konzepte nicht patentierbar sind, auf bereits bestehende Patente in diesem Bereich aus?}{65}{subsection.3.23}}
\newlabel{klar}{{3.23}{65}{Wie wirkt sich Ihrer Ansicht nach eine Klarstellung auf EU-Ebene dahingehend, dass Software und gedankliche Konzepte nicht patentierbar sind, auf bereits bestehende Patente in diesem Bereich aus?\relax }{subsection.3.23}{}}
\@writefile{toc}{\contentsline {section}{\numberline {4}Bisherige Antworten}{66}{section.4}}
\newlabel{rsp}{{4}{66}{Bisherige Antworten\relax }{section.4}{}}
\@writefile{toc}{\contentsline {section}{\numberline {5}Weitere Lekt\"{u}re}{69}{section.5}}
\newlabel{etc}{{5}{69}{Weitere Lekt\"{u}re\relax }{section.5}{}}
