\relax 
\ifx\hyper@anchor\@undefined
\global \let \oldcontentsline\contentsline
\gdef \contentsline#1#2#3#4{\oldcontentsline{#1}{#2}{#3}}
\global \let \oldnewlabel\newlabel
\gdef \newlabel#1#2{\newlabelxx{#1}#2}
\gdef \newlabelxx#1#2#3#4#5#6{\oldnewlabel{#1}{{#2}{#3}}}
\AtEndDocument{\let \contentsline\oldcontentsline
\let \newlabel\oldnewlabel}
\else
\global \let \hyper@last\relax 
\fi

\newlabel{dat}{{1}{4}{Allgemeine Angaben\label {dat}\relax }{section.1}{}}
\@writefile{toc}{\contentsline {section}{\numberline {1}Allgemeine Angaben}{4}{section.1}}
\newlabel{pro}{{2}{5}{Sitzungsprotokoll\label {pro}\relax }{section.2}{}}
\@writefile{toc}{\contentsline {section}{\numberline {2}Sitzungsprotokoll}{5}{section.2}}
\newlabel{vors1}{{2.1}{6}{Einleitungsworte des Gespr\"{a}chsleiters MdB J\"{o}rg Tauss\label {vors1}\relax }{subsection.2.1}{}}
\@writefile{toc}{\contentsline {subsection}{\numberline {2.1}Einleitungsworte des Gespr\"{a}chsleiters MdB J\"{o}rg Tauss}{6}{subsection.2.1}}
\newlabel{probst1}{{2.2}{8}{Probst: innovationsf\"{o}rdernde Wirkungen von Swpat nicht zu erkennen\label {probst1}\relax }{subsection.2.2}{}}
\@writefile{toc}{\contentsline {subsection}{\numberline {2.2}Probst: innovationsf\"{o}rdernde Wirkungen von Swpat nicht zu erkennen}{8}{subsection.2.2}}
\newlabel{bremer1}{{2.3}{9}{Bremer: EPA-Rechtsprechung sollte im Gesetz etabliert werden, KMU profitieren von Softwarepatenten\label {bremer1}\relax }{subsection.2.3}{}}
\@writefile{toc}{\contentsline {subsection}{\numberline {2.3}Bremer: EPA-Rechtsprechung sollte im Gesetz etabliert werden, KMU profitieren von Softwarepatenten}{9}{subsection.2.3}}
\newlabel{schiuma1}{{2.4}{11}{Schiuma: Urheberrecht unzureichend, KMU brauchen Swpat, TRIPS erfordert Gesetzes\"{a}nderung\label {schiuma1}\relax }{subsection.2.4}{}}
\@writefile{toc}{\contentsline {subsection}{\numberline {2.4}Schiuma: Urheberrecht unzureichend, KMU brauchen Swpat, TRIPS erfordert Gesetzes\"{a}nderung}{11}{subsection.2.4}}
\newlabel{siepmann1}{{2.5}{12}{Siepmann: Urheberrecht leistet f\"{u}r Software das, was Patente f\"{u}r Pharma leisten\label {siepmann1}\relax }{subsection.2.5}{}}
\@writefile{toc}{\contentsline {subsection}{\numberline {2.5}Siepmann: Urheberrecht leistet f\"{u}r Software das, was Patente f\"{u}r Pharma leisten}{12}{subsection.2.5}}
\newlabel{kiesew1}{{2.6}{14}{Kiesewetter-K\"{o}binger: Ungereimtheiten bei der Patentpr\"{u}fung von Datenverarbeitungsprogrammen\label {kiesew1}\relax }{subsection.2.6}{}}
\@writefile{toc}{\contentsline {subsection}{\numberline {2.6}Kiesewetter-K\"{o}binger: Ungereimtheiten bei der Patentpr\"{u}fung von Datenverarbeitungsprogrammen}{14}{subsection.2.6}}
\newlabel{bouillon1}{{2.7}{15}{Bouillon: Patente gef\"{a}hrden innovative KMU im Bereich der propriet\"{a}ren Software\label {bouillon1}\relax }{subsection.2.7}{}}
\@writefile{toc}{\contentsline {subsection}{\numberline {2.7}Bouillon: Patente gef\"{a}hrden innovative KMU im Bereich der propriet\"{a}ren Software}{15}{subsection.2.7}}
\newlabel{henckel1}{{2.8}{17}{Henckel: Quelloffene Software besonders gef\"{a}hrdet\label {henckel1}\relax }{subsection.2.8}{}}
\@writefile{toc}{\contentsline {subsection}{\numberline {2.8}Henckel: Quelloffene Software besonders gef\"{a}hrdet}{17}{subsection.2.8}}
\newlabel{lutter1}{{2.9}{18}{Lutterbeck: \"{O}konomen gegen Swpat, viele Juristen daf\"{u}r\label {lutter1}\relax }{subsection.2.9}{}}
\@writefile{toc}{\contentsline {subsection}{\numberline {2.9}Lutterbeck: \"{O}konomen gegen Swpat, viele Juristen daf\"{u}r}{18}{subsection.2.9}}
\newlabel{vors2}{{2.10}{20}{MdB Tauss: Themenkomplexe der heutigen Diskussion\label {vors2}\relax }{subsection.2.10}{}}
\@writefile{toc}{\contentsline {subsection}{\numberline {2.10}MdB Tauss: Themenkomplexe der heutigen Diskussion}{20}{subsection.2.10}}
\newlabel{mayer1}{{2.11}{20}{MdB Mayer: Was sagen die swpat-freundlichen Studien zur Wirkung auf Innovation?\label {mayer1}\relax }{subsection.2.11}{}}
\@writefile{toc}{\contentsline {subsection}{\numberline {2.11}MdB Mayer: Was sagen die swpat-freundlichen Studien zur Wirkung auf Innovation?}{20}{subsection.2.11}}
\newlabel{griefahn1}{{2.12}{22}{MdB Griefahn: Ist Widerstand gegen US-Trends nicht zwecklos?\label {griefahn1}\relax }{subsection.2.12}{}}
\@writefile{toc}{\contentsline {subsection}{\numberline {2.12}MdB Griefahn: Ist Widerstand gegen US-Trends nicht zwecklos?}{22}{subsection.2.12}}
\newlabel{otto1}{{2.13}{22}{MdB Otto: Fragen zum Unterschied US-DE, Urheberrecht-Patentrecht\label {otto1}\relax }{subsection.2.13}{}}
\@writefile{toc}{\contentsline {subsection}{\numberline {2.13}MdB Otto: Fragen zum Unterschied US-DE, Urheberrecht-Patentrecht}{22}{subsection.2.13}}
\newlabel{neumann1}{{2.14}{23}{MdB Neumann: Gegen Swpat oder gegen Patente allgemein?\label {neumann1}\relax }{subsection.2.14}{}}
\@writefile{toc}{\contentsline {subsection}{\numberline {2.14}MdB Neumann: Gegen Swpat oder gegen Patente allgemein?}{23}{subsection.2.14}}
\newlabel{kelber1}{{2.15}{24}{MdB Kelber: Erfordert Bedeutung der Standardisierung nicht \"{A}nderungen im Patentrecht? Vertritt Bremer wirklich Meinung der Bitkom-Firmen?\label {kelber1}\relax }{subsection.2.15}{}}
\@writefile{toc}{\contentsline {subsection}{\numberline {2.15}MdB Kelber: Erfordert Bedeutung der Standardisierung nicht \"{A}nderungen im Patentrecht? Vertritt Bremer wirklich Meinung der Bitkom-Firmen?}{24}{subsection.2.15}}
\newlabel{schiuma2}{{2.16}{25}{Schiuma: Patentpools gew\"{a}hrleisten, dass Standardisierung m\"{o}glich bleibt\label {schiuma2}\relax }{subsection.2.16}{}}
\@writefile{toc}{\contentsline {subsection}{\numberline {2.16}Schiuma: Patentpools gew\"{a}hrleisten, dass Standardisierung m\"{o}glich bleibt}{25}{subsection.2.16}}
\newlabel{lutter2}{{2.17}{26}{Lutterbeck: Begrenzung der Patentierbarkeit schwierig, Quelltextprivileg als L\"{o}sung\label {lutter2}\relax }{subsection.2.17}{}}
\@writefile{toc}{\contentsline {subsection}{\numberline {2.17}Lutterbeck: Begrenzung der Patentierbarkeit schwierig, Quelltextprivileg als L\"{o}sung}{26}{subsection.2.17}}
\newlabel{probst2}{{2.18}{28}{Probst: Zahlreiche Studien, nichts spricht f\"{u}r Swpat\label {probst2}\relax }{subsection.2.18}{}}
\@writefile{toc}{\contentsline {subsection}{\numberline {2.18}Probst: Zahlreiche Studien, nichts spricht f\"{u}r Swpat}{28}{subsection.2.18}}
\newlabel{bouillon2}{{2.19}{31}{Bouillon: Urheberrecht angemessen, denn die Leistung liegt mehr im Werk als in der Einzelidee\label {bouillon2}\relax }{subsection.2.19}{}}
\@writefile{toc}{\contentsline {subsection}{\numberline {2.19}Bouillon: Urheberrecht angemessen, denn die Leistung liegt mehr im Werk als in der Einzelidee}{31}{subsection.2.19}}
\newlabel{bremer2}{{2.20}{31}{Bremer: Volkswirtschaftliche Studien nicht aussagekr\"{a}ftig, OpenSource-Lager muss sich an Rechtslage anpassen, Schwierigkeiten gibt es sowieso auch beim Urheberrecht\label {bremer2}\relax }{subsection.2.20}{}}
\@writefile{toc}{\contentsline {subsection}{\numberline {2.20}Bremer: Volkswirtschaftliche Studien nicht aussagekr\"{a}ftig, OpenSource-Lager muss sich an Rechtslage anpassen, Schwierigkeiten gibt es sowieso auch beim Urheberrecht}{31}{subsection.2.20}}
\newlabel{siepmann2}{{2.21}{33}{Siepmann: Auch aus rechtlicher Sicht spricht wenig f\"{u}r Softwarepatente und viel dagegen\label {siepmann2}\relax }{subsection.2.21}{}}
\@writefile{toc}{\contentsline {subsection}{\numberline {2.21}Siepmann: Auch aus rechtlicher Sicht spricht wenig f\"{u}r Softwarepatente und viel dagegen}{33}{subsection.2.21}}
\newlabel{schiuma3}{{2.22}{35}{Schiuma: Kein Bedarf nach geringerer Patentlaufzeit, denn gut formulierte Patente wirken viel l\"{a}nger als 1 Produktzyklus\label {schiuma3}\relax }{subsection.2.22}{}}
\@writefile{toc}{\contentsline {subsection}{\numberline {2.22}Schiuma: Kein Bedarf nach geringerer Patentlaufzeit, denn gut formulierte Patente wirken viel l\"{a}nger als 1 Produktzyklus}{35}{subsection.2.22}}
\newlabel{vors3}{{2.23}{36}{Tauss: Deutet die Unstetigkeit der Rechtsprechung auf Gesetzgebungsbedarf?\label {vors3}\relax }{subsection.2.23}{}}
\@writefile{toc}{\contentsline {subsection}{\numberline {2.23}Tauss: Deutet die Unstetigkeit der Rechtsprechung auf Gesetzgebungsbedarf?}{36}{subsection.2.23}}
\newlabel{otto2}{{2.24}{36}{MdB Otto: Freistellung von OpenSource-Software als L\"{o}sung?\label {otto2}\relax }{subsection.2.24}{}}
\@writefile{toc}{\contentsline {subsection}{\numberline {2.24}MdB Otto: Freistellung von OpenSource-Software als L\"{o}sung?}{36}{subsection.2.24}}
\newlabel{griefahn2}{{2.25}{37}{MdB Griefahn: Was ist trivial? Wo sind die Grenzen?\label {griefahn2}\relax }{subsection.2.25}{}}
\@writefile{toc}{\contentsline {subsection}{\numberline {2.25}MdB Griefahn: Was ist trivial? Wo sind die Grenzen?}{37}{subsection.2.25}}
\newlabel{siepmann3}{{2.26}{38}{Siepmann: R\"{u}ckkehr zu EP\"{U} und fr\"{u}herer BGH-Rechtsprechung ohne weiteres m\"{o}glich\label {siepmann3}\relax }{subsection.2.26}{}}
\@writefile{toc}{\contentsline {subsection}{\numberline {2.26}Siepmann: R\"{u}ckkehr zu EP\"{U} und fr\"{u}herer BGH-Rechtsprechung ohne weiteres m\"{o}glich}{38}{subsection.2.26}}
\newlabel{schiuma4}{{2.27}{38}{Schiuma: Heutige Rechtsprechung klar und sinnvoll, Gesetzgebung von 1973 veraltet und irref\"{u}hrend\label {schiuma4}\relax }{subsection.2.27}{}}
\@writefile{toc}{\contentsline {subsection}{\numberline {2.27}Schiuma: Heutige Rechtsprechung klar und sinnvoll, Gesetzgebung von 1973 veraltet und irref\"{u}hrend}{38}{subsection.2.27}}
\newlabel{lutter3}{{2.28}{39}{Lutterbeck: Juristische Diskussionen nutzlos, lieber an Quelltextprivileg und Verj\"{a}hrungsfristen denken\label {lutter3}\relax }{subsection.2.28}{}}
\@writefile{toc}{\contentsline {subsection}{\numberline {2.28}Lutterbeck: Juristische Diskussionen nutzlos, lieber an Quelltextprivileg und Verj\"{a}hrungsfristen denken}{39}{subsection.2.28}}
\newlabel{bremer3}{{2.29}{41}{Bremer: Status Quo = neuere Rechtsprechung + TRIPS, Gesetz muss angepasst werden\label {bremer3}\relax }{subsection.2.29}{}}
\@writefile{toc}{\contentsline {subsection}{\numberline {2.29}Bremer: Status Quo = neuere Rechtsprechung + TRIPS, Gesetz muss angepasst werden}{41}{subsection.2.29}}
\newlabel{bouillon3}{{2.30}{41}{Bouillon: Swpat grunds\"{a}tzlich nicht sinnvoll, Laufzeitverk\"{u}rzung und Wettbewerbsrechts\"{a}nderung etc nur als Notbehelfe vorgeschlagen\label {bouillon3}\relax }{subsection.2.30}{}}
\@writefile{toc}{\contentsline {subsection}{\numberline {2.30}Bouillon: Swpat grunds\"{a}tzlich nicht sinnvoll, Laufzeitverk\"{u}rzung und Wettbewerbsrechts\"{a}nderung etc nur als Notbehelfe vorgeschlagen}{41}{subsection.2.30}}
\newlabel{kiesew2}{{2.31}{42}{Kiesewetter-K\"{o}binger: Schwierigkeiten der Neuheitspr\"{u}fung bei Softwarepatenten\label {kiesew2}\relax }{subsection.2.31}{}}
\@writefile{toc}{\contentsline {subsection}{\numberline {2.31}Kiesewetter-K\"{o}binger: Schwierigkeiten der Neuheitspr\"{u}fung bei Softwarepatenten}{42}{subsection.2.31}}
\newlabel{vors4}{{2.32}{43}{Tauss: Auswirkungen auf Produktivit\"{a}t, IT-Sicherheit etc\label {vors4}\relax }{subsection.2.32}{}}
\@writefile{toc}{\contentsline {subsection}{\numberline {2.32}Tauss: Auswirkungen auf Produktivit\"{a}t, IT-Sicherheit etc}{43}{subsection.2.32}}
\newlabel{lutter4}{{2.33}{44}{Lutterbeck: IT-Sicherheit erfordert Freiraum f\"{u}r OpenSource\label {lutter4}\relax }{subsection.2.33}{}}
\@writefile{toc}{\contentsline {subsection}{\numberline {2.33}Lutterbeck: IT-Sicherheit erfordert Freiraum f\"{u}r OpenSource}{44}{subsection.2.33}}
\newlabel{henckel2}{{2.34}{44}{Henckel: Swpat f\"{o}rdern Abh\"{a}ngigkeit von Verk\"{a}ufern intransparenter Informationssysteme\label {henckel2}\relax }{subsection.2.34}{}}
\@writefile{toc}{\contentsline {subsection}{\numberline {2.34}Henckel: Swpat f\"{o}rdern Abh\"{a}ngigkeit von Verk\"{a}ufern intransparenter Informationssysteme}{44}{subsection.2.34}}
\newlabel{mayer2}{{2.35}{46}{MdB Mayer: Werden kleine Entwicklergruppen behindert?\label {mayer2}\relax }{subsection.2.35}{}}
\@writefile{toc}{\contentsline {subsection}{\numberline {2.35}MdB Mayer: Werden kleine Entwicklergruppen behindert?}{46}{subsection.2.35}}
\newlabel{kiesew3}{{2.36}{46}{Kieswetter-K\"{o}binger: Patentdrohung demotiviert Entwickler und Unternehmensgr\"{u}nder\label {kiesew3}\relax }{subsection.2.36}{}}
\@writefile{toc}{\contentsline {subsection}{\numberline {2.36}Kieswetter-K\"{o}binger: Patentdrohung demotiviert Entwickler und Unternehmensgr\"{u}nder}{46}{subsection.2.36}}
\newlabel{siepmann4}{{2.37}{46}{Siepmann: Gefahr schleichender Abw\"{u}rgung der freien Software, Quelltextprivileg gen\"{u}gt nicht\label {siepmann4}\relax }{subsection.2.37}{}}
\@writefile{toc}{\contentsline {subsection}{\numberline {2.37}Siepmann: Gefahr schleichender Abw\"{u}rgung der freien Software, Quelltextprivileg gen\"{u}gt nicht}{46}{subsection.2.37}}
\newlabel{mayer3}{{2.38}{48}{MdB Mayer: M\"{u}sste patentierte Software nicht grunds\"{a}tzlich offengelegt werden?\label {mayer3}\relax }{subsection.2.38}{}}
\@writefile{toc}{\contentsline {subsection}{\numberline {2.38}MdB Mayer: M\"{u}sste patentierte Software nicht grunds\"{a}tzlich offengelegt werden?}{48}{subsection.2.38}}
\newlabel{schiuma5}{{2.39}{48}{Schiuma: Patentbeschreibungen zur Offenbarung von Funktionalit\"{a}ten geeigneter als Programm-Quelltexte\label {schiuma5}\relax }{subsection.2.39}{}}
\@writefile{toc}{\contentsline {subsection}{\numberline {2.39}Schiuma: Patentbeschreibungen zur Offenbarung von Funktionalit\"{a}ten geeigneter als Programm-Quelltexte}{48}{subsection.2.39}}
\newlabel{lutter5}{{2.40}{49}{Lutterbeck: Gesetzgebung sollte weltf\"{u}hrende Stellung Europas und Deutschlands im Bereich der Quelloffenen Software wiederspiegeln\label {lutter5}\relax }{subsection.2.40}{}}
\@writefile{toc}{\contentsline {subsection}{\numberline {2.40}Lutterbeck: Gesetzgebung sollte weltf\"{u}hrende Stellung Europas und Deutschlands im Bereich der Quelloffenen Software wiederspiegeln}{49}{subsection.2.40}}
\newlabel{henckel3}{{2.41}{50}{Henckel: Swpat untergraben Urheberrecht, enteignen Software-Autoren\label {henckel3}\relax }{subsection.2.41}{}}
\@writefile{toc}{\contentsline {subsection}{\numberline {2.41}Henckel: Swpat untergraben Urheberrecht, enteignen Software-Autoren}{50}{subsection.2.41}}
\newlabel{bouillon4}{{2.42}{51}{Bouillon: Wir Entwickler f\"{u}hlen uns enteignet\label {bouillon4}\relax }{subsection.2.42}{}}
\@writefile{toc}{\contentsline {subsection}{\numberline {2.42}Bouillon: Wir Entwickler f\"{u}hlen uns enteignet}{51}{subsection.2.42}}
\newlabel{kiesew4}{{2.43}{51}{Kiesewetter-K\"{o}binger: Quelltext einerseits f\"{u}r Pr\"{u}fer nicht bew\"{a}ltigbar, andererseits f\"{u}r seri\"{o}se Patentpr\"{u}fung unabdingbar\label {kiesew4}\relax }{subsection.2.43}{}}
\@writefile{toc}{\contentsline {subsection}{\numberline {2.43}Kiesewetter-K\"{o}binger: Quelltext einerseits f\"{u}r Pr\"{u}fer nicht bew\"{a}ltigbar, andererseits f\"{u}r seri\"{o}se Patentpr\"{u}fung unabdingbar}{51}{subsection.2.43}}
\newlabel{siepmann5}{{2.44}{51}{Siepmann: Quelltext verst\"{a}ndlicher als Patentsprache, Beispiel IDEA\label {siepmann5}\relax }{subsection.2.44}{}}
\@writefile{toc}{\contentsline {subsection}{\numberline {2.44}Siepmann: Quelltext verst\"{a}ndlicher als Patentsprache, Beispiel IDEA}{51}{subsection.2.44}}
\newlabel{bremer4}{{2.45}{52}{Bremer: Existierende Rechte m\"{u}ssen aufrechterhalten werden und OpenSource-Bewegung wird es \"{u}berleben\label {bremer4}\relax }{subsection.2.45}{}}
\@writefile{toc}{\contentsline {subsection}{\numberline {2.45}Bremer: Existierende Rechte m\"{u}ssen aufrechterhalten werden und OpenSource-Bewegung wird es \"{u}berleben}{52}{subsection.2.45}}
\newlabel{probst3}{{2.46}{53}{Probst: Gesamtwirtschaftliches Interesse sollte entscheidend sein\label {probst3}\relax }{subsection.2.46}{}}
\@writefile{toc}{\contentsline {subsection}{\numberline {2.46}Probst: Gesamtwirtschaftliches Interesse sollte entscheidend sein}{53}{subsection.2.46}}
\newlabel{vors5}{{2.47}{53}{Schlussworte des Gespr\"{a}chsleiters\label {vors5}\relax }{subsection.2.47}{}}
\@writefile{toc}{\contentsline {subsection}{\numberline {2.47}Schlussworte des Gespr\"{a}chsleiters}{53}{subsection.2.47}}
\newlabel{fra}{{3}{53}{Die Konsultationsfragen und m\"{o}gliche Antworten\label {fra}\relax }{section.3}{}}
\@writefile{toc}{\contentsline {section}{\numberline {3}Die Konsultationsfragen und m\"{o}gliche Antworten}{53}{section.3}}
\newlabel{kial}{{3.1}{53}{Wie wird Patentschutz im Allgemeinen begr\"{u}ndet?\label {kial}\relax }{subsection.3.1}{}}
\@writefile{toc}{\contentsline {subsection}{\numberline {3.1}Wie wird Patentschutz im Allgemeinen begr\"{u}ndet?}{53}{subsection.3.1}}
\newlabel{rajt}{{3.2}{54}{Welche Schutzrechte gibt es f\"{u}r Software und welche Wirkungen haben sie?\label {rajt}\relax }{subsection.3.2}{}}
\@writefile{toc}{\contentsline {subsection}{\numberline {3.2}Welche Schutzrechte gibt es f\"{u}r Software und welche Wirkungen haben sie?}{54}{subsection.3.2}}
\newlabel{soft}{{3.3}{54}{Was unterscheidet Software von anderen Erfindungen?\label {soft}\relax }{subsection.3.3}{}}
\@writefile{toc}{\contentsline {subsection}{\numberline {3.3}Was unterscheidet Software von anderen Erfindungen?}{54}{subsection.3.3}}
\newlabel{defn}{{3.4}{54}{Was sind Softwarepatente?\label {defn}\relax }{subsection.3.4}{}}
\@writefile{toc}{\contentsline {subsection}{\numberline {3.4}Was sind Softwarepatente?}{54}{subsection.3.4}}
\newlabel{nobv}{{3.5}{55}{Wie sind Softwarepatente hinsichtlich der Erfindungsh\"{o}he zu beurteilen?\label {nobv}\relax }{subsection.3.5}{}}
\@writefile{toc}{\contentsline {subsection}{\numberline {3.5}Wie sind Softwarepatente hinsichtlich der Erfindungsh\"{o}he zu beurteilen?}{55}{subsection.3.5}}
\newlabel{algo}{{3.6}{55}{Unterscheiden sich Softwarepatente von Patenten f\"{u}r Gesch\"{a}ftsideen, Algorithmen und Dateiformaten und wenn ja, wie?\label {algo}\relax }{subsection.3.6}{}}
\@writefile{toc}{\contentsline {subsection}{\numberline {3.6}Unterscheiden sich Softwarepatente von Patenten f\"{u}r Gesch\"{a}ftsideen, Algorithmen und Dateiformaten und wenn ja, wie?}{55}{subsection.3.6}}
\newlabel{deeu}{{3.7}{56}{Welche Unterschiede gibt es beim Schutz von Software in Deutschland im Vergleich zu anderen EU-L\"{a}ndern und im internationalen Vergleich?\label {deeu}\relax }{subsection.3.7}{}}
\@writefile{toc}{\contentsline {subsection}{\numberline {3.7}Welche Unterschiede gibt es beim Schutz von Software in Deutschland im Vergleich zu anderen EU-L\"{a}ndern und im internationalen Vergleich?}{56}{subsection.3.7}}
\newlabel{bpat}{{3.8}{56}{Nach welchen Kriterien beurteilen EPA, BGH und BPatG heute die Patentierbarkeit von Software? Sind diese Kriterien und Regeln eindeutig und welche Formulierung erweist sich bisher am praktikabelsten?\label {bpat}\relax }{subsection.3.8}{}}
\@writefile{toc}{\contentsline {subsection}{\numberline {3.8}Nach welchen Kriterien beurteilen EPA, BGH und BPatG heute die Patentierbarkeit von Software? Sind diese Kriterien und Regeln eindeutig und welche Formulierung erweist sich bisher am praktikabelsten?}{56}{subsection.3.8}}
\newlabel{nomb}{{3.9}{57}{Wie viele Patente f\"{u}r Software gibt es in Deutschland, Europa und weltweit?\label {nomb}\relax }{subsection.3.9}{}}
\@writefile{toc}{\contentsline {subsection}{\numberline {3.9}Wie viele Patente f\"{u}r Software gibt es in Deutschland, Europa und weltweit?}{57}{subsection.3.9}}
\newlabel{inno}{{3.10}{57}{Bei wie viel Prozent der bislang vom EPA gew\"{a}hrten 30000 Softwarepatente ist die beanspruchte Innovationsleistung so bedeutend, dass es sich f\"{u}r die Gesellschaft ann\"{a}hernd lohnen k\"{o}nnte, darauf ein 20j\"{a}hriges Monopol zu vergeben?\label {inno}\relax }{subsection.3.10}{}}
\@writefile{toc}{\contentsline {subsection}{\numberline {3.10}Bei wie viel Prozent der bislang vom EPA gew\"{a}hrten 30000 Softwarepatente ist die beanspruchte Innovationsleistung so bedeutend, dass es sich f\"{u}r die Gesellschaft ann\"{a}hernd lohnen k\"{o}nnte, darauf ein 20j\"{a}hriges Monopol zu vergeben?}{57}{subsection.3.10}}
\newlabel{trip}{{3.11}{57}{Gibt es zwingende rechtliche Gr\"{u}nde (Verfassung, Internationale Vertr\"{a}ge), die eine Ausdehnung des Patentwesens auf Software erforderlich machen?\label {trip}\relax }{subsection.3.11}{}}
\@writefile{toc}{\contentsline {subsection}{\numberline {3.11}Gibt es zwingende rechtliche Gr\"{u}nde (Verfassung, Internationale Vertr\"{a}ge), die eine Ausdehnung des Patentwesens auf Software erforderlich machen?}{57}{subsection.3.11}}
\newlabel{gg14}{{3.11.1}{58}{Art 14 GG: Eigentumsgarantie des Grundgesetzes\label {gg14}\relax }{subsubsection.3.11.1}{}}
\@writefile{toc}{\contentsline {subsubsection}{\numberline {3.11.1}Art 14 GG: Eigentumsgarantie des Grundgesetzes}{58}{subsubsection.3.11.1}}
\newlabel{trips27}{{3.11.2}{59}{Art 27 TRIPS: Klausel gegen unsystematische Patentierbarkeitsausnahmen in einem Freihandelsvertrag\label {trips27}\relax }{subsubsection.3.11.2}{}}
\@writefile{toc}{\contentsline {subsubsection}{\numberline {3.11.2}Art 27 TRIPS: Klausel gegen unsystematische Patentierbarkeitsausnahmen in einem Freihandelsvertrag}{59}{subsubsection.3.11.2}}
\newlabel{suig}{{3.12}{60}{Wie beurteilen Sie die Einf\"{u}hrung eines eigenen Schutzrechtes f\"{u}r Software?\label {suig}\relax }{subsection.3.12}{}}
\@writefile{toc}{\contentsline {subsection}{\numberline {3.12}Wie beurteilen Sie die Einf\"{u}hrung eines eigenen Schutzrechtes f\"{u}r Software?}{60}{subsection.3.12}}
\newlabel{imit}{{3.13}{60}{Wo k\"{o}nnte es beim Urheberrecht Unzul\"{a}nglichkeiten hinsichtlich des hinreichenden Schutzes von Software vor Nachahmung geben? Wie k\"{o}nnte ein ``ma{\ss }geschneidertes Software-Schutzrecht'' aussehen?\label {imit}\relax }{subsection.3.13}{}}
\@writefile{toc}{\contentsline {subsection}{\numberline {3.13}Wo k\"{o}nnte es beim Urheberrecht Unzul\"{a}nglichkeiten hinsichtlich des hinreichenden Schutzes von Software vor Nachahmung geben? Wie k\"{o}nnte ein ``ma{\ss }geschneidertes Software-Schutzrecht'' aussehen?}{60}{subsection.3.13}}
\newlabel{diff}{{3.14}{61}{Ist eine Differenzierung patentierbarer und nichtpatentierbarer G\"{u}ter sinnvoll?\label {diff}\relax }{subsection.3.14}{}}
\@writefile{toc}{\contentsline {subsection}{\numberline {3.14}Ist eine Differenzierung patentierbarer und nichtpatentierbarer G\"{u}ter sinnvoll?}{61}{subsection.3.14}}
\newlabel{krit}{{3.15}{62}{Wenn ja, nach welchen Kriterien sollte Ihrer Ansicht nach zwischen beiden G\"{u}terarten (Erfindungsarten) unterschieden werden?\label {krit}\relax }{subsection.3.15}{}}
\@writefile{toc}{\contentsline {subsection}{\numberline {3.15}Wenn ja, nach welchen Kriterien sollte Ihrer Ansicht nach zwischen beiden G\"{u}terarten (Erfindungsarten) unterschieden werden?}{62}{subsection.3.15}}
\newlabel{vbwl}{{3.16}{62}{Welche volkswirtschaftlichen und betriebswirtschaftlichen Effekte h\"{a}tte ihrer Meinung nach eine weitestgehend uneingeschr\"{a}nkte Patentierbarkeit von sog. Softwareprodukten? Worauf beruhen diese Annahmen?\label {vbwl}\relax }{subsection.3.16}{}}
\@writefile{toc}{\contentsline {subsection}{\numberline {3.16}Welche volkswirtschaftlichen und betriebswirtschaftlichen Effekte h\"{a}tte ihrer Meinung nach eine weitestgehend uneingeschr\"{a}nkte Patentierbarkeit von sog. Softwareprodukten? Worauf beruhen diese Annahmen?}{62}{subsection.3.16}}
\newlabel{osmv}{{3.17}{62}{Welches sind die Arbeitsmethoden und wirtschaftlichen Grundlagen der OpenSource-Bewegung?\label {osmv}\relax }{subsection.3.17}{}}
\@writefile{toc}{\contentsline {subsection}{\numberline {3.17}Welches sind die Arbeitsmethoden und wirtschaftlichen Grundlagen der OpenSource-Bewegung?}{62}{subsection.3.17}}
\newlabel{ossl}{{3.18}{62}{Welche Auswirkungen erweiterter Patentierbarkeit von Software erwarten Sie auf die Rahmenbedingungen der Softwareentwicklung unter sog. OpenSource-Lizenzen?\label {ossl}\relax }{subsection.3.18}{}}
\@writefile{toc}{\contentsline {subsection}{\numberline {3.18}Welche Auswirkungen erweiterter Patentierbarkeit von Software erwarten Sie auf die Rahmenbedingungen der Softwareentwicklung unter sog. OpenSource-Lizenzen?}{62}{subsection.3.18}}
\newlabel{osxr}{{3.19}{63}{W\"{u}rde eine Ausdehnung des Patentschutzes f\"{u}r Software die OpenSource-Bewegung behindern? Wenn ja, wie k\"{o}nnten diese Nachteile beseitigt werden?\label {osxr}\relax }{subsection.3.19}{}}
\@writefile{toc}{\contentsline {subsection}{\numberline {3.19}W\"{u}rde eine Ausdehnung des Patentschutzes f\"{u}r Software die OpenSource-Bewegung behindern? Wenn ja, wie k\"{o}nnten diese Nachteile beseitigt werden?}{63}{subsection.3.19}}
\newlabel{ekmu}{{3.20}{63}{Welche Auswirkungen h\"{a}tte die Ausdehnung des Patentschutzes f\"{u}r Software auf die Entwicklung von kleinen und mittelst\"{a}ndischen Unternehmen?\label {ekmu}\relax }{subsection.3.20}{}}
\@writefile{toc}{\contentsline {subsection}{\numberline {3.20}Welche Auswirkungen h\"{a}tte die Ausdehnung des Patentschutzes f\"{u}r Software auf die Entwicklung von kleinen und mittelst\"{a}ndischen Unternehmen?}{63}{subsection.3.20}}
\newlabel{seqi}{{3.21}{64}{Sind Sie der Meinung, dass eine Ausdehnung des Patentschutzes f\"{u}r Software Innovationen in dieser Branche gef\"{a}hrden w\"{u}rden? Wie beurteilen Sie in diesem Zusammenhang die MIT-Studie {\it Sequential Innovation, Patents and Imitation} von James Bessen und Eric Maskin (1999 (http://www.researchoninnovation.org/))?\label {seqi}\relax }{subsection.3.21}{}}
\@writefile{toc}{\contentsline {subsection}{\numberline {3.21}Sind Sie der Meinung, dass eine Ausdehnung des Patentschutzes f\"{u}r Software Innovationen in dieser Branche gef\"{a}hrden w\"{u}rden? Wie beurteilen Sie in diesem Zusammenhang die MIT-Studie {\it  Sequential Innovation, Patents and Imitation} von James Bessen und Eric Maskin (1999 (http://www.researchoninnovation.org/))?}{64}{subsection.3.21}}
\newlabel{patr}{{3.22}{64}{Ist das Patentrecht aus Ihrer Sicht das geeignete Werkzeug, um im Softwarebereich Innovation und Fortschritt zu f\"{o}rdern?\label {patr}\relax }{subsection.3.22}{}}
\@writefile{toc}{\contentsline {subsection}{\numberline {3.22}Ist das Patentrecht aus Ihrer Sicht das geeignete Werkzeug, um im Softwarebereich Innovation und Fortschritt zu f\"{o}rdern?}{64}{subsection.3.22}}
\newlabel{alte}{{3.23}{64}{Sind effektivere Alternativen denkbar, und wenn ja, welche?\label {alte}\relax }{subsection.3.23}{}}
\@writefile{toc}{\contentsline {subsection}{\numberline {3.23}Sind effektivere Alternativen denkbar, und wenn ja, welche?}{64}{subsection.3.23}}
\newlabel{klar}{{3.24}{64}{Wie wirkt sich Ihrer Ansicht nach eine Klarstellung auf EU-Ebene dahingehend, dass Software und gedankliche Konzepte nicht patentierbar sind, auf bereits bestehende Patente in diesem Bereich aus?\label {klar}\relax }{subsection.3.24}{}}
\@writefile{toc}{\contentsline {subsection}{\numberline {3.24}Wie wirkt sich Ihrer Ansicht nach eine Klarstellung auf EU-Ebene dahingehend, dass Software und gedankliche Konzepte nicht patentierbar sind, auf bereits bestehende Patente in diesem Bereich aus?}{64}{subsection.3.24}}
\newlabel{rsp}{{4}{65}{Bisherige Antworten\label {rsp}\relax }{section.4}{}}
\@writefile{toc}{\contentsline {section}{\numberline {4}Bisherige Antworten}{65}{section.4}}
\newlabel{etc}{{5}{68}{Weitere Lekt\"{u}re\label {etc}\relax }{section.5}{}}
\@writefile{toc}{\contentsline {section}{\numberline {5}Weitere Lekt\"{u}re}{68}{section.5}}
