\BOOKMARK [1][-]{section.1}{General Data}{}
\BOOKMARK [1][-]{section.2}{Session protocol}{}
\BOOKMARK [2][-]{subsection.2.1}{Einleitungsworte des Gespr\344chsleiters MdB J\366rg Tauss}{section.2}
\BOOKMARK [2][-]{subsection.2.2}{Probst: innovationsf\366rdernde Wirkungen von Swpat nicht zu erkennen}{section.2}
\BOOKMARK [2][-]{subsection.2.3}{Bremer: EPA-Rechtsprechung sollte im Gesetz etabliert werden, KMU profitieren von Softwarepatenten}{section.2}
\BOOKMARK [2][-]{subsection.2.4}{Schiuma: Urheberrecht unzureichend, KMU brauchen Swpat, TRIPS erfordert Gesetzes\344nderung}{section.2}
\BOOKMARK [2][-]{subsection.2.5}{Siepmann: Urheberrecht leistet f\374r Software das, was Patente f\374r Pharma leisten}{section.2}
\BOOKMARK [2][-]{subsection.2.6}{Kiesewetter-K\366binger: Ungereimtheiten bei der Patentpr\374fung von Datenverarbeitungsprogrammen}{section.2}
\BOOKMARK [2][-]{subsection.2.7}{Bouillon: Patente gef\344hrden innovative KMU im Bereich der propriet\344ren Software}{section.2}
\BOOKMARK [2][-]{subsection.2.8}{Henckel: Quelloffene Software besonders gef\344hrdet}{section.2}
\BOOKMARK [2][-]{subsection.2.9}{Lutterbeck: \326konomen gegen Swpat, viele Juristen daf\374r}{section.2}
\BOOKMARK [2][-]{subsection.2.10}{MdB Tauss: Themenkomplexe der heutigen Diskussion}{section.2}
\BOOKMARK [2][-]{subsection.2.11}{MdB Mayer: Was sagen die swpat-freundlichen Studien zur Wirkung auf Innovation?}{section.2}
\BOOKMARK [2][-]{subsection.2.12}{MdB Griefahn: Ist Widerstand gegen US-Trends nicht zwecklos?}{section.2}
\BOOKMARK [2][-]{subsection.2.13}{MdB Otto: Fragen zum Unterschied US-DE, Urheberrecht-Patentrecht}{section.2}
\BOOKMARK [2][-]{subsection.2.14}{MdB Neumann: Gegen Swpat oder gegen Patente allgemein?}{section.2}
\BOOKMARK [2][-]{subsection.2.15}{MdB Kelber: Erfordert Bedeutung der Standardisierung nicht \304nderungen im Patentrecht? Vertritt Bremer wirklich Meinung der Bitkom-Firmen?}{section.2}
\BOOKMARK [2][-]{subsection.2.16}{Schiuma: Patentpools gew\344hrleisten, dass Standardisierung m\366glich bleibt}{section.2}
\BOOKMARK [2][-]{subsection.2.17}{Lutterbeck: Begrenzung der Patentierbarkeit schwierig, Quelltextprivileg als L\366sung}{section.2}
\BOOKMARK [2][-]{subsection.2.18}{Probst: Zahlreiche Studien, nichts spricht f\374r Swpat}{section.2}
\BOOKMARK [2][-]{subsection.2.19}{Bouillon: Urheberrecht angemessen, denn die Leistung liegt mehr im Werk als in der Einzelidee}{section.2}
\BOOKMARK [2][-]{subsection.2.20}{Bremer: Volkswirtschaftliche Studien nicht aussagekr\344ftig, OpenSource-Lager muss sich an Rechtslage anpassen, Schwierigkeiten gibt es sowieso auch beim Urheberrecht}{section.2}
\BOOKMARK [2][-]{subsection.2.21}{Siepmann: Auch aus rechtlicher Sicht spricht wenig f\374r Softwarepatente und viel dagegen}{section.2}
\BOOKMARK [2][-]{subsection.2.22}{Schiuma: Kein Bedarf nach geringerer Patentlaufzeit, denn gut formulierte Patente wirken viel l\344nger als 1 Produktzyklus}{section.2}
\BOOKMARK [2][-]{subsection.2.23}{Tauss: Deutet die Unstetigkeit der Rechtsprechung auf Gesetzgebungsbedarf?}{section.2}
\BOOKMARK [2][-]{subsection.2.24}{MdB Otto: Freistellung von OpenSource-Software als L\366sung?}{section.2}
\BOOKMARK [2][-]{subsection.2.25}{MdB Griefahn: Was ist trivial? Wo sind die Grenzen?}{section.2}
\BOOKMARK [2][-]{subsection.2.26}{Siepmann: R\374ckkehr zu EP\334 und fr\374herer BGH-Rechtsprechung ohne weiteres m\366glich}{section.2}
\BOOKMARK [2][-]{subsection.2.27}{Schiuma: Heutige Rechtsprechung klar und sinnvoll, Gesetzgebung von 1973 veraltet und irref\374hrend}{section.2}
\BOOKMARK [2][-]{subsection.2.28}{Lutterbeck: Juristische Diskussionen nutzlos, lieber an Quelltextprivileg und Verj\344hrungsfristen denken}{section.2}
\BOOKMARK [2][-]{subsection.2.29}{Bremer: Status Quo = neuere Rechtsprechung + TRIPS, Gesetz muss angepasst werden}{section.2}
\BOOKMARK [2][-]{subsection.2.30}{Bouillon: Swpat grunds\344tzlich nicht sinnvoll, Laufzeitverk\374rzung und Wettbewerbsrechts\344nderung etc nur als Notbehelfe vorgeschlagen}{section.2}
\BOOKMARK [2][-]{subsection.2.31}{Kiesewetter-K\366binger: Schwierigkeiten der Neuheitspr\374fung bei Softwarepatenten}{section.2}
\BOOKMARK [2][-]{subsection.2.32}{Tauss: Auswirkungen auf Produktivit\344t, IT-Sicherheit etc}{section.2}
\BOOKMARK [2][-]{subsection.2.33}{Lutterbeck: IT-Sicherheit erfordert Freiraum f\374r OpenSource}{section.2}
\BOOKMARK [2][-]{subsection.2.34}{Henckel: Swpat f\366rdern Abh\344ngigkeit von Verk\344ufern intransparenter Informationssysteme}{section.2}
\BOOKMARK [2][-]{subsection.2.35}{MdB Mayer: Werden kleine Entwicklergruppen behindert?}{section.2}
\BOOKMARK [2][-]{subsection.2.36}{Kieswetter-K\366binger: Patentdrohung demotiviert Entwickler und Unternehmensgr\374nder}{section.2}
\BOOKMARK [2][-]{subsection.2.37}{Siepmann: Gefahr schleichender Abw\374rgung der freien Software, Quelltextprivileg gen\374gt nicht}{section.2}
\BOOKMARK [2][-]{subsection.2.38}{MdB Mayer: M\374sste patentierte Software nicht grunds\344tzlich offengelegt werden?}{section.2}
\BOOKMARK [2][-]{subsection.2.39}{Schiuma: Patentbeschreibungen zur Offenbarung von Funktionalit\344ten geeigneter als Programm-Quelltexte}{section.2}
\BOOKMARK [2][-]{subsection.2.40}{Lutterbeck: Gesetzgebung sollte weltf\374hrende Stellung Europas und Deutschlands im Bereich der Quelloffenen Software wiederspiegeln}{section.2}
\BOOKMARK [2][-]{subsection.2.41}{Henckel: Swpat untergraben Urheberrecht, enteignen Software-Autoren}{section.2}
\BOOKMARK [2][-]{subsection.2.42}{Bouillon: Wir Entwickler f\374hlen uns enteignet}{section.2}
\BOOKMARK [2][-]{subsection.2.43}{Kiesewetter-K\366binger: Quelltext einerseits f\374r Pr\374fer nicht bew\344ltigbar, andererseits f\374r seri\366se Patentpr\374fung unabdingbar}{section.2}
\BOOKMARK [2][-]{subsection.2.44}{Siepmann: Quelltext verst\344ndlicher als Patentsprache, Beispiel IDEA}{section.2}
\BOOKMARK [2][-]{subsection.2.45}{Bremer: Existierende Rechte m\374ssen aufrechterhalten werden und OpenSource-Bewegung wird es \374berleben}{section.2}
\BOOKMARK [2][-]{subsection.2.46}{Probst: Gesamtwirtschaftliches Interesse sollte entscheidend sein}{section.2}
\BOOKMARK [2][-]{subsection.2.47}{Schlussworte des Gespr\344chsleiters}{section.2}
\BOOKMARK [1][-]{section.3}{Consultation Questions and possible answers}{}
\BOOKMARK [2][-]{subsection.3.1}{What is the rationale for patent protection in general?}{section.3}
\BOOKMARK [2][-]{subsection.3.2}{What protection rights exist for software and how do they work?}{section.3}
\BOOKMARK [2][-]{subsection.3.3}{How is software different from other inventions?}{section.3}
\BOOKMARK [2][-]{subsection.3.4}{What are software patents?}{section.3}
\BOOKMARK [2][-]{subsection.3.5}{How is the inventive height \(non-obviousness\) of software patents to be assessed?}{section.3}
\BOOKMARK [2][-]{subsection.3.6}{Are software patents different from patents on business ideas, algorithms and file formats? If yes, in what way?}{section.3}
\BOOKMARK [2][-]{subsection.3.7}{Where does the protection of software in Germany differ from that in other countries in and outside Europe?}{section.3}
\BOOKMARK [2][-]{subsection.3.8}{According to which criteria do the EPO, the Federal Court \(BGH\) and the Federal Patent Court \(BPatG\) judge the patentability of software? Are these criteria and rules unambiguous and which formulas have proven to be useful?}{section.3}
\BOOKMARK [2][-]{subsection.3.9}{How many software patents exist in Germany, Europe and worldwide?}{section.3}
\BOOKMARK [2][-]{subsection.3.10}{In how many of the 30000 software patents granted so far by the EPO is the claimed contribution to innovation so significant that it could considered a good deal for society to grant a 20 year monopoly on them?}{section.3}
\BOOKMARK [2][-]{subsection.3.11}{Are there legal constraints \(constitution, international treaties\) that necessitate an extension of the patent system to software?}{section.3}
\BOOKMARK [3][-]{subsubsection.3.11.1}{Art 14 GG: Eigentumsgarantie des Grundgesetzes}{subsection.3.11}
\BOOKMARK [3][-]{subsubsection.3.11.2}{Art 27 TRIPS: Klausel gegen unsystematische Patentierbarkeitsausnahmen in einem Freihandelsvertrag}{subsection.3.11}
\BOOKMARK [2][-]{subsection.3.12}{How do you find the idea of introducing a special protection right \(sui generis right\) for software?}{section.3}
\BOOKMARK [2][-]{subsection.3.13}{Where could copyright offer insufficient protection against imitation? What could a ``specially tailored software protection right'' look like?}{section.3}
\BOOKMARK [2][-]{subsection.3.14}{Does it make sense to distnguish patentable goods from non patentable ones?}{section.3}
\BOOKMARK [2][-]{subsection.3.15}{If yes, according to which criteria should the distinction between these two kinds of goods \(kinds of inventions\) be made?}{section.3}
\BOOKMARK [2][-]{subsection.3.16}{Which macro- and micro-economic effects would a largely unlimited patentability of so-called software products have?}{section.3}
\BOOKMARK [2][-]{subsection.3.17}{Which are the methods of work and economic foundations of the open source movement?}{section.3}
\BOOKMARK [2][-]{subsection.3.18}{What are the effects of extended patentability of software on the framework of software development under so-called open-source licenses?}{section.3}
\BOOKMARK [2][-]{subsection.3.19}{Would an extension of patent protection for software hamper the open source movement? If yes, how could these disadvantages be removed?}{section.3}
\BOOKMARK [2][-]{subsection.3.20}{Which effects would the extension of patent protection to software have on the development of small and medium enterprises?}{section.3}
\BOOKMARK [2][-]{subsection.3.21}{Do you think that an extension of patentability for software would endanger innovations in this area? How do you view the MIT study Sequential Innovation, Patents and Imitation by James Bessen and Eric Maskin \(1999 \(http://www.researchoninnovation.org/\)\) in this context?}{section.3}
\BOOKMARK [2][-]{subsection.3.22}{Is patent law a suitable tool for promoting innovation and progress in the field of software?}{section.3}
\BOOKMARK [2][-]{subsection.3.23}{Are there more effective alternatives and, if yes, which? }{section.3}
\BOOKMARK [2][-]{subsection.3.24}{If it was now to be clarified at the EU level that software and abstract concepts are not patentable, how would this affect already existing patents in this area?}{section.3}
\BOOKMARK [1][-]{section.4}{Responses so far}{}
\BOOKMARK [1][-]{section.5}{Further Reading}{}
