\BOOKMARK [1][-]{section.1}{Renseignements Pratiques}{}
\BOOKMARK [1][-]{section.2}{protocole de session}{}
\BOOKMARK [2][-]{subsection.2.1}{Introduction par M. Tauss}{section.2}
\BOOKMARK [2][-]{subsection.2.2}{Probst: Effets N\351fastes des Brevets sur l'\311conomie du Logiciel}{section.2}
\BOOKMARK [2][-]{subsection.2.3}{Bremer: Le Droit d'Auteur ne Refl\350te pas la Technicit\351 du Logiciel}{section.2}
\BOOKMARK [2][-]{subsection.2.4}{Schiuma: Protection par Droit d'Auteur Insufisante, TRIPs n\351c\351ssite un changement}{section.2}
\BOOKMARK [2][-]{subsection.2.5}{Siepmann: Le Droit d'Auteur Acheve pour le Logiciel ce que achevent les brevets pour l'industrie pharma}{section.2}
\BOOKMARK [2][-]{subsection.2.6}{Kiesewetter-K\366binger: Incompatibilit\351 du Brevet avec le Logiciel}{section.2}
\BOOKMARK [2][-]{subsection.2.7}{Bouillon: Les brevets mettent en p\351ril les PME innovantes dans le domaine du logiciel propri\351taire}{section.2}
\BOOKMARK [2][-]{subsection.2.8}{Henckel: Logiciel Libre en Danger}{section.2}
\BOOKMARK [2][-]{subsection.2.9}{Lutterbeck: \311conomistes contre le Brevet logiciel, Avocats en faveur}{section.2}
\BOOKMARK [2][-]{subsection.2.10}{MdB Tauss: Th\350mes de la Discussion}{section.2}
\BOOKMARK [2][-]{subsection.2.11}{MdB Mayer: Que disent les \351tudent pro-brevet a propos de l'\351ffet sur l'innovation?}{section.2}
\BOOKMARK [2][-]{subsection.2.12}{MdB Griefahn: N'est pas la Resistance contre les Tendances US sans espoir?}{section.2}
\BOOKMARK [2][-]{subsection.2.13}{MdB Otto: Questions sur Diff\351rence US et EU, Droit d'Auteur et Brevets}{section.2}
\BOOKMARK [2][-]{subsection.2.14}{MdB Neumann: Contre les Brevets Logiciels ou Contre Touts Les Brevets?}{section.2}
\BOOKMARK [2][-]{subsection.2.15}{MdB Kelber: Conflit entre Standardisation et Brevetabilit\351? Est-ce que Bremer repr\351sente le consus des membres de Bitkom?}{section.2}
\BOOKMARK [2][-]{subsection.2.16}{Schiuma: La Auto-R\351gulation par des Consortiums de Brevet assure que les Standards restent ouverts}{section.2}
\BOOKMARK [2][-]{subsection.2.17}{Lutterbeck: La Brevetabilit\351 ne peut pas \352tre Limit\351e, il faut un privil\350ge pour code source}{section.2}
\BOOKMARK [2][-]{subsection.2.18}{Probst: Nombreuses \311tudes \311conomiques, Aucun Soutien pour les Brevets Logiciels}{section.2}
\BOOKMARK [2][-]{subsection.2.19}{Bouillon: Le Droit d'Auteur est Bien Adapt\351, car l'Effort est dans l'ensemble plut\364t que dans les id\351es}{section.2}
\BOOKMARK [2][-]{subsection.2.20}{Bremer: Les \311tudes \311conomiques ne Prouvent Rien, les Mouvement Opensource ne comprend pas la Loi}{section.2}
\BOOKMARK [2][-]{subsection.2.21}{Siepmann: D'un point de vue l\351gal il y a beaucoup d'argument contre le brevet logiciel et peu pour}{section.2}
\BOOKMARK [2][-]{subsection.2.22}{Schiuma: Aucun besoin de reduire la dur\351e des brevets car les revendications bien \351crites durent plus longtemps que 1 cycle de produit}{section.2}
\BOOKMARK [2][-]{subsection.2.23}{Tauss: Est-ce que la Volatilit\351 de la Jurisdiction indique une n\351c\351ssit\351 de L\351gislation?}{section.2}
\BOOKMARK [2][-]{subsection.2.24}{MdB Otto: Est-ce qu'on pourrait resoudre le conflit en cr\351ant une exception pour le Logiciel Libre?}{section.2}
\BOOKMARK [2][-]{subsection.2.25}{MdB Griefahn: Qu'est-ce que c'est que ``trivial''? Ou sont les limites?}{section.2}
\BOOKMARK [2][-]{subsection.2.26}{Siepmann: Retour a la loi \(CBE\) et la jurisdiction ant\351rieure reste possible sans difficult\351}{section.2}
\BOOKMARK [2][-]{subsection.2.27}{Schiuma: La nouvelle Jurisdiction est claire, la loi de 1973 est cause de malentendus}{section.2}
\BOOKMARK [2][-]{subsection.2.28}{Lutterbeck: Discussions l\351gales sans m\351rites, il faut penses au privil\351ge code source et au questions de dur\351e}{section.2}
\BOOKMARK [2][-]{subsection.2.29}{Bremer: Status Quo = jurisdiction nouvelle + TRIPs, la loi doit \352tre adapt\351e}{section.2}
\BOOKMARK [2][-]{subsection.2.30}{Bouillon: Les brevets logiciels sont auf fond unjuistifi\351s, en jouant avec la longeur ou les r\350gles de comp\351tition on n'addresse pas le probl\350me}{section.2}
\BOOKMARK [2][-]{subsection.2.31}{Kiesewetter-K\366binger: Difficult\351s dans l'Examen de Nouveaut\351 de Brevets Logiciels}{section.2}
\BOOKMARK [2][-]{subsection.2.32}{Tauss: Eff\350ts sur la Productivit\351, S\351curit\351 etc}{section.2}
\BOOKMARK [2][-]{subsection.2.33}{Lutterbeck: Securit\351 des Reseaux exige un Espace Libre pour les Logiciel Libre}{section.2}
\BOOKMARK [2][-]{subsection.2.34}{Henckel: Brevets Logiciels renforce la D\351pendance sur de Solutions Propri\351taires Ins\351cures}{section.2}
\BOOKMARK [2][-]{subsection.2.35}{MdB Mayer: Est-ce que les Petits Groupes de Developpeurs sont Affect\351s?}{section.2}
\BOOKMARK [2][-]{subsection.2.36}{Kieswetter-K\366binger: Menace de Brevets D\351motivante pour les Developpeurs et les Fondateurs d'Entreprises}{section.2}
\BOOKMARK [2][-]{subsection.2.37}{Siepmann: Danger de asphyxie progressive du Logiciel Libre, Privilege de Code Source ne suffit pas}{section.2}
\BOOKMARK [2][-]{subsection.2.38}{MdB Mayer: Ne devrait-on pas en prinicipe ouvrir les sources des logiciels brevet\351s?}{section.2}
\BOOKMARK [2][-]{subsection.2.39}{Schiuma: Les d\351scriptions de brevet sont mieux adapt\351es pour communiquer l'essence du logiciel que le code source}{section.2}
\BOOKMARK [2][-]{subsection.2.40}{Lutterbeck: La l\351gislation doit refl\350ter la position leader de l'Europe et l'Allemagne dans le domaine du logiciel libre}{section.2}
\BOOKMARK [2][-]{subsection.2.41}{Henckel: Brevets Logiciels verrouillent le Droit D'Auteur, exproprient les Auteurs de Logiciels}{section.2}
\BOOKMARK [2][-]{subsection.2.42}{Bouillon: Nous, les Developpeurs, nous sentons expropri\351s}{section.2}
\BOOKMARK [2][-]{subsection.2.43}{Kiesewetter-K\366binger: L'examination s\351rieuse n\351c\351ssite l'\351tude du code source, ce qui et d'autre part infaisable}{section.2}
\BOOKMARK [2][-]{subsection.2.44}{Siepmann: Code Source plus comprenable que langue de brevets}{section.2}
\BOOKMARK [2][-]{subsection.2.45}{Bremer: Les privil\350ges d'inventeurs existantent doivent \352tre maintenus, le mouvement du logiciel libre va survivre}{section.2}
\BOOKMARK [2][-]{subsection.2.46}{Probst: L'Int\351r\352t G\351n\351ral \311conomique doit \352tre le Crit\350re D\351cisif}{section.2}
\BOOKMARK [2][-]{subsection.2.47}{Remarques Finales du Mod\351rateur}{section.2}
\BOOKMARK [1][-]{section.3}{Questions de Consultation et reponses possibles}{}
\BOOKMARK [2][-]{subsection.3.1}{Pour quoi accorde-t-on des brevets en g\351n\351ral?}{section.3}
