\BOOKMARK [1][-]{section.1}{Allgemeine Angaben}{}
\BOOKMARK [1][-]{section.2}{Sitzungsprotokoll}{}
\BOOKMARK [2][-]{subsection.2.1}{Einleitungsworte des Gespr\344chsleiters MdB J\366rg Tauss}{section.2}
\BOOKMARK [2][-]{subsection.2.2}{Probst: Innovationsf\366rdernde Wirkungen von Swpat nicht zu erkennen}{section.2}
\BOOKMARK [2][-]{subsection.2.3}{Bremer: Urheberrecht wird der Technizit\344t der Software nicht gerecht}{section.2}
\BOOKMARK [2][-]{subsection.2.4}{Schiuma: Urheberrecht unzureichend, TRIPS erfordert Gesetzes\344nderung}{section.2}
\BOOKMARK [2][-]{subsection.2.5}{Siepmann: Urheberrecht leistet f\374r Software das, was Patente f\374r Pharma leisten}{section.2}
\BOOKMARK [2][-]{subsection.2.6}{Kiesewetter-K\366binger: Ungereimtheiten bei der Patentpr\374fung von Datenverarbeitungsprogrammen}{section.2}
\BOOKMARK [2][-]{subsection.2.7}{Bouillon: Patente gef\344hrden innovative KMU im Bereich der propriet\344ren Software}{section.2}
\BOOKMARK [2][-]{subsection.2.8}{Henckel: Quelloffene Software besonders gef\344hrdet}{section.2}
\BOOKMARK [2][-]{subsection.2.9}{Lutterbeck: \326konomen gegen Swpat, viele Juristen daf\374r}{section.2}
\BOOKMARK [2][-]{subsection.2.10}{MdB Tauss: Themenkomplexe der heutigen Diskussion}{section.2}
\BOOKMARK [2][-]{subsection.2.11}{MdB Mayer: Was sagen die swpat-freundlichen Studien zur Wirkung auf Innovation?}{section.2}
\BOOKMARK [2][-]{subsection.2.12}{MdB Griefahn: Ist Widerstand gegen US-Trends nicht zwecklos?}{section.2}
\BOOKMARK [2][-]{subsection.2.13}{MdB Otto: Unterschiede US-EU, Urheberrecht-Patentrecht}{section.2}
\BOOKMARK [2][-]{subsection.2.14}{MdB Neumann: Gegen Swpat oder gegen Patente allgemein?}{section.2}
\BOOKMARK [2][-]{subsection.2.15}{MdB Kelber: Konflikt zwischen Standardisierung und Patentierbarkeit? Konsens der Bitkom-Firmen?}{section.2}
\BOOKMARK [2][-]{subsection.2.16}{Schiuma: Patentpools gew\344hrleisten, dass Standardisierung m\366glich bleibt}{section.2}
\BOOKMARK [2][-]{subsection.2.17}{Lutterbeck: Begrenzung der Patentierbarkeit schwierig, Quelltextprivileg als L\366sung}{section.2}
\BOOKMARK [2][-]{subsection.2.18}{Probst: Zahlreiche Studien, nichts spricht f\374r Swpat}{section.2}
\BOOKMARK [2][-]{subsection.2.19}{Bouillon: Urheberrecht angemessen, denn die Leistung liegt mehr im Werk als in der Einzelidee}{section.2}
\BOOKMARK [2][-]{subsection.2.20}{Bremer: Volkswirtschaftliche Studien nicht aussagekr\344ftig, OpenSource-Lager versteht zu wenig von Recht}{section.2}
\BOOKMARK [2][-]{subsection.2.21}{Siepmann: Auch aus rechtlicher Sicht spricht wenig f\374r Softwarepatente und viel dagegen}{section.2}
\BOOKMARK [2][-]{subsection.2.22}{Schiuma: Kein Bedarf nach geringerer Patentlaufzeit, denn gut formulierte Patente wirken viel l\344nger als 1 Produktzyklus}{section.2}
\BOOKMARK [2][-]{subsection.2.23}{Tauss: Deutet die Unstetigkeit der Rechtsprechung auf Gesetzgebungsbedarf?}{section.2}
\BOOKMARK [2][-]{subsection.2.24}{MdB Otto: Freistellung von OpenSource-Software als L\366sung?}{section.2}
\BOOKMARK [2][-]{subsection.2.25}{MdB Griefahn: Was ist trivial? Wo sind die Grenzen?}{section.2}
\BOOKMARK [2][-]{subsection.2.26}{Siepmann: R\374ckkehr zu EP\334 und fr\374herer BGH-Rechtsprechung ohne weiteres m\366glich}{section.2}
\BOOKMARK [2][-]{subsection.2.27}{Schiuma: Heutige Rechtsprechung klar und sinnvoll, Gesetzgebung von 1973 veraltet und irref\374hrend}{section.2}
\BOOKMARK [2][-]{subsection.2.28}{Lutterbeck: Juristische Diskussionen nutzlos, lieber an Quelltextprivileg und Verj\344hrungsfristen \(?\) denken}{section.2}
\BOOKMARK [2][-]{subsection.2.29}{Bremer: Status Quo = neuere Rechtsprechung + TRIPS, Gesetz muss angepasst werden}{section.2}
\BOOKMARK [2][-]{subsection.2.30}{Bouillon: Swpat grunds\344tzlich nicht sinnvoll, Laufzeitverk\374rzung und Wettbewerbsrechts\344nderung etc nur als Notbehelfe vorgeschlagen}{section.2}
\BOOKMARK [2][-]{subsection.2.31}{Kiesewetter-K\366binger: Schwierigkeiten der Neuheitspr\374fung bei Softwarepatenten}{section.2}
\BOOKMARK [2][-]{subsection.2.32}{Tauss: Auswirkungen auf Produktivit\344t, IT-Sicherheit etc}{section.2}
\BOOKMARK [2][-]{subsection.2.33}{Lutterbeck: IT-Sicherheit erfordert Freiraum f\374r OpenSource}{section.2}
\BOOKMARK [2][-]{subsection.2.34}{Henckel: Swpat f\366rdern Abh\344ngigkeit von Verk\344ufern intransparenter Informationssysteme}{section.2}
\BOOKMARK [2][-]{subsection.2.35}{MdB Mayer: Werden kleine Entwicklergruppen behindert?}{section.2}
\BOOKMARK [2][-]{subsection.2.36}{Kieswetter-K\366binger: Patentdrohung demotiviert Entwickler und Unternehmensgr\374nder}{section.2}
\BOOKMARK [2][-]{subsection.2.37}{Siepmann: Gefahr schleichender Abw\374rgung der freien Software, Quelltextprivileg gen\374gt nicht}{section.2}
\BOOKMARK [2][-]{subsection.2.38}{MdB Mayer: M\374sste patentierte Software nicht grunds\344tzlich offengelegt werden?}{section.2}
\BOOKMARK [2][-]{subsection.2.39}{Schiuma: Patentbeschreibungen zur Offenbarung von Funktionalit\344ten geeigneter als Programm-Quelltexte}{section.2}
\BOOKMARK [2][-]{subsection.2.40}{Lutterbeck: Gesetzgebung sollte weltf\374hrende Stellung Europas und Deutschlands im Bereich der Quelloffenen Software wiederspiegeln}{section.2}
\BOOKMARK [2][-]{subsection.2.41}{Henckel: Swpat untergraben Urheberrecht, enteignen Software-Autoren}{section.2}
\BOOKMARK [2][-]{subsection.2.42}{Bouillon: Wir Entwickler f\374hlen uns enteignet}{section.2}
\BOOKMARK [2][-]{subsection.2.43}{Kiesewetter-K\366binger: Quelltext einerseits f\374r Pr\374fer nicht bew\344ltigbar, andererseits f\374r seri\366se Patentpr\374fung unabdingbar}{section.2}
\BOOKMARK [2][-]{subsection.2.44}{Siepmann: Quelltext verst\344ndlicher als Patentsprache}{section.2}
\BOOKMARK [2][-]{subsection.2.45}{Bremer: Existierende Erfinderprivilegien m\374ssen aufrechterhalten werden und OpenSource-Bewegung wird es \374berleben}{section.2}
\BOOKMARK [2][-]{subsection.2.46}{Probst: Gesamtwirtschaftliches Interesse sollte entscheidend sein}{section.2}
\BOOKMARK [2][-]{subsection.2.47}{Schlussworte des Gespr\344chsleiters}{section.2}
\BOOKMARK [1][-]{section.3}{Die Konsultationsfragen und m\366gliche Antworten}{}
\BOOKMARK [2][-]{subsection.3.1}{Wie wird Patentschutz im Allgemeinen begr\374ndet?}{section.3}
\BOOKMARK [2][-]{subsection.3.2}{Welche Schutzrechte gibt es f\374r Software und welche Wirkungen haben sie?}{section.3}
