\relax 
\catcode`:\active
\catcode`;\active
\catcode`!\active
\catcode`?\active
\ifx\hyper@anchor\@undefined
\global \let \oldcontentsline\contentsline
\gdef \contentsline#1#2#3#4{\oldcontentsline{#1}{#2}{#3}}
\global \let \oldnewlabel\newlabel
\gdef \newlabel#1#2{\newlabelxx{#1}#2}
\gdef \newlabelxx#1#2#3#4#5#6{\oldnewlabel{#1}{{#2}{#3}}}
\AtEndDocument{\let \contentsline\oldcontentsline
\let \newlabel\oldnewlabel}
\else
\global \let \hyper@last\relax 
\fi

\select@language{french}
\@writefile{toc}{\select@language{french}}
\@writefile{lof}{\select@language{french}}
\@writefile{lot}{\select@language{french}}
\@writefile{toc}{\contentsline {section}{\numberline {1}Renseignements Pratiques}{1}{section.1}}
\newlabel{dat}{{1}{1}{Renseignements Pratiques\relax }{section.1}{}}
\@writefile{toc}{\contentsline {section}{\numberline {2}protocole de session}{2}{section.2}}
\newlabel{pro}{{2}{2}{protocole de session\relax }{section.2}{}}
\@writefile{toc}{\contentsline {subsection}{\numberline {2.1}Introduction par M. Tauss}{2}{subsection.2.1}}
\newlabel{vors1}{{2.1}{2}{Introduction par M. Tauss\relax }{subsection.2.1}{}}
\@writefile{toc}{\contentsline {subsection}{\numberline {2.2}Probst: Effets N\'{e}fastes des Brevets sur l'\'{E}conomie du Logiciel}{5}{subsection.2.2}}
\newlabel{probst1}{{2.2}{5}{Probst: Effets N\'{e}fastes des Brevets sur l'\'{E}conomie du Logiciel\relax }{subsection.2.2}{}}
\@writefile{toc}{\contentsline {subsection}{\numberline {2.3}Bremer: Le Droit d'Auteur ne Refl\`{e}te pas la Technicit\'{e} du Logiciel}{6}{subsection.2.3}}
\newlabel{bremer1}{{2.3}{6}{Bremer: Le Droit d'Auteur ne Refl\`{e}te pas la Technicit\'{e} du Logiciel\relax }{subsection.2.3}{}}
\@writefile{toc}{\contentsline {subsection}{\numberline {2.4}Schiuma: Protection par Droit d'Auteur Insufisante, TRIPs n\'{e}c\'{e}ssite un changement}{7}{subsection.2.4}}
\newlabel{schiuma1}{{2.4}{7}{Schiuma: Protection par Droit d'Auteur Insufisante, TRIPs n\'{e}c\'{e}ssite un changement\relax }{subsection.2.4}{}}
\@writefile{toc}{\contentsline {subsection}{\numberline {2.5}Siepmann: Le Droit d'Auteur Acheve pour le Logiciel ce que achevent les brevets pour l'industrie pharma}{8}{subsection.2.5}}
\newlabel{siepmann1}{{2.5}{8}{Siepmann: Le Droit d'Auteur Acheve pour le Logiciel ce que achevent les brevets pour l'industrie pharma\relax }{subsection.2.5}{}}
\@writefile{toc}{\contentsline {subsection}{\numberline {2.6}Kiesewetter-K\"{o}binger: Incompatibilit\'{e} du Brevet avec le Logiciel}{11}{subsection.2.6}}
\newlabel{kiesew1}{{2.6}{11}{Kiesewetter-K\"{o}binger: Incompatibilit\'{e} du Brevet avec le Logiciel\relax }{subsection.2.6}{}}
\@writefile{toc}{\contentsline {subsection}{\numberline {2.7}Bouillon: Les brevets mettent en p\'{e}ril les PME innovantes dans le domaine du logiciel propri\'{e}taire}{12}{subsection.2.7}}
\newlabel{bouillon1}{{2.7}{12}{Bouillon: Les brevets mettent en p\'{e}ril les PME innovantes dans le domaine du logiciel propri\'{e}taire\relax }{subsection.2.7}{}}
\@writefile{toc}{\contentsline {subsection}{\numberline {2.8}Henckel: Logiciel Libre en Danger}{14}{subsection.2.8}}
\newlabel{henckel1}{{2.8}{14}{Henckel: Logiciel Libre en Danger\relax }{subsection.2.8}{}}
\@writefile{toc}{\contentsline {subsection}{\numberline {2.9}Lutterbeck: \'{E}conomistes contre le Brevet logiciel, Avocats en faveur}{15}{subsection.2.9}}
\newlabel{lutter1}{{2.9}{15}{Lutterbeck: \'{E}conomistes contre le Brevet logiciel, Avocats en faveur\relax }{subsection.2.9}{}}
\@writefile{toc}{\contentsline {subsection}{\numberline {2.10}MdB Tauss: Th\`{e}mes de la Discussion}{16}{subsection.2.10}}
\newlabel{vors2}{{2.10}{16}{MdB Tauss: Th\`{e}mes de la Discussion\relax }{subsection.2.10}{}}
\@writefile{toc}{\contentsline {subsection}{\numberline {2.11}MdB Mayer: Que disent les \'{e}tudent pro-brevet a propos de l'\'{e}ffet sur l'innovation?}{17}{subsection.2.11}}
\newlabel{mayer1}{{2.11}{17}{MdB Mayer: Que disent les \'{e}tudent pro-brevet a propos de l'\'{e}ffet sur l'innovation?\relax }{subsection.2.11}{}}
\@writefile{toc}{\contentsline {subsection}{\numberline {2.12}MdB Griefahn: N'est pas la Resistance contre les Tendances US sans espoir?}{18}{subsection.2.12}}
\newlabel{griefahn1}{{2.12}{18}{MdB Griefahn: N'est pas la Resistance contre les Tendances US sans espoir?\relax }{subsection.2.12}{}}
\@writefile{toc}{\contentsline {subsection}{\numberline {2.13}MdB Otto: Questions sur Diff\'{e}rence US et EU, Droit d'Auteur et Brevets}{19}{subsection.2.13}}
\newlabel{otto1}{{2.13}{19}{MdB Otto: Questions sur Diff\'{e}rence US et EU, Droit d'Auteur et Brevets\relax }{subsection.2.13}{}}
\@writefile{toc}{\contentsline {subsection}{\numberline {2.14}MdB Neumann: Contre les Brevets Logiciels ou Contre Touts Les Brevets?}{20}{subsection.2.14}}
\newlabel{neumann1}{{2.14}{20}{MdB Neumann: Contre les Brevets Logiciels ou Contre Touts Les Brevets?\relax }{subsection.2.14}{}}
\@writefile{toc}{\contentsline {subsection}{\numberline {2.15}MdB Kelber: Conflit entre Standardisation et Brevetabilit\'{e}? Est-ce que Bremer repr\'{e}sente le consus des membres de Bitkom?}{21}{subsection.2.15}}
\newlabel{kelber1}{{2.15}{21}{MdB Kelber: Conflit entre Standardisation et Brevetabilit\'{e}? Est-ce que Bremer repr\'{e}sente le consus des membres de Bitkom?\relax }{subsection.2.15}{}}
\@writefile{toc}{\contentsline {subsection}{\numberline {2.16}Schiuma: La Auto-R\'{e}gulation par des Consortiums de Brevet assure que les Standards restent ouverts}{21}{subsection.2.16}}
\newlabel{schiuma2}{{2.16}{21}{Schiuma: La Auto-R\'{e}gulation par des Consortiums de Brevet assure que les Standards restent ouverts\relax }{subsection.2.16}{}}
\@writefile{toc}{\contentsline {subsection}{\numberline {2.17}Lutterbeck: La Brevetabilit\'{e} ne peut pas \^{e}tre Limit\'{e}e, il faut un privil\`{e}ge pour code source}{23}{subsection.2.17}}
\newlabel{lutter2}{{2.17}{23}{Lutterbeck: La Brevetabilit\'{e} ne peut pas \^{e}tre Limit\'{e}e, il faut un privil\`{e}ge pour code source\relax }{subsection.2.17}{}}
\@writefile{toc}{\contentsline {subsection}{\numberline {2.18}Probst: Nombreuses \'{E}tudes \'{E}conomiques, Aucun Soutien pour les Brevets Logiciels}{25}{subsection.2.18}}
\newlabel{probst2}{{2.18}{25}{Probst: Nombreuses \'{E}tudes \'{E}conomiques, Aucun Soutien pour les Brevets Logiciels\relax }{subsection.2.18}{}}
\@writefile{toc}{\contentsline {subsection}{\numberline {2.19}Bouillon: Le Droit d'Auteur est Bien Adapt\'{e}, car l'Effort est dans l'ensemble plut\^{o}t que dans les id\'{e}es}{27}{subsection.2.19}}
\newlabel{bouillon2}{{2.19}{27}{Bouillon: Le Droit d'Auteur est Bien Adapt\'{e}, car l'Effort est dans l'ensemble plut\^{o}t que dans les id\'{e}es\relax }{subsection.2.19}{}}
\@writefile{toc}{\contentsline {subsection}{\numberline {2.20}Bremer: Les \'{E}tudes \'{E}conomiques ne Prouvent Rien, les Mouvement Opensource ne comprend pas la Loi}{28}{subsection.2.20}}
\newlabel{bremer2}{{2.20}{28}{Bremer: Les \'{E}tudes \'{E}conomiques ne Prouvent Rien, les Mouvement Opensource ne comprend pas la Loi\relax }{subsection.2.20}{}}
\@writefile{toc}{\contentsline {subsection}{\numberline {2.21}Siepmann: D'un point de vue l\'{e}gal il y a beaucoup d'argument contre le brevet logiciel et peu pour}{29}{subsection.2.21}}
\newlabel{siepmann2}{{2.21}{29}{Siepmann: D'un point de vue l\'{e}gal il y a beaucoup d'argument contre le brevet logiciel et peu pour\relax }{subsection.2.21}{}}
\@writefile{toc}{\contentsline {subsection}{\numberline {2.22}Schiuma: Aucun besoin de reduire la dur\'{e}e des brevets car les revendications bien \'{e}crites durent plus longtemps que 1 cycle de produit}{32}{subsection.2.22}}
\newlabel{schiuma3}{{2.22}{32}{Schiuma: Aucun besoin de reduire la dur\'{e}e des brevets car les revendications bien \'{e}crites durent plus longtemps que 1 cycle de produit\relax }{subsection.2.22}{}}
\@writefile{toc}{\contentsline {subsection}{\numberline {2.23}Tauss: Est-ce que la Volatilit\'{e} de la Jurisdiction indique une n\'{e}c\'{e}ssit\'{e} de L\'{e}gislation?}{33}{subsection.2.23}}
\newlabel{vors3}{{2.23}{33}{Tauss: Est-ce que la Volatilit\'{e} de la Jurisdiction indique une n\'{e}c\'{e}ssit\'{e} de L\'{e}gislation?\relax }{subsection.2.23}{}}
\@writefile{toc}{\contentsline {subsection}{\numberline {2.24}MdB Otto: Est-ce qu'on pourrait resoudre le conflit en cr\'{e}ant une exception pour le Logiciel Libre?}{33}{subsection.2.24}}
\newlabel{otto2}{{2.24}{33}{MdB Otto: Est-ce qu'on pourrait resoudre le conflit en cr\'{e}ant une exception pour le Logiciel Libre?\relax }{subsection.2.24}{}}
\@writefile{toc}{\contentsline {subsection}{\numberline {2.25}MdB Griefahn: Qu'est-ce que c'est que ``trivial''? Ou sont les limites?}{34}{subsection.2.25}}
\newlabel{griefahn2}{{2.25}{34}{MdB Griefahn: Qu'est-ce que c'est que ``trivial''? Ou sont les limites?\relax }{subsection.2.25}{}}
\@writefile{toc}{\contentsline {subsection}{\numberline {2.26}Siepmann: Retour a la loi (CBE) et la jurisdiction ant\'{e}rieure reste possible sans difficult\'{e}}{35}{subsection.2.26}}
\newlabel{siepmann3}{{2.26}{35}{Siepmann: Retour a la loi (CBE) et la jurisdiction ant\'{e}rieure reste possible sans difficult\'{e}\relax }{subsection.2.26}{}}
\@writefile{toc}{\contentsline {subsection}{\numberline {2.27}Schiuma: La nouvelle Jurisdiction est claire, la loi de 1973 est cause de malentendus}{35}{subsection.2.27}}
\newlabel{schiuma4}{{2.27}{35}{Schiuma: La nouvelle Jurisdiction est claire, la loi de 1973 est cause de malentendus\relax }{subsection.2.27}{}}
\@writefile{toc}{\contentsline {subsection}{\numberline {2.28}Lutterbeck: Discussions l\'{e}gales sans m\'{e}rites, il faut penses au privil\'{e}ge code source et au questions de dur\'{e}e}{38}{subsection.2.28}}
\newlabel{lutter3}{{2.28}{38}{Lutterbeck: Discussions l\'{e}gales sans m\'{e}rites, il faut penses au privil\'{e}ge code source et au questions de dur\'{e}e\relax }{subsection.2.28}{}}
\@writefile{toc}{\contentsline {subsection}{\numberline {2.29}Bremer: Status Quo = jurisdiction nouvelle + TRIPs, la loi doit \^{e}tre adapt\'{e}e}{39}{subsection.2.29}}
\newlabel{bremer3}{{2.29}{39}{Bremer: Status Quo = jurisdiction nouvelle + TRIPs, la loi doit \^{e}tre adapt\'{e}e\relax }{subsection.2.29}{}}
\@writefile{toc}{\contentsline {subsection}{\numberline {2.30}Bouillon: Les brevets logiciels sont auf fond unjuistifi\'{e}s, en jouant avec la longeur ou les r\`{e}gles de comp\'{e}tition on n'addresse pas le probl\`{e}me}{40}{subsection.2.30}}
\newlabel{bouillon3}{{2.30}{40}{Bouillon: Les brevets logiciels sont auf fond unjuistifi\'{e}s, en jouant avec la longeur ou les r\`{e}gles de comp\'{e}tition on n'addresse pas le probl\`{e}me\relax }{subsection.2.30}{}}
\@writefile{toc}{\contentsline {subsection}{\numberline {2.31}Kiesewetter-K\"{o}binger: Difficult\'{e}s dans l'Examen de Nouveaut\'{e} de Brevets Logiciels}{41}{subsection.2.31}}
\newlabel{kiesew2}{{2.31}{41}{Kiesewetter-K\"{o}binger: Difficult\'{e}s dans l'Examen de Nouveaut\'{e} de Brevets Logiciels\relax }{subsection.2.31}{}}
\@writefile{toc}{\contentsline {subsection}{\numberline {2.32}Tauss: Eff\`{e}ts sur la Productivit\'{e}, S\'{e}curit\'{e} etc}{42}{subsection.2.32}}
\newlabel{vors4}{{2.32}{42}{Tauss: Eff\`{e}ts sur la Productivit\'{e}, S\'{e}curit\'{e} etc\relax }{subsection.2.32}{}}
\@writefile{toc}{\contentsline {subsection}{\numberline {2.33}Lutterbeck: Securit\'{e} des Reseaux exige un Espace Libre pour les Logiciel Libre}{42}{subsection.2.33}}
\newlabel{lutter4}{{2.33}{42}{Lutterbeck: Securit\'{e} des Reseaux exige un Espace Libre pour les Logiciel Libre\relax }{subsection.2.33}{}}
\@writefile{toc}{\contentsline {subsection}{\numberline {2.34}Henckel: Brevets Logiciels renforce la D\'{e}pendance sur de Solutions Propri\'{e}taires Ins\'{e}cures}{43}{subsection.2.34}}
\newlabel{henckel2}{{2.34}{43}{Henckel: Brevets Logiciels renforce la D\'{e}pendance sur de Solutions Propri\'{e}taires Ins\'{e}cures\relax }{subsection.2.34}{}}
\@writefile{toc}{\contentsline {subsection}{\numberline {2.35}MdB Mayer: Est-ce que les Petits Groupes de Developpeurs sont Affect\'{e}s?}{44}{subsection.2.35}}
\newlabel{mayer2}{{2.35}{44}{MdB Mayer: Est-ce que les Petits Groupes de Developpeurs sont Affect\'{e}s?\relax }{subsection.2.35}{}}
\@writefile{toc}{\contentsline {subsection}{\numberline {2.36}Kieswetter-K\"{o}binger: Menace de Brevets D\'{e}motivante pour les Developpeurs et les Fondateurs d'Entreprises}{44}{subsection.2.36}}
\newlabel{kiesew3}{{2.36}{44}{Kieswetter-K\"{o}binger: Menace de Brevets D\'{e}motivante pour les Developpeurs et les Fondateurs d'Entreprises\relax }{subsection.2.36}{}}
\@writefile{toc}{\contentsline {subsection}{\numberline {2.37}Siepmann: Danger de asphyxie progressive du Logiciel Libre, Privilege de Code Source ne suffit pas}{45}{subsection.2.37}}
\newlabel{siepmann4}{{2.37}{45}{Siepmann: Danger de asphyxie progressive du Logiciel Libre, Privilege de Code Source ne suffit pas\relax }{subsection.2.37}{}}
\@writefile{toc}{\contentsline {subsection}{\numberline {2.38}MdB Mayer: Ne devrait-on pas en prinicipe ouvrir les sources des logiciels brevet\'{e}s?}{46}{subsection.2.38}}
\newlabel{mayer3}{{2.38}{46}{MdB Mayer: Ne devrait-on pas en prinicipe ouvrir les sources des logiciels brevet\'{e}s?\relax }{subsection.2.38}{}}
\@writefile{toc}{\contentsline {subsection}{\numberline {2.39}Schiuma: Les d\'{e}scriptions de brevet sont mieux adapt\'{e}es pour communiquer l'essence du logiciel que le code source}{46}{subsection.2.39}}
\newlabel{schiuma5}{{2.39}{46}{Schiuma: Les d\'{e}scriptions de brevet sont mieux adapt\'{e}es pour communiquer l'essence du logiciel que le code source\relax }{subsection.2.39}{}}
\@writefile{toc}{\contentsline {subsection}{\numberline {2.40}Lutterbeck: La l\'{e}gislation doit refl\`{e}ter la position leader de l'Europe et l'Allemagne dans le domaine du logiciel libre}{47}{subsection.2.40}}
\newlabel{lutter5}{{2.40}{47}{Lutterbeck: La l\'{e}gislation doit refl\`{e}ter la position leader de l'Europe et l'Allemagne dans le domaine du logiciel libre\relax }{subsection.2.40}{}}
\@writefile{toc}{\contentsline {subsection}{\numberline {2.41}Henckel: Brevets Logiciels verrouillent le Droit D'Auteur, exproprient les Auteurs de Logiciels}{48}{subsection.2.41}}
\newlabel{henckel3}{{2.41}{48}{Henckel: Brevets Logiciels verrouillent le Droit D'Auteur, exproprient les Auteurs de Logiciels\relax }{subsection.2.41}{}}
\@writefile{toc}{\contentsline {subsection}{\numberline {2.42}Bouillon: Nous, les Developpeurs, nous sentons expropri\'{e}s}{49}{subsection.2.42}}
\newlabel{bouillon4}{{2.42}{49}{Bouillon: Nous, les Developpeurs, nous sentons expropri\'{e}s\relax }{subsection.2.42}{}}
\@writefile{toc}{\contentsline {subsection}{\numberline {2.43}Kiesewetter-K\"{o}binger: L'examination s\'{e}rieuse n\'{e}c\'{e}ssite l'\'{e}tude du code source, ce qui et d'autre part infaisable}{49}{subsection.2.43}}
\newlabel{kiesew4}{{2.43}{49}{Kiesewetter-K\"{o}binger: L'examination s\'{e}rieuse n\'{e}c\'{e}ssite l'\'{e}tude du code source, ce qui et d'autre part infaisable\relax }{subsection.2.43}{}}
\@writefile{toc}{\contentsline {subsection}{\numberline {2.44}Siepmann: Code Source plus comprenable que langue de brevets}{50}{subsection.2.44}}
\newlabel{siepmann5}{{2.44}{50}{Siepmann: Code Source plus comprenable que langue de brevets\relax }{subsection.2.44}{}}
\@writefile{toc}{\contentsline {subsection}{\numberline {2.45}Bremer: Les privil\`{e}ges d'inventeurs existantent doivent \^{e}tre maintenus, le mouvement du logiciel libre va survivre}{50}{subsection.2.45}}
\newlabel{bremer4}{{2.45}{50}{Bremer: Les privil\`{e}ges d'inventeurs existantent doivent \^{e}tre maintenus, le mouvement du logiciel libre va survivre\relax }{subsection.2.45}{}}
\@writefile{toc}{\contentsline {subsection}{\numberline {2.46}Probst: L'Int\'{e}r\^{e}t G\'{e}n\'{e}ral \'{E}conomique doit \^{e}tre le Crit\`{e}re D\'{e}cisif}{51}{subsection.2.46}}
\newlabel{probst3}{{2.46}{51}{Probst: L'Int\'{e}r\^{e}t G\'{e}n\'{e}ral \'{E}conomique doit \^{e}tre le Crit\`{e}re D\'{e}cisif\relax }{subsection.2.46}{}}
\@writefile{toc}{\contentsline {subsection}{\numberline {2.47}Remarques Finales du Mod\'{e}rateur}{51}{subsection.2.47}}
\newlabel{vors5}{{2.47}{51}{Remarques Finales du Mod\'{e}rateur\relax }{subsection.2.47}{}}
\@writefile{toc}{\contentsline {section}{\numberline {3}Questions de Consultation et reponses possibles}{51}{section.3}}
\newlabel{fra}{{3}{51}{Questions de Consultation et reponses possibles\relax }{section.3}{}}
\@writefile{toc}{\contentsline {subsection}{\numberline {3.1}Pour quoi accorde-t-on des brevets en g\'{e}n\'{e}ral?}{51}{subsection.3.1}}
\newlabel{kial}{{3.1}{51}{Pour quoi accorde-t-on des brevets en g\'{e}n\'{e}ral?\relax }{subsection.3.1}{}}
