\relax 
\ifx\hyper@anchor\@undefined
\global \let \oldcontentsline\contentsline
\gdef \contentsline#1#2#3#4{\oldcontentsline{#1}{#2}{#3}}
\global \let \oldnewlabel\newlabel
\gdef \newlabel#1#2{\newlabelxx{#1}#2}
\gdef \newlabelxx#1#2#3#4#5#6{\oldnewlabel{#1}{{#2}{#3}}}
\AtEndDocument{\let \contentsline\oldcontentsline
\let \newlabel\oldnewlabel}
\else
\global \let \hyper@last\relax 
\fi

\@writefile{toc}{\contentsline {section}{\numberline {1}General Data}{4}{section.1}}
\newlabel{dat}{{1}{4}{General Data\relax }{section.1}{}}
\@writefile{toc}{\contentsline {section}{\numberline {2}session protocol}{5}{section.2}}
\newlabel{pro}{{2}{5}{session protocol\relax }{section.2}{}}
\@writefile{toc}{\contentsline {subsection}{\numberline {2.1}Introduction by the Moderator J\"{o}rg Tauss}{5}{subsection.2.1}}
\newlabel{vors1}{{2.1}{5}{Introduction by the Moderator J\"{o}rg Tauss\relax }{subsection.2.1}{}}
\@writefile{toc}{\contentsline {subsection}{\numberline {2.2}Probst: Economists Skeptical about Effects of Software Patents}{8}{subsection.2.2}}
\newlabel{probst1}{{2.2}{8}{Probst: Economists Skeptical about Effects of Software Patents\relax }{subsection.2.2}{}}
\@writefile{toc}{\contentsline {subsection}{\numberline {2.3}Bremer: Copyright does not adequately reflect Technicity of Software}{9}{subsection.2.3}}
\newlabel{bremer1}{{2.3}{9}{Bremer: Copyright does not adequately reflect Technicity of Software\relax }{subsection.2.3}{}}
\@writefile{toc}{\contentsline {subsection}{\numberline {2.4}Schiuma: Copyright protection insufficient, TRIPs requires change of law}{10}{subsection.2.4}}
\newlabel{schiuma1}{{2.4}{10}{Schiuma: Copyright protection insufficient, TRIPs requires change of law\relax }{subsection.2.4}{}}
\@writefile{toc}{\contentsline {subsection}{\numberline {2.5}Siepmann: Copyright achieves for Software what Patents achieve for Pharma}{11}{subsection.2.5}}
\newlabel{siepmann1}{{2.5}{11}{Siepmann: Copyright achieves for Software what Patents achieve for Pharma\relax }{subsection.2.5}{}}
\@writefile{toc}{\contentsline {subsection}{\numberline {2.6}Kiesewetter-K\"{o}binger: Incompatibility of Patent Concepts with Software Concepts}{14}{subsection.2.6}}
\newlabel{kiesew1}{{2.6}{14}{Kiesewetter-K\"{o}binger: Incompatibility of Patent Concepts with Software Concepts\relax }{subsection.2.6}{}}
\@writefile{toc}{\contentsline {subsection}{\numberline {2.7}Bouillon: Patents endanger innovative SMEs in the field of proprietary software}{15}{subsection.2.7}}
\newlabel{bouillon1}{{2.7}{15}{Bouillon: Patents endanger innovative SMEs in the field of proprietary software\relax }{subsection.2.7}{}}
\@writefile{toc}{\contentsline {subsection}{\numberline {2.8}Henckel: Open Source Software unduly threatened}{17}{subsection.2.8}}
\newlabel{henckel1}{{2.8}{17}{Henckel: Open Source Software unduly threatened\relax }{subsection.2.8}{}}
\@writefile{toc}{\contentsline {subsection}{\numberline {2.9}Lutterbeck: Economists against Software Patents, lawyers in favor}{18}{subsection.2.9}}
\newlabel{lutter1}{{2.9}{18}{Lutterbeck: Economists against Software Patents, lawyers in favor\relax }{subsection.2.9}{}}
\@writefile{toc}{\contentsline {subsection}{\numberline {2.10}MdB Tauss: Themes of Today's Discussion}{19}{subsection.2.10}}
\newlabel{vors2}{{2.10}{19}{MdB Tauss: Themes of Today's Discussion\relax }{subsection.2.10}{}}
\@writefile{toc}{\contentsline {subsection}{\numberline {2.11}MdB Mayer: What do pro-swpat studies say about the effects on innovation}{20}{subsection.2.11}}
\newlabel{mayer1}{{2.11}{20}{MdB Mayer: What do pro-swpat studies say about the effects on innovation\relax }{subsection.2.11}{}}
\@writefile{toc}{\contentsline {subsection}{\numberline {2.12}MdB Griefahn: Isn't Resistance to US Trends Futile?}{21}{subsection.2.12}}
\newlabel{griefahn1}{{2.12}{21}{MdB Griefahn: Isn't Resistance to US Trends Futile?\relax }{subsection.2.12}{}}
\@writefile{toc}{\contentsline {subsection}{\numberline {2.13}MdB Otto: Questions about Differences between US and EU, Copyright and Patents}{22}{subsection.2.13}}
\newlabel{otto1}{{2.13}{22}{MdB Otto: Questions about Differences between US and EU, Copyright and Patents\relax }{subsection.2.13}{}}
\@writefile{toc}{\contentsline {subsection}{\numberline {2.14}MdB Neumann: Against Software Patents or against all Patents?}{23}{subsection.2.14}}
\newlabel{neumann1}{{2.14}{23}{MdB Neumann: Against Software Patents or against all Patents?\relax }{subsection.2.14}{}}
\@writefile{toc}{\contentsline {subsection}{\numberline {2.15}MdB Kelber: Conflict between Standardisation and Patentability? Does Bremer represent consensus of Bitkom members?}{24}{subsection.2.15}}
\newlabel{kelber1}{{2.15}{24}{MdB Kelber: Conflict between Standardisation and Patentability? Does Bremer represent consensus of Bitkom members?\relax }{subsection.2.15}{}}
\@writefile{toc}{\contentsline {subsection}{\numberline {2.16}Schiuma: Self-Regulation through Patent Pools Keeps Standards Open}{24}{subsection.2.16}}
\newlabel{schiuma2}{{2.16}{24}{Schiuma: Self-Regulation through Patent Pools Keeps Standards Open\relax }{subsection.2.16}{}}
\@writefile{toc}{\contentsline {subsection}{\numberline {2.17}Lutterbeck: Patentability can't be limited, Solution lies in Source Code Privilege}{26}{subsection.2.17}}
\newlabel{lutter2}{{2.17}{26}{Lutterbeck: Patentability can't be limited, Solution lies in Source Code Privilege\relax }{subsection.2.17}{}}
\@writefile{toc}{\contentsline {subsection}{\numberline {2.18}Probst: Numerous Economic Studies, nothing in support of Software Patentability}{28}{subsection.2.18}}
\newlabel{probst2}{{2.18}{28}{Probst: Numerous Economic Studies, nothing in support of Software Patentability\relax }{subsection.2.18}{}}
\@writefile{toc}{\contentsline {subsection}{\numberline {2.19}Bouillon: Copyright is Adequate, because the effort resides in the complex tissue rather than in single ideas}{30}{subsection.2.19}}
\newlabel{bouillon2}{{2.19}{30}{Bouillon: Copyright is Adequate, because the effort resides in the complex tissue rather than in single ideas\relax }{subsection.2.19}{}}
\@writefile{toc}{\contentsline {subsection}{\numberline {2.20}Bremer: The Economic Studies are Inconclusive, the Opensource Camp doesn't understand the Law}{31}{subsection.2.20}}
\newlabel{bremer2}{{2.20}{31}{Bremer: The Economic Studies are Inconclusive, the Opensource Camp doesn't understand the Law\relax }{subsection.2.20}{}}
\@writefile{toc}{\contentsline {subsection}{\numberline {2.21}Siepmann: Most Legal Arguments work against Software Patentability}{32}{subsection.2.21}}
\newlabel{siepmann2}{{2.21}{32}{Siepmann: Most Legal Arguments work against Software Patentability\relax }{subsection.2.21}{}}
\@writefile{toc}{\contentsline {subsection}{\numberline {2.22}Schiuma: No need to reduce patent term, because well-written claims last much longer than 1 product cycle}{35}{subsection.2.22}}
\newlabel{schiuma3}{{2.22}{35}{Schiuma: No need to reduce patent term, because well-written claims last much longer than 1 product cycle\relax }{subsection.2.22}{}}
\@writefile{toc}{\contentsline {subsection}{\numberline {2.23}Tauss: Does the Volatility of Caselaw indicate a need for Legislation?}{36}{subsection.2.23}}
\newlabel{vors3}{{2.23}{36}{Tauss: Does the Volatility of Caselaw indicate a need for Legislation?\relax }{subsection.2.23}{}}
\@writefile{toc}{\contentsline {subsection}{\numberline {2.24}MdB Otto: Could an OpenSource Exception be the Solution?}{36}{subsection.2.24}}
\newlabel{otto2}{{2.24}{36}{MdB Otto: Could an OpenSource Exception be the Solution?\relax }{subsection.2.24}{}}
\@writefile{toc}{\contentsline {subsection}{\numberline {2.25}MdB Griefahn: What is ``trivial''? Where are the limits?}{37}{subsection.2.25}}
\newlabel{griefahn2}{{2.25}{37}{MdB Griefahn: What is ``trivial''? Where are the limits?\relax }{subsection.2.25}{}}
\@writefile{toc}{\contentsline {subsection}{\numberline {2.26}Siepmann: Return to EPC and Earlier Caselaw possible without difficulties}{38}{subsection.2.26}}
\newlabel{siepmann3}{{2.26}{38}{Siepmann: Return to EPC and Earlier Caselaw possible without difficulties\relax }{subsection.2.26}{}}
\@writefile{toc}{\contentsline {subsection}{\numberline {2.27}Schiuma: Today's Caselaw is Clear, Legislation of 1973 is outdated and misleading}{38}{subsection.2.27}}
\newlabel{schiuma4}{{2.27}{38}{Schiuma: Today's Caselaw is Clear, Legislation of 1973 is outdated and misleading\relax }{subsection.2.27}{}}
\@writefile{toc}{\contentsline {subsection}{\numberline {2.28}Lutterbeck: Legal discussions pointless, better think about source code privileges and expiration terms}{41}{subsection.2.28}}
\newlabel{lutter3}{{2.28}{41}{Lutterbeck: Legal discussions pointless, better think about source code privileges and expiration terms\relax }{subsection.2.28}{}}
\@writefile{toc}{\contentsline {subsection}{\numberline {2.29}Bremer: Status Quo = new caselaw + TRIPs, law must be adapted}{42}{subsection.2.29}}
\newlabel{bremer3}{{2.29}{42}{Bremer: Status Quo = new caselaw + TRIPs, law must be adapted\relax }{subsection.2.29}{}}
\@writefile{toc}{\contentsline {subsection}{\numberline {2.30}Bouillon: Software Patents principally unjustified, fiddling with expiry terms and competition law is not a lasting solution}{42}{subsection.2.30}}
\newlabel{bouillon3}{{2.30}{42}{Bouillon: Software Patents principally unjustified, fiddling with expiry terms and competition law is not a lasting solution\relax }{subsection.2.30}{}}
\@writefile{toc}{\contentsline {subsection}{\numberline {2.31}Kiesewetter-K\"{o}binger: Difficulties in Novelty Examination of Software Patents}{43}{subsection.2.31}}
\newlabel{kiesew2}{{2.31}{43}{Kiesewetter-K\"{o}binger: Difficulties in Novelty Examination of Software Patents\relax }{subsection.2.31}{}}
\@writefile{toc}{\contentsline {subsection}{\numberline {2.32}Tauss: Effects on Productivity, IT Security etc}{44}{subsection.2.32}}
\newlabel{vors4}{{2.32}{44}{Tauss: Effects on Productivity, IT Security etc\relax }{subsection.2.32}{}}
\@writefile{toc}{\contentsline {subsection}{\numberline {2.33}Lutterbeck: IT security demands freedom for opensource software}{45}{subsection.2.33}}
\newlabel{lutter4}{{2.33}{45}{Lutterbeck: IT security demands freedom for opensource software\relax }{subsection.2.33}{}}
\@writefile{toc}{\contentsline {subsection}{\numberline {2.34}Henckel: Software Patents reinforce Dependence on Insecure Proprietary Solutions}{46}{subsection.2.34}}
\newlabel{henckel2}{{2.34}{46}{Henckel: Software Patents reinforce Dependence on Insecure Proprietary Solutions\relax }{subsection.2.34}{}}
\@writefile{toc}{\contentsline {subsection}{\numberline {2.35}MdB Mayer: Are Small Groups of Developpers Hampered?}{47}{subsection.2.35}}
\newlabel{mayer2}{{2.35}{47}{MdB Mayer: Are Small Groups of Developpers Hampered?\relax }{subsection.2.35}{}}
\@writefile{toc}{\contentsline {subsection}{\numberline {2.36}Kieswetter-K\"{o}binger: Patent Threat Demotivates Developpers and Entrepreneurs}{47}{subsection.2.36}}
\newlabel{kiesew3}{{2.36}{47}{Kieswetter-K\"{o}binger: Patent Threat Demotivates Developpers and Entrepreneurs\relax }{subsection.2.36}{}}
\@writefile{toc}{\contentsline {subsection}{\numberline {2.37}Siepmann: Danger of gradual suffocation of Free Software, Source Code Privilege not enough}{48}{subsection.2.37}}
\newlabel{siepmann4}{{2.37}{48}{Siepmann: Danger of gradual suffocation of Free Software, Source Code Privilege not enough\relax }{subsection.2.37}{}}
\@writefile{toc}{\contentsline {subsection}{\numberline {2.38}MdB Mayer: Shouldn't Patented Software be made open in principle?}{49}{subsection.2.38}}
\newlabel{mayer3}{{2.38}{49}{MdB Mayer: Shouldn't Patented Software be made open in principle?\relax }{subsection.2.38}{}}
\@writefile{toc}{\contentsline {subsection}{\numberline {2.39}Schiuma: Patent Descriptions better suited for disclosure of software functionalities than source code}{49}{subsection.2.39}}
\newlabel{schiuma5}{{2.39}{49}{Schiuma: Patent Descriptions better suited for disclosure of software functionalities than source code\relax }{subsection.2.39}{}}
\@writefile{toc}{\contentsline {subsection}{\numberline {2.40}Lutterbeck: Legislation should reflect leading position of Europe and Germany in the Area of Opensource Software}{50}{subsection.2.40}}
\newlabel{lutter5}{{2.40}{50}{Lutterbeck: Legislation should reflect leading position of Europe and Germany in the Area of Opensource Software\relax }{subsection.2.40}{}}
\@writefile{toc}{\contentsline {subsection}{\numberline {2.41}Henckel: Software Patents undermine Copyright, expropriate Software Authors}{51}{subsection.2.41}}
\newlabel{henckel3}{{2.41}{51}{Henckel: Software Patents undermine Copyright, expropriate Software Authors\relax }{subsection.2.41}{}}
\@writefile{toc}{\contentsline {subsection}{\numberline {2.42}Bouillon: We, the Developpers, feel Expropriated}{52}{subsection.2.42}}
\newlabel{bouillon4}{{2.42}{52}{Bouillon: We, the Developpers, feel Expropriated\relax }{subsection.2.42}{}}
\@writefile{toc}{\contentsline {subsection}{\numberline {2.43}Kiesewetter-K\"{o}binger: Studying Source Code impossible but yet necessary for serious patent examination}{52}{subsection.2.43}}
\newlabel{kiesew4}{{2.43}{52}{Kiesewetter-K\"{o}binger: Studying Source Code impossible but yet necessary for serious patent examination\relax }{subsection.2.43}{}}
\@writefile{toc}{\contentsline {subsection}{\numberline {2.44}Siepmann: Source code better understandable than patent language}{53}{subsection.2.44}}
\newlabel{siepmann5}{{2.44}{53}{Siepmann: Source code better understandable than patent language\relax }{subsection.2.44}{}}
\@writefile{toc}{\contentsline {subsection}{\numberline {2.45}Bremer: Existing inventor privileges must be upheld, Open Source Movement will survive}{53}{subsection.2.45}}
\newlabel{bremer4}{{2.45}{53}{Bremer: Existing inventor privileges must be upheld, Open Source Movement will survive\relax }{subsection.2.45}{}}
\@writefile{toc}{\contentsline {subsection}{\numberline {2.46}Probst: Overall Economic Interest must be the Decisive Criterion}{54}{subsection.2.46}}
\newlabel{probst3}{{2.46}{54}{Probst: Overall Economic Interest must be the Decisive Criterion\relax }{subsection.2.46}{}}
\@writefile{toc}{\contentsline {subsection}{\numberline {2.47}Moderator's Concluding Remarks}{54}{subsection.2.47}}
\newlabel{vors5}{{2.47}{54}{Moderator's Concluding Remarks\relax }{subsection.2.47}{}}
