\relax 
\ifx\hyper@anchor\@undefined
\global \let \oldcontentsline\contentsline
\gdef \contentsline#1#2#3#4{\oldcontentsline{#1}{#2}{#3}}
\global \let \oldnewlabel\newlabel
\gdef \newlabel#1#2{\newlabelxx{#1}#2}
\gdef \newlabelxx#1#2#3#4#5#6{\oldnewlabel{#1}{{#2}{#3}}}
\AtEndDocument{\let \contentsline\oldcontentsline
\let \newlabel\oldnewlabel}
\else
\global \let \hyper@last\relax 
\fi

\@writefile{toc}{\contentsline {section}{\numberline {1}Aufgaben f\"{u}r Alle}{1}{section.1}}
\newlabel{todo}{{1}{1}{Aufgaben f\"{u}r Alle\relax }{section.1}{}}
\@writefile{toc}{\contentsline {section}{\numberline {2}Daueraufgaben}{1}{section.2}}
\newlabel{lang}{{2}{1}{Daueraufgaben\relax }{section.2}{}}
\@writefile{toc}{\contentsline {section}{\numberline {3}Akute Aufgaben}{1}{section.3}}
\newlabel{kurz}{{3}{1}{Akute Aufgaben\relax }{section.3}{}}
\@writefile{toc}{\contentsline {section}{\numberline {4}Sonstiges}{2}{section.4}}
\newlabel{idea}{{4}{2}{Sonstiges\relax }{section.4}{}}
