\contentsline {section}{\numberline {1}Permanent Tasks}{1}{section.1}
\contentsline {section}{\numberline {2}Urgent Tasks}{4}{section.2}
\contentsline {section}{\numberline {3}Achieved Work}{8}{section.3}
