\contentsline {section}{\numberline {1}Daueraufgaben}{1}{section.1}
\contentsline {section}{\numberline {2}Akute Aufgaben}{4}{section.2}
\contentsline {section}{\numberline {3}Erledigte Aufgaben}{8}{section.3}
