\BOOKMARK [1][-]{section.1}{Patentkonservativismus als Kompromiss zwischen Volkswirten und Patentbewegung}{}
\BOOKMARK [1][-]{section.2}{Erste Ausdehnungen und Gegenbewegungen 1877-1960}{}
\BOOKMARK [1][-]{section.3}{Ausbau und Verfall des Technikbegriffs 1960-2000}{}
\BOOKMARK [1][-]{section.4}{Weitere Lekt\374re}{}
