\contentsline {section}{\numberline {1}Patentkonservativismus als Kompromiss zwischen Volkswirten und Patentbewegung}{2}{section.1}
\contentsline {section}{\numberline {2}Erste Ausdehnungen und Gegenbewegungen 1877-1960}{3}{section.2}
\contentsline {section}{\numberline {3}Ausbau und Verfall des Technikbegriffs 1960-2000}{4}{section.3}
\contentsline {section}{\numberline {4}Weitere Lekt\"{u}re}{6}{section.4}
