\relax 
\ifx\hyper@anchor\@undefined
\global \let \oldcontentsline\contentsline
\gdef \contentsline#1#2#3#4{\oldcontentsline{#1}{#2}{#3}}
\global \let \oldnewlabel\newlabel
\gdef \newlabel#1#2{\newlabelxx{#1}#2}
\gdef \newlabelxx#1#2#3#4#5#6{\oldnewlabel{#1}{{#2}{#3}}}
\AtEndDocument{\let \contentsline\oldcontentsline
\let \newlabel\oldnewlabel}
\else
\global \let \hyper@last\relax 
\fi

\@writefile{toc}{\contentsline {section}{\numberline {1}Patentkonservativismus als Kompromiss zwischen Volkswirten und Patentbewegung}{2}{section.1}}
\newlabel{kons}{{1}{2}{Patentkonservativismus als Kompromiss zwischen Volkswirten und Patentbewegung\relax }{section.1}{}}
\@writefile{toc}{\contentsline {section}{\numberline {2}Erste Ausdehnungen und Gegenbewegungen 1877-1960}{3}{section.2}}
\newlabel{invrom}{{2}{3}{Erste Ausdehnungen und Gegenbewegungen 1877-1960\relax }{section.2}{}}
\@writefile{toc}{\contentsline {section}{\numberline {3}Ausbau und Verfall des Technikbegriffs 1960-2000}{4}{section.3}}
\newlabel{tech}{{3}{4}{Ausbau und Verfall des Technikbegriffs 1960-2000\relax }{section.3}{}}
\@writefile{toc}{\contentsline {section}{\numberline {4}Weitere Lekt\"{u}re}{6}{section.4}}
\newlabel{links}{{4}{6}{Weitere Lekt\"{u}re\relax }{section.4}{}}
\gdef\scr@tpo@lst{0}
