\contentsline {section}{\numberline {1}1. Introduction}{2}{section.1}
\contentsline {section}{\numberline {2}2. Economic issues raised by patents}{3}{section.2}
\contentsline {section}{\numberline {3}8. Software and services}{5}{section.3}
\contentsline {section}{\numberline {4}9. Conclusion: Policy issues and options}{8}{section.4}
\contentsline {section}{\numberline {5}Annotated Links}{9}{section.5}
