\relax 
\ifx\hyper@anchor\@undefined
\global \let \oldcontentsline\contentsline
\gdef \contentsline#1#2#3#4{\oldcontentsline{#1}{#2}{#3}}
\global \let \oldnewlabel\newlabel
\gdef \newlabel#1#2{\newlabelxx{#1}#2}
\gdef \newlabelxx#1#2#3#4#5#6{\oldnewlabel{#1}{{#2}{#3}}}
\AtEndDocument{\let \contentsline\oldcontentsline
\let \newlabel\oldnewlabel}
\else
\global \let \hyper@last\relax 
\fi

\@writefile{toc}{\contentsline {section}{\numberline {1}1. Introduction}{2}{section.1}}
\newlabel{intro}{{1}{2}{1. Introduction\relax }{section.1}{}}
\@writefile{toc}{\contentsline {section}{\numberline {2}2. Economic issues raised by patents}{3}{section.2}}
\newlabel{ekon}{{2}{3}{2. Economic issues raised by patents\relax }{section.2}{}}
\@writefile{toc}{\contentsline {section}{\numberline {3}8. Software and services}{5}{section.3}}
\newlabel{swserv}{{3}{5}{8. Software and services\relax }{section.3}{}}
\@writefile{toc}{\contentsline {section}{\numberline {4}9. Conclusion: Policy issues and options}{8}{section.4}}
\newlabel{konkl}{{4}{8}{9. Conclusion: Policy issues and options\relax }{section.4}{}}
\@writefile{toc}{\contentsline {section}{\numberline {5}Annotated Links}{9}{section.5}}
\newlabel{links}{{5}{9}{Annotated Links\relax }{section.5}{}}
\gdef\scr@tpo@lst{0}
