\BOOKMARK [0][-]{appendix.A}{Verteiler dieses Briefes}{}
\BOOKMARK [0][-]{appendix.B}{Stellungnahmen von Politikern zur Softwarepatentierung}{}
\BOOKMARK [1][-]{section.B.1}{Ausschuss der Regionen der Europ\344ischen Union}{appendix.B}
\BOOKMARK [1][-]{section.B.2}{Bundestagsfraktion B\374ndnis 90/Die Gr\374nen}{appendix.B}
\BOOKMARK [1][-]{section.B.3}{J\366rg Tauss, MdB \(SPD\), Vorsitzender des Parlamentarischen Unterausschusses f\374r die Neuen Medien}{appendix.B}
\BOOKMARK [1][-]{section.B.4}{Bundestagsfraktion der FDP}{appendix.B}
\BOOKMARK [1][-]{section.B.5}{Bundestagsfraktion der CDU/CSU}{appendix.B}
\BOOKMARK [1][-]{section.B.6}{Dr. med. Wolfgang Wodarg, MdB \(SPD\)}{appendix.B}
\BOOKMARK [1][-]{section.B.7}{Herta D\344ubler-Gmelin, Bundesministerin der Justiz}{appendix.B}
\BOOKMARK [1][-]{section.B.8}{Jean-Yves Le D\351aut, Abgeordneter der Moselregion in der Franz\366sischen Nationalversammlung \(PS\)}{appendix.B}
\BOOKMARK [0][-]{appendix.C}{Presseerkl\344rung des FFII zum EPA-Basisvorschlag}{}
\BOOKMARK [0][-]{appendix.D}{Eurolinux-Petition}{}
\BOOKMARK [0][-]{appendix.E}{Art. 52 EP\334 und die Grenzen der Patentierbarkeit}{}
\BOOKMARK [1][-]{section.E.1}{Novellierungsvorschlag des FFII}{appendix.E}
\BOOKMARK [1][-]{section.E.2}{Bisherige Version des Art. 52}{appendix.E}
\BOOKMARK [1][-]{section.E.3}{Novellierungsvorschlag des EPA}{appendix.E}
\BOOKMARK [0][-]{appendix.F}{Logische Ideen: ``Niemandsland des geistigen Eigentums'' oder ``Drittes Paradigma''?}{}
\BOOKMARK [0][-]{appendix.G}{TRIPS: kein Fallstrick f\374r Software}{}
\BOOKMARK [0][-]{appendix.H}{Wissenschaftliche Fachliteratur}{}
\BOOKMARK [1][-]{section.H.1}{Konzeptionelle Unvertr\344glichkeit zwischen Patentwesen und Informatik}{appendix.H}
\BOOKMARK [2][-]{subsection.H.1.1}{The Impact of Granting Patents for Information Innovations}{section.H.1}
\BOOKMARK [2][-]{subsection.H.1.2}{Abstraction orientated property of software and its relation to patentability}{section.H.1}
\BOOKMARK [2][-]{subsection.H.1.3}{The Models are broken, the models are broken!}{section.H.1}
\BOOKMARK [2][-]{subsection.H.1.4}{Anarchism Triumphant: Free Software and the Death of Copyright}{section.H.1}
\BOOKMARK [1][-]{section.H.2}{Pl\344doyers f\374r eine Trennung in Patentwesen und Sui-Generis-Systeme}{appendix.H}
\BOOKMARK [2][-]{subsection.H.2.1}{Needed: A New System of Intellectual Property Rights}{section.H.2}
\BOOKMARK [2][-]{subsection.H.2.2}{Patent Protection for Modern Technologies}{section.H.2}
\BOOKMARK [2][-]{subsection.H.2.3}{Toward a Third Intellectual Property Paradigm}{section.H.2}
\BOOKMARK [2][-]{subsection.H.2.4}{Acceptable protection of software intellectual property}{section.H.2}
\BOOKMARK [1][-]{section.H.3}{Leistungsbeurteilungen des Patentsystems}{appendix.H}
\BOOKMARK [2][-]{subsection.H.3.1}{The Patent Examination System is Intellectually Corrupt}{section.H.3}
\BOOKMARK [2][-]{subsection.H.3.2}{Comparative Study under Trilateral Project 24.2}{section.H.3}
\BOOKMARK [1][-]{section.H.4}{\326konomische Analysen}{appendix.H}
\BOOKMARK [2][-]{subsection.H.4.1}{The benefits and costs of strong patent protection}{section.H.4}
\BOOKMARK [2][-]{subsection.H.4.2}{The Patent Paradox Revisited}{section.H.4}
\BOOKMARK [2][-]{subsection.H.4.3}{Sequential Innovation, Patents, and Imitation}{section.H.4}
\BOOKMARK [2][-]{subsection.H.4.4}{Software Useright: Solving Inconsistencies of Software Patents}{section.H.4}
\BOOKMARK [2][-]{subsection.H.4.5}{Software Patents Tangle the Web}{section.H.4}
\BOOKMARK [2][-]{subsection.H.4.6}{Stimuler la concurrence et l'innovation}{section.H.4}
\BOOKMARK [1][-]{section.H.5}{Juristische Analysen}{appendix.H}
\BOOKMARK [2][-]{subsection.H.5.1}{Technik, Datenverarbeitung und Patentrecht}{section.H.5}
\BOOKMARK [2][-]{subsection.H.5.2}{BPatG-Urteil ``Suche fehlerhafter Zeichenketten''}{section.H.5}
\BOOKMARK [2][-]{subsection.H.5.3}{Computersoftware und Patentrecht}{section.H.5}
\BOOKMARK [2][-]{subsection.H.5.4}{Ruimere octrooi\353ring van computerprogramma's}{section.H.5}
\BOOKMARK [2][-]{subsection.H.5.5}{La ``r\351servation'' du logiciel par le droit des brevets}{section.H.5}
