\BOOKMARK [1][-]{section.0.1}{Le Comit\351 des R\351gions de l'Union Europ\351enne}{}
\BOOKMARK [1][-]{section.0.2}{Margareta Wolf, MdB, porte-parole des Verts pour les questions \351conomiques}{}
\BOOKMARK [1][-]{section.0.3}{J^^c3^^b6rg Tauss, d\351put\351 f\351d\351ral, Pr\351sident de la Commission Parlementaire sur les nouveaux media}{}
\BOOKMARK [1][-]{section.0.4}{Jean-Yves Le D^^c3^^a9aut, D\351put\351 de la Moselle}{}
