\select@language {french}
\select@language {french}
\contentsline {section}{\numberline {1}Le Comit\'{e} des R\'{e}gions de l'Union Europ\'{e}enne}{9}{section.0.1}
\contentsline {section}{\numberline {2}Margareta Wolf, MdB, porte-parole des Verts pour les questions \'{e}conomiques}{10}{section.0.2}
\contentsline {section}{\numberline {3}J^^c3^^b6rg Tauss, d\'{e}put\'{e} f\'{e}d\'{e}ral, Pr\'{e}sident de la Commission Parlementaire sur les nouveaux media}{11}{section.0.3}
\contentsline {section}{\numberline {4}Jean-Yves Le D^^c3^^a9aut, D\'{e}put\'{e} de la Moselle}{11}{section.0.4}
