\relax 
\ifx\hyper@anchor\@undefined
\global \let \oldcontentsline\contentsline
\gdef \contentsline#1#2#3#4{\oldcontentsline{#1}{#2}{#3}}
\global \let \oldnewlabel\newlabel
\gdef \newlabel#1#2{\newlabelxx{#1}#2}
\gdef \newlabelxx#1#2#3#4#5#6{\oldnewlabel{#1}{{#2}{#3}}}
\AtEndDocument{\let \contentsline\oldcontentsline
\let \newlabel\oldnewlabel}
\else
\global \let \hyper@last\relax 
\fi

\csname auxWARNINGii\endcsname {\typeout {-34- this file and other auxiliary files require to use the following}}
\csname auxWARNINGii\endcsname {\typeout {-34- LaTeX packages: french and babel!}}
\csname auxWARNINGii\endcsname {\typeout {-34- check \protect \usepackage \space or remove these files. Typesetting is aborted!} \stop }
\select@language{french}
\@writefile{toc}{\select@language{french}}
\@writefile{lof}{\select@language{french}}
\@writefile{lot}{\select@language{french}}
\select@language{french}
\@writefile{toc}{\select@language{french}}
\@writefile{lof}{\select@language{french}}
\@writefile{lot}{\select@language{french}}
\@writefile{toc}{\contentsline {section}{\numberline {1}Le Comit\'{e} des R\'{e}gions de l'Union Europ\'{e}enne}{9}{section.0.1}}
\newlabel{regikom}{{1}{9}{Le Comit\'{e} des R\'{e}gions de l'Union Europ\'{e}enne\relax }{section.0.1}{}}
\@writefile{toc}{\contentsline {section}{\numberline {2}Margareta Wolf, MdB, porte-parole des Verts pour les questions \'{e}conomiques}{10}{section.0.2}}
\newlabel{wolf}{{2}{10}{Margareta Wolf, MdB, porte-parole des Verts pour les questions \'{e}conomiques\relax }{section.0.2}{}}
\@writefile{toc}{\contentsline {section}{\numberline {3}J^^c3^^b6rg Tauss, d\'{e}put\'{e} f\'{e}d\'{e}ral, Pr\'{e}sident de la Commission Parlementaire sur les nouveaux media}{11}{section.0.3}}
\newlabel{tauss}{{3}{11}{J^^c3^^b6rg Tauss, d\'{e}put\'{e} f\'{e}d\'{e}ral, Pr\'{e}sident de la Commission Parlementaire sur les nouveaux media\relax }{section.0.3}{}}
\@writefile{toc}{\contentsline {section}{\numberline {4}Jean-Yves Le D^^c3^^a9aut, D\'{e}put\'{e} de la Moselle}{11}{section.0.4}}
\newlabel{ledeaut}{{4}{11}{Jean-Yves Le D^^c3^^a9aut, D\'{e}put\'{e} de la Moselle\relax }{section.0.4}{}}
