\relax 
\ifx\hyper@anchor\@undefined
\global \let \oldcontentsline\contentsline
\gdef \contentsline#1#2#3#4{\oldcontentsline{#1}{#2}{#3}}
\global \let \oldnewlabel\newlabel
\gdef \newlabel#1#2{\newlabelxx{#1}#2}
\gdef \newlabelxx#1#2#3#4#5#6{\oldnewlabel{#1}{{#2}{#3}}}
\AtEndDocument{\let \contentsline\oldcontentsline
\let \newlabel\oldnewlabel}
\else
\global \let \hyper@last\relax 
\fi

\@writefile{toc}{\contentsline {chapter}{\numberline {A}Verteiler dieses Briefes}{12}{appendix.A}}
\@writefile{lof}{\addvspace {10\p@ }}
\@writefile{lot}{\addvspace {10\p@ }}
\newlabel{anhadr}{{A}{12}{Verteiler dieses Briefes\relax }{appendix.A}{}}
\@writefile{toc}{\contentsline {chapter}{\numberline {B}Stellungnahmen von Politikern zur Softwarepatentierung}{14}{appendix.B}}
\@writefile{lof}{\addvspace {10\p@ }}
\@writefile{lot}{\addvspace {10\p@ }}
\newlabel{politist}{{B}{14}{Stellungnahmen von Politikern zur Softwarepatentierung\relax }{appendix.B}{}}
\@writefile{toc}{\contentsline {section}{\numberline {B.1}Ausschuss der Regionen der Europ\"aischen Union}{14}{section.B.1}}
\newlabel{regikom}{{B.1}{14}{Ausschuss der Regionen der Europ\"aischen Union\relax }{section.B.1}{}}
\@writefile{toc}{\contentsline {section}{\numberline {B.2}Bundestagsfraktion B\"undnis 90/Die Gr\"unen}{14}{section.B.2}}
\newlabel{wolf}{{B.2}{14}{Bundestagsfraktion B\"undnis 90/Die Gr\"unen\relax }{section.B.2}{}}
\@writefile{toc}{\contentsline {section}{\numberline {B.3}J\"org Tauss, MdB (SPD), Vorsitzender des Parlamentarischen Unterausschusses f\"ur die Neuen Medien}{15}{section.B.3}}
\newlabel{tauss}{{B.3}{15}{J\"org Tauss, MdB (SPD), Vorsitzender des Parlamentarischen Unterausschusses f\"ur die Neuen Medien\relax }{section.B.3}{}}
\@writefile{toc}{\contentsline {section}{\numberline {B.4}Bundestagsfraktion der FDP}{15}{section.B.4}}
\newlabel{fdp}{{B.4}{15}{Bundestagsfraktion der FDP\relax }{section.B.4}{}}
\@writefile{toc}{\contentsline {section}{\numberline {B.5}Bundestagsfraktion der CDU/CSU}{15}{section.B.5}}
\newlabel{cducsu}{{B.5}{15}{Bundestagsfraktion der CDU/CSU\relax }{section.B.5}{}}
\@writefile{toc}{\contentsline {section}{\numberline {B.6}Dr.\ med.\ Wolfgang Wodarg, MdB (SPD)}{17}{section.B.6}}
\newlabel{wodarg}{{B.6}{17}{Dr.\ med.\ Wolfgang Wodarg, MdB (SPD)\relax }{section.B.6}{}}
\@writefile{toc}{\contentsline {section}{\numberline {B.7}Herta D\"aubler-Gmelin, Bundesministerin der Justiz}{17}{section.B.7}}
\newlabel{herta}{{B.7}{17}{Herta D\"aubler-Gmelin, Bundesministerin der Justiz\relax }{section.B.7}{}}
\@writefile{toc}{\contentsline {section}{\numberline {B.8}Jean-Yves Le D\'eaut, Abgeordneter der Moselregion in der Franz\"osischen Nationalversammlung (PS)}{17}{section.B.8}}
\newlabel{ledeaut}{{B.8}{17}{Jean-Yves Le D\'eaut, Abgeordneter der Moselregion in der Franz\"osischen Nationalversammlung (PS)\relax }{section.B.8}{}}
\@writefile{toc}{\contentsline {chapter}{\numberline {C}Presseerkl\"arung des FFII zum EPA-Basisvorschlag}{19}{appendix.C}}
\@writefile{lof}{\addvspace {10\p@ }}
\@writefile{lot}{\addvspace {10\p@ }}
\newlabel{ffiipe}{{C}{19}{Presseerkl\"arung des FFII zum EPA-Basisvorschlag\relax }{appendix.C}{}}
\@writefile{toc}{\contentsline {chapter}{\numberline {D}Eurolinux-Petition}{22}{appendix.D}}
\@writefile{lof}{\addvspace {10\p@ }}
\@writefile{lot}{\addvspace {10\p@ }}
\newlabel{anhpet}{{D}{22}{Eurolinux-Petition\relax }{appendix.D}{}}
\@writefile{toc}{\contentsline {chapter}{\numberline {E}Art.\ 52 EP\"U und die Grenzen der Patentierbarkeit}{23}{appendix.E}}
\@writefile{lof}{\addvspace {10\p@ }}
\@writefile{lot}{\addvspace {10\p@ }}
\newlabel{epue52}{{E}{23}{Art.\ 52 EP\"U und die Grenzen der Patentierbarkeit\relax }{appendix.E}{}}
\@writefile{toc}{\contentsline {section}{\numberline {E.1}Novellierungsvorschlag des FFII}{23}{section.E.1}}
\@writefile{toc}{\contentsline {section}{\numberline {E.2}Bisherige Version des Art.\ 52}{23}{section.E.2}}
\newlabel{art52old}{{E.2}{23}{Bisherige Version des Art.\ 52\relax }{section.E.2}{}}
\@writefile{toc}{\contentsline {section}{\numberline {E.3}Novellierungsvorschlag des EPA}{24}{section.E.3}}
\newlabel{epa}{{E.3}{24}{Novellierungsvorschlag des EPA\relax }{section.E.3}{}}
\@writefile{toc}{\contentsline {chapter}{\numberline {F}Logische Ideen: ``Niemandsland des geistigen Eigentums'' oder ``Drittes Paradigma''?}{25}{appendix.F}}
\@writefile{lof}{\addvspace {10\p@ }}
\@writefile{lot}{\addvspace {10\p@ }}
\newlabel{softsuigen}{{F}{25}{Logische Ideen: ``Niemandsland des geistigen Eigentums'' oder ``Drittes Paradigma''?\relax }{appendix.F}{}}
\@writefile{toc}{\contentsline {chapter}{\numberline {G}TRIPS: kein Fallstrick f\"ur Software}{26}{appendix.G}}
\@writefile{lof}{\addvspace {10\p@ }}
\@writefile{lot}{\addvspace {10\p@ }}
\newlabel{trips}{{G}{26}{TRIPS: kein Fallstrick f\"ur Software\relax }{appendix.G}{}}
\@writefile{toc}{\contentsline {chapter}{\numberline {H}Wissenschaftliche Fachliteratur}{27}{appendix.H}}
\@writefile{lof}{\addvspace {10\p@ }}
\@writefile{lot}{\addvspace {10\p@ }}
\newlabel{anhsci}{{H}{27}{Wissenschaftliche Fachliteratur\relax }{appendix.H}{}}
\@writefile{toc}{\contentsline {section}{\numberline {H.1}Konzeptionelle Unvertr\"aglichkeit zwischen Patentwesen und Informatik}{27}{section.H.1}}
\newlabel{koncept}{{H.1}{27}{Konzeptionelle Unvertr\"aglichkeit zwischen Patentwesen und Informatik\relax }{section.H.1}{}}
\@writefile{toc}{\contentsline {subsection}{\numberline {H.1.1}The Impact of Granting Patents for Information Innovations}{27}{subsection.H.1.1}}
\newlabel{impact}{{H.1.1}{27}{The Impact of Granting Patents for Information Innovations\relax }{subsection.H.1.1}{}}
\@writefile{toc}{\contentsline {subsection}{\numberline {H.1.2}Abstraction orientated property of software and its relation to patentability}{28}{subsection.H.1.2}}
\newlabel{tamai}{{H.1.2}{28}{Abstraction orientated property of software and its relation to patentability\relax }{subsection.H.1.2}{}}
\@writefile{toc}{\contentsline {subsection}{\numberline {H.1.3}The Models are broken, the models are broken!}{28}{subsection.H.1.3}}
\newlabel{newell}{{H.1.3}{28}{The Models are broken, the models are broken!\relax }{subsection.H.1.3}{}}
\@writefile{toc}{\contentsline {subsection}{\numberline {H.1.4}Anarchism Triumphant: Free Software and the Death of Copyright}{29}{subsection.H.1.4}}
\newlabel{moglen}{{H.1.4}{29}{Anarchism Triumphant: Free Software and the Death of Copyright\relax }{subsection.H.1.4}{}}
\@writefile{toc}{\contentsline {section}{\numberline {H.2}Pl\"adoyers f\"ur eine Trennung in Patentwesen und Sui-Generis-Systeme}{29}{section.H.2}}
\newlabel{suigen}{{H.2}{29}{Pl\"adoyers f\"ur eine Trennung in Patentwesen und Sui-Generis-Systeme\relax }{section.H.2}{}}
\@writefile{toc}{\contentsline {subsection}{\numberline {H.2.1}Needed: A New System of Intellectual Property Rights}{29}{subsection.H.2.1}}
\newlabel{thurow}{{H.2.1}{29}{Needed: A New System of Intellectual Property Rights\relax }{subsection.H.2.1}{}}
\@writefile{toc}{\contentsline {subsection}{\numberline {H.2.2}Patent Protection for Modern Technologies}{29}{subsection.H.2.2}}
\newlabel{kingston}{{H.2.2}{29}{Patent Protection for Modern Technologies\relax }{subsection.H.2.2}{}}
\@writefile{toc}{\contentsline {subsection}{\numberline {H.2.3}Toward a Third Intellectual Property Paradigm}{29}{subsection.H.2.3}}
\newlabel{ippar3}{{H.2.3}{29}{Toward a Third Intellectual Property Paradigm\relax }{subsection.H.2.3}{}}
\@writefile{toc}{\contentsline {subsection}{\numberline {H.2.4}Acceptable protection of software intellectual property}{30}{subsection.H.2.4}}
\newlabel{effyoz}{{H.2.4}{30}{Acceptable protection of software intellectual property\relax }{subsection.H.2.4}{}}
\@writefile{toc}{\contentsline {section}{\numberline {H.3}Leistungsbeurteilungen des Patentsystems}{30}{section.H.3}}
\newlabel{patleist}{{H.3}{30}{Leistungsbeurteilungen des Patentsystems\relax }{section.H.3}{}}
\@writefile{toc}{\contentsline {subsection}{\numberline {H.3.1}The Patent Examination System is Intellectually Corrupt}{30}{subsection.H.3.1}}
\newlabel{aharonian}{{H.3.1}{30}{The Patent Examination System is Intellectually Corrupt\relax }{subsection.H.3.1}{}}
\@writefile{toc}{\contentsline {subsection}{\numberline {H.3.2}Comparative Study under Trilateral Project 24.2}{30}{subsection.H.3.2}}
\newlabel{saikine}{{H.3.2}{30}{Comparative Study under Trilateral Project 24.2\relax }{subsection.H.3.2}{}}
\@writefile{toc}{\contentsline {section}{\numberline {H.4}\"Okonomische Analysen}{31}{section.H.4}}
\newlabel{patekon}{{H.4}{31}{\"Okonomische Analysen\relax }{section.H.4}{}}
\@writefile{toc}{\contentsline {subsection}{\numberline {H.4.1}The benefits and costs of strong patent protection}{31}{subsection.H.4.1}}
\newlabel{strongpat}{{H.4.1}{31}{The benefits and costs of strong patent protection\relax }{subsection.H.4.1}{}}
\@writefile{toc}{\contentsline {subsection}{\numberline {H.4.2}The Patent Paradox Revisited}{31}{subsection.H.4.2}}
\newlabel{paradox}{{H.4.2}{31}{The Patent Paradox Revisited\relax }{subsection.H.4.2}{}}
\@writefile{toc}{\contentsline {subsection}{\numberline {H.4.3}Sequential Innovation, Patents, and Imitation}{31}{subsection.H.4.3}}
\newlabel{seqinnov}{{H.4.3}{31}{Sequential Innovation, Patents, and Imitation\relax }{subsection.H.4.3}{}}
\@writefile{toc}{\contentsline {subsection}{\numberline {H.4.4}Software Useright: Solving Inconsistencies of Software Patents}{32}{subsection.H.4.4}}
\newlabel{useright}{{H.4.4}{32}{Software Useright: Solving Inconsistencies of Software Patents\relax }{subsection.H.4.4}{}}
\@writefile{toc}{\contentsline {subsection}{\numberline {H.4.5}Software Patents Tangle the Web}{32}{subsection.H.4.5}}
\newlabel{shulman}{{H.4.5}{32}{Software Patents Tangle the Web\relax }{subsection.H.4.5}{}}
\@writefile{toc}{\contentsline {subsection}{\numberline {H.4.6}Stimuler la concurrence et l'innovation}{32}{subsection.H.4.6}}
\newlabel{stimul}{{H.4.6}{32}{Stimuler la concurrence et l'innovation\relax }{subsection.H.4.6}{}}
\@writefile{toc}{\contentsline {section}{\numberline {H.5}Juristische Analysen}{33}{section.H.5}}
\newlabel{jurstud}{{H.5}{33}{Juristische Analysen\relax }{section.H.5}{}}
\@writefile{toc}{\contentsline {subsection}{\numberline {H.5.1}Technik, Datenverarbeitung und Patentrecht}{33}{subsection.H.5.1}}
\newlabel{kolle77}{{H.5.1}{33}{Technik, Datenverarbeitung und Patentrecht\relax }{subsection.H.5.1}{}}
\@writefile{toc}{\contentsline {subsection}{\numberline {H.5.2}BPatG-Urteil ``Suche fehlerhafter Zeichenketten''}{33}{subsection.H.5.2}}
\newlabel{bpatg}{{H.5.2}{33}{BPatG-Urteil ``Suche fehlerhafter Zeichenketten''\relax }{subsection.H.5.2}{}}
\@writefile{toc}{\contentsline {subsection}{\numberline {H.5.3}Computersoftware und Patentrecht}{34}{subsection.H.5.3}}
\newlabel{twin}{{H.5.3}{34}{Computersoftware und Patentrecht\relax }{subsection.H.5.3}{}}
\@writefile{toc}{\contentsline {subsection}{\numberline {H.5.4}Ruimere octrooi\"ering van computerprogramma's}{35}{subsection.H.5.4}}
\newlabel{iter}{{H.5.4}{35}{Ruimere octrooi\"ering van computerprogramma's\relax }{subsection.H.5.4}{}}
\global\@altsecnumformattrue
\@writefile{toc}{\contentsline {subsection}{\numberline {H.5.5}La ``r\'eservation'' du logiciel par le droit des brevets}{36}{subsection.H.5.5}}
\newlabel{lamy}{{H.5.5}{36}{La ``r\'eservation'' du logiciel par le droit des brevets\relax }{subsection.H.5.5}{}}
