\relax 
\ifx\hyper@anchor\@undefined
\global \let \oldcontentsline\contentsline
\gdef \contentsline#1#2#3#4{\oldcontentsline{#1}{#2}{#3}}
\global \let \oldnewlabel\newlabel
\gdef \newlabel#1#2{\newlabelxx{#1}#2}
\gdef \newlabelxx#1#2#3#4#5#6{\oldnewlabel{#1}{{#2}{#3}}}
\AtEndDocument{\let \contentsline\oldcontentsline
\let \newlabel\oldnewlabel}
\else
\global \let \hyper@last\relax 
\fi

\@writefile{toc}{\contentsline {section}{\numberline {1}Ausschuss der Regionen der Europ\"{a}ischen Union}{9}{section.1}}
\newlabel{regikom}{{1}{9}{Ausschuss der Regionen der Europ\"{a}ischen Union\relax }{section.1}{}}
\@writefile{toc}{\contentsline {section}{\numberline {2}Margareta Wolf, MdB, Wirtschaftspolitische Sprecherin der Gr\"{u}nen Fraktion}{10}{section.2}}
\newlabel{wolf}{{2}{10}{Margareta Wolf, MdB, Wirtschaftspolitische Sprecherin der Gr\"{u}nen Fraktion\relax }{section.2}{}}
\@writefile{toc}{\contentsline {section}{\numberline {3}Jörg Tauss, MdB, Vorsitzender des Parlamentarischen Unterausschusses f\"{u}r die Neuen Medien}{11}{section.3}}
\newlabel{tauss}{{3}{11}{Jörg Tauss, MdB, Vorsitzender des Parlamentarischen Unterausschusses f\"{u}r die Neuen Medien\relax }{section.3}{}}
\@writefile{toc}{\contentsline {section}{\numberline {4}Jean-Yves Le Déaut, Abgeordneter der Moselregion in der Franz\"{o}sischen Nationalversammlung}{12}{section.4}}
\newlabel{ledeaut}{{4}{12}{Jean-Yves Le Déaut, Abgeordneter der Moselregion in der Franz\"{o}sischen Nationalversammlung\relax }{section.4}{}}
