\contentsline {section}{\numberline {1}Ausschuss der Regionen der Europ\"{a}ischen Union}{9}{section.1}
\contentsline {section}{\numberline {2}Margareta Wolf, MdB, Wirtschaftspolitische Sprecherin der Gr\"{u}nen Fraktion}{10}{section.2}
\contentsline {section}{\numberline {3}Jörg Tauss, MdB, Vorsitzender des Parlamentarischen Unterausschusses f\"{u}r die Neuen Medien}{11}{section.3}
\contentsline {section}{\numberline {4}Jean-Yves Le Déaut, Abgeordneter der Moselregion in der Franz\"{o}sischen Nationalversammlung}{12}{section.4}
