\select@language {french}
\contentsline {section}{\numberline {1}d\'{e}tails}{2}{section.1}
\contentsline {section}{\numberline {2}Contacts media}{4}{section.2}
\contentsline {section}{\numberline {3}\`{A} propos de la FFII -- www.ffii.org}{4}{section.3}
\contentsline {section}{\numberline {4}URL permanente de ce communiqu\'{e} de presse}{4}{section.4}
