\contentsline {section}{\numberline {1}Der Text}{2}{section.1}
\contentsline {section}{\numberline {2}Hintergr\"{u}nde}{3}{section.2}
\contentsline {section}{\numberline {3}Kommentierte Verweise}{3}{section.3}
