\relax 
\ifx\hyper@anchor\@undefined
\global \let \oldcontentsline\contentsline
\gdef \contentsline#1#2#3#4{\oldcontentsline{#1}{#2}{#3}}
\global \let \oldnewlabel\newlabel
\gdef \newlabel#1#2{\newlabelxx{#1}#2}
\gdef \newlabelxx#1#2#3#4#5#6{\oldnewlabel{#1}{{#2}{#3}}}
\AtEndDocument{\let \contentsline\oldcontentsline
\let \newlabel\oldnewlabel}
\else
\global \let \hyper@last\relax 
\fi

\@writefile{toc}{\contentsline {section}{\numberline {1}A Drive for Patenting Logical Functionalities in Europe}{3}{section.1}}
\newlabel{eusp}{{1}{3}{A Drive for Patenting Logical Functionalities in Europe\relax }{section.1}{}}
\@writefile{toc}{\contentsline {section}{\numberline {2}Patenting Logical Functionalities under the European Patent Convention}{5}{section.2}}
\newlabel{info}{{2}{5}{Patenting Logical Functionalities under the European Patent Convention\relax }{section.2}{}}
\@writefile{toc}{\contentsline {subsection}{\numberline {2.1}Copyright vs Patents}{5}{subsection.2.1}}
\newlabel{auth}{{2.1}{5}{Copyright vs Patents\relax }{subsection.2.1}{}}
\@writefile{toc}{\contentsline {subsection}{\numberline {2.2}Description \& Claims}{6}{subsection.2.2}}
\newlabel{descl}{{2.2}{6}{Description \& Claims\relax }{subsection.2.2}{}}
\@writefile{toc}{\contentsline {subsection}{\numberline {2.3}Describing Logical Ideas and Claiming Physical Objects}{7}{subsection.2.3}}
\newlabel{swpat}{{2.3}{7}{Describing Logical Ideas and Claiming Physical Objects\relax }{subsection.2.3}{}}
\@writefile{toc}{\contentsline {subsection}{\numberline {2.4}Software patents in Europe}{7}{subsection.2.4}}
\newlabel{euswpat}{{2.4}{7}{Software patents in Europe\relax }{subsection.2.4}{}}
\@writefile{toc}{\contentsline {subsection}{\numberline {2.5}Business method patents in Europe}{10}{subsection.2.5}}
\newlabel{busmpat}{{2.5}{10}{Business method patents in Europe\relax }{subsection.2.5}{}}
\@writefile{toc}{\contentsline {section}{\numberline {3}Software Patents with Compensatory Regulation: System Goals}{10}{section.3}}
\newlabel{spreg}{{3}{10}{Software Patents with Compensatory Regulation: System Goals\relax }{section.3}{}}
\@writefile{toc}{\contentsline {subsection}{\numberline {3.1}Enforce interoperability}{11}{subsection.3.1}}
\newlabel{interop}{{3.1}{11}{Enforce interoperability\relax }{subsection.3.1}{}}
\@writefile{toc}{\contentsline {subsection}{\numberline {3.2}Protect small software publishers}{11}{subsection.3.2}}
\newlabel{swsme}{{3.2}{11}{Protect small software publishers\relax }{subsection.3.2}{}}
\@writefile{toc}{\contentsline {subsection}{\numberline {3.3}Protecting small development service providers}{12}{subsection.3.3}}
\newlabel{smds}{{3.3}{12}{Protecting small development service providers\relax }{subsection.3.3}{}}
\@writefile{toc}{\contentsline {subsection}{\numberline {3.4}Protecting free / open source software}{12}{subsection.3.4}}
\newlabel{libr}{{3.4}{12}{Protecting free / open source software\relax }{subsection.3.4}{}}
\@writefile{toc}{\contentsline {subsection}{\numberline {3.5}Discouraging legal terrorism}{13}{subsection.3.5}}
\newlabel{juter}{{3.5}{13}{Discouraging legal terrorism\relax }{subsection.3.5}{}}
\@writefile{toc}{\contentsline {section}{\numberline {4}Software Patents with Compensatory Regulation: Measures and Costs}{14}{section.4}}
\newlabel{propreg}{{4}{14}{Software Patents with Compensatory Regulation: Measures and Costs\relax }{section.4}{}}
\@writefile{toc}{\contentsline {subsection}{\numberline {4.1}Garantee Fund}{14}{subsection.4.1}}
\newlabel{garant}{{4.1}{14}{Garantee Fund\relax }{subsection.4.1}{}}
\@writefile{toc}{\contentsline {subsection}{\numberline {4.2}Algorithm Database}{15}{subsection.4.2}}
\newlabel{artdb}{{4.2}{15}{Algorithm Database\relax }{subsection.4.2}{}}
\@writefile{toc}{\contentsline {subsection}{\numberline {4.3}Improved examination}{15}{subsection.4.3}}
\newlabel{exam}{{4.3}{15}{Improved examination\relax }{subsection.4.3}{}}
\@writefile{toc}{\contentsline {subsection}{\numberline {4.4}Incentives for small software publishers}{15}{subsection.4.4}}
\newlabel{sminc}{{4.4}{15}{Incentives for small software publishers\relax }{subsection.4.4}{}}
\@writefile{toc}{\contentsline {subsection}{\numberline {4.5}Patent insurance}{16}{subsection.4.5}}
\newlabel{patins}{{4.5}{16}{Patent insurance\relax }{subsection.4.5}{}}
\@writefile{toc}{\contentsline {subsection}{\numberline {4.6}Summary and hidden costs}{16}{subsection.4.6}}
\newlabel{sumhid}{{4.6}{16}{Summary and hidden costs\relax }{subsection.4.6}{}}
\@writefile{toc}{\contentsline {section}{\numberline {5}Other Approaches to Reducing Risks of Software Patentability}{18}{section.5}}
\newlabel{othapp}{{5}{18}{Other Approaches to Reducing Risks of Software Patentability\relax }{section.5}{}}
\@writefile{toc}{\contentsline {subsection}{\numberline {5.1}Explicit boundaries on rights derivable from patents}{18}{subsection.5.1}}
\newlabel{expexm}{{5.1}{18}{Explicit boundaries on rights derivable from patents\relax }{subsection.5.1}{}}
\@writefile{toc}{\contentsline {subsection}{\numberline {5.2}Limitations on what can be claimed}{18}{subsection.5.2}}
\newlabel{explim}{{5.2}{18}{Limitations on what can be claimed\relax }{subsection.5.2}{}}
\@writefile{toc}{\contentsline {subsection}{\numberline {5.3}Sui generis rights}{19}{subsection.5.3}}
\newlabel{suigen}{{5.3}{19}{Sui generis rights\relax }{subsection.5.3}{}}
\@writefile{toc}{\contentsline {section}{\numberline {6}What is so special about Software?}{19}{section.6}}
\newlabel{softecon}{{6}{19}{What is so special about Software?\relax }{section.6}{}}
\@writefile{toc}{\contentsline {section}{\numberline {7}Conclusion}{21}{section.7}}
\newlabel{fin}{{7}{21}{Conclusion\relax }{section.7}{}}
\gdef\scr@tpo@lst{0}
