\BOOKMARK [1][-]{section.1}{A Drive for Patenting Logical Functionalities in Europe}{}
\BOOKMARK [1][-]{section.2}{Patenting Logical Functionalities under the European Patent Convention}{}
\BOOKMARK [2][-]{subsection.2.1}{Copyright vs Patents}{section.2}
\BOOKMARK [2][-]{subsection.2.2}{Description \046 Claims}{section.2}
\BOOKMARK [2][-]{subsection.2.3}{Describing Logical Ideas and Claiming Physical Objects}{section.2}
\BOOKMARK [2][-]{subsection.2.4}{Software patents in Europe}{section.2}
\BOOKMARK [2][-]{subsection.2.5}{Business method patents in Europe}{section.2}
\BOOKMARK [1][-]{section.3}{Software Patents with Compensatory Regulation: System Goals}{}
\BOOKMARK [2][-]{subsection.3.1}{Enforce interoperability}{section.3}
\BOOKMARK [2][-]{subsection.3.2}{Protect small software publishers}{section.3}
\BOOKMARK [2][-]{subsection.3.3}{Protecting small development service providers}{section.3}
\BOOKMARK [2][-]{subsection.3.4}{Protecting free / open source software}{section.3}
\BOOKMARK [2][-]{subsection.3.5}{Discouraging legal terrorism}{section.3}
\BOOKMARK [1][-]{section.4}{Software Patents with Compensatory Regulation: Measures and Costs}{}
\BOOKMARK [2][-]{subsection.4.1}{Garantee Fund}{section.4}
\BOOKMARK [2][-]{subsection.4.2}{Algorithm Database}{section.4}
\BOOKMARK [2][-]{subsection.4.3}{Improved examination}{section.4}
\BOOKMARK [2][-]{subsection.4.4}{Incentives for small software publishers}{section.4}
\BOOKMARK [2][-]{subsection.4.5}{Patent insurance}{section.4}
\BOOKMARK [2][-]{subsection.4.6}{Summary and hidden costs}{section.4}
\BOOKMARK [1][-]{section.5}{Other Approaches to Reducing Risks of Software Patentability}{}
\BOOKMARK [2][-]{subsection.5.1}{Explicit boundaries on rights derivable from patents}{section.5}
\BOOKMARK [2][-]{subsection.5.2}{Limitations on what can be claimed}{section.5}
\BOOKMARK [2][-]{subsection.5.3}{Sui generis rights}{section.5}
\BOOKMARK [1][-]{section.6}{What is so special about Software?}{}
\BOOKMARK [1][-]{section.7}{Conclusion}{}
