\select@language {french}
\contentsline {section}{\numberline {1}Liens annot\'{e}s}{1}{section.1}
\contentsline {section}{\numberline {2}Questions, choses \`{a} faire, comment vous pouvez aider}{2}{section.2}
