\relax 
\ifx\hyper@anchor\@undefined
\global \let \oldcontentsline\contentsline
\gdef \contentsline#1#2#3#4{\oldcontentsline{#1}{#2}{#3}}
\global \let \oldnewlabel\newlabel
\gdef \newlabel#1#2{\newlabelxx{#1}#2}
\gdef \newlabelxx#1#2#3#4#5#6{\oldnewlabel{#1}{{#2}{#3}}}
\AtEndDocument{\let \contentsline\oldcontentsline
\let \newlabel\oldnewlabel}
\else
\global \let \hyper@last\relax 
\fi

\@writefile{toc}{\contentsline {section}{\numberline {1}Allgemeine Grundlagen und Ausgangslage}{2}{section.1}}
\newlabel{allg}{{1}{2}{Allgemeine Grundlagen und Ausgangslage\relax }{section.1}{}}
\@writefile{toc}{\contentsline {subsection}{\numberline {1.1}Wie wird Patentschutz im Allgemeinen begr\"{u}ndet?}{2}{subsection.1.1}}
\newlabel{begr}{{1.1}{2}{Wie wird Patentschutz im Allgemeinen begr\"{u}ndet?\relax }{subsection.1.1}{}}
\@writefile{toc}{\contentsline {subsection}{\numberline {1.2}Welche Schutzrechte gibt es f\"{u}r Software und welche Wirkungen haben sie?}{4}{subsection.1.2}}
\newlabel{soft}{{1.2}{4}{Welche Schutzrechte gibt es f\"{u}r Software und welche Wirkungen haben sie?\relax }{subsection.1.2}{}}
\@writefile{toc}{\contentsline {subsubsection}{\numberline {1.2.1}Urheberrechtsschutz}{4}{subsubsection.1.2.1}}
\newlabel{urhr}{{1.2.1}{4}{Urheberrechtsschutz\relax }{subsubsection.1.2.1}{}}
\@writefile{toc}{\contentsline {subsubsection}{\numberline {1.2.2}Patentrechtsschutz}{5}{subsubsection.1.2.2}}
\newlabel{patr}{{1.2.2}{5}{Patentrechtsschutz\relax }{subsubsection.1.2.2}{}}
\@writefile{toc}{\contentsline {subsection}{\numberline {1.3}Was unterscheidet Software von anderen Erfindungen?}{7}{subsection.1.3}}
\newlabel{softerf}{{1.3}{7}{Was unterscheidet Software von anderen Erfindungen?\relax }{subsection.1.3}{}}
\@writefile{toc}{\contentsline {subsection}{\numberline {1.4}Was sind Softwarepatente, was bedeutet der Begriff der Technizit\"{a}t von Softwarepatenten und wie sind Softwarepatente hinsichtlich der Erfindungsh\"{o}he zu beurteilen?}{9}{subsection.1.4}}
\newlabel{softpat}{{1.4}{9}{Was sind Softwarepatente, was bedeutet der Begriff der Technizit\"{a}t von Softwarepatenten und wie sind Softwarepatente hinsichtlich der Erfindungsh\"{o}he zu beurteilen?\relax }{subsection.1.4}{}}
\@writefile{toc}{\contentsline {subsubsection}{\numberline {1.4.1}``Softwarepatente''}{9}{subsubsection.1.4.1}}
\newlabel{swpat}{{1.4.1}{9}{``Softwarepatente''\relax }{subsubsection.1.4.1}{}}
\@writefile{toc}{\contentsline {subsubsection}{\numberline {1.4.2}Technizit\"{a}t bei Programmen f\"{u}r Datenverarbeitungsanlagen}{10}{subsubsection.1.4.2}}
\newlabel{techn}{{1.4.2}{10}{Technizit\"{a}t bei Programmen f\"{u}r Datenverarbeitungsanlagen\relax }{subsubsection.1.4.2}{}}
\@writefile{toc}{\contentsline {subsubsection}{\numberline {1.4.3}Erfindungsh\"{o}he}{11}{subsubsection.1.4.3}}
\newlabel{erfh}{{1.4.3}{11}{Erfindungsh\"{o}he\relax }{subsubsection.1.4.3}{}}
\@writefile{toc}{\contentsline {subsection}{\numberline {1.5}Unterscheiden sich Softwarepatente von Patenten f\"{u}r Gesch\"{a}ftsideen, Algorithmen und Dateiformaten und wenn ja, wie?}{14}{subsection.1.5}}
\newlabel{bizfmt}{{1.5}{14}{Unterscheiden sich Softwarepatente von Patenten f\"{u}r Gesch\"{a}ftsideen, Algorithmen und Dateiformaten und wenn ja, wie?\relax }{subsection.1.5}{}}
\@writefile{toc}{\contentsline {subsection}{\numberline {1.6}Welche Unterschiede gibt es beim Schutz von Software in Deutschland im Vergleich zu anderen EU-L\"{a}ndern und im internationalen Vergleich?}{15}{subsection.1.6}}
\newlabel{deeu}{{1.6}{15}{Welche Unterschiede gibt es beim Schutz von Software in Deutschland im Vergleich zu anderen EU-L\"{a}ndern und im internationalen Vergleich?\relax }{subsection.1.6}{}}
\@writefile{toc}{\contentsline {subsection}{\numberline {1.7}Nach welchen Kriterien beurteilen EPA, BGH und BPatG heute die Patentierbarkeit von Software? Sind diese Kriterien und Regeln eindeutig und welche Formulierung erweist sich bisher am praktikabelsten?}{16}{subsection.1.7}}
\newlabel{epabgbp}{{1.7}{16}{Nach welchen Kriterien beurteilen EPA, BGH und BPatG heute die Patentierbarkeit von Software? Sind diese Kriterien und Regeln eindeutig und welche Formulierung erweist sich bisher am praktikabelsten?\relax }{subsection.1.7}{}}
\@writefile{toc}{\contentsline {subsection}{\numberline {1.8}Wie viele Patente f\"{u}r Software gibt es in Deutschland, Europa und weltweit?}{17}{subsection.1.8}}
\newlabel{nbrpat}{{1.8}{17}{Wie viele Patente f\"{u}r Software gibt es in Deutschland, Europa und weltweit?\relax }{subsection.1.8}{}}
\@writefile{toc}{\contentsline {subsection}{\numberline {1.9}Bei wie viel Prozent der bislang vom EPA gew\"{a}hrten 30.000 Softwarepatente ist die beanspruchte Innovation so bedeutend, dass es sich f\"{u}r die Gesellschaft ann\"{a}hernd lohnen k\"{o}nnte, darauf ein 20j\"{a}hriges Monopol zu vergeben?}{17}{subsection.1.9}}
\newlabel{epa30}{{1.9}{17}{Bei wie viel Prozent der bislang vom EPA gew\"{a}hrten 30.000 Softwarepatente ist die beanspruchte Innovation so bedeutend, dass es sich f\"{u}r die Gesellschaft ann\"{a}hernd lohnen k\"{o}nnte, darauf ein 20j\"{a}hriges Monopol zu vergeben?\relax }{subsection.1.9}{}}
\@writefile{toc}{\contentsline {section}{\numberline {2}\"{A}nderungsbedarf}{18}{section.2}}
\newlabel{aend}{{2}{18}{\"{A}nderungsbedarf\relax }{section.2}{}}
\@writefile{toc}{\contentsline {subsection}{\numberline {2.1}Gibt es zwingende rechtliche Gr\"{u}nde (Verfassung, Internationale Vertr\"{a}ge), die eine Neuregelung des Patentwesens auf Software erforderlich machen?}{18}{subsection.2.1}}
\newlabel{grund}{{2.1}{18}{Gibt es zwingende rechtliche Gr\"{u}nde (Verfassung, Internationale Vertr\"{a}ge), die eine Neuregelung des Patentwesens auf Software erforderlich machen?\relax }{subsection.2.1}{}}
\@writefile{toc}{\contentsline {subsection}{\numberline {2.2}Wie beurteilen Sie die Einf\"{u}hrung eines eigenen Schutzrechtes f\"{u}r Software?}{21}{subsection.2.2}}
\newlabel{suigen}{{2.2}{21}{Wie beurteilen Sie die Einf\"{u}hrung eines eigenen Schutzrechtes f\"{u}r Software?\relax }{subsection.2.2}{}}
\@writefile{toc}{\contentsline {subsection}{\numberline {2.3}Wo k\"{o}nnte es beim Urheberrecht Unzul\"{a}ngichkeiten hinsichtlich des hinreichenden Schutzes von Software vor Nachahmung geben? Wie k\"{o}nnte ein ``ma{\ss }geschneidertes Software-Schutzrecht'' aussehen?}{22}{subsection.2.3}}
\newlabel{nesuf}{{2.3}{22}{Wo k\"{o}nnte es beim Urheberrecht Unzul\"{a}ngichkeiten hinsichtlich des hinreichenden Schutzes von Software vor Nachahmung geben? Wie k\"{o}nnte ein ``ma{\ss }geschneidertes Software-Schutzrecht'' aussehen?\relax }{subsection.2.3}{}}
\@writefile{toc}{\contentsline {subsection}{\numberline {2.4}Wie beurteilen Sie die Einf\"{u}hrung von Sondervorschriften f\"{u}r Software im Patentgesetz?}{22}{subsection.2.4}}
\newlabel{ps}{{2.4}{22}{Wie beurteilen Sie die Einf\"{u}hrung von Sondervorschriften f\"{u}r Software im Patentgesetz?\relax }{subsection.2.4}{}}
\@writefile{toc}{\contentsline {subsection}{\numberline {2.5}Macht eine Differenzierung patentierbarer und nichtpatentierbarer G\"{u}ter Sinn? Wenn ja, nach welchen Kriterien sollte Ihrer Ansicht nach zwischen beiden G\"{u}terarten (Erfindungsarten) unterschieden werden?}{24}{subsection.2.5}}
\newlabel{patnep}{{2.5}{24}{Macht eine Differenzierung patentierbarer und nichtpatentierbarer G\"{u}ter Sinn? Wenn ja, nach welchen Kriterien sollte Ihrer Ansicht nach zwischen beiden G\"{u}terarten (Erfindungsarten) unterschieden werden?\relax }{subsection.2.5}{}}
\@writefile{toc}{\contentsline {section}{\numberline {3}Auswirkungen}{25}{section.3}}
\newlabel{ausw}{{3}{25}{Auswirkungen\relax }{section.3}{}}
\@writefile{toc}{\contentsline {subsection}{\numberline {3.1}Welche volkswirtschaftlichen und betriebswirtschaftlichen Effekte h\"{a}tte ihrer Meinung nach eine weitestgehend unreglementierte Patentierbarkeit von sog. Softwareprodukten? Worauf beruhen diese Annahmen?}{25}{subsection.3.1}}
\newlabel{vwbw}{{3.1}{25}{Welche volkswirtschaftlichen und betriebswirtschaftlichen Effekte h\"{a}tte ihrer Meinung nach eine weitestgehend unreglementierte Patentierbarkeit von sog. Softwareprodukten? Worauf beruhen diese Annahmen?\relax }{subsection.3.1}{}}
\@writefile{toc}{\contentsline {subsection}{\numberline {3.2}Welches sind die Arbeitsmethoden und wirtschaftlichen Grundlagen der Open-Source-Bewegung?}{25}{subsection.3.2}}
\newlabel{oss}{{3.2}{25}{Welches sind die Arbeitsmethoden und wirtschaftlichen Grundlagen der Open-Source-Bewegung?\relax }{subsection.3.2}{}}
\@writefile{toc}{\contentsline {subsection}{\numberline {3.3}Welche Auswirkungen erweiterter Patentierbarkeit von Software erwarten Sie auf die Rahmenbedingungen der Softwareentwicklung unter sog. Open-Source-Lizenzen?}{26}{subsection.3.3}}
\newlabel{osslic}{{3.3}{26}{Welche Auswirkungen erweiterter Patentierbarkeit von Software erwarten Sie auf die Rahmenbedingungen der Softwareentwicklung unter sog. Open-Source-Lizenzen?\relax }{subsection.3.3}{}}
\@writefile{toc}{\contentsline {subsection}{\numberline {3.4}W\"{u}rde eine Ausdehnung des Patentschutzes f\"{u}r Software die Open-Source-Bewegung behindern? Wenn ja, wie k\"{o}nnten diese Nachteile beseitigt werden?}{26}{subsection.3.4}}
\newlabel{osshind}{{3.4}{26}{W\"{u}rde eine Ausdehnung des Patentschutzes f\"{u}r Software die Open-Source-Bewegung behindern? Wenn ja, wie k\"{o}nnten diese Nachteile beseitigt werden?\relax }{subsection.3.4}{}}
\@writefile{toc}{\contentsline {subsection}{\numberline {3.5}Welche Auswirkungen h\"{a}tte die Ausdehnung des Patentschutzes f\"{u}r Software auf die Entwicklung von kleinen und mittelst\"{a}ndischen Unternehmen?}{26}{subsection.3.5}}
\newlabel{kmu}{{3.5}{26}{Welche Auswirkungen h\"{a}tte die Ausdehnung des Patentschutzes f\"{u}r Software auf die Entwicklung von kleinen und mittelst\"{a}ndischen Unternehmen?\relax }{subsection.3.5}{}}
\@writefile{toc}{\contentsline {subsection}{\numberline {3.6}Sind Sie der Meinung, dass eine Ausdehnung des Patentschutzes f\"{u}r Software Innovationen in dieser Branche gef\"{a}hrden w\"{u}rden? Wie beurteilen Sie in diesem Zusammenhang die MIT-Studie ``Sequential innovation, patents and imitation'' von James Bessen und Eric Maskin (1999)?}{27}{subsection.3.6}}
\newlabel{mit}{{3.6}{27}{Sind Sie der Meinung, dass eine Ausdehnung des Patentschutzes f\"{u}r Software Innovationen in dieser Branche gef\"{a}hrden w\"{u}rden? Wie beurteilen Sie in diesem Zusammenhang die MIT-Studie ``Sequential innovation, patents and imitation'' von James Bessen und Eric Maskin (1999)?\relax }{subsection.3.6}{}}
\@writefile{toc}{\contentsline {subsection}{\numberline {3.7}Ist das Patentrecht aus Ihrer Sicht das geeignete Werkzeug, um im Softwarebereich Innovation und Fortschritt zu f\"{o}rdern? Sind effektivere Alternativen denkbar, und wenn ja, welche?}{28}{subsection.3.7}}
\newlabel{altern}{{3.7}{28}{Ist das Patentrecht aus Ihrer Sicht das geeignete Werkzeug, um im Softwarebereich Innovation und Fortschritt zu f\"{o}rdern? Sind effektivere Alternativen denkbar, und wenn ja, welche?\relax }{subsection.3.7}{}}
\@writefile{toc}{\contentsline {subsection}{\numberline {3.8}Wie wirkt sich Ihrer Ansicht nach eine Klarstellung auf EU-Ebene dahingehend, dass Software und gedankliche Konzepte nicht patentierbar sind, auf bereits bestehende Patente in diesem Bereich aus?}{28}{subsection.3.8}}
\newlabel{klar}{{3.8}{28}{Wie wirkt sich Ihrer Ansicht nach eine Klarstellung auf EU-Ebene dahingehend, dass Software und gedankliche Konzepte nicht patentierbar sind, auf bereits bestehende Patente in diesem Bereich aus?\relax }{subsection.3.8}{}}
