\BOOKMARK [1][-]{section.1}{Allgemeine Grundlagen und Ausgangslage}{}
\BOOKMARK [2][-]{subsection.1.1}{Wie wird Patentschutz im Allgemeinen begr\374ndet?}{section.1}
\BOOKMARK [2][-]{subsection.1.2}{Welche Schutzrechte gibt es f\374r Software und welche Wirkungen haben sie?}{section.1}
\BOOKMARK [3][-]{subsubsection.1.2.1}{Urheberrechtsschutz}{subsection.1.2}
