\select@language {french}
\select@language {french}
\contentsline {chapter}{\numberline {1}Introduction}{4}{chapter.1}
\contentsline {chapter}{\numberline {2}Contenu de la proposition}{5}{chapter.2}
\contentsline {chapter}{\numberline {3}Tableau comparatif des Versions CCE et BSA avec Contre-Proposition dans l'Esprit de la CBE}{6}{chapter.3}
\contentsline {section}{\numberline {3.1}Avant-Proposition Propagandisante de la BSA/CEE}{6}{section.3.1}
\contentsline {section}{\numberline {3.2}Propos de Directive Brevets Logiciels et Contre-Propositions}{6}{section.3.2}
\contentsline {section}{\numberline {3.3}Financial Statement}{7}{section.3.3}
\contentsline {section}{\numberline {3.4}The Proposal}{7}{section.3.4}
\contentsline {section}{\numberline {3.5}Annotations}{7}{section.3.5}
\contentsline {chapter}{\numberline {4}Questions, choses \`{a} faire, comment vous pouvez aider}{8}{chapter.4}
\contentsline {chapter}{\numberline {5}Liens annot\'{e}s}{9}{chapter.5}
