\contentsline {chapter}{\numberline {1}Einf\"{u}hrung}{4}{chapter.1}
\contentsline {chapter}{\numberline {2}Inhalt des Vorschlags}{5}{chapter.2}
\contentsline {chapter}{\numberline {3}Tabellarische Textausgabe in BSA- und EUK-Fassung in Gegen\"{u}berstellung mit Gegenvorschlag im Geiste des EP\"{U}}{6}{chapter.3}
\contentsline {section}{\numberline {3.1}Werbendes Vorwort von BSA/EUK}{6}{section.3.1}
\contentsline {section}{\numberline {3.2}\"{A}nderungsvorschl\"{a}ge zur Softwarepatentrichtlinie der EU}{6}{section.3.2}
\contentsline {section}{\numberline {3.3}Financial Statement}{7}{section.3.3}
\contentsline {section}{\numberline {3.4}The Proposal}{7}{section.3.4}
\contentsline {section}{\numberline {3.5}Fu{\ss }noten}{7}{section.3.5}
\contentsline {chapter}{\numberline {4}Fragen, Aufgaben, Wie Sie helfen k\"{o}nnen}{8}{chapter.4}
\contentsline {chapter}{\numberline {5}Kommentierte Verweise}{9}{chapter.5}
