\BOOKMARK [1][-]{section.1}{Introduction}{}
\BOOKMARK [1][-]{section.2}{Essence of the Proposals}{}
\BOOKMARK [2][-]{subsection.2.1}{What the EC/BSA proposes in terms of legal doctrine}{section.2}
\BOOKMARK [3][-]{subsubsection.2.1.1}{Computer programs as such are patentable inventions}{subsection.2.1}
\BOOKMARK [3][-]{subsubsection.2.1.2}{All practical problem solutions are patentable inventions.}{subsection.2.1}
\BOOKMARK [3][-]{subsubsection.2.1.3}{The EPO's low non-obviousness standards made obligatory for all of Europe.}{subsection.2.1}
\BOOKMARK [3][-]{subsubsection.2.1.4}{The EPO rulings of 1998 are not accepted}{subsection.2.1}
\BOOKMARK [2][-]{subsection.2.2}{What the EC/BSA proposes in terms of software economy}{section.2}
\BOOKMARK [2][-]{subsection.2.3}{Some apparent lies}{section.2}
\BOOKMARK [1][-]{section.3}{The text in BSA, CEC and FFII versions}{}
\BOOKMARK [2][-]{subsection.3.1}{BSA/CEC Advocative Preface and FFII criticism}{section.3}
\BOOKMARK [3][-]{subsubsection.3.1.1}{``EXPLANATORY MEMORANDUM''}{subsection.3.1}
\BOOKMARK [3][-]{subsubsection.3.1.2}{The background to the initiative: Commission's consultations}{subsection.3.1}
\BOOKMARK [3][-]{subsubsection.3.1.3}{``International competition: The legal situation in the U.S. and Japan''}{subsection.3.1}
\BOOKMARK [3][-]{subsubsection.3.1.4}{``The current legal situation regarding art. 52\(1\) and \(2\) of the epc.''}{subsection.3.1}
\BOOKMARK [3][-]{subsubsection.3.1.5}{``The role of algorithms''}{subsection.3.1}
\BOOKMARK [3][-]{subsubsection.3.1.6}{``Patent and copyright protection are complementary''}{subsection.3.1}
\BOOKMARK [3][-]{subsubsection.3.1.7}{``The necessity of a Community action harmonising national laws and its legal basis''}{subsection.3.1}
\BOOKMARK [3][-]{subsubsection.3.1.8}{``The approach adopted''}{subsection.3.1}
\BOOKMARK [3][-]{subsubsection.3.1.9}{``The legal basis for harmonisation''}{subsection.3.1}
\BOOKMARK [2][-]{subsection.3.2}{The BSA/CEC Proposal\(s\) and FFII Counter-Proposal}{section.3}
\BOOKMARK [2][-]{subsection.3.3}{``Financial Statement'' \(BSA only\)}{section.3}
\BOOKMARK [2][-]{subsection.3.4}{``The Proposal'' \(Advocative Postface, BSA only\)}{section.3}
\BOOKMARK [2][-]{subsection.3.5}{Footnotes}{section.3}
\BOOKMARK [1][-]{section.4}{What to do, how you can help}{}
\BOOKMARK [1][-]{section.5}{Further Reading}{}
