\relax 
\ifx\hyper@anchor\@undefined
\global \let \oldcontentsline\contentsline
\gdef \contentsline#1#2#3#4{\oldcontentsline{#1}{#2}{#3}}
\global \let \oldnewlabel\newlabel
\gdef \newlabel#1#2{\newlabelxx{#1}#2}
\gdef \newlabelxx#1#2#3#4#5#6{\oldnewlabel{#1}{{#2}{#3}}}
\AtEndDocument{\let \contentsline\oldcontentsline
\let \newlabel\oldnewlabel}
\else
\global \let \hyper@last\relax 
\fi

\newlabel{intro}{{1}{2}{Introduction\label {intro}\relax }{section.1}{}}
\@writefile{toc}{\contentsline {section}{\numberline {1}Introduction}{2}{section.1}}
\newlabel{summ}{{2}{4}{Essence of the Proposals\label {summ}\relax }{section.2}{}}
\@writefile{toc}{\contentsline {section}{\numberline {2}Essence of the Proposals}{4}{section.2}}
\newlabel{dokt}{{2.1}{4}{What the EC/BSA proposes in terms of legal doctrine\label {dokt}\relax }{subsection.2.1}{}}
\@writefile{toc}{\contentsline {subsection}{\numberline {2.1}What the EC/BSA proposes in terms of legal doctrine}{4}{subsection.2.1}}
\newlabel{prog}{{2.1.1}{4}{Computer programs as such are patentable inventions\label {prog}\relax }{subsubsection.2.1.1}{}}
\@writefile{toc}{\contentsline {subsubsection}{\numberline {2.1.1}Computer programs as such are patentable inventions}{4}{subsubsection.2.1.1}}
\newlabel{prob}{{2.1.2}{5}{All practical problem solutions are patentable inventions.\label {prob}\relax }{subsubsection.2.1.2}{}}
\@writefile{toc}{\contentsline {subsubsection}{\numberline {2.1.2}All practical problem solutions are patentable inventions.}{5}{subsubsection.2.1.2}}
\newlabel{nono}{{2.1.3}{6}{The EPO's low non-obviousness standards made obligatory for all of Europe.\label {nono}\relax }{subsubsection.2.1.3}{}}
\@writefile{toc}{\contentsline {subsubsection}{\numberline {2.1.3}The EPO's low non-obviousness standards made obligatory for all of Europe.}{6}{subsubsection.2.1.3}}
\newlabel{disk}{{2.1.4}{6}{The EPO rulings of 1998 are not accepted\label {disk}\relax }{subsubsection.2.1.4}{}}
\@writefile{toc}{\contentsline {subsubsection}{\numberline {2.1.4}The EPO rulings of 1998 are not accepted}{6}{subsubsection.2.1.4}}
\newlabel{ekon}{{2.2}{6}{What the EC/BSA proposes in terms of software economy\label {ekon}\relax }{subsection.2.2}{}}
\@writefile{toc}{\contentsline {subsection}{\numberline {2.2}What the EC/BSA proposes in terms of software economy}{6}{subsection.2.2}}
\newlabel{mens}{{2.3}{7}{Some apparent lies\label {mens}\relax }{subsection.2.3}{}}
\@writefile{toc}{\contentsline {subsection}{\numberline {2.3}Some apparent lies}{7}{subsection.2.3}}
\newlabel{text}{{3}{9}{The text in BSA, CEC and FFII versions\label {text}\relax }{section.3}{}}
\@writefile{toc}{\contentsline {section}{\numberline {3}The text in BSA, CEC and FFII versions}{9}{section.3}}
\newlabel{advok}{{3.1}{9}{BSA/CEC Advocative Preface and FFII criticism\label {advok}\relax }{subsection.3.1}{}}
\@writefile{toc}{\contentsline {subsection}{\numberline {3.1}BSA/CEC Advocative Preface and FFII criticism}{9}{subsection.3.1}}
\newlabel{exme}{{3.1.1}{9}{``EXPLANATORY MEMORANDUM''\label {exme}\relax }{subsubsection.3.1.1}{}}
\@writefile{toc}{\contentsline {subsubsection}{\numberline {3.1.1}``EXPLANATORY MEMORANDUM''}{9}{subsubsection.3.1.1}}
\newlabel{bakg}{{3.1.2}{11}{The background to the initiative: Commission's consultations\label {bakg}\relax }{subsubsection.3.1.2}{}}
\@writefile{toc}{\contentsline {subsubsection}{\numberline {3.1.2}The background to the initiative: Commission's consultations}{11}{subsubsection.3.1.2}}
\newlabel{kpet}{{3.1.3}{16}{``International competition: The legal situation in the U.S. and Japan''\label {kpet}\relax }{subsubsection.3.1.3}{}}
\@writefile{toc}{\contentsline {subsubsection}{\numberline {3.1.3}``International competition: The legal situation in the U.S. and Japan''}{16}{subsubsection.3.1.3}}
\newlabel{legs}{{3.1.4}{18}{``The current legal situation regarding art. 52(1) and (2) of the epc.''\label {legs}\relax }{subsubsection.3.1.4}{}}
\@writefile{toc}{\contentsline {subsubsection}{\numberline {3.1.4}``The current legal situation regarding art. 52(1) and (2) of the epc.''}{18}{subsubsection.3.1.4}}
\newlabel{algo}{{3.1.5}{20}{``The role of algorithms''\label {algo}\relax }{subsubsection.3.1.5}{}}
\@writefile{toc}{\contentsline {subsubsection}{\numberline {3.1.5}``The role of algorithms''}{20}{subsubsection.3.1.5}}
\newlabel{pako}{{3.1.6}{22}{``Patent and copyright protection are complementary''\label {pako}\relax }{subsubsection.3.1.6}{}}
\@writefile{toc}{\contentsline {subsubsection}{\numberline {3.1.6}``Patent and copyright protection are complementary''}{22}{subsubsection.3.1.6}}
\newlabel{natl}{{3.1.7}{24}{``The necessity of a Community action harmonising national laws and its legal basis''\label {natl}\relax }{subsubsection.3.1.7}{}}
\@writefile{toc}{\contentsline {subsubsection}{\numberline {3.1.7}``The necessity of a Community action harmonising national laws and its legal basis''}{24}{subsubsection.3.1.7}}
\newlabel{adop}{{3.1.8}{24}{``The approach adopted''\label {adop}\relax }{subsubsection.3.1.8}{}}
\@writefile{toc}{\contentsline {subsubsection}{\numberline {3.1.8}``The approach adopted''}{24}{subsubsection.3.1.8}}
\newlabel{consultation submission}{{3.1.8}{27}{``The approach adopted''\label {adop}\relax }{Hfootnote.35}{}}
\newlabel{harm}{{3.1.9}{27}{``The legal basis for harmonisation''\label {harm}\relax }{subsubsection.3.1.9}{}}
\@writefile{toc}{\contentsline {subsubsection}{\numberline {3.1.9}``The legal basis for harmonisation''}{27}{subsubsection.3.1.9}}
\newlabel{prop}{{3.2}{34}{The BSA/CEC Proposal(s) and FFII Counter-Proposal\label {prop}\relax }{subsection.3.2}{}}
\@writefile{toc}{\contentsline {subsection}{\numberline {3.2}The BSA/CEC Proposal(s) and FFII Counter-Proposal}{34}{subsection.3.2}}
\newlabel{fins}{{3.3}{49}{``Financial Statement''\ (BSA only)\label {fins}\relax }{subsection.3.3}{}}
\@writefile{toc}{\contentsline {subsection}{\numberline {3.3}``Financial Statement''\ (BSA only)}{49}{subsection.3.3}}
\newlabel{aims}{{3.4}{50}{``The Proposal''\ (Advocative Postface, BSA only)\label {aims}\relax }{subsection.3.4}{}}
\@writefile{toc}{\contentsline {subsection}{\numberline {3.4}``The Proposal''\ (Advocative Postface, BSA only)}{50}{subsection.3.4}}
\newlabel{fnot}{{3.5}{55}{Footnotes\label {fnot}\relax }{subsection.3.5}{}}
\@writefile{toc}{\contentsline {subsection}{\numberline {3.5}Footnotes}{55}{subsection.3.5}}
\newlabel{help}{{4}{58}{What to do, how you can help\label {help}\relax }{section.4}{}}
\@writefile{toc}{\contentsline {section}{\numberline {4}What to do, how you can help}{58}{section.4}}
\newlabel{ref}{{5}{60}{Further Reading\label {ref}\relax }{section.5}{}}
\@writefile{toc}{\contentsline {section}{\numberline {5}Further Reading}{60}{section.5}}
