\relax 
\ifx\hyper@anchor\@undefined
\global \let \oldcontentsline\contentsline
\gdef \contentsline#1#2#3#4{\oldcontentsline{#1}{#2}{#3}}
\global \let \oldnewlabel\newlabel
\gdef \newlabel#1#2{\newlabelxx{#1}#2}
\gdef \newlabelxx#1#2#3#4#5#6{\oldnewlabel{#1}{{#2}{#3}}}
\AtEndDocument{\let \contentsline\oldcontentsline
\let \newlabel\oldnewlabel}
\else
\global \let \hyper@last\relax 
\fi

\@writefile{toc}{\contentsline {section}{\numberline {1}Needed: You in Brussels August Wednesday 27th}{2}{section.1}}
\newlabel{bxldemo}{{1}{2}{Needed: You in Brussels August Wednesday 27th\relax }{section.1}{}}
\@writefile{toc}{\contentsline {section}{\numberline {2}Needed: Your Website Blocked on Wednesday August 27th}{2}{section.2}}
\newlabel{onldemo}{{2}{2}{Needed: Your Website Blocked on Wednesday August 27th\relax }{section.2}{}}
\@writefile{toc}{\contentsline {section}{\numberline {3}Needed: 8,000 eur for demo and lobbying expenses}{3}{section.3}}
\newlabel{europarl}{{3}{3}{Needed: 8,000 eur for demo and lobbying expenses\relax }{section.3}{}}
\@writefile{toc}{\contentsline {section}{\numberline {4}Needed: 3000 eur for lobbying the media}{4}{section.4}}
\newlabel{media}{{4}{4}{Needed: 3000 eur for lobbying the media\relax }{section.4}{}}
