\BOOKMARK [1][-]{section.1}{Needed: You in Brussels August Wednesday 27th}{}
\BOOKMARK [1][-]{section.2}{Needed: Your Website Blocked on Wednesday August 27th}{}
\BOOKMARK [1][-]{section.3}{Needed: 8,000 eur for demo and lobbying expenses}{}
\BOOKMARK [1][-]{section.4}{Needed: 3000 eur for lobbying the media}{}
