\relax 
\catcode`"\active
\ifx\hyper@anchor\@undefined
\global \let \oldcontentsline\contentsline
\gdef \contentsline#1#2#3#4{\oldcontentsline{#1}{#2}{#3}}
\global \let \oldnewlabel\newlabel
\gdef \newlabel#1#2{\newlabelxx{#1}#2}
\gdef \newlabelxx#1#2#3#4#5#6{\oldnewlabel{#1}{{#2}{#3}}}
\AtEndDocument{\let \contentsline\oldcontentsline
\let \newlabel\oldnewlabel}
\else
\global \let \hyper@last\relax 
\fi

\select@language{portuguese}
\@writefile{toc}{\select@language{portuguese}}
\@writefile{lof}{\select@language{portuguese}}
\@writefile{lot}{\select@language{portuguese}}
\@writefile{toc}{\contentsline {section}{\numberline {1}Necess\'{a}rio: Voc\^{e} em Bruxelas a 27 de Agosto}{2}{section.1}}
\newlabel{bxldemo}{{1}{2}{Necess\'{a}rio: Voc\^{e} em Bruxelas a 27 de Agosto\relax }{section.1}{}}
\@writefile{toc}{\contentsline {section}{\numberline {2}Necess\'{a}rio: O seu WebSite bloqueado a 27 de Agosto}{3}{section.2}}
\newlabel{onldemo}{{2}{3}{Necess\'{a}rio: O seu WebSite bloqueado a 27 de Agosto\relax }{section.2}{}}
\@writefile{toc}{\contentsline {section}{\numberline {3}Necess\'{a}rio: 8,000 eur para despesas da manifesta\c {c}\~{a}o etc}{3}{section.3}}
\newlabel{europarl}{{3}{3}{Necess\'{a}rio: 8,000 eur para despesas da manifesta\c {c}\~{a}o etc\relax }{section.3}{}}
\@writefile{toc}{\contentsline {section}{\numberline {4}Necess\'{a}rio: 3000 eur para fazer lobby com os media}{4}{section.4}}
\newlabel{media}{{4}{4}{Necess\'{a}rio: 3000 eur para fazer lobby com os media\relax }{section.4}{}}
\@writefile{toc}{\contentsline {section}{\numberline {5}Necess\'{a}rio: Publicidade na European Voice et all}{5}{section.5}}
\newlabel{advert}{{5}{5}{Necess\'{a}rio: Publicidade na European Voice et all\relax }{section.5}{}}
\@writefile{toc}{\contentsline {section}{\numberline {6}Como doar}{5}{section.6}}
\newlabel{donac}{{6}{5}{Como doar\relax }{section.6}{}}
