\relax 
\ifx\hyper@anchor\@undefined
\global \let \oldcontentsline\contentsline
\gdef \contentsline#1#2#3#4{\oldcontentsline{#1}{#2}{#3}}
\global \let \oldnewlabel\newlabel
\gdef \newlabel#1#2{\newlabelxx{#1}#2}
\gdef \newlabelxx#1#2#3#4#5#6{\oldnewlabel{#1}{{#2}{#3}}}
\AtEndDocument{\let \contentsline\oldcontentsline
\let \newlabel\oldnewlabel}
\else
\global \let \hyper@last\relax 
\fi

\@writefile{toc}{\contentsline {section}{\numberline {1}Ben\"{o}tigt: Sie in Br\"{u}ssel am 27. August}{2}{section.1}}
\newlabel{bxldemo}{{1}{2}{Ben\"{o}tigt: Sie in Br\"{u}ssel am 27. August\relax }{section.1}{}}
\@writefile{toc}{\contentsline {section}{\numberline {2}Ben\"{o}tigt: Ihr Website gesperrt am 27. August}{3}{section.2}}
\newlabel{onldemo}{{2}{3}{Ben\"{o}tigt: Ihr Website gesperrt am 27. August\relax }{section.2}{}}
\@writefile{toc}{\contentsline {section}{\numberline {3}Ben\"{o}tigt: 8,000 EUR f\"{u}r Demo und Lobbyarbeit}{3}{section.3}}
\newlabel{europarl}{{3}{3}{Ben\"{o}tigt: 8,000 EUR f\"{u}r Demo und Lobbyarbeit\relax }{section.3}{}}
\@writefile{toc}{\contentsline {section}{\numberline {4}Ben\"{o}tigt: 3000 EUR f\"{u}r Medienlobbying}{4}{section.4}}
\newlabel{media}{{4}{4}{Ben\"{o}tigt: 3000 EUR f\"{u}r Medienlobbying\relax }{section.4}{}}
