\relax 
\catcode`:\active
\catcode`;\active
\catcode`!\active
\catcode`?\active
\ifx\hyper@anchor\@undefined
\global \let \oldcontentsline\contentsline
\gdef \contentsline#1#2#3#4{\oldcontentsline{#1}{#2}{#3}}
\global \let \oldnewlabel\newlabel
\gdef \newlabel#1#2{\newlabelxx{#1}#2}
\gdef \newlabelxx#1#2#3#4#5#6{\oldnewlabel{#1}{{#2}{#3}}}
\AtEndDocument{\let \contentsline\oldcontentsline
\let \newlabel\oldnewlabel}
\else
\global \let \hyper@last\relax 
\fi

\select@language{french}
\@writefile{toc}{\select@language{french}}
\@writefile{lof}{\select@language{french}}
\@writefile{lot}{\select@language{french}}
\@writefile{toc}{\contentsline {section}{\numberline {1}Requis : Vous \`{a} Bruxelles, Mercredi le 27 Ao\^{u}t.}{2}{section.1}}
\newlabel{bxldemo}{{1}{2}{Requis : Vous \`{a} Bruxelles, Mercredi le 27 Ao\^{u}t}{section.1}{}}
\@writefile{toc}{\contentsline {section}{\numberline {2}Requis : Votre site web bloqu\'{e} Mercredi le 27 Ao\^{u}t}{2}{section.2}}
\newlabel{onldemo}{{2}{2}{Requis : Votre site web bloqu\'{e} Mercredi le 27 Ao\^{u}t\relax }{section.2}{}}
\@writefile{toc}{\contentsline {section}{\numberline {3}Requis : 8000 euros pour la manif et les d\'{e}penses de lobbying}{3}{section.3}}
\newlabel{europarl}{{3}{3}{Requis : 8000 euros pour la manif et les d\'{e}penses de lobbying\relax }{section.3}{}}
\@writefile{toc}{\contentsline {section}{\numberline {4}Requis : 3000 euros pour faire du lobbying aupr\`{e}s des m\'{e}dias}{3}{section.4}}
\newlabel{media}{{4}{3}{Requis : 3000 euros pour faire du lobbying aupr\`{e}s des m\'{e}dias\relax }{section.4}{}}
\@writefile{toc}{\contentsline {section}{\numberline {5}Requis : Des publicit\'{e}s dans le journal European Voice et d'autres}{4}{section.5}}
\newlabel{advert}{{5}{4}{Requis : Des publicit\'{e}s dans le journal European Voice et d'autres\relax }{section.5}{}}
