\relax 
\ifx\hyper@anchor\@undefined
\global \let \oldcontentsline\contentsline
\gdef \contentsline#1#2#3#4{\oldcontentsline{#1}{#2}{#3}}
\global \let \oldnewlabel\newlabel
\gdef \newlabel#1#2{\newlabelxx{#1}#2}
\gdef \newlabelxx#1#2#3#4#5#6{\oldnewlabel{#1}{{#2}{#3}}}
\AtEndDocument{\let \contentsline\oldcontentsline
\let \newlabel\oldnewlabel}
\else
\global \let \hyper@last\relax 
\fi

\@writefile{toc}{\contentsline {section}{\numberline {1}Nodig: Uw aanwezigheid in Brussel op woensdag 27 augustus}{2}{section.1}}
\newlabel{bxldemo}{{1}{2}{Nodig: Uw aanwezigheid in Brussel op woensdag 27 augustus\relax }{section.1}{}}
\@writefile{toc}{\contentsline {section}{\numberline {2}Nodig: Uw Website geblokkeerd op 27 augustus}{3}{section.2}}
\newlabel{onldemo}{{2}{3}{Nodig: Uw Website geblokkeerd op 27 augustus\relax }{section.2}{}}
\@writefile{toc}{\contentsline {section}{\numberline {3}Nodig: 8,000 euro voor uitgaves voor het lobby-en en de protestacties}{3}{section.3}}
\newlabel{europarl}{{3}{3}{Nodig: 8,000 euro voor uitgaves voor het lobby-en en de protestacties\relax }{section.3}{}}
\@writefile{toc}{\contentsline {section}{\numberline {4}Nodig: 3000 euro voor het lobby-en in de media}{4}{section.4}}
\newlabel{media}{{4}{4}{Nodig: 3000 euro voor het lobby-en in de media\relax }{section.4}{}}
\@writefile{toc}{\contentsline {section}{\numberline {5}Nodig: Reclame en voorlichting in heel Europa}{5}{section.5}}
\newlabel{advert}{{5}{5}{Nodig: Reclame en voorlichting in heel Europa\relax }{section.5}{}}
\@writefile{toc}{\contentsline {section}{\numberline {6}Hoe te doneren}{5}{section.6}}
\newlabel{donac}{{6}{5}{Hoe te doneren\relax }{section.6}{}}
