\BOOKMARK [1][-]{section.1}{Necess\341rio: Voc\352 em Bruxelas a 27 de Agosto}{}
\BOOKMARK [1][-]{section.2}{Necess\341rio: O seu WebSite bloqueado a 27 de Agosto}{}
\BOOKMARK [1][-]{section.3}{Necess\341rio: 8,000 eur para despesas da manifesta\347\343o etc}{}
\BOOKMARK [1][-]{section.4}{Necess\341rio: 3000 eur para fazer lobby com os media}{}
\BOOKMARK [1][-]{section.5}{Necess\341rio: Publicidade na European Voice et all}{}
\BOOKMARK [1][-]{section.6}{Como doar}{}
