\relax 
\ifx\hyper@anchor\@undefined
\global \let \oldcontentsline\contentsline
\gdef \contentsline#1#2#3#4{\oldcontentsline{#1}{#2}{#3}}
\global \let \oldnewlabel\newlabel
\gdef \newlabel#1#2{\newlabelxx{#1}#2}
\gdef \newlabelxx#1#2#3#4#5#6{\oldnewlabel{#1}{{#2}{#3}}}
\AtEndDocument{\let \contentsline\oldcontentsline
\let \newlabel\oldnewlabel}
\else
\global \let \hyper@last\relax 
\fi

\@writefile{toc}{\contentsline {section}{\numberline {1}What is a Software Patent?}{2}{section.1}}
\newlabel{kio}{{1}{2}{What is a Software Patent?\relax }{section.1}{}}
\@writefile{toc}{\contentsline {section}{\numberline {2}If the principal objections to software patents are (1) obviousness and (2) lack of novelty, then why all this ruckus about whether software is patentable per se?}{3}{section.2}}
\newlabel{triv}{{2}{3}{If the principal objections to software patents are (1) obviousness and (2) lack of novelty, then why all this ruckus about whether software is patentable per se?\relax }{section.2}{}}
\@writefile{toc}{\contentsline {section}{\numberline {3}Don't the investments of an innovatived programmer deserve protection?}{4}{section.3}}
\newlabel{imit}{{3}{4}{Don't the investments of an innovatived programmer deserve protection?\relax }{section.3}{}}
\@writefile{toc}{\contentsline {section}{\numberline {4}Isn't copyright far too easy to circumvent to be of any real use?}{4}{section.4}}
\newlabel{urhr}{{4}{4}{Isn't copyright far too easy to circumvent to be of any real use?\relax }{section.4}{}}
\@writefile{toc}{\contentsline {section}{\numberline {5}Software development is expensive. Large-scale projects cost hundreds of man-years. In the hardware engineering world, such investements are secured by patents. If similar protection isn't available for software engineering, how can this young industry ever achieve industrial strength?}{5}{section.5}}
\newlabel{idee}{{5}{5}{Software development is expensive. Large-scale projects cost hundreds of man-years. In the hardware engineering world, such investements are secured by patents. If similar protection isn't available for software engineering, how can this young industry ever achieve industrial strength?\relax }{section.5}{}}
\@writefile{toc}{\contentsline {section}{\numberline {6}Copyright is appropriate only for artistic works like Shakespeare's Hamlet!}{5}{section.6}}
\newlabel{faust}{{6}{5}{Copyright is appropriate only for artistic works like Shakespeare's Hamlet!\relax }{section.6}{}}
\@writefile{toc}{\contentsline {section}{\numberline {7}Aren't there some great ideas in the field of computing that deserve a greater reward than what can be offered by copyright?}{6}{section.7}}
\newlabel{urhnes}{{7}{6}{Aren't there some great ideas in the field of computing that deserve a greater reward than what can be offered by copyright?\relax }{section.7}{}}
\@writefile{toc}{\contentsline {section}{\numberline {8}What is so special about software?}{7}{section.8}}
\newlabel{infmat}{{8}{7}{What is so special about software?\relax }{section.8}{}}
\@writefile{toc}{\contentsline {section}{\numberline {9}Since when is software patentable in Europe?}{8}{section.9}}
\newlabel{kiam}{{9}{8}{Since when is software patentable in Europe?\relax }{section.9}{}}
\@writefile{toc}{\contentsline {section}{\numberline {10}Laut EP\"{U} sind doch nur ``Programme als solche'' von der Patentierung ausgeschlossen, und an dieser vagen Formulierung zeigt sich, dass der Gesetzgeber 1973 nicht genau wusste, was er wollte, und daher dem EPA die Freiheit geben wollte, die Regeln im Lichte neuer technischer Entwicklungen allm\"{a}hlich zu \"{a}ndern, nicht wahr?}{9}{section.10}}
\newlabel{fren}{{10}{9}{Laut EP\"{U} sind doch nur ``Programme als solche'' von der Patentierung ausgeschlossen, und an dieser vagen Formulierung zeigt sich, dass der Gesetzgeber 1973 nicht genau wusste, was er wollte, und daher dem EPA die Freiheit geben wollte, die Regeln im Lichte neuer technischer Entwicklungen allm\"{a}hlich zu \"{a}ndern, nicht wahr?\relax }{section.10}{}}
\@writefile{toc}{\contentsline {section}{\numberline {11}Who wants software patents? Who is against them}{11}{section.11}}
\newlabel{procon}{{11}{11}{Who wants software patents? Who is against them\relax }{section.11}{}}
\@writefile{toc}{\contentsline {subsection}{\numberline {11.1}Against}{11}{subsection.11.1}}
\newlabel{contra}{{11.1}{11}{Against\relax }{subsection.11.1}{}}
\@writefile{toc}{\contentsline {subsection}{\numberline {11.2}Pro}{12}{subsection.11.2}}
\newlabel{pro}{{11.2}{12}{Pro\relax }{subsection.11.2}{}}
\@writefile{toc}{\contentsline {section}{\numberline {12}Further Reading}{12}{section.12}}
\newlabel{etc}{{12}{12}{Further Reading\relax }{section.12}{}}
\gdef\scr@tpo@lst{0}
