\BOOKMARK [1][-]{section.1}{Was ist ein Software-Patent?}{}
\BOOKMARK [1][-]{section.2}{Was ist so schlimm an Softwarepatenten? Warum sollten Software-Innovationen nicht ebenso patentierbar sein wie andere Innovationen, wenn sie wirklich neu und erfinderisch sind?}{}
\BOOKMARK [1][-]{section.3}{Verdient die Investition eines Programmierers denn keinen Schutz?}{}
\BOOKMARK [1][-]{section.4}{Ist das Urheberrecht nicht viel zu leicht zu umgehen, um wirklich n\374tzlich zu sein?}{}
\BOOKMARK [1][-]{section.5}{Softwareentwicklung ist doch teuer. Manche Gro\337projekte kosten hunderte von Mannjahren. In der Industrie werden solche Investitionen mit Patenten abgesichert. Wenn Informatiker sich mit dem Urheberrecht zufriedengeben m\374ssen, wie kann das Software-Engineering denn dann jemals ein industrielles Niveau erreichen?}{}
\BOOKMARK [1][-]{section.6}{Das Urheberrecht passt doch nur f\374r Werke wie Goethes Faust!}{}
\BOOKMARK [1][-]{section.7}{Gibt es nicht auch im Bereich der Informatik wirklich gro\337artige Ideen, die nach einem st\344rkeren Schutz verlangen als ihn das Urheberrecht bieten kann?}{}
\BOOKMARK [1][-]{section.8}{Was ist so besonders an Software?}{}
\BOOKMARK [1][-]{section.9}{Seit wann ist Software in Europa patentierbar?}{}
\BOOKMARK [1][-]{section.10}{Laut EP\334 sind doch nur ``Programme als solche'' von der Patentierung ausgeschlossen, und an dieser vagen Formulierung zeigt sich, dass der Gesetzgeber 1973 nicht genau wusste, was er wollte, und daher dem EPA die Freiheit geben wollte, die Regeln im Lichte neuer technischer Entwicklungen allm\344hlich zu \344ndern, nicht wahr?}{}
\BOOKMARK [1][-]{section.11}{Wer will Softwarepatente? Wer ist dagegen?}{}
\BOOKMARK [2][-]{subsection.11.1}{Dagegen}{section.11}
\BOOKMARK [2][-]{subsection.11.2}{Daf\374r}{section.11}
\BOOKMARK [1][-]{section.12}{Weitere Lekt\374re}{}
