\relax 
\ifx\hyper@anchor\@undefined
\global \let \oldcontentsline\contentsline
\gdef \contentsline#1#2#3#4{\oldcontentsline{#1}{#2}{#3}}
\global \let \oldnewlabel\newlabel
\gdef \newlabel#1#2{\newlabelxx{#1}#2}
\gdef \newlabelxx#1#2#3#4#5#6{\oldnewlabel{#1}{{#2}{#3}}}
\AtEndDocument{\let \contentsline\oldcontentsline
\let \newlabel\oldnewlabel}
\else
\global \let \hyper@last\relax 
\fi

\@writefile{toc}{\contentsline {section}{\numberline {1}Was ist ein Software-Patent?}{2}{section.1}}
\newlabel{kio}{{1}{2}{Was ist ein Software-Patent?\relax }{section.1}{}}
\@writefile{toc}{\contentsline {section}{\numberline {2}Was ist so schlimm an Softwarepatenten? Warum sollten Software-Innovationen nicht ebenso patentierbar sein wie andere Innovationen, wenn sie wirklich neu und erfinderisch sind?}{3}{section.2}}
\newlabel{triv}{{2}{3}{Was ist so schlimm an Softwarepatenten? Warum sollten Software-Innovationen nicht ebenso patentierbar sein wie andere Innovationen, wenn sie wirklich neu und erfinderisch sind?\relax }{section.2}{}}
\@writefile{toc}{\contentsline {section}{\numberline {3}Verdient die Investition eines Programmierers denn keinen Schutz?}{4}{section.3}}
\newlabel{imit}{{3}{4}{Verdient die Investition eines Programmierers denn keinen Schutz?\relax }{section.3}{}}
\@writefile{toc}{\contentsline {section}{\numberline {4}Ist das Urheberrecht nicht viel zu leicht zu umgehen, um wirklich n\"{u}tzlich zu sein?}{4}{section.4}}
\newlabel{urhr}{{4}{4}{Ist das Urheberrecht nicht viel zu leicht zu umgehen, um wirklich n\"{u}tzlich zu sein?\relax }{section.4}{}}
\@writefile{toc}{\contentsline {section}{\numberline {5}Softwareentwicklung ist doch teuer. Manche Gro{\ss }projekte kosten hunderte von Mannjahren. In der Industrie werden solche Investitionen mit Patenten abgesichert. Wenn Informatiker sich mit dem Urheberrecht zufriedengeben m\"{u}ssen, wie kann das Software-Engineering denn dann jemals ein industrielles Niveau erreichen?}{5}{section.5}}
\newlabel{idee}{{5}{5}{Softwareentwicklung ist doch teuer. Manche Gro{\ss }projekte kosten hunderte von Mannjahren. In der Industrie werden solche Investitionen mit Patenten abgesichert. Wenn Informatiker sich mit dem Urheberrecht zufriedengeben m\"{u}ssen, wie kann das Software-Engineering denn dann jemals ein industrielles Niveau erreichen?\relax }{section.5}{}}
\@writefile{toc}{\contentsline {section}{\numberline {6}Das Urheberrecht passt doch nur f\"{u}r Werke wie Goethes Faust!}{5}{section.6}}
\newlabel{faust}{{6}{5}{Das Urheberrecht passt doch nur f\"{u}r Werke wie Goethes Faust!\relax }{section.6}{}}
\@writefile{toc}{\contentsline {section}{\numberline {7}Gibt es nicht auch im Bereich der Informatik wirklich gro{\ss }artige Ideen, die nach einem st\"{a}rkeren Schutz verlangen als ihn das Urheberrecht bieten kann?}{6}{section.7}}
\newlabel{urhnes}{{7}{6}{Gibt es nicht auch im Bereich der Informatik wirklich gro{\ss }artige Ideen, die nach einem st\"{a}rkeren Schutz verlangen als ihn das Urheberrecht bieten kann?\relax }{section.7}{}}
\@writefile{toc}{\contentsline {section}{\numberline {8}Was ist so besonders an Software?}{6}{section.8}}
\newlabel{infmat}{{8}{6}{Was ist so besonders an Software?\relax }{section.8}{}}
\@writefile{toc}{\contentsline {section}{\numberline {9}Seit wann ist Software in Europa patentierbar?}{8}{section.9}}
\newlabel{kiam}{{9}{8}{Seit wann ist Software in Europa patentierbar?\relax }{section.9}{}}
\@writefile{toc}{\contentsline {section}{\numberline {10}Laut EP\"{U} sind doch nur ``Programme als solche'' von der Patentierung ausgeschlossen, und an dieser vagen Formulierung zeigt sich, dass der Gesetzgeber 1973 nicht genau wusste, was er wollte, und daher dem EPA die Freiheit geben wollte, die Regeln im Lichte neuer technischer Entwicklungen allm\"{a}hlich zu \"{a}ndern, nicht wahr?}{9}{section.10}}
\newlabel{fren}{{10}{9}{Laut EP\"{U} sind doch nur ``Programme als solche'' von der Patentierung ausgeschlossen, und an dieser vagen Formulierung zeigt sich, dass der Gesetzgeber 1973 nicht genau wusste, was er wollte, und daher dem EPA die Freiheit geben wollte, die Regeln im Lichte neuer technischer Entwicklungen allm\"{a}hlich zu \"{a}ndern, nicht wahr?\relax }{section.10}{}}
\@writefile{toc}{\contentsline {section}{\numberline {11}Wer will Softwarepatente? Wer ist dagegen?}{11}{section.11}}
\newlabel{procon}{{11}{11}{Wer will Softwarepatente? Wer ist dagegen?\relax }{section.11}{}}
\@writefile{toc}{\contentsline {subsection}{\numberline {11.1}Dagegen}{11}{subsection.11.1}}
\newlabel{contra}{{11.1}{11}{Dagegen\relax }{subsection.11.1}{}}
\@writefile{toc}{\contentsline {subsection}{\numberline {11.2}Daf\"{u}r}{12}{subsection.11.2}}
\newlabel{pro}{{11.2}{12}{Daf\"{u}r\relax }{subsection.11.2}{}}
\@writefile{toc}{\contentsline {section}{\numberline {12}Weitere Lekt\"{u}re}{12}{section.12}}
\newlabel{etc}{{12}{12}{Weitere Lekt\"{u}re\relax }{section.12}{}}
\gdef\scr@tpo@lst{0}
