\contentsline {section}{\numberline {1}Participatents 2002-11-07}{1}{section.1}
\contentsline {section}{\numberline {2}Reservations for 021107 19-20.30 A1G2}{2}{section.2}
\contentsline {section}{\numberline {3}Participants 2002-11-26}{2}{section.3}
\contentsline {section}{\numberline {4}Tentative Programs}{2}{section.4}
\contentsline {section}{\numberline {5}Budget, Reimbursement, Deliverables}{4}{section.5}
\contentsline {section}{\numberline {6}Advertisement for 2002-11-26}{4}{section.6}
