\relax 
\ifx\hyper@anchor\@undefined
\global \let \oldcontentsline\contentsline
\gdef \contentsline#1#2#3#4{\oldcontentsline{#1}{#2}{#3}}
\global \let \oldnewlabel\newlabel
\gdef \newlabel#1#2{\newlabelxx{#1}#2}
\gdef \newlabelxx#1#2#3#4#5#6{\oldnewlabel{#1}{{#2}{#3}}}
\AtEndDocument{\let \contentsline\oldcontentsline
\let \newlabel\oldnewlabel}
\else
\global \let \hyper@last\relax 
\fi

\@writefile{toc}{\contentsline {section}{\numberline {1}Participatents 2002-11-07}{1}{section.1}}
\newlabel{or021107}{{1}{1}{Participatents 2002-11-07\relax }{section.1}{}}
\@writefile{toc}{\contentsline {section}{\numberline {2}Reservations for 021107 19-20.30 A1G2}{2}{section.2}}
\newlabel{reun02110719}{{2}{2}{Reservations for 021107 19-20.30 A1G2\relax }{section.2}{}}
\@writefile{toc}{\contentsline {section}{\numberline {3}Participants 2002-11-26}{2}{section.3}}
\newlabel{part}{{3}{2}{Participants 2002-11-26\relax }{section.3}{}}
\@writefile{toc}{\contentsline {section}{\numberline {4}Tentative Programs}{2}{section.4}}
\newlabel{prog}{{4}{2}{Tentative Programs\relax }{section.4}{}}
\@writefile{toc}{\contentsline {section}{\numberline {5}Budget, Reimbursement, Deliverables}{4}{section.5}}
\newlabel{exp}{{5}{4}{Budget, Reimbursement, Deliverables\relax }{section.5}{}}
\@writefile{toc}{\contentsline {section}{\numberline {6}Advertisement for 2002-11-26}{4}{section.6}}
\newlabel{adv}{{6}{4}{Advertisement for 2002-11-26\relax }{section.6}{}}
