\contentsline {section}{\numberline {1}Verhandlungen \"{u}ber Patentrechtsvertr\"{a}ge bei den Vereinten Nationen}{2}{section.1}
\contentsline {section}{\numberline {2}Betr: WIPO/PCT}{2}{section.2}
\contentsline {section}{\numberline {3}Betr WIPO/SCP}{2}{section.3}
\contentsline {section}{\numberline {4}Betr WIPO/Genetik}{3}{section.4}
\contentsline {section}{\numberline {5}Amerikanischer Druck f\"{u}r Entgrenzung}{3}{section.5}
\contentsline {section}{\numberline {6}Weitere Lekt\"{u}re}{3}{section.6}
