\relax 
\ifx\hyper@anchor\@undefined
\global \let \oldcontentsline\contentsline
\gdef \contentsline#1#2#3#4{\oldcontentsline{#1}{#2}{#3}}
\global \let \oldnewlabel\newlabel
\gdef \newlabel#1#2{\newlabelxx{#1}#2}
\gdef \newlabelxx#1#2#3#4#5#6{\oldnewlabel{#1}{{#2}{#3}}}
\AtEndDocument{\let \contentsline\oldcontentsline
\let \newlabel\oldnewlabel}
\else
\global \let \hyper@last\relax 
\fi

\@writefile{toc}{\contentsline {section}{\numberline {1}Verhandlungen \"{u}ber Patentrechtsvertr\"{a}ge bei den Vereinten Nationen}{2}{section.1}}
\newlabel{nego}{{1}{2}{Verhandlungen \"{u}ber Patentrechtsvertr\"{a}ge bei den Vereinten Nationen\relax }{section.1}{}}
\@writefile{toc}{\contentsline {section}{\numberline {2}Betr: WIPO/PCT}{2}{section.2}}
\newlabel{pct}{{2}{2}{Betr: WIPO/PCT\relax }{section.2}{}}
\@writefile{toc}{\contentsline {section}{\numberline {3}Betr WIPO/SCP}{2}{section.3}}
\newlabel{splt}{{3}{2}{Betr WIPO/SCP\relax }{section.3}{}}
\@writefile{toc}{\contentsline {section}{\numberline {4}Betr WIPO/Genetik}{3}{section.4}}
\newlabel{gen}{{4}{3}{Betr WIPO/Genetik\relax }{section.4}{}}
\@writefile{toc}{\contentsline {section}{\numberline {5}Amerikanischer Druck f\"{u}r Entgrenzung}{3}{section.5}}
\newlabel{uspress}{{5}{3}{Amerikanischer Druck f\"{u}r Entgrenzung\relax }{section.5}{}}
\@writefile{toc}{\contentsline {section}{\numberline {6}Weitere Lekt\"{u}re}{3}{section.6}}
\newlabel{etc}{{6}{3}{Weitere Lekt\"{u}re\relax }{section.6}{}}
