\select@language {polish}
\contentsline {section}{\numberline {1}Article 5(2)}{2}{section.1}
\contentsline {section}{\numberline {2}Article 4a(1)}{2}{section.2}
\contentsline {section}{\numberline {3}Article 4a(2)}{3}{section.3}
