\relax 
\ifx\hyper@anchor\@undefined
\global \let \oldcontentsline\contentsline
\gdef \contentsline#1#2#3#4{\oldcontentsline{#1}{#2}{#3}}
\global \let \oldnewlabel\newlabel
\gdef \newlabel#1#2{\newlabelxx{#1}#2}
\gdef \newlabelxx#1#2#3#4#5#6{\oldnewlabel{#1}{{#2}{#3}}}
\AtEndDocument{\let \contentsline\oldcontentsline
\let \newlabel\oldnewlabel}
\else
\global \let \hyper@last\relax 
\fi

\@writefile{toc}{\contentsline {section}{\numberline {1}Article 5(2)}{1}{section.1}}
\newlabel{ed252}{{1}{1}{Article 5(2)\relax }{section.1}{}}
\@writefile{toc}{\contentsline {section}{\numberline {2}Article 4a(1)}{2}{section.2}}
\newlabel{ed24@A1}{{2}{2}{Article 4a(1)\relax }{section.2}{}}
\@writefile{toc}{\contentsline {section}{\numberline {3}Article 4a(2)}{3}{section.3}}
\newlabel{ed24@A2}{{3}{3}{Article 4a(2)\relax }{section.3}{}}
\gdef\scr@tpo@lst{0}
