\relax 
\ifx\hyper@anchor\@undefined
\global \let \oldcontentsline\contentsline
\gdef \contentsline#1#2#3#4{\oldcontentsline{#1}{#2}{#3}}
\global \let \oldnewlabel\newlabel
\gdef \newlabel#1#2{\newlabelxx{#1}#2}
\gdef \newlabelxx#1#2#3#4#5#6{\oldnewlabel{#1}{{#2}{#3}}}
\AtEndDocument{\let \contentsline\oldcontentsline
\let \newlabel\oldnewlabel}
\else
\global \let \hyper@last\relax 
\fi

\@writefile{toc}{\contentsline {chapter}{\numberline {1}Wuermeling's Media Campaign}{4}{chapter.1}}
\@writefile{lof}{\addvspace {10\p@ }}
\@writefile{lot}{\addvspace {10\p@ }}
\newlabel{cusku}{{1}{4}{Wuermeling's Media Campaign\relax }{chapter.1}{}}
\@writefile{toc}{\contentsline {chapter}{\numberline {2}Wuermeling's Amendments: Fake Limits on Patentability}{6}{chapter.2}}
\@writefile{lof}{\addvspace {10\p@ }}
\@writefile{lot}{\addvspace {10\p@ }}
\newlabel{amend}{{2}{6}{Wuermeling's Amendments: Fake Limits on Patentability\relax }{chapter.2}{}}
\@writefile{toc}{\contentsline {section}{\numberline {2.1}Amendment 84}{6}{section.2.1}}
\newlabel{am84}{{2.1}{6}{Amendment 84\relax }{section.2.1}{}}
\@writefile{toc}{\contentsline {section}{\numberline {2.2}Amendment 86}{6}{section.2.2}}
\newlabel{am86}{{2.2}{6}{Amendment 86\relax }{section.2.2}{}}
\@writefile{toc}{\contentsline {section}{\numberline {2.3}Amendment 87}{6}{section.2.3}}
\newlabel{am87}{{2.3}{6}{Amendment 87\relax }{section.2.3}{}}
\@writefile{toc}{\contentsline {section}{\numberline {2.4}Amendment 88}{6}{section.2.4}}
\newlabel{am88}{{2.4}{6}{Amendment 88\relax }{section.2.4}{}}
\@writefile{toc}{\contentsline {chapter}{\numberline {3}Annotated Links}{7}{chapter.3}}
\@writefile{lof}{\addvspace {10\p@ }}
\@writefile{lot}{\addvspace {10\p@ }}
\newlabel{links}{{3}{7}{Annotated Links\relax }{chapter.3}{}}
