\contentsline {chapter}{\numberline {1}Wuermelings Medienkampagne}{4}{chapter.1}
\contentsline {chapter}{\numberline {2}Wuermelings \"{A}nderungsvorschl\"{a}ge: Scheinbegrenzung der Patentierbarkeit}{6}{chapter.2}
\contentsline {section}{\numberline {2.1}\"{A}nderungsvorschlag 84}{6}{section.2.1}
\contentsline {section}{\numberline {2.2}\"{A}nderungsvorschlag 86}{6}{section.2.2}
\contentsline {section}{\numberline {2.3}\"{A}nderungsvorschlag 87}{6}{section.2.3}
\contentsline {section}{\numberline {2.4}\"{A}nderungsvorschlag 88}{6}{section.2.4}
\contentsline {chapter}{\numberline {3}Kommentierte Verweise}{8}{chapter.3}
