\contentsline {chapter}{\numberline {1}Wuermeling's Media Campaign}{4}{chapter.1}
\contentsline {chapter}{\numberline {2}Wuermeling's Amendments: Fake Limits on Patentability}{6}{chapter.2}
\contentsline {section}{\numberline {2.1}Amendment 84}{6}{section.2.1}
\contentsline {section}{\numberline {2.2}Amendment 86}{6}{section.2.2}
\contentsline {section}{\numberline {2.3}Amendment 87}{6}{section.2.3}
\contentsline {section}{\numberline {2.4}Amendment 88}{6}{section.2.4}
\contentsline {chapter}{\numberline {3}Annotated Links}{7}{chapter.3}
