\relax 
\ifx\hyper@anchor\@undefined
\global \let \oldcontentsline\contentsline
\gdef \contentsline#1#2#3#4{\oldcontentsline{#1}{#2}{#3}}
\global \let \oldnewlabel\newlabel
\gdef \newlabel#1#2{\newlabelxx{#1}#2}
\gdef \newlabelxx#1#2#3#4#5#6{\oldnewlabel{#1}{{#2}{#3}}}
\AtEndDocument{\let \contentsline\oldcontentsline
\let \newlabel\oldnewlabel}
\else
\global \let \hyper@last\relax 
\fi

\@writefile{toc}{\contentsline {chapter}{\numberline {1}Wuermelings Medienkampagne}{4}{chapter.1}}
\@writefile{lof}{\addvspace {10\p@ }}
\@writefile{lot}{\addvspace {10\p@ }}
\newlabel{cusku}{{1}{4}{Wuermelings Medienkampagne\relax }{chapter.1}{}}
\@writefile{toc}{\contentsline {chapter}{\numberline {2}Wuermelings \"{A}nderungsvorschl\"{a}ge: Scheinbegrenzung der Patentierbarkeit}{6}{chapter.2}}
\@writefile{lof}{\addvspace {10\p@ }}
\@writefile{lot}{\addvspace {10\p@ }}
\newlabel{amend}{{2}{6}{Wuermelings \"{A}nderungsvorschl\"{a}ge: Scheinbegrenzung der Patentierbarkeit\relax }{chapter.2}{}}
\@writefile{toc}{\contentsline {section}{\numberline {2.1}\"{A}nderungsvorschlag 84}{6}{section.2.1}}
\newlabel{am84}{{2.1}{6}{\"{A}nderungsvorschlag 84\relax }{section.2.1}{}}
\@writefile{toc}{\contentsline {section}{\numberline {2.2}\"{A}nderungsvorschlag 86}{6}{section.2.2}}
\newlabel{am86}{{2.2}{6}{\"{A}nderungsvorschlag 86\relax }{section.2.2}{}}
\@writefile{toc}{\contentsline {section}{\numberline {2.3}\"{A}nderungsvorschlag 87}{6}{section.2.3}}
\newlabel{am87}{{2.3}{6}{\"{A}nderungsvorschlag 87\relax }{section.2.3}{}}
\@writefile{toc}{\contentsline {section}{\numberline {2.4}\"{A}nderungsvorschlag 88}{6}{section.2.4}}
\newlabel{am88}{{2.4}{6}{\"{A}nderungsvorschlag 88\relax }{section.2.4}{}}
\@writefile{toc}{\contentsline {chapter}{\numberline {3}Kommentierte Verweise}{8}{chapter.3}}
\@writefile{lof}{\addvspace {10\p@ }}
\@writefile{lot}{\addvspace {10\p@ }}
\newlabel{links}{{3}{8}{Kommentierte Verweise\relax }{chapter.3}{}}
