\relax 
\ifx\hyper@anchor\@undefined
\global \let \oldcontentsline\contentsline
\gdef \contentsline#1#2#3#4{\oldcontentsline{#1}{#2}{#3}}
\global \let \oldnewlabel\newlabel
\gdef \newlabel#1#2{\newlabelxx{#1}#2}
\gdef \newlabelxx#1#2#3#4#5#6{\oldnewlabel{#1}{{#2}{#3}}}
\AtEndDocument{\let \contentsline\oldcontentsline
\let \newlabel\oldnewlabel}
\else
\global \let \hyper@last\relax 
\fi

\gdef \LT@i {\LT@entry 
    {1}{88.08292pt}\LT@entry 
    {1}{275.90303pt}}
\@writefile{toc}{\contentsline {section}{\numberline {1}News \& Chronology}{1}{section.1}}
\newlabel{cnino}{{1}{1}{News \& Chronology\relax }{section.1}{}}
\@writefile{toc}{\contentsline {section}{\numberline {2}details}{2}{section.2}}
\newlabel{detal}{{2}{2}{details\relax }{section.2}{}}
\@writefile{toc}{\contentsline {section}{\numberline {3}The Patent}{2}{section.3}}
\newlabel{pikta}{{3}{2}{The Patent\relax }{section.3}{}}
\gdef\scr@tpo@lst{0}
