\contentsline {section}{\numberline {1}News \& Chronology}{1}{section.1}
\contentsline {section}{\numberline {2}details}{2}{section.2}
\contentsline {section}{\numberline {3}The Patent}{2}{section.3}
