\contentsline {section}{\numberline {1}Licencsing Terms}{2}{section.1}
\contentsline {section}{\numberline {2}Patent Claims}{2}{section.2}
\contentsline {section}{\numberline {3}Annotated Links}{4}{section.3}
\contentsline {section}{\numberline {4}Questions, Things To Do, How you can Help}{6}{section.4}
