\relax 
\ifx\hyper@anchor\@undefined
\global \let \oldcontentsline\contentsline
\gdef \contentsline#1#2#3#4{\oldcontentsline{#1}{#2}{#3}}
\global \let \oldnewlabel\newlabel
\gdef \newlabel#1#2{\newlabelxx{#1}#2}
\gdef \newlabelxx#1#2#3#4#5#6{\oldnewlabel{#1}{{#2}{#3}}}
\AtEndDocument{\let \contentsline\oldcontentsline
\let \newlabel\oldnewlabel}
\else
\global \let \hyper@last\relax 
\fi

\@writefile{toc}{\contentsline {section}{\numberline {1}Lizenzbedingungen}{2}{section.1}}
\newlabel{msla}{{1}{2}{Lizenzbedingungen\relax }{section.1}{}}
\@writefile{toc}{\contentsline {section}{\numberline {2}Patentanspr\"{u}che}{2}{section.2}}
\newlabel{clms}{{2}{2}{Patentanspr\"{u}che\relax }{section.2}{}}
\@writefile{toc}{\contentsline {section}{\numberline {3}Annotated Links}{4}{section.3}}
\newlabel{links}{{3}{4}{Annotated Links\relax }{section.3}{}}
\@writefile{toc}{\contentsline {section}{\numberline {4}Fragen, Aufgaben, Wie Sie helfen k\"{o}nnen}{6}{section.4}}
\newlabel{tasks}{{4}{6}{Fragen, Aufgaben, Wie Sie helfen k\"{o}nnen\relax }{section.4}{}}
\gdef\scr@tpo@lst{0}
