\contentsline {section}{\numberline {1}Lizenzbedingungen}{2}{section.1}
\contentsline {section}{\numberline {2}Patentanspr\"{u}che}{2}{section.2}
\contentsline {section}{\numberline {3}Annotated Links}{4}{section.3}
\contentsline {section}{\numberline {4}Fragen, Aufgaben, Wie Sie helfen k\"{o}nnen}{6}{section.4}
