\contentsline {section}{\numberline {1}Deutschland}{2}{section.1}
\contentsline {section}{\numberline {2}Ungarn}{2}{section.2}
\contentsline {section}{\numberline {3}Polen}{3}{section.3}
\contentsline {section}{\numberline {4}D\"{a}nemark}{3}{section.4}
\contentsline {section}{\numberline {5}Niederlande}{4}{section.5}
\contentsline {section}{\numberline {6}Luxemburg, Estland, Lettland, Slowenien, Slowakei}{4}{section.6}
\contentsline {section}{\numberline {7}Frankreich\ usw.}{4}{section.7}
\contentsline {section}{\numberline {8}Kommission: DG Markt l\"{u}gt, um andere DGs dazu zu bewegen, Programm-Ansp\"{u}che zu akzeptieren}{5}{section.8}
