\relax 
\ifx\hyper@anchor\@undefined
\global \let \oldcontentsline\contentsline
\gdef \contentsline#1#2#3#4{\oldcontentsline{#1}{#2}{#3}}
\global \let \oldnewlabel\newlabel
\gdef \newlabel#1#2{\newlabelxx{#1}#2}
\gdef \newlabelxx#1#2#3#4#5#6{\oldnewlabel{#1}{{#2}{#3}}}
\AtEndDocument{\let \contentsline\oldcontentsline
\let \newlabel\oldnewlabel}
\else
\global \let \hyper@last\relax 
\fi

\@writefile{toc}{\contentsline {section}{\numberline {1}Deutschland}{1}{section.1}}
\newlabel{de}{{1}{1}{Deutschland\relax }{section.1}{}}
\@writefile{toc}{\contentsline {section}{\numberline {2}Ungarn}{2}{section.2}}
\newlabel{hu}{{2}{2}{Ungarn\relax }{section.2}{}}
\@writefile{toc}{\contentsline {section}{\numberline {3}Polen}{2}{section.3}}
\newlabel{pl}{{3}{2}{Polen\relax }{section.3}{}}
\@writefile{toc}{\contentsline {section}{\numberline {4}D\"{a}nemark}{2}{section.4}}
\newlabel{dk}{{4}{2}{D\"{a}nemark\relax }{section.4}{}}
\@writefile{toc}{\contentsline {section}{\numberline {5}Niederlande}{3}{section.5}}
\newlabel{nl}{{5}{3}{Niederlande\relax }{section.5}{}}
\@writefile{toc}{\contentsline {section}{\numberline {6}Luxemburg, Estland, Lettland, Slowenien, Slowakei}{3}{section.6}}
\newlabel{ee}{{6}{3}{Luxemburg, Estland, Lettland, Slowenien, Slowakei\relax }{section.6}{}}
\@writefile{toc}{\contentsline {section}{\numberline {7}Frankreich\ usw.}{4}{section.7}}
\newlabel{fr}{{7}{4}{Frankreich\ usw}{section.7}{}}
\@writefile{toc}{\contentsline {section}{\numberline {8}Kommission: DG Markt l\"{u}gt, um andere DGs dazu zu bewegen, Programm-Ansp\"{u}che zu akzeptieren}{4}{section.8}}
\newlabel{cec}{{8}{4}{Kommission: DG Markt l\"{u}gt, um andere DGs dazu zu bewegen, Programm-Ansp\"{u}che zu akzeptieren\relax }{section.8}{}}
\@writefile{toc}{\contentsline {section}{\numberline {9}National Parliaments: Misinformed, Ignored, Disregarded}{5}{section.9}}
\newlabel{parl}{{9}{5}{National Parliaments: Misinformed, Ignored, Disregarded\relax }{section.9}{}}
\gdef\scr@tpo@lst{0}
