\contentsline {section}{\numberline {1}Duitsland}{2}{section.1}
\contentsline {section}{\numberline {2}Hongarije}{2}{section.2}
\contentsline {section}{\numberline {3}Polen}{3}{section.3}
\contentsline {section}{\numberline {4}Denemarken}{3}{section.4}
\contentsline {section}{\numberline {5}Nederland}{4}{section.5}
\contentsline {section}{\numberline {6}Luxemburg, Estland, Letland, Sloveni\"{e}}{4}{section.6}
\contentsline {section}{\numberline {7}Frankrijk\ etc}{4}{section.7}
\contentsline {section}{\numberline {8}Commissie: DG Interne Markt liegt om andere DG's programmaconclusies te laten aanvaarden}{5}{section.8}
