\relax 
\catcode`:\active
\catcode`;\active
\catcode`!\active
\catcode`?\active
\ifx\hyper@anchor\@undefined
\global \let \oldcontentsline\contentsline
\gdef \contentsline#1#2#3#4{\oldcontentsline{#1}{#2}{#3}}
\global \let \oldnewlabel\newlabel
\gdef \newlabel#1#2{\newlabelxx{#1}#2}
\gdef \newlabelxx#1#2#3#4#5#6{\oldnewlabel{#1}{{#2}{#3}}}
\AtEndDocument{\let \contentsline\oldcontentsline
\let \newlabel\oldnewlabel}
\else
\global \let \hyper@last\relax 
\fi

\select@language{french}
\@writefile{toc}{\select@language{french}}
\@writefile{lof}{\select@language{french}}
\@writefile{lot}{\select@language{french}}
\@writefile{toc}{\contentsline {section}{\numberline {1}Allemagne}{1}{section.1}}
\newlabel{de}{{1}{1}{Allemagne\relax }{section.1}{}}
\@writefile{toc}{\contentsline {section}{\numberline {2}Hongrie}{2}{section.2}}
\newlabel{hu}{{2}{2}{Hongrie\relax }{section.2}{}}
\@writefile{toc}{\contentsline {section}{\numberline {3}Pologne}{2}{section.3}}
\newlabel{pl}{{3}{2}{Pologne\relax }{section.3}{}}
\@writefile{toc}{\contentsline {section}{\numberline {4}Danemark}{2}{section.4}}
\newlabel{dk}{{4}{2}{Danemark\relax }{section.4}{}}
\@writefile{toc}{\contentsline {section}{\numberline {5}Pays-Bas}{3}{section.5}}
\newlabel{nl}{{5}{3}{Pays-Bas\relax }{section.5}{}}
\@writefile{toc}{\contentsline {section}{\numberline {6}Luxembourg, Estonie, Lettonie, Slovakie, Slov\'{e}nie}{3}{section.6}}
\newlabel{ee}{{6}{3}{Luxembourg, Estonie, Lettonie, Slovakie, Slov\'{e}nie\relax }{section.6}{}}
\@writefile{toc}{\contentsline {section}{\numberline {7}France\ etc}{4}{section.7}}
\newlabel{fr}{{7}{4}{France\ etc\relax }{section.7}{}}
\@writefile{toc}{\contentsline {section}{\numberline {8}Commission: La DG March\'{e} int\'{e}rieur ment pour faire accepter par les autres DG les revendications de programmes}{4}{section.8}}
\newlabel{cec}{{8}{4}{Commission: La DG March\'{e} int\'{e}rieur ment pour faire accepter par les autres DG les revendications de programmes\relax }{section.8}{}}
\@writefile{toc}{\contentsline {section}{\numberline {9}Parlments nationaux : D\'{e}sinform\'{e}s, ignor\'{e}s, m\'{e}pris\'{e}s}{5}{section.9}}
\newlabel{parl}{{9}{5}{Parlments nationaux : D\'{e}sinform\'{e}s, ignor\'{e}s, m\'{e}pris\'{e}s\relax }{section.9}{}}
\gdef\scr@tpo@lst{0}
