\select@language {french}
\contentsline {section}{\numberline {1}Allemagne}{1}{section.1}
\contentsline {section}{\numberline {2}Hongrie}{2}{section.2}
\contentsline {section}{\numberline {3}Pologne}{2}{section.3}
\contentsline {section}{\numberline {4}Danemark}{2}{section.4}
\contentsline {section}{\numberline {5}Pays-Bas}{3}{section.5}
\contentsline {section}{\numberline {6}Luxembourg, Estonie, Lettonie, Slovakie, Slov\'{e}nie}{3}{section.6}
\contentsline {section}{\numberline {7}France\ etc}{4}{section.7}
\contentsline {section}{\numberline {8}Commission: La DG March\'{e} int\'{e}rieur ment pour faire accepter par les autres DG les revendications de programmes}{4}{section.8}
\contentsline {section}{\numberline {9}Parlments nationaux : D\'{e}sinform\'{e}s, ignor\'{e}s, m\'{e}pris\'{e}s}{5}{section.9}
