\select@language {polish}
\contentsline {section}{\numberline {1}Germania}{2}{section.1}
\contentsline {section}{\numberline {2}Hungaria}{2}{section.2}
\contentsline {section}{\numberline {3}Polonia}{2}{section.3}
\contentsline {section}{\numberline {4}Danmark}{3}{section.4}
\contentsline {section}{\numberline {5}Holland}{3}{section.5}
\contentsline {section}{\numberline {6}Luksemburg, Estonia, ^^c5^^81otwa, S^^c5^^82owenia}{4}{section.6}
\contentsline {section}{\numberline {7}France\ etc}{4}{section.7}
\contentsline {section}{\numberline {8}Komisja: Dyrekcja Generalna Rynku Wewn^^c4^^99trznego k^^c5^^82amie aby sk^^c5^^82oni^^c4^^87 inne Dyrekcje do zaakceptowania zastrze^^c5^^bce^^c5^^84 programowych}{4}{section.8}
