\contentsline {section}{\numberline {1}Germany}{2}{section.1}
\contentsline {section}{\numberline {2}Hungary}{2}{section.2}
\contentsline {section}{\numberline {3}Poland}{3}{section.3}
\contentsline {section}{\numberline {4}Denmark}{3}{section.4}
\contentsline {section}{\numberline {5}Netherlands}{4}{section.5}
\contentsline {section}{\numberline {6}Luxemburg, Estonia, Latvia, Slovakia, Slovenia}{4}{section.6}
\contentsline {section}{\numberline {7}France\ etc}{4}{section.7}
\contentsline {section}{\numberline {8}Commission: DG Markt lies to make other DGs accept program claims}{4}{section.8}
