\relax 
\ifx\hyper@anchor\@undefined
\global \let \oldcontentsline\contentsline
\gdef \contentsline#1#2#3#4{\oldcontentsline{#1}{#2}{#3}}
\global \let \oldnewlabel\newlabel
\gdef \newlabel#1#2{\newlabelxx{#1}#2}
\gdef \newlabelxx#1#2#3#4#5#6{\oldnewlabel{#1}{{#2}{#3}}}
\AtEndDocument{\let \contentsline\oldcontentsline
\let \newlabel\oldnewlabel}
\else
\global \let \hyper@last\relax 
\fi

\@writefile{toc}{\contentsline {section}{\numberline {1}Germany}{1}{section.1}}
\newlabel{de}{{1}{1}{Germany\relax }{section.1}{}}
\@writefile{toc}{\contentsline {section}{\numberline {2}Hungary}{2}{section.2}}
\newlabel{hu}{{2}{2}{Hungary\relax }{section.2}{}}
\@writefile{toc}{\contentsline {section}{\numberline {3}Poland}{2}{section.3}}
\newlabel{pl}{{3}{2}{Poland\relax }{section.3}{}}
\@writefile{toc}{\contentsline {section}{\numberline {4}Denmark}{2}{section.4}}
\newlabel{dk}{{4}{2}{Denmark\relax }{section.4}{}}
\@writefile{toc}{\contentsline {section}{\numberline {5}Netherlands}{3}{section.5}}
\newlabel{nl}{{5}{3}{Netherlands\relax }{section.5}{}}
\@writefile{toc}{\contentsline {section}{\numberline {6}Luxemburg, Estonia, Latvia, Slovakia, Slovenia}{3}{section.6}}
\newlabel{ee}{{6}{3}{Luxemburg, Estonia, Latvia, Slovakia, Slovenia\relax }{section.6}{}}
\@writefile{toc}{\contentsline {section}{\numberline {7}France\ etc}{4}{section.7}}
\newlabel{fr}{{7}{4}{France\ etc\relax }{section.7}{}}
\@writefile{toc}{\contentsline {section}{\numberline {8}Commission: DG Internal Market sways other DGs by ``magic''}{4}{section.8}}
\newlabel{cec}{{8}{4}{Commission: DG Internal Market sways other DGs by ``magic''\relax }{section.8}{}}
\@writefile{toc}{\contentsline {section}{\numberline {9}National Parliaments: Misinformed, Ignored, Disregarded}{5}{section.9}}
\newlabel{parl}{{9}{5}{National Parliaments: Misinformed, Ignored, Disregarded\relax }{section.9}{}}
\gdef\scr@tpo@lst{0}
