\relax 
\ifx\hyper@anchor\@undefined
\global \let \oldcontentsline\contentsline
\gdef \contentsline#1#2#3#4{\oldcontentsline{#1}{#2}{#3}}
\global \let \oldnewlabel\newlabel
\gdef \newlabel#1#2{\newlabelxx{#1}#2}
\gdef \newlabelxx#1#2#3#4#5#6{\oldnewlabel{#1}{{#2}{#3}}}
\AtEndDocument{\let \contentsline\oldcontentsline
\let \newlabel\oldnewlabel}
\else
\global \let \hyper@last\relax 
\fi

\@writefile{toc}{\contentsline {chapter}{\numberline {1}ABSTRACT}{4}{chapter.1}}
\@writefile{lof}{\addvspace {10\p@ }}
\@writefile{lot}{\addvspace {10\p@ }}
\newlabel{samm}{{1}{4}{ABSTRACT\relax }{chapter.1}{}}
\@writefile{toc}{\contentsline {chapter}{\numberline {2}VIEWPOINTS}{5}{chapter.2}}
\@writefile{lof}{\addvspace {10\p@ }}
\@writefile{lot}{\addvspace {10\p@ }}
\newlabel{synp}{{2}{5}{VIEWPOINTS\relax }{chapter.2}{}}
\@writefile{toc}{\contentsline {chapter}{\numberline {3}CASE STUDY}{6}{chapter.3}}
\@writefile{lof}{\addvspace {10\p@ }}
\@writefile{lot}{\addvspace {10\p@ }}
\newlabel{case}{{3}{6}{CASE STUDY\relax }{chapter.3}{}}
\@writefile{toc}{\contentsline {chapter}{\numberline {4}DISCOURAGE OR ENCOURAGE?}{7}{chapter.4}}
\@writefile{lof}{\addvspace {10\p@ }}
\@writefile{lot}{\addvspace {10\p@ }}
\newlabel{utve}{{4}{7}{DISCOURAGE OR ENCOURAGE?\relax }{chapter.4}{}}
\@writefile{toc}{\contentsline {chapter}{\numberline {5}UNANSWERED QUESTIONS}{8}{chapter.5}}
\@writefile{lof}{\addvspace {10\p@ }}
\@writefile{lot}{\addvspace {10\p@ }}
\newlabel{obes}{{5}{8}{UNANSWERED QUESTIONS\relax }{chapter.5}{}}
\@writefile{toc}{\contentsline {chapter}{\numberline {6}WHAT IS A ``COMPUTER-IMPLEMENTED INVENTION''?}{9}{chapter.6}}
\@writefile{lof}{\addvspace {10\p@ }}
\@writefile{lot}{\addvspace {10\p@ }}
\newlabel{vadr}{{6}{9}{WHAT IS A ``COMPUTER-IMPLEMENTED INVENTION''?\relax }{chapter.6}{}}
\@writefile{toc}{\contentsline {chapter}{\numberline {7}ORIGIN OF EPO PRACTISE}{10}{chapter.7}}
\@writefile{lof}{\addvspace {10\p@ }}
\@writefile{lot}{\addvspace {10\p@ }}
\newlabel{epop}{{7}{10}{ORIGIN OF EPO PRACTISE\relax }{chapter.7}{}}
\@writefile{toc}{\contentsline {chapter}{\numberline {8}CODIFYING OF EPO PRACTISE}{13}{chapter.8}}
\@writefile{lof}{\addvspace {10\p@ }}
\@writefile{lot}{\addvspace {10\p@ }}
\newlabel{kodi}{{8}{13}{CODIFYING OF EPO PRACTISE\relax }{chapter.8}{}}
\@writefile{toc}{\contentsline {chapter}{\numberline {9}Notes}{15}{chapter.9}}
\@writefile{lof}{\addvspace {10\p@ }}
\@writefile{lot}{\addvspace {10\p@ }}
\newlabel{note}{{9}{15}{Notes\relax }{chapter.9}{}}
