\contentsline {chapter}{\numberline {1}ABSTRACT}{4}{chapter.1}
\contentsline {chapter}{\numberline {2}VIEWPOINTS}{5}{chapter.2}
\contentsline {chapter}{\numberline {3}CASE STUDY}{6}{chapter.3}
\contentsline {chapter}{\numberline {4}DISCOURAGE OR ENCOURAGE?}{7}{chapter.4}
\contentsline {chapter}{\numberline {5}UNANSWERED QUESTIONS}{8}{chapter.5}
\contentsline {chapter}{\numberline {6}WHAT IS A ``COMPUTER-IMPLEMENTED INVENTION''?}{9}{chapter.6}
\contentsline {chapter}{\numberline {7}ORIGIN OF EPO PRACTISE}{10}{chapter.7}
\contentsline {chapter}{\numberline {8}CODIFYING OF EPO PRACTISE}{13}{chapter.8}
\contentsline {chapter}{\numberline {9}Notes}{15}{chapter.9}
