\BOOKMARK [0][-]{chapter.1}{SAMMANFATTNING}{}
\BOOKMARK [0][-]{chapter.2}{SYNPUNKTER}{}
\BOOKMARK [0][-]{chapter.3}{CASE STUDY}{}
\BOOKMARK [0][-]{chapter.4}{H\304MMAS ELLER FR\304MJAS UTVECKLINGEN?}{}
\BOOKMARK [0][-]{chapter.5}{OBESVARADE FR\305GEST\304LLNINGAR}{}
\BOOKMARK [0][-]{chapter.6}{VAD \304R EN ``DATORRELATERAD UPPFINNING''?}{}
\BOOKMARK [0][-]{chapter.7}{UPPKOMST AV EPOs PRAXIS}{}
\BOOKMARK [0][-]{chapter.8}{KODIFIERING AV EPOs PRAXIS}{}
\BOOKMARK [0][-]{chapter.9}{Notes}{}
