\relax 
\ifx\hyper@anchor\@undefined
\global \let \oldcontentsline\contentsline
\gdef \contentsline#1#2#3#4{\oldcontentsline{#1}{#2}{#3}}
\global \let \oldnewlabel\newlabel
\gdef \newlabel#1#2{\newlabelxx{#1}#2}
\gdef \newlabelxx#1#2#3#4#5#6{\oldnewlabel{#1}{{#2}{#3}}}
\AtEndDocument{\let \contentsline\oldcontentsline
\let \newlabel\oldnewlabel}
\else
\global \let \hyper@last\relax 
\fi

\@writefile{toc}{\contentsline {chapter}{\numberline {1}SAMMANFATTNING}{4}{chapter.1}}
\@writefile{lof}{\addvspace {10\p@ }}
\@writefile{lot}{\addvspace {10\p@ }}
\newlabel{samm}{{1}{4}{SAMMANFATTNING\relax }{chapter.1}{}}
\@writefile{toc}{\contentsline {chapter}{\numberline {2}SYNPUNKTER}{5}{chapter.2}}
\@writefile{lof}{\addvspace {10\p@ }}
\@writefile{lot}{\addvspace {10\p@ }}
\newlabel{synp}{{2}{5}{SYNPUNKTER\relax }{chapter.2}{}}
\@writefile{toc}{\contentsline {chapter}{\numberline {3}CASE STUDY}{6}{chapter.3}}
\@writefile{lof}{\addvspace {10\p@ }}
\@writefile{lot}{\addvspace {10\p@ }}
\newlabel{case}{{3}{6}{CASE STUDY\relax }{chapter.3}{}}
\@writefile{toc}{\contentsline {chapter}{\numberline {4}H\"{A}MMAS ELLER FR\"{A}MJAS UTVECKLINGEN?}{7}{chapter.4}}
\@writefile{lof}{\addvspace {10\p@ }}
\@writefile{lot}{\addvspace {10\p@ }}
\newlabel{utve}{{4}{7}{H\"{A}MMAS ELLER FR\"{A}MJAS UTVECKLINGEN?\relax }{chapter.4}{}}
\@writefile{toc}{\contentsline {chapter}{\numberline {5}OBESVARADE FR\r A{}GEST\"{A}LLNINGAR}{8}{chapter.5}}
\@writefile{lof}{\addvspace {10\p@ }}
\@writefile{lot}{\addvspace {10\p@ }}
\newlabel{obes}{{5}{8}{OBESVARADE FR\AA {}GEST\"{A}LLNINGAR\relax }{chapter.5}{}}
\@writefile{toc}{\contentsline {chapter}{\numberline {6}VAD \"{A}R EN ``DATORRELATERAD UPPFINNING''?}{9}{chapter.6}}
\@writefile{lof}{\addvspace {10\p@ }}
\@writefile{lot}{\addvspace {10\p@ }}
\newlabel{vadr}{{6}{9}{VAD \"{A}R EN ``DATORRELATERAD UPPFINNING''?\relax }{chapter.6}{}}
\@writefile{toc}{\contentsline {chapter}{\numberline {7}UPPKOMST AV EPOs PRAXIS}{10}{chapter.7}}
\@writefile{lof}{\addvspace {10\p@ }}
\@writefile{lot}{\addvspace {10\p@ }}
\newlabel{epop}{{7}{10}{UPPKOMST AV EPOs PRAXIS\relax }{chapter.7}{}}
\@writefile{toc}{\contentsline {chapter}{\numberline {8}KODIFIERING AV EPOs PRAXIS}{13}{chapter.8}}
\@writefile{lof}{\addvspace {10\p@ }}
\@writefile{lot}{\addvspace {10\p@ }}
\newlabel{kodi}{{8}{13}{KODIFIERING AV EPOs PRAXIS\relax }{chapter.8}{}}
\@writefile{toc}{\contentsline {chapter}{\numberline {9}Notes}{15}{chapter.9}}
\@writefile{lof}{\addvspace {10\p@ }}
\@writefile{lot}{\addvspace {10\p@ }}
\newlabel{note}{{9}{15}{Notes\relax }{chapter.9}{}}
