\contentsline {chapter}{\numberline {1}SAMMANFATTNING}{4}{chapter.1}
\contentsline {chapter}{\numberline {2}SYNPUNKTER}{5}{chapter.2}
\contentsline {chapter}{\numberline {3}CASE STUDY}{6}{chapter.3}
\contentsline {chapter}{\numberline {4}H\"{A}MMAS ELLER FR\"{A}MJAS UTVECKLINGEN?}{7}{chapter.4}
\contentsline {chapter}{\numberline {5}OBESVARADE FR\r A{}GEST\"{A}LLNINGAR}{8}{chapter.5}
\contentsline {chapter}{\numberline {6}VAD \"{A}R EN ``DATORRELATERAD UPPFINNING''?}{9}{chapter.6}
\contentsline {chapter}{\numberline {7}UPPKOMST AV EPOs PRAXIS}{10}{chapter.7}
\contentsline {chapter}{\numberline {8}KODIFIERING AV EPOs PRAXIS}{13}{chapter.8}
\contentsline {chapter}{\numberline {9}Notes}{15}{chapter.9}
