\relax 
\ifx\hyper@anchor\@undefined
\global \let \oldcontentsline\contentsline
\gdef \contentsline#1#2#3#4{\oldcontentsline{#1}{#2}{#3}}
\global \let \oldnewlabel\newlabel
\gdef \newlabel#1#2{\newlabelxx{#1}#2}
\gdef \newlabelxx#1#2#3#4#5#6{\oldnewlabel{#1}{{#2}{#3}}}
\AtEndDocument{\let \contentsline\oldcontentsline
\let \newlabel\oldnewlabel}
\else
\global \let \hyper@last\relax 
\fi

\@writefile{toc}{\contentsline {chapter}{\numberline {1}Strong points}{4}{chapter.1}}
\@writefile{lof}{\addvspace {10\p@ }}
\@writefile{lot}{\addvspace {10\p@ }}
\newlabel{fort}{{1}{4}{Strong points\relax }{chapter.1}{}}
\@writefile{toc}{\contentsline {chapter}{\numberline {2}Weak points}{5}{chapter.2}}
\@writefile{lof}{\addvspace {10\p@ }}
\@writefile{lot}{\addvspace {10\p@ }}
\newlabel{febl}{{2}{5}{Weak points\relax }{chapter.2}{}}
\@writefile{toc}{\contentsline {chapter}{\numberline {3}Key points}{8}{chapter.3}}
\@writefile{lof}{\addvspace {10\p@ }}
\@writefile{lot}{\addvspace {10\p@ }}
\newlabel{keyp}{{3}{8}{Key points\relax }{chapter.3}{}}
\@writefile{toc}{\contentsline {chapter}{\numberline {4}Quotes}{10}{chapter.4}}
\@writefile{lof}{\addvspace {10\p@ }}
\@writefile{lot}{\addvspace {10\p@ }}
\newlabel{orig}{{4}{10}{Quotes\relax }{chapter.4}{}}
\@writefile{toc}{\contentsline {chapter}{\numberline {5}Annotated Links}{11}{chapter.5}}
\@writefile{lof}{\addvspace {10\p@ }}
\@writefile{lot}{\addvspace {10\p@ }}
\newlabel{links}{{5}{11}{Annotated Links\relax }{chapter.5}{}}
