\contentsline {chapter}{\numberline {1}Strong points}{4}{chapter.1}
\contentsline {chapter}{\numberline {2}Weak points}{5}{chapter.2}
\contentsline {chapter}{\numberline {3}Key points}{8}{chapter.3}
\contentsline {chapter}{\numberline {4}Quotes}{10}{chapter.4}
\contentsline {chapter}{\numberline {5}Annotated Links}{11}{chapter.5}
