\contentsline {section}{\numberline {1}The Text}{2}{section.1}
\contentsline {subsection}{\numberline {1.1}Examination of ``business method'' applications}{2}{subsection.1.1}
\contentsline {subsection}{\numberline {1.2}Examination of computer-implemented inventions}{3}{subsection.1.2}
\contentsline {section}{\numberline {2}Annotated Links}{5}{section.2}
