\relax 
\ifx\hyper@anchor\@undefined
\global \let \oldcontentsline\contentsline
\gdef \contentsline#1#2#3#4{\oldcontentsline{#1}{#2}{#3}}
\global \let \oldnewlabel\newlabel
\gdef \newlabel#1#2{\newlabelxx{#1}#2}
\gdef \newlabelxx#1#2#3#4#5#6{\oldnewlabel{#1}{{#2}{#3}}}
\AtEndDocument{\let \contentsline\oldcontentsline
\let \newlabel\oldnewlabel}
\else
\global \let \hyper@last\relax 
\fi

\@writefile{toc}{\contentsline {section}{\numberline {1}European Parliament divided on software patents vote next week}{2}{section.1}}
\newlabel{div}{{1}{2}{European Parliament divided on software patents vote next week\relax }{section.1}{}}
\@writefile{toc}{\contentsline {section}{\numberline {2}Media Contacts}{4}{section.2}}
\newlabel{media}{{2}{4}{Media Contacts\relax }{section.2}{}}
\@writefile{toc}{\contentsline {section}{\numberline {3}About the Eurolinux Alliance -- www.eurolinux.org}{4}{section.3}}
\newlabel{eurolinux}{{3}{4}{About the Eurolinux Alliance -- www.eurolinux.org\relax }{section.3}{}}
\@writefile{toc}{\contentsline {section}{\numberline {4}About the FFII -- www.ffii.org}{5}{section.4}}
\newlabel{ffii}{{4}{5}{About the FFII -- www.ffii.org\relax }{section.4}{}}
\@writefile{toc}{\contentsline {section}{\numberline {5}Permanent URL of this Press Release}{5}{section.5}}
\newlabel{url}{{5}{5}{Permanent URL of this Press Release\relax }{section.5}{}}
\@writefile{toc}{\contentsline {section}{\numberline {6}Annotated Links}{5}{section.6}}
\newlabel{links}{{6}{5}{Annotated Links\relax }{section.6}{}}
