\contentsline {section}{\numberline {1}European Parliament divided on software patents vote next week}{2}{section.1}
\contentsline {section}{\numberline {2}Media Contacts}{4}{section.2}
\contentsline {section}{\numberline {3}About the Eurolinux Alliance -- www.eurolinux.org}{4}{section.3}
\contentsline {section}{\numberline {4}About the FFII -- www.ffii.org}{5}{section.4}
\contentsline {section}{\numberline {5}Permanent URL of this Press Release}{5}{section.5}
\contentsline {section}{\numberline {6}Annotated Links}{5}{section.6}
