\contentsline {section}{\numberline {1}Einf\"{u}hrung}{2}{section.1}
\contentsline {section}{\numberline {2}Annotated Links}{2}{section.2}
\contentsline {section}{\numberline {3}Fragen, Aufgaben, Wie Sie helfen k\"{o}nnen}{5}{section.3}
