\relax 
\ifx\hyper@anchor\@undefined
\global \let \oldcontentsline\contentsline
\gdef \contentsline#1#2#3#4{\oldcontentsline{#1}{#2}{#3}}
\global \let \oldnewlabel\newlabel
\gdef \newlabel#1#2{\newlabelxx{#1}#2}
\gdef \newlabelxx#1#2#3#4#5#6{\oldnewlabel{#1}{{#2}{#3}}}
\AtEndDocument{\let \contentsline\oldcontentsline
\let \newlabel\oldnewlabel}
\else
\global \let \hyper@last\relax 
\fi

\csname auxWARNINGii\endcsname {\typeout {-34- this file and other auxiliary files require to use the following}}
\csname auxWARNINGii\endcsname {\typeout {-34- LaTeX packages: french and babel!}}
\csname auxWARNINGii\endcsname {\typeout {-34- check \protect \usepackage \space or remove these files. Typesetting is aborted!} \stop }
\select@language{french}
\@writefile{toc}{\select@language{french}}
\@writefile{lof}{\select@language{french}}
\@writefile{lot}{\select@language{french}}
\select@language{french}
\@writefile{toc}{\select@language{french}}
\@writefile{lof}{\select@language{french}}
\@writefile{lot}{\select@language{french}}
\@writefile{toc}{\contentsline {section}{\numberline {1}Warum Freie Software die Welt bewegt}{1}{section.0.1}}
\newlabel{opnsrc}{{1}{1}{Warum Freie Software die Welt bewegt\relax }{section.0.1}{}}
\@writefile{toc}{\contentsline {section}{\numberline {2}Wo die Infosph\"{a}re politische Hilfe braucht}{3}{section.0.2}}
\newlabel{polit}{{2}{3}{Wo die Infosph\"{a}re politische Hilfe braucht\relax }{section.0.2}{}}
\@writefile{toc}{\contentsline {subsection}{\numberline {2.1}Offizielle Anerkennung des Wertes freier Information}{3}{subsection.0.2.1}}
\newlabel{denk}{{2.1}{3}{Offizielle Anerkennung des Wertes freier Information\relax }{subsection.0.2.1}{}}
\@writefile{toc}{\contentsline {subsection}{\numberline {2.2}Offenheitszertifizierung}{3}{subsection.0.2.2}}
\newlabel{ifopn}{{2.2}{3}{Offenheitszertifizierung\relax }{subsection.0.2.2}{}}
\@writefile{toc}{\contentsline {subsection}{\numberline {2.3}Keine Patentierbarkeit von Information oder Leben}{4}{subsection.0.2.3}}
\newlabel{patent}{{2.3}{4}{Keine Patentierbarkeit von Information oder Leben\relax }{subsection.0.2.3}{}}
