\BOOKMARK [1][-]{section.1}{Warum Freie Software die Welt bewegt}{}
\BOOKMARK [1][-]{section.2}{Wo die Infosph\344re politische Hilfe braucht}{}
\BOOKMARK [2][-]{subsection.2.1}{Offizielle Anerkennung des Wertes freier Information}{section.2}
\BOOKMARK [2][-]{subsection.2.2}{Offenheitszertifizierung}{section.2}
\BOOKMARK [2][-]{subsection.2.3}{Keine Patentierbarkeit von Information oder Leben}{section.2}
