\select@language {french}
\select@language {french}
\contentsline {section}{\numberline {1}Texte d'Invitation}{1}{section.0.1}
\contentsline {section}{\numberline {2}Should we patent ``computer-implementable inventions''\@PI }{2}{section.0.2}
