\select@language {french}
\contentsline {section}{\numberline {1}Texte d'Invitation}{1}{section.1}
\contentsline {section}{\numberline {2}Should we patent ``computer-implemented inventions''?}{2}{section.2}
