\relax 
\ifx\hyper@anchor\@undefined
\global \let \oldcontentsline\contentsline
\gdef \contentsline#1#2#3#4{\oldcontentsline{#1}{#2}{#3}}
\global \let \oldnewlabel\newlabel
\gdef \newlabel#1#2{\newlabelxx{#1}#2}
\gdef \newlabelxx#1#2#3#4#5#6{\oldnewlabel{#1}{{#2}{#3}}}
\AtEndDocument{\let \contentsline\oldcontentsline
\let \newlabel\oldnewlabel}
\else
\global \let \hyper@last\relax 
\fi

\@writefile{toc}{\contentsline {section}{\numberline {1}Neues und Chronik}{3}{section.1}}
\newlabel{news}{{1}{3}{Neues und Chronik\relax }{section.1}{}}
\@writefile{toc}{\contentsline {section}{\numberline {2}Einf\"{u}hrung}{4}{section.2}}
\newlabel{intro}{{2}{4}{Einf\"{u}hrung\relax }{section.2}{}}
\@writefile{toc}{\contentsline {section}{\numberline {3}Patentreferat}{4}{section.3}}
\newlabel{patref}{{3}{4}{Patentreferat\relax }{section.3}{}}
\@writefile{toc}{\contentsline {section}{\numberline {4}Sonstige Abteilungen}{4}{section.4}}
\newlabel{etc}{{4}{4}{Sonstige Abteilungen\relax }{section.4}{}}
\gdef\scr@tpo@lst{0}
