\contentsline {section}{\numberline {1}Neues und Chronik}{3}{section.1}
\contentsline {section}{\numberline {2}Einf\"{u}hrung}{4}{section.2}
\contentsline {section}{\numberline {3}Patentreferat}{4}{section.3}
\contentsline {section}{\numberline {4}Sonstige Abteilungen}{4}{section.4}
