\relax 
\ifx\hyper@anchor\@undefined
\global \let \oldcontentsline\contentsline
\gdef \contentsline#1#2#3#4{\oldcontentsline{#1}{#2}{#3}}
\global \let \oldnewlabel\newlabel
\gdef \newlabel#1#2{\newlabelxx{#1}#2}
\gdef \newlabelxx#1#2#3#4#5#6{\oldnewlabel{#1}{{#2}{#3}}}
\AtEndDocument{\let \contentsline\oldcontentsline
\let \newlabel\oldnewlabel}
\else
\global \let \hyper@last\relax 
\fi

\@writefile{toc}{\contentsline {section}{\numberline {1}Patent Number}{2}{section.1}}
\newlabel{patnr}{{1}{2}{Patent Number\relax }{section.1}{}}
\@writefile{toc}{\contentsline {section}{\numberline {2}Infringing Code}{2}{section.2}}
\newlabel{infr}{{2}{2}{Infringing Code\relax }{section.2}{}}
\@writefile{toc}{\contentsline {section}{\numberline {3}History}{3}{section.3}}
\newlabel{komt}{{3}{3}{History\relax }{section.3}{}}
\gdef\scr@tpo@lst{0}
