\contentsline {section}{\numberline {1}Patent Number}{2}{section.1}
\contentsline {section}{\numberline {2}Infringing Code}{2}{section.2}
\contentsline {section}{\numberline {3}History}{3}{section.3}
