\contentsline {section}{\numberline {1}EU Software Patent Directive Project}{1}{section.1}
\contentsline {subsection}{\numberline {1.1}General}{1}{subsection.1.1}
\contentsline {subsection}{\numberline {1.2}Timetable of the Luxemburg Presidency}{2}{subsection.1.2}
\contentsline {section}{\numberline {2}Indian Government Ordinance}{2}{section.2}
\contentsline {section}{\numberline {3}Australia-USA Free Trade Agreement}{3}{section.3}
