\relax 
\catcode`:\active
\catcode`;\active
\catcode`!\active
\catcode`?\active
\ifx\hyper@anchor\@undefined
\global \let \oldcontentsline\contentsline
\gdef \contentsline#1#2#3#4{\oldcontentsline{#1}{#2}{#3}}
\global \let \oldnewlabel\newlabel
\gdef \newlabel#1#2{\newlabelxx{#1}#2}
\gdef \newlabelxx#1#2#3#4#5#6{\oldnewlabel{#1}{{#2}{#3}}}
\AtEndDocument{\let \contentsline\oldcontentsline
\let \newlabel\oldnewlabel}
\else
\global \let \hyper@last\relax 
\fi

\select@language{french}
\@writefile{toc}{\select@language{french}}
\@writefile{lof}{\select@language{french}}
\@writefile{lot}{\select@language{french}}
\@writefile{toc}{\contentsline {section}{\numberline {1}Relevant Texts}{2}{section.1}}
\newlabel{lig}{{1}{2}{Relevant Texts\relax }{section.1}{}}
\@writefile{toc}{\contentsline {section}{\numberline {2}Fraunhofer Audio Patents}{5}{section.2}}
\newlabel{pat}{{2}{5}{Fraunhofer Audio Patents\relax }{section.2}{}}
\@writefile{toc}{\contentsline {section}{\numberline {3}More MPEG related patents coming up}{5}{section.3}}
\newlabel{mp4}{{3}{5}{More MPEG related patents coming up\relax }{section.3}{}}
\@writefile{toc}{\contentsline {section}{\numberline {4}EU IPR Helpdesk Patent Of the Month 2001}{6}{section.4}}
\newlabel{eup}{{4}{6}{EU IPR Helpdesk Patent Of the Month 2001\relax }{section.4}{}}
\gdef\scr@tpo@lst{0}
