\select@language {french}
\contentsline {section}{\numberline {1}Relevant Texts}{2}{section.1}
\contentsline {section}{\numberline {2}Fraunhofer Audio Patents}{5}{section.2}
\contentsline {section}{\numberline {3}More MPEG related patents coming up}{5}{section.3}
\contentsline {section}{\numberline {4}EU IPR Helpdesk Patent Of the Month 2001}{6}{section.4}
