\relax 
\ifx\hyper@anchor\@undefined
\global \let \oldcontentsline\contentsline
\gdef \contentsline#1#2#3#4{\oldcontentsline{#1}{#2}{#3}}
\global \let \oldnewlabel\newlabel
\gdef \newlabel#1#2{\newlabelxx{#1}#2}
\gdef \newlabelxx#1#2#3#4#5#6{\oldnewlabel{#1}{{#2}{#3}}}
\AtEndDocument{\let \contentsline\oldcontentsline
\let \newlabel\oldnewlabel}
\else
\global \let \hyper@last\relax 
\fi

\@writefile{toc}{\contentsline {section}{\numberline {1}Why do we want to exclude patents on software and business methods?}{2}{section.1}}
\newlabel{kialne}{{1}{2}{Why do we want to exclude patents on software and business methods?\relax }{section.1}{}}
\@writefile{toc}{\contentsline {section}{\numberline {2}What's wrong with the ``Common Position''?}{3}{section.2}}
\newlabel{konsil}{{2}{3}{What's wrong with the ``Common Position''?\relax }{section.2}{}}
\@writefile{toc}{\contentsline {subsection}{\numberline {2.1}The thoughts as such are free\dots  }{3}{subsection.2.1}}
\newlabel{liberpens}{{2.1}{3}{The thoughts as such are free\dots \relax }{subsection.2.1}{}}
\@writefile{toc}{\contentsline {subsection}{\numberline {2.2}A program claim shall not be allowed, unless\dots  }{4}{subsection.2.2}}
\newlabel{progklm}{{2.2}{4}{A program claim shall not be allowed, unless\dots \relax }{subsection.2.2}{}}
\@writefile{toc}{\contentsline {section}{\numberline {3}The Fundamental Choice: Natural vs Exact Science}{5}{section.3}}
\newlabel{natsci}{{3}{5}{The Fundamental Choice: Natural vs Exact Science\relax }{section.3}{}}
\@writefile{toc}{\contentsline {section}{\numberline {4}Patenting computer tomography under the ``Ten Clarifications''}{5}{section.4}}
\newlabel{ctomo}{{4}{5}{Patenting computer tomography under the ``Ten Clarifications''\relax }{section.4}{}}
\@writefile{toc}{\contentsline {subsection}{\numberline {4.1}Process Claim}{6}{subsection.4.1}}
\newlabel{procklm}{{4.1}{6}{Process Claim\relax }{subsection.4.1}{}}
\@writefile{toc}{\contentsline {subsection}{\numberline {4.2}Program Claim}{6}{subsection.4.2}}
\newlabel{progklm}{{4.2}{6}{Program Claim\relax }{subsection.4.2}{}}
\gdef\scr@tpo@lst{0}
