\relax 
\ifx\hyper@anchor\@undefined
\global \let \oldcontentsline\contentsline
\gdef \contentsline#1#2#3#4{\oldcontentsline{#1}{#2}{#3}}
\global \let \oldnewlabel\newlabel
\gdef \newlabel#1#2{\newlabelxx{#1}#2}
\gdef \newlabelxx#1#2#3#4#5#6{\oldnewlabel{#1}{{#2}{#3}}}
\AtEndDocument{\let \contentsline\oldcontentsline
\let \newlabel\oldnewlabel}
\else
\global \let \hyper@last\relax 
\fi

\@writefile{toc}{\contentsline {section}{\numberline {1}Geschichte}{2}{section.1}}
\newlabel{story}{{1}{2}{Geschichte\relax }{section.1}{}}
\@writefile{toc}{\contentsline {section}{\numberline {2}Kommentare}{3}{section.2}}
\newlabel{koments}{{2}{3}{Kommentare\relax }{section.2}{}}
\@writefile{toc}{\contentsline {subsection}{\numberline {2.1}Jonas Maebe}{3}{subsection.2.1}}
\newlabel{jmaebe}{{2.1}{3}{Jonas Maebe\relax }{subsection.2.1}{}}
\@writefile{toc}{\contentsline {section}{\numberline {3}Hintergrundinformation}{4}{section.3}}
\newlabel{links}{{3}{4}{Hintergrundinformation\relax }{section.3}{}}
\@writefile{toc}{\contentsline {section}{\numberline {4}Medienkontakte}{5}{section.4}}
\newlabel{media}{{4}{5}{Medienkontakte\relax }{section.4}{}}
\@writefile{toc}{\contentsline {section}{\numberline {5}\"{U}ber den FFII -- www.ffii.org}{5}{section.5}}
\newlabel{ffii}{{5}{5}{\"{U}ber den FFII -- www.ffii.org\relax }{section.5}{}}
\@writefile{toc}{\contentsline {section}{\numberline {6}Dauerhafte Netzadresse dieser Presseerkl\"{a}rung}{5}{section.6}}
\newlabel{url}{{6}{5}{Dauerhafte Netzadresse dieser Presseerkl\"{a}rung\relax }{section.6}{}}
\gdef\scr@tpo@lst{0}
