\contentsline {section}{\numberline {1}Geschichte}{2}{section.1}
\contentsline {section}{\numberline {2}Kommentare}{3}{section.2}
\contentsline {subsection}{\numberline {2.1}Jonas Maebe}{3}{subsection.2.1}
\contentsline {section}{\numberline {3}Hintergrundinformation}{4}{section.3}
\contentsline {section}{\numberline {4}Medienkontakte}{5}{section.4}
\contentsline {section}{\numberline {5}\"{U}ber den FFII -- www.ffii.org}{5}{section.5}
\contentsline {section}{\numberline {6}Dauerhafte Netzadresse dieser Presseerkl\"{a}rung}{5}{section.6}
