\contentsline {section}{\numberline {1}Story}{2}{section.1}
\contentsline {section}{\numberline {2}Comments}{3}{section.2}
\contentsline {subsection}{\numberline {2.1}Jonas Maebe}{3}{subsection.2.1}
\contentsline {section}{\numberline {3}Background information}{3}{section.3}
\contentsline {section}{\numberline {4}Media contacts}{5}{section.4}
\contentsline {section}{\numberline {5}About the FFII -- www.ffii.org}{5}{section.5}
\contentsline {section}{\numberline {6}Permanent URL of this Press Release}{5}{section.6}
