\relax 
\ifx\hyper@anchor\@undefined
\global \let \oldcontentsline\contentsline
\gdef \contentsline#1#2#3#4{\oldcontentsline{#1}{#2}{#3}}
\global \let \oldnewlabel\newlabel
\gdef \newlabel#1#2{\newlabelxx{#1}#2}
\gdef \newlabelxx#1#2#3#4#5#6{\oldnewlabel{#1}{{#2}{#3}}}
\AtEndDocument{\let \contentsline\oldcontentsline
\let \newlabel\oldnewlabel}
\else
\global \let \hyper@last\relax 
\fi

\@writefile{toc}{\contentsline {section}{\numberline {1}Story}{2}{section.1}}
\newlabel{story}{{1}{2}{Story\relax }{section.1}{}}
\@writefile{toc}{\contentsline {section}{\numberline {2}Comments}{3}{section.2}}
\newlabel{koments}{{2}{3}{Comments\relax }{section.2}{}}
\@writefile{toc}{\contentsline {subsection}{\numberline {2.1}Jonas Maebe}{3}{subsection.2.1}}
\newlabel{jmaebe}{{2.1}{3}{Jonas Maebe\relax }{subsection.2.1}{}}
\@writefile{toc}{\contentsline {section}{\numberline {3}Background information}{3}{section.3}}
\newlabel{links}{{3}{3}{Background information\relax }{section.3}{}}
\@writefile{toc}{\contentsline {section}{\numberline {4}Media contacts}{5}{section.4}}
\newlabel{media}{{4}{5}{Media contacts\relax }{section.4}{}}
\@writefile{toc}{\contentsline {section}{\numberline {5}About the FFII -- www.ffii.org}{5}{section.5}}
\newlabel{ffii}{{5}{5}{About the FFII -- www.ffii.org\relax }{section.5}{}}
\@writefile{toc}{\contentsline {section}{\numberline {6}Permanent URL of this Press Release}{5}{section.6}}
\newlabel{url}{{6}{5}{Permanent URL of this Press Release\relax }{section.6}{}}
\gdef\scr@tpo@lst{0}
