\contentsline {section}{\numberline {1}Background}{2}{section.1}
\contentsline {section}{\numberline {2}Media Contacts}{3}{section.2}
\contentsline {section}{\numberline {3}Permanent URL of this Press Release}{4}{section.3}
\contentsline {section}{\numberline {4}Annotated Links}{4}{section.4}
