\relax 
\ifx\hyper@anchor\@undefined
\global \let \oldcontentsline\contentsline
\gdef \contentsline#1#2#3#4{\oldcontentsline{#1}{#2}{#3}}
\global \let \oldnewlabel\newlabel
\gdef \newlabel#1#2{\newlabelxx{#1}#2}
\gdef \newlabelxx#1#2#3#4#5#6{\oldnewlabel{#1}{{#2}{#3}}}
\AtEndDocument{\let \contentsline\oldcontentsline
\let \newlabel\oldnewlabel}
\else
\global \let \hyper@last\relax 
\fi

\@writefile{toc}{\contentsline {section}{\numberline {1}Notwendigkeit einer EU-Gesetzesinitiative}{2}{section.1}}
\newlabel{notw}{{1}{2}{Notwendigkeit einer EU-Gesetzesinitiative\relax }{section.1}{}}
\@writefile{toc}{\contentsline {section}{\numberline {2}Derzeitige Rechtslage in Europa und den USA}{2}{section.2}}
\newlabel{euus}{{2}{2}{Derzeitige Rechtslage in Europa und den USA\relax }{section.2}{}}
\@writefile{toc}{\contentsline {section}{\numberline {3}Ans\"{a}tze f\"{u}r EG-Richtlinie}{3}{section.3}}
\newlabel{euans}{{3}{3}{Ans\"{a}tze f\"{u}r EG-Richtlinie\relax }{section.3}{}}
\gdef\scr@tpo@lst{0}
