\contentsline {section}{\numberline {1}Notwendigkeit einer EU-Gesetzesinitiative}{2}{section.1}
\contentsline {section}{\numberline {2}Derzeitige Rechtslage in Europa und den USA}{2}{section.2}
\contentsline {section}{\numberline {3}Ans\"{a}tze f\"{u}r EG-Richtlinie}{3}{section.3}
