\relax 
\ifx\hyper@anchor\@undefined
\global \let \oldcontentsline\contentsline
\gdef \contentsline#1#2#3#4{\oldcontentsline{#1}{#2}{#3}}
\global \let \oldnewlabel\newlabel
\gdef \newlabel#1#2{\newlabelxx{#1}#2}
\gdef \newlabelxx#1#2#3#4#5#6{\oldnewlabel{#1}{{#2}{#3}}}
\AtEndDocument{\let \contentsline\oldcontentsline
\let \newlabel\oldnewlabel}
\else
\global \let \hyper@last\relax 
\fi

\@writefile{toc}{\contentsline {chapter}{\numberline {1}Was EUK/BSA in rechtlicher Hinsicht vorschlagen}{4}{chapter.1}}
\@writefile{lof}{\addvspace {10\p@ }}
\@writefile{lot}{\addvspace {10\p@ }}
\newlabel{dokt}{{1}{4}{Was EUK/BSA in rechtlicher Hinsicht vorschlagen\relax }{chapter.1}{}}
\@writefile{toc}{\contentsline {section}{\numberline {1.1}Programme als solche sind patentf\"{a}hige Erfindungen}{4}{section.1.1}}
\newlabel{prog}{{1.1}{4}{Programme als solche sind patentf\"{a}hige Erfindungen\relax }{section.1.1}{}}
\@writefile{toc}{\contentsline {section}{\numberline {1.2}Algorithmen, Gesch\"{a}ftsverfahren etc sind patentf\"{a}hgig}{4}{section.1.2}}
\newlabel{prob}{{1.2}{4}{Algorithmen, Gesch\"{a}ftsverfahren etc sind patentf\"{a}hgig\relax }{section.1.2}{}}
\@writefile{toc}{\contentsline {section}{\numberline {1.3}Erfindungen m\"{u}ssen weder neu noch technisch sein}{5}{section.1.3}}
\newlabel{techkont}{{1.3}{5}{Erfindungen m\"{u}ssen weder neu noch technisch sein\relax }{section.1.3}{}}
\@writefile{toc}{\contentsline {section}{\numberline {1.4}Nebenbei werden die niedrigen Ma{\ss }st\"{a}be des EPA bez\"{u}glich Neuheit und Erfindungsh\"{o}he fest geschrieben}{5}{section.1.4}}
\newlabel{nono}{{1.4}{5}{Nebenbei werden die niedrigen Ma{\ss }st\"{a}be des EPA bez\"{u}glich Neuheit und Erfindungsh\"{o}he fest geschrieben\relax }{section.1.4}{}}
\@writefile{toc}{\contentsline {section}{\numberline {1.5}Die EPA-Entscheidungen von 1998 werden nicht best\"{a}tigt}{6}{section.1.5}}
\newlabel{disk}{{1.5}{6}{Die EPA-Entscheidungen von 1998 werden nicht best\"{a}tigt\relax }{section.1.5}{}}
\@writefile{toc}{\contentsline {section}{\numberline {1.6}Patentierte Standards d\"{u}rfen ohne Lizenz nicht verwendet werden}{6}{section.1.6}}
\newlabel{inter}{{1.6}{6}{Patentierte Standards d\"{u}rfen ohne Lizenz nicht verwendet werden\relax }{section.1.6}{}}
\@writefile{toc}{\contentsline {chapter}{\numberline {2}Was die EUK/BSA in wirtschaftlicher Hinsicht vorschlagen}{7}{chapter.2}}
\@writefile{lof}{\addvspace {10\p@ }}
\@writefile{lot}{\addvspace {10\p@ }}
\newlabel{ekon}{{2}{7}{Was die EUK/BSA in wirtschaftlicher Hinsicht vorschlagen\relax }{chapter.2}{}}
\@writefile{toc}{\contentsline {chapter}{\numberline {3}Einige offensichtliche Falschaussagen}{8}{chapter.3}}
\@writefile{lof}{\addvspace {10\p@ }}
\@writefile{lot}{\addvspace {10\p@ }}
\newlabel{mens}{{3}{8}{Einige offensichtliche Falschaussagen\relax }{chapter.3}{}}
