\contentsline {chapter}{\numberline {1}Was EUK/BSA in rechtlicher Hinsicht vorschlagen}{4}{chapter.1}
\contentsline {section}{\numberline {1.1}Programme als solche sind patentf\"{a}hige Erfindungen}{4}{section.1.1}
\contentsline {section}{\numberline {1.2}Algorithmen, Gesch\"{a}ftsverfahren etc sind patentf\"{a}hgig}{4}{section.1.2}
\contentsline {section}{\numberline {1.3}Erfindungen m\"{u}ssen weder neu noch technisch sein}{5}{section.1.3}
\contentsline {section}{\numberline {1.4}Nebenbei werden die niedrigen Ma{\ss }st\"{a}be des EPA bez\"{u}glich Neuheit und Erfindungsh\"{o}he fest geschrieben}{5}{section.1.4}
\contentsline {section}{\numberline {1.5}Die EPA-Entscheidungen von 1998 werden nicht best\"{a}tigt}{6}{section.1.5}
\contentsline {section}{\numberline {1.6}Patentierte Standards d\"{u}rfen ohne Lizenz nicht verwendet werden}{6}{section.1.6}
\contentsline {chapter}{\numberline {2}Was die EUK/BSA in wirtschaftlicher Hinsicht vorschlagen}{7}{chapter.2}
\contentsline {chapter}{\numberline {3}Einige offensichtliche Falschaussagen}{8}{chapter.3}
