\relax 
\ifx\hyper@anchor\@undefined
\global \let \oldcontentsline\contentsline
\gdef \contentsline#1#2#3#4{\oldcontentsline{#1}{#2}{#3}}
\global \let \oldnewlabel\newlabel
\gdef \newlabel#1#2{\newlabelxx{#1}#2}
\gdef \newlabelxx#1#2#3#4#5#6{\oldnewlabel{#1}{{#2}{#3}}}
\AtEndDocument{\let \contentsline\oldcontentsline
\let \newlabel\oldnewlabel}
\else
\global \let \hyper@last\relax 
\fi

\csname auxWARNINGii\endcsname {\typeout {-34- this file and other auxiliary files require to use the following}}
\csname auxWARNINGii\endcsname {\typeout {-34- LaTeX packages: french and babel!}}
\csname auxWARNINGii\endcsname {\typeout {-34- check \protect \usepackage \space or remove these files. Typesetting is aborted!} \stop }
\select@language{french}
\@writefile{toc}{\select@language{french}}
\@writefile{lof}{\select@language{french}}
\@writefile{lot}{\select@language{french}}
\select@language{french}
\@writefile{toc}{\select@language{french}}
\@writefile{lof}{\select@language{french}}
\@writefile{lot}{\select@language{french}}
\@writefile{toc}{\contentsline {chapter}{\numberline {1}Les propositions CCE/BSA en termes de doctrine l\'{e}gale}{4}{chapter.1}}
\@writefile{lof}{\addvspace {10\p@ }}
\@writefile{lot}{\addvspace {10\p@ }}
\newlabel{dokt}{{1}{4}{Les propositions CCE/BSA en termes de doctrine l\'{e}gale\relax }{chapter.1}{}}
\@writefile{toc}{\contentsline {section}{\numberline {1.1}Les programmes en tant que tels sont des inventions brevetables}{4}{section.1.1}}
\newlabel{prog}{{1.1}{4}{Les programmes en tant que tels sont des inventions brevetables\relax }{section.1.1}{}}
\@writefile{toc}{\contentsline {section}{\numberline {1.2}Les algorithmes et m\'{e}thodes d'affaires etc sont brevetables}{4}{section.1.2}}
\newlabel{prob}{{1.2}{4}{Les algorithmes et m\'{e}thodes d'affaires etc sont brevetables\relax }{section.1.2}{}}
\@writefile{toc}{\contentsline {section}{\numberline {1.3}Les inventions ne doivent plus \^{e}tre ni nouvelles ni techniques}{5}{section.1.3}}
\newlabel{techkont}{{1.3}{5}{Les inventions ne doivent plus \^{e}tre ni nouvelles ni techniques\relax }{section.1.3}{}}
\@writefile{toc}{\contentsline {section}{\numberline {1.4}Les standards tr\`{e}s faibles de non-\'{e}vidence de l'OEB sont rendus obligatoires}{6}{section.1.4}}
\newlabel{nono}{{1.4}{6}{Les standards tr\`{e}s faibles de non-\'{e}vidence de l'OEB sont rendus obligatoires\relax }{section.1.4}{}}
\@writefile{toc}{\contentsline {section}{\numberline {1.5}Les r\`{e}gles de l'OEB de 1998 ne sont pas accept\'{e}es}{6}{section.1.5}}
\newlabel{disk}{{1.5}{6}{Les r\`{e}gles de l'OEB de 1998 ne sont pas accept\'{e}es\relax }{section.1.5}{}}
\@writefile{toc}{\contentsline {section}{\numberline {1.6}Les Standards Brevet\'{e}s ne doivent pas \^{e}tre utilis\'{e}s sans license}{6}{section.1.6}}
\newlabel{inter}{{1.6}{6}{Les Standards Brevet\'{e}s ne doivent pas \^{e}tre utilis\'{e}s sans license\relax }{section.1.6}{}}
\@writefile{toc}{\contentsline {chapter}{\numberline {2}Ce que la CCE/BSA propose concernant l'\'{e}conomie du logiciel}{7}{chapter.2}}
\@writefile{lof}{\addvspace {10\p@ }}
\@writefile{lot}{\addvspace {10\p@ }}
\newlabel{ekon}{{2}{7}{Ce que la CCE/BSA propose concernant l'\'{e}conomie du logiciel\relax }{chapter.2}{}}
\@writefile{toc}{\contentsline {chapter}{\numberline {3}Quelques mensonges apparents}{8}{chapter.3}}
\@writefile{lof}{\addvspace {10\p@ }}
\@writefile{lot}{\addvspace {10\p@ }}
\newlabel{mens}{{3}{8}{Quelques mensonges apparents\relax }{chapter.3}{}}
