\BOOKMARK [0][-]{chapter.1}{What the CEC/BSA proposes in terms of legal doctrine}{}
\BOOKMARK [1][-]{section.1.1}{Programs as such are patentable inventions}{chapter.1}
\BOOKMARK [1][-]{section.1.2}{Algorithms, business methods etc are patentable}{chapter.1}
\BOOKMARK [1][-]{section.1.3}{Inventions need to be neither new nor technical}{chapter.1}
\BOOKMARK [1][-]{section.1.4}{The EPO's low non-obviousness standards become obligatory}{chapter.1}
\BOOKMARK [1][-]{section.1.5}{The EPO rulings of 1998 are not accepted}{chapter.1}
\BOOKMARK [1][-]{section.1.6}{Patented standards may not be used without license}{chapter.1}
\BOOKMARK [0][-]{chapter.2}{What the CEC/BSA proposes in terms of software economy}{}
\BOOKMARK [0][-]{chapter.3}{Some apparent lies}{}
