\relax 
\catcode`"\active
\ifx\hyper@anchor\@undefined
\global \let \oldcontentsline\contentsline
\gdef \contentsline#1#2#3#4{\oldcontentsline{#1}{#2}{#3}}
\global \let \oldnewlabel\newlabel
\gdef \newlabel#1#2{\newlabelxx{#1}#2}
\gdef \newlabelxx#1#2#3#4#5#6{\oldnewlabel{#1}{{#2}{#3}}}
\AtEndDocument{\let \contentsline\oldcontentsline
\let \newlabel\oldnewlabel}
\else
\global \let \hyper@last\relax 
\fi

\select@language{catalan}
\@writefile{toc}{\select@language{catalan}}
\@writefile{lof}{\select@language{catalan}}
\@writefile{lot}{\select@language{catalan}}
\@writefile{toc}{\contentsline {chapter}{\numberline {1}What the CEC/BSA proposes in terms of legal doctrine}{4}{chapter.1}}
\@writefile{lof}{\addvspace {10\p@ }}
\@writefile{lot}{\addvspace {10\p@ }}
\newlabel{dokt}{{1}{4}{What the CEC/BSA proposes in terms of legal doctrine\relax }{chapter.1}{}}
\@writefile{toc}{\contentsline {section}{\numberline {1.1}Programs as such are patentable inventions}{4}{section.1.1}}
\newlabel{prog}{{1.1}{4}{Programs as such are patentable inventions\relax }{section.1.1}{}}
\@writefile{toc}{\contentsline {section}{\numberline {1.2}Algorithms, business methods etc are patentable}{4}{section.1.2}}
\newlabel{prob}{{1.2}{4}{Algorithms, business methods etc are patentable\relax }{section.1.2}{}}
\@writefile{toc}{\contentsline {section}{\numberline {1.3}Inventions need to be neither new nor technical}{5}{section.1.3}}
\newlabel{techkont}{{1.3}{5}{Inventions need to be neither new nor technical\relax }{section.1.3}{}}
\@writefile{toc}{\contentsline {section}{\numberline {1.4}The EPO's low non-obviousness standards become obligatory}{5}{section.1.4}}
\newlabel{nono}{{1.4}{5}{The EPO's low non-obviousness standards become obligatory\relax }{section.1.4}{}}
\@writefile{toc}{\contentsline {section}{\numberline {1.5}The EPO rulings of 1998 are not accepted}{6}{section.1.5}}
\newlabel{disk}{{1.5}{6}{The EPO rulings of 1998 are not accepted\relax }{section.1.5}{}}
\@writefile{toc}{\contentsline {section}{\numberline {1.6}Patented standards may not be used without license}{6}{section.1.6}}
\newlabel{inter}{{1.6}{6}{Patented standards may not be used without license\relax }{section.1.6}{}}
\@writefile{toc}{\contentsline {chapter}{\numberline {2}What the CEC/BSA proposes in terms of software economy}{7}{chapter.2}}
\@writefile{lof}{\addvspace {10\p@ }}
\@writefile{lot}{\addvspace {10\p@ }}
\newlabel{ekon}{{2}{7}{What the CEC/BSA proposes in terms of software economy\relax }{chapter.2}{}}
\@writefile{toc}{\contentsline {chapter}{\numberline {3}Some apparent lies}{8}{chapter.3}}
\@writefile{lof}{\addvspace {10\p@ }}
\@writefile{lot}{\addvspace {10\p@ }}
\newlabel{mens}{{3}{8}{Some apparent lies\relax }{chapter.3}{}}
