\relax 
\ifx\hyper@anchor\@undefined
\global \let \oldcontentsline\contentsline
\gdef \contentsline#1#2#3#4{\oldcontentsline{#1}{#2}{#3}}
\global \let \oldnewlabel\newlabel
\gdef \newlabel#1#2{\newlabelxx{#1}#2}
\gdef \newlabelxx#1#2#3#4#5#6{\oldnewlabel{#1}{{#2}{#3}}}
\AtEndDocument{\let \contentsline\oldcontentsline
\let \newlabel\oldnewlabel}
\else
\global \let \hyper@last\relax 
\fi

\@writefile{toc}{\contentsline {section}{\numberline {1}The Basic Questions}{2}{section.1}}
\newlabel{kver}{{1}{2}{The Basic Questions\relax }{section.1}{}}
\@writefile{toc}{\contentsline {section}{\numberline {2}Patent Jurisprudence on a Slippery Slope -- the price for dismantling the concept of technical invention}{5}{section.2}}
\newlabel{swpatkorcu}{{2}{5}{Patent Jurisprudence on a Slippery Slope -- the price for dismantling the concept of technical invention\relax }{section.2}{}}
\@writefile{toc}{\contentsline {subsection}{\numberline {2.1}Introductory Quotes}{5}{subsection.2.1}}
\newlabel{intro}{{2.1}{5}{Introductory Quotes\relax }{subsection.2.1}{}}
\@writefile{toc}{\contentsline {subsection}{\numberline {2.2}Freedom of everything intellectual or patentability of everything machine-like?}{9}{subsection.2.2}}
\newlabel{dumond}{{2.2}{9}{Freedom of everything intellectual or patentability of everything machine-like?\relax }{subsection.2.2}{}}
\@writefile{toc}{\contentsline {subsection}{\numberline {2.3}From Technicity to Arbitrariness}{11}{subsection.2.3}}
\newlabel{tisna}{{2.3}{11}{From Technicity to Arbitrariness\relax }{subsection.2.3}{}}
\@writefile{toc}{\contentsline {subsection}{\numberline {2.4}Voided Terminology and its Technical Contribution to Legislative Engineering in the EU}{13}{subsection.2.4}}
\newlabel{newspeak}{{2.4}{13}{Voided Terminology and its Technical Contribution to Legislative Engineering in the EU\relax }{subsection.2.4}{}}
\@writefile{toc}{\contentsline {subsection}{\numberline {2.5}Literature Overview}{14}{subsection.2.5}}
\newlabel{stud}{{2.5}{14}{Literature Overview\relax }{subsection.2.5}{}}
\@writefile{toc}{\contentsline {section}{\numberline {3}Other serious attempts at formulating questions}{40}{section.3}}
\newlabel{altr}{{3}{40}{Other serious attempts at formulating questions\relax }{section.3}{}}
\gdef\scr@tpo@lst{0}
