\relax 
\catcode`:\active
\catcode`;\active
\catcode`!\active
\catcode`?\active
\ifx\hyper@anchor\@undefined
\global \let \oldcontentsline\contentsline
\gdef \contentsline#1#2#3#4{\oldcontentsline{#1}{#2}{#3}}
\global \let \oldnewlabel\newlabel
\gdef \newlabel#1#2{\newlabelxx{#1}#2}
\gdef \newlabelxx#1#2#3#4#5#6{\oldnewlabel{#1}{{#2}{#3}}}
\AtEndDocument{\let \contentsline\oldcontentsline
\let \newlabel\oldnewlabel}
\else
\global \let \hyper@last\relax 
\fi

\select@language{french}
\@writefile{toc}{\select@language{french}}
\@writefile{lof}{\select@language{french}}
\@writefile{lot}{\select@language{french}}
\@writefile{toc}{\contentsline {section}{\numberline {1}Les Questions Fondamentales}{1}{section.1}}
\newlabel{kver}{{1}{1}{Les Questions Fondamentales\relax }{section.1}{}}
\@writefile{toc}{\contentsline {section}{\numberline {2}Jurisprudence de Brevet sur Terrain Glissant: Le Prix a Payer pour le D\'{e}montage de l'Invention Technique}{5}{section.2}}
\newlabel{swpatkorcu}{{2}{5}{Jurisprudence de Brevet sur Terrain Glissant: Le Prix a Payer pour le D\'{e}montage de l'Invention Technique\relax }{section.2}{}}
\@writefile{toc}{\contentsline {subsection}{\numberline {2.1}Citations Introductoires}{5}{subsection.2.1}}
\newlabel{intro}{{2.1}{5}{Citations Introductoires\relax }{subsection.2.1}{}}
\@writefile{toc}{\contentsline {subsection}{\numberline {2.2}Libert\'{e} de tout ce qui est intellectuel, ou brevetabilit\'{e} de tout ce qui ressemble \`{a} une machine ?}{9}{subsection.2.2}}
\newlabel{dumond}{{2.2}{9}{Libert\'{e} de tout ce qui est intellectuel, ou brevetabilit\'{e} de tout ce qui ressemble \`{a} une machine ?\relax }{subsection.2.2}{}}
\@writefile{toc}{\contentsline {subsection}{\numberline {2.3}De la technicit\'{e} au n'importe quoi}{11}{subsection.2.3}}
\newlabel{tisna}{{2.3}{11}{De la technicit\'{e} au n'importe quoi\relax }{subsection.2.3}{}}
\@writefile{toc}{\contentsline {subsection}{\numberline {2.4}De Notions Vid\'{e}es de Sense et leur Contribution Technique a l'Engineering Politique dans l'UE}{13}{subsection.2.4}}
\newlabel{newspeak}{{2.4}{13}{De Notions Vid\'{e}es de Sense et leur Contribution Technique a l'Engineering Politique dans l'UE\relax }{subsection.2.4}{}}
\@writefile{toc}{\contentsline {subsection}{\numberline {2.5}Bibliographie Comment\'{e}e}{15}{subsection.2.5}}
\newlabel{stud}{{2.5}{15}{Bibliographie Comment\'{e}e\relax }{subsection.2.5}{}}
\@writefile{toc}{\contentsline {section}{\numberline {3}Autres efforts de poser des questions serieusement}{38}{section.3}}
\newlabel{altr}{{3}{38}{Autres efforts de poser des questions serieusement\relax }{section.3}{}}
\gdef\scr@tpo@lst{0}
