\relax 
\ifx\hyper@anchor\@undefined
\global \let \oldcontentsline\contentsline
\gdef \contentsline#1#2#3#4{\oldcontentsline{#1}{#2}{#3}}
\global \let \oldnewlabel\newlabel
\gdef \newlabel#1#2{\newlabelxx{#1}#2}
\gdef \newlabelxx#1#2#3#4#5#6{\oldnewlabel{#1}{{#2}{#3}}}
\AtEndDocument{\let \contentsline\oldcontentsline
\let \newlabel\oldnewlabel}
\else
\global \let \hyper@last\relax 
\fi

\@writefile{toc}{\contentsline {section}{\numberline {1}Die Grundlegenden Fragen}{2}{section.1}}
\newlabel{kver}{{1}{2}{Die Grundlegenden Fragen\relax }{section.1}{}}
\@writefile{toc}{\contentsline {section}{\numberline {2}Patentjurisprudenz auf Schlitterkurs -- der Preis f\"{u}r die Demontage des Technikbegriffs}{6}{section.2}}
\newlabel{swpatkorcu}{{2}{6}{Patentjurisprudenz auf Schlitterkurs -- der Preis f\"{u}r die Demontage des Technikbegriffs\relax }{section.2}{}}
\@writefile{toc}{\contentsline {subsection}{\numberline {2.1}Einstimmende Zitate}{7}{subsection.2.1}}
\newlabel{intro}{{2.1}{7}{Einstimmende Zitate\relax }{subsection.2.1}{}}
\@writefile{toc}{\contentsline {subsection}{\numberline {2.2}Freiheit alles Geistigen oder Patentierbarkeit alles Maschinenhaften?}{10}{subsection.2.2}}
\newlabel{dumond}{{2.2}{10}{Freiheit alles Geistigen oder Patentierbarkeit alles Maschinenhaften?\relax }{subsection.2.2}{}}
\@writefile{toc}{\contentsline {subsection}{\numberline {2.3}Von der Technizit\"{a}t zur Beliebigkeit}{13}{subsection.2.3}}
\newlabel{tisna}{{2.3}{13}{Von der Technizit\"{a}t zur Beliebigkeit\relax }{subsection.2.3}{}}
\@writefile{toc}{\contentsline {subsection}{\numberline {2.4}Sinnentleerte Begriffe und ihr technischer Beitrag zum Politischen Engineering in der EU}{15}{subsection.2.4}}
\newlabel{newspeak}{{2.4}{15}{Sinnentleerte Begriffe und ihr technischer Beitrag zum Politischen Engineering in der EU\relax }{subsection.2.4}{}}
\@writefile{toc}{\contentsline {subsection}{\numberline {2.5}Literatur\"{u}bersicht}{17}{subsection.2.5}}
\newlabel{stud}{{2.5}{17}{Literatur\"{u}bersicht\relax }{subsection.2.5}{}}
\@writefile{toc}{\contentsline {section}{\numberline {3}Weitere ernsthafte Versuche, Fragestellungen zu erarbeiten}{44}{section.3}}
\newlabel{altr}{{3}{44}{Weitere ernsthafte Versuche, Fragestellungen zu erarbeiten\relax }{section.3}{}}
\gdef\scr@tpo@lst{0}
