\select@language {french}
\contentsline {section}{\numberline {1}Les Questions Fondamentales}{1}{section.1}
\contentsline {section}{\numberline {2}Jurisprudence de Brevet sur Terrain Glissant: Le Prix a Payer pour le D\'{e}montage de l'Invention Technique}{5}{section.2}
\contentsline {subsection}{\numberline {2.1}Citations Introductoires}{5}{subsection.2.1}
\contentsline {subsection}{\numberline {2.2}Libert\'{e} de tout ce qui est intellectuel, ou brevetabilit\'{e} de tout ce qui ressemble \`{a} une machine ?}{9}{subsection.2.2}
\contentsline {subsection}{\numberline {2.3}De la technicit\'{e} au n'importe quoi}{11}{subsection.2.3}
\contentsline {subsection}{\numberline {2.4}De Notions Vid\'{e}es de Sense et leur Contribution Technique a l'Engineering Politique dans l'UE}{13}{subsection.2.4}
\contentsline {subsection}{\numberline {2.5}Bibliographie Comment\'{e}e}{15}{subsection.2.5}
\contentsline {section}{\numberline {3}Autres efforts de poser des questions serieusement}{38}{section.3}
