\contentsline {section}{\numberline {1}Einspr\"{u}che}{2}{section.1}
\contentsline {section}{\numberline {2}Annotated Links}{3}{section.2}
\contentsline {section}{\numberline {3}Fragen, Aufgaben, Wie Sie helfen k\"{o}nnen}{3}{section.3}
