\relax 
\ifx\hyper@anchor\@undefined
\global \let \oldcontentsline\contentsline
\gdef \contentsline#1#2#3#4{\oldcontentsline{#1}{#2}{#3}}
\global \let \oldnewlabel\newlabel
\gdef \newlabel#1#2{\newlabelxx{#1}#2}
\gdef \newlabelxx#1#2#3#4#5#6{\oldnewlabel{#1}{{#2}{#3}}}
\AtEndDocument{\let \contentsline\oldcontentsline
\let \newlabel\oldnewlabel}
\else
\global \let \hyper@last\relax 
\fi

\newlabel{ibc}{{1}{1}{Conference Organising Subcontractor\label {ibc}\relax }{section.1}{}}
\@writefile{toc}{\contentsline {section}{\numberline {1}Conference Organising Subcontractor}{1}{section.1}}
\newlabel{plan}{{2}{3}{Original Schedule\label {plan}\relax }{section.2}{}}
\@writefile{toc}{\contentsline {section}{\numberline {2}Original Schedule}{3}{section.2}}
