\select@language {french}
\contentsline {section}{\numberline {1}Conference Organising Subcontractor}{1}{section.1}
\contentsline {section}{\numberline {2}Schedule}{1}{section.2}
\contentsline {section}{\numberline {3}Autre textes a lire}{4}{section.3}
