\relax 
\ifx\hyper@anchor\@undefined
\global \let \oldcontentsline\contentsline
\gdef \contentsline#1#2#3#4{\oldcontentsline{#1}{#2}{#3}}
\global \let \oldnewlabel\newlabel
\gdef \newlabel#1#2{\newlabelxx{#1}#2}
\gdef \newlabelxx#1#2#3#4#5#6{\oldnewlabel{#1}{{#2}{#3}}}
\AtEndDocument{\let \contentsline\oldcontentsline
\let \newlabel\oldnewlabel}
\else
\global \let \hyper@last\relax 
\fi

\newlabel{or}{{1}{1}{Conference Organising Subcontractor\label {or}\relax }{section.1}{}}
\@writefile{toc}{\contentsline {section}{\numberline {1}Conference Organising Subcontractor}{1}{section.1}}
\newlabel{plan}{{2}{1}{Schedule\label {plan}\relax }{section.2}{}}
\@writefile{toc}{\contentsline {section}{\numberline {2}Schedule}{1}{section.2}}
\newlabel{etc}{{3}{4}{Weitere Lekt\"{u}re\label {etc}\relax }{section.3}{}}
\@writefile{toc}{\contentsline {section}{\numberline {3}Weitere Lekt\"{u}re}{4}{section.3}}
