\contentsline {section}{\numberline {1}Amendments}{1}{section.1}
\contentsline {section}{\numberline {2}News and Chronology}{2}{section.2}
\contentsline {section}{\numberline {3}The letter and appendices distributed to MEP mail boxes on 2005-03-28}{2}{section.3}
\contentsline {section}{\numberline {4}More information}{2}{section.4}
