\relax 
\ifx\hyper@anchor\@undefined
\global \let \oldcontentsline\contentsline
\gdef \contentsline#1#2#3#4{\oldcontentsline{#1}{#2}{#3}}
\global \let \oldnewlabel\newlabel
\gdef \newlabel#1#2{\newlabelxx{#1}#2}
\gdef \newlabelxx#1#2#3#4#5#6{\oldnewlabel{#1}{{#2}{#3}}}
\AtEndDocument{\let \contentsline\oldcontentsline
\let \newlabel\oldnewlabel}
\else
\global \let \hyper@last\relax 
\fi

\@writefile{toc}{\contentsline {section}{\numberline {1}Amendments}{1}{section.1}}
\newlabel{amend}{{1}{1}{Amendments\relax }{section.1}{}}
\@writefile{toc}{\contentsline {section}{\numberline {2}News and Chronology}{2}{section.2}}
\newlabel{news}{{2}{2}{News and Chronology\relax }{section.2}{}}
\@writefile{toc}{\contentsline {section}{\numberline {3}The letter and appendices distributed to MEP mail boxes on 2005-03-28}{2}{section.3}}
\newlabel{ltr0503}{{3}{2}{The letter and appendices distributed to MEP mail boxes on 2005-03-28\relax }{section.3}{}}
\@writefile{toc}{\contentsline {section}{\numberline {4}More information}{2}{section.4}}
\newlabel{etc}{{4}{2}{More information\relax }{section.4}{}}
\gdef\scr@tpo@lst{0}
