\relax 
\catcode`:\active
\catcode`;\active
\catcode`!\active
\catcode`?\active
\ifx\hyper@anchor\@undefined
\global \let \oldcontentsline\contentsline
\gdef \contentsline#1#2#3#4{\oldcontentsline{#1}{#2}{#3}}
\global \let \oldnewlabel\newlabel
\gdef \newlabel#1#2{\newlabelxx{#1}#2}
\gdef \newlabelxx#1#2#3#4#5#6{\oldnewlabel{#1}{{#2}{#3}}}
\AtEndDocument{\let \contentsline\oldcontentsline
\let \newlabel\oldnewlabel}
\else
\global \let \hyper@last\relax 
\fi

\bibstyle{alpha}
\citation{cor99fr}
\citation{vkd00}
\select@language{french}
\@writefile{toc}{\select@language{french}}
\@writefile{lof}{\select@language{french}}
\@writefile{lot}{\select@language{french}}
\@writefile{toc}{\contentsline {section}{\numberline {1}\'{E}tudes et opinions relatives au projet de directive sur les brevets logiciels}{1}{section.1}}
\newlabel{stud}{{1}{1}{\'{E}tudes et opinions relatives au projet de directive sur les brevets logiciels\relax }{section.1}{}}
\@writefile{toc}{\contentsline {subsection}{\numberline {1.1}Committee des Regions de l'UE 1999\cite  {cor99fr}}{1}{subsection.1.1}}
\newlabel{cor99}{{1.1}{1}{Committee des Regions de l'UE 1999\cite {cor99fr}\relax }{subsection.1.1}{}}
\citation{nrc00}
\citation{tap01fr}
\citation{ipi00}
\@writefile{toc}{\contentsline {subsection}{\numberline {1.2}Pays-Bas en 2000: Ruimere octrooiering van computerprogramma's : technicality of revolutie?\cite  {vkd00}}{2}{subsection.1.2}}
\newlabel{vkd00}{{1.2}{2}{Pays-Bas en 2000: Ruimere octrooiering van computerprogramma's : technicality of revolutie?\cite {vkd00}\relax }{subsection.1.2}{}}
\@writefile{toc}{\contentsline {subsection}{\numberline {1.3}NRC 2000: The Dilemme Numirique\cite  {nrc00}}{2}{subsection.1.3}}
\newlabel{nrc00}{{1.3}{2}{NRC 2000: The Dilemme Numirique\cite {nrc00}\relax }{subsection.1.3}{}}
\@writefile{toc}{\contentsline {subsection}{\numberline {1.4}CEC 2000: ``Patent protection of computer programmes''\cite  {tap01fr}}{2}{subsection.1.4}}
\newlabel{tap01}{{1.4}{2}{CEC 2000: ``Patent protection of computer programmes''\cite {tap01fr}\relax }{subsection.1.4}{}}
\@writefile{toc}{\contentsline {subsection}{\numberline {1.5}CEC 2000: ``The Economic Impact of Software Patents''\cite  {ipi00}}{2}{subsection.1.5}}
\newlabel{ipi00}{{1.5}{2}{CEC 2000: ``The Economic Impact of Software Patents''\cite {ipi00}\relax }{subsection.1.5}{}}
\citation{con00}
\@writefile{toc}{\contentsline {subsection}{\numberline {1.6}Consultation de l'UE par la Commission\cite  {con00}}{3}{subsection.1.6}}
\newlabel{con00}{{1.6}{3}{Consultation de l'UE par la Commission\cite {con00}\relax }{subsection.1.6}{}}
\citation{isi01}
\@writefile{toc}{\contentsline {subsection}{\numberline {1.7}DE 2001 : Cons\'{e}quences micro- et macro\'{e}conomiques de la brevetabilit\'{e} des innovations logicielles\cite  {isi01}}{4}{subsection.1.7}}
\newlabel{isi01}{{1.7}{4}{DE 2001 : Cons\'{e}quences micro- et macro\'{e}conomiques de la brevetabilit\'{e} des innovations logicielles\cite {isi01}\relax }{subsection.1.7}{}}
\citation{ezi01fr}
\citation{ezt02}
\citation{bah02}
\@writefile{toc}{\contentsline {subsection}{\numberline {1.8}NL 2001: ``Intellectueel Eigendom en Innovatie -- Over de rol van intellectueel eigendom in de Nederlandse kenniseconomie''\cite  {ezi01fr}}{5}{subsection.1.8}}
\newlabel{ezi01}{{1.8}{5}{NL 2001: ``Intellectueel Eigendom en Innovatie -- Over de rol van intellectueel eigendom in de Nederlandse kenniseconomie''\cite {ezi01fr}\relax }{subsection.1.8}{}}
\@writefile{toc}{\contentsline {subsection}{\numberline {1.9}NL 2002: ``Toets op het concurrentievermogen''\cite  {ezt02}}{5}{subsection.1.9}}
\newlabel{ezt02}{{1.9}{5}{NL 2002: ``Toets op het concurrentievermogen''\cite {ezt02}\relax }{subsection.1.9}{}}
\@writefile{toc}{\contentsline {subsection}{\numberline {1.10}Bakels \& Hugenholtz en 2002: Discussion sur la l\'{e}gislation au niveau europ\'{e}en dans le domaine des brevets pour le logiciel\cite  {bah02}}{5}{subsection.1.10}}
\newlabel{bah02}{{1.10}{5}{Bakels \& Hugenholtz en 2002: Discussion sur la l\'{e}gislation au niveau europ\'{e}en dans le domaine des brevets pour le logiciel\cite {bah02}\relax }{subsection.1.10}{}}
\citation{mok02}
\citation{cdp02}
\citation{kio02}
\citation{esc02fr}
\@writefile{toc}{\contentsline {subsection}{\numberline {1.11}DE 2002: Rapport de la Commission de Concurrence\cite  {mok02}}{6}{subsection.1.11}}
\newlabel{mok02}{{1.11}{6}{DE 2002: Rapport de la Commission de Concurrence\cite {mok02}\relax }{subsection.1.11}{}}
\@writefile{toc}{\contentsline {subsection}{\numberline {1.12}FR 2002: Rapport sur l'\'{e}conomie du logiciel\cite  {cdp02}}{6}{subsection.1.12}}
\newlabel{cdp02}{{1.12}{6}{FR 2002: Rapport sur l'\'{e}conomie du logiciel\cite {cdp02}\relax }{subsection.1.12}{}}
\@writefile{toc}{\contentsline {subsection}{\numberline {1.13}CCE 2002: Politique sur la technologie dans le domaine des t\'{e}l\'{e}communications : R\'{e}ponses du march\'{e} et impacts \'{e}conomiques\cite  {kio02}}{6}{subsection.1.13}}
\newlabel{kio02}{{1.13}{6}{CCE 2002: Politique sur la technologie dans le domaine des t\'{e}l\'{e}communications : R\'{e}ponses du march\'{e} et impacts \'{e}conomiques\cite {kio02}\relax }{subsection.1.13}{}}
\@writefile{toc}{\contentsline {subsection}{\numberline {1.14}CES 2002-09-24: Avis du Comit\'{e} \'{e}comique et social sur la proposition de la Commission\cite  {esc02fr}}{6}{subsection.1.14}}
\newlabel{esc02}{{1.14}{6}{CES 2002-09-24: Avis du Comit\'{e} \'{e}comique et social sur la proposition de la Commission\cite {esc02fr}\relax }{subsection.1.14}{}}
\citation{cult03fr}
\citation{itre03fr}
\citation{beh03}
\citation{ftc03}
\@writefile{toc}{\contentsline {subsection}{\numberline {1.15}CULT 2003-01-22: Avis de la commission de la culture, de la jeunesse, de l'\'{e}ducation, des m\'{e}dias et des sports du Parlement europ\'{e}en\cite  {cult03fr}}{7}{subsection.1.15}}
\newlabel{cult03}{{1.15}{7}{CULT 2003-01-22: Avis de la commission de la culture, de la jeunesse, de l'\'{e}ducation, des m\'{e}dias et des sports du Parlement europ\'{e}en\cite {cult03fr}\relax }{subsection.1.15}{}}
\@writefile{toc}{\contentsline {subsection}{\numberline {1.16}ITRE 2003-02-21: Avis de la commission de l'industrie, du commerce ext\'{e}rieur, de la recherche et de l'\'{e}nergie du Parlement europ\'{e}en\cite  {itre03fr}}{7}{subsection.1.16}}
\newlabel{itre03}{{1.16}{7}{ITRE 2003-02-21: Avis de la commission de l'industrie, du commerce ext\'{e}rieur, de la recherche et de l'\'{e}nergie du Parlement europ\'{e}en\cite {itre03fr}\relax }{subsection.1.16}{}}
\@writefile{toc}{\contentsline {subsection}{\numberline {1.17}Bessen \& Hunt en 2003 : Une vision empirique des brevets logiciels\cite  {beh03}}{7}{subsection.1.17}}
\newlabel{beh03}{{1.17}{7}{Bessen \& Hunt en 2003 : Une vision empirique des brevets logiciels\cite {beh03}\relax }{subsection.1.17}{}}
\@writefile{toc}{\contentsline {subsection}{\numberline {1.18}Auditions de la Federal Trade Commission en 2002-2003\cite  {ftc03}}{7}{subsection.1.18}}
\newlabel{ftc03}{{1.18}{7}{Auditions de la Federal Trade Commission en 2002-2003\cite {ftc03}\relax }{subsection.1.18}{}}
\citation{dbr04fr}
\@writefile{toc}{\contentsline {subsection}{\numberline {1.19}Deutsche Bank Research 2004: Innovation in Germany\cite  {dbr04fr}}{8}{subsection.1.19}}
\newlabel{dbr04}{{1.19}{8}{Deutsche Bank Research 2004: Innovation in Germany\cite {dbr04fr}\relax }{subsection.1.19}{}}
\@writefile{toc}{\contentsline {section}{\numberline {2}Foire aux questions (FAQ)}{9}{section.2}}
\newlabel{faq}{{2}{9}{Foire aux questions (FAQ)\relax }{section.2}{}}
\@writefile{toc}{\contentsline {subsection}{\numberline {2.1}Qu'est-ce qu'un brevet logiciel ?}{9}{subsection.2.1}}
\newlabel{qswp}{{2.1}{9}{Qu'est-ce qu'un brevet logiciel ?\relax }{subsection.2.1}{}}
\@writefile{toc}{\contentsline {subsection}{\numberline {2.2}Que dit la loi \`{a} propos des brevets logiciels ?}{9}{subsection.2.2}}
\newlabel{epc}{{2.2}{9}{Que dit la loi \`{a} propos des brevets logiciels ?\relax }{subsection.2.2}{}}
\@writefile{toc}{\contentsline {subsection}{\numberline {2.3}Que sont des ``inventions mises en oeuvre par ordinateur'' ?}{9}{subsection.2.3}}
\newlabel{cii}{{2.3}{9}{Que sont des ``inventions mises en oeuvre par ordinateur'' ?\relax }{subsection.2.3}{}}
\@writefile{toc}{\contentsline {subsection}{\numberline {2.4}Pourquoi le Parlement europ\'{e}en a-t-il d\'{e}cid\'{e} de r\'{e}affirmer la non brevetabilit\'{e} du logiciel ?}{10}{subsection.2.4}}
\newlabel{ep39}{{2.4}{10}{Pourquoi le Parlement europ\'{e}en a-t-il d\'{e}cid\'{e} de r\'{e}affirmer la non brevetabilit\'{e} du logiciel ?\relax }{subsection.2.4}{}}
\@writefile{toc}{\contentsline {subsection}{\numberline {2.5}Les investissements dans le logiciel ne doivent-ils pas \^{e}tre prot\'{e}g\'{e}s ?}{10}{subsection.2.5}}
\newlabel{prot}{{2.5}{10}{Les investissements dans le logiciel ne doivent-ils pas \^{e}tre prot\'{e}g\'{e}s ?\relax }{subsection.2.5}{}}
\@writefile{toc}{\contentsline {subsection}{\numberline {2.6}Que se passe-t-il pour les t\'{e}l\'{e}phones mobiles et les machines \`{a} laver ?}{10}{subsection.2.6}}
\newlabel{mobf}{{2.6}{10}{Que se passe-t-il pour les t\'{e}l\'{e}phones mobiles et les machines \`{a} laver ?\relax }{subsection.2.6}{}}
\@writefile{toc}{\contentsline {subsection}{\numberline {2.7}La version du Parlement europ\'{e}en ne contredit-elle pas les trait\'{e}s internationnaux tels que les ADPIC ?}{10}{subsection.2.7}}
\newlabel{trips}{{2.7}{10}{La version du Parlement europ\'{e}en ne contredit-elle pas les trait\'{e}s internationnaux tels que les ADPIC ?\relax }{subsection.2.7}{}}
\bibdata{swpat}
\bibcite{bah02}{BH02}
\@writefile{toc}{\contentsline {subsection}{\numberline {2.8}Les textes de la Commission et du Conseil ne confirment-ils pas simplement le status quo ?}{11}{subsection.2.8}}
\newlabel{statq}{{2.8}{11}{Les textes de la Commission et du Conseil ne confirment-ils pas simplement le status quo ?\relax }{subsection.2.8}{}}
\@writefile{toc}{\contentsline {subsection}{\numberline {2.9}Pourquoi le ``traitement de donn\'{e}es'' est-il exclu de la brevetabilit\'{e} et qu'est-ce que cela signifie ?}{11}{subsection.2.9}}
\newlabel{adp}{{2.9}{11}{Pourquoi le ``traitement de donn\'{e}es'' est-il exclu de la brevetabilit\'{e} et qu'est-ce que cela signifie ?\relax }{subsection.2.9}{}}
\@writefile{toc}{\contentsline {subsection}{\numberline {2.10}Pourquoi le Parlement europ\'{e}en a-t-il d\'{e}fini la ``technique'' en se r\'{e}f\'{e}rant aux ``forces de la nature'' ?}{11}{subsection.2.10}}
\newlabel{natur}{{2.10}{11}{Pourquoi le Parlement europ\'{e}en a-t-il d\'{e}fini la ``technique'' en se r\'{e}f\'{e}rant aux ``forces de la nature'' ?\relax }{subsection.2.10}{}}
\@writefile{toc}{\contentsline {subsection}{\numberline {2.11}Insister sur les ``forces de la nature'' est-il toujours appropri\'{e} aux inventions actuelles ?}{11}{subsection.2.11}}
\newlabel{fnold}{{2.11}{11}{Insister sur les ``forces de la nature'' est-il toujours appropri\'{e} aux inventions actuelles ?\relax }{subsection.2.11}{}}
\@writefile{toc}{\contentsline {subsection}{\numberline {2.12}Pourquoi le Parlement europ\'{e}en ne s'est pas satisfait des garde-fous de la Commission sur l'interop\'{e}rabilit\'{e} ?}{11}{subsection.2.12}}
\newlabel{itop}{{2.12}{11}{Pourquoi le Parlement europ\'{e}en ne s'est pas satisfait des garde-fous de la Commission sur l'interop\'{e}rabilit\'{e} ?\relax }{subsection.2.12}{}}
\bibcite{beh03}{BH03}
\bibcite{vkd00}{Bru00}
\bibcite{con00}{Con00}
\bibcite{cult03fr}{CUL02}
\bibcite{cor99fr}{dR99}
\bibcite{ezi01fr}{ezi01}
\bibcite{ftc03}{ftc03}
\bibcite{ipi00}{HHR00}
\bibcite{dbr04fr}{Hof04}
\bibcite{itre03fr}{ITR02}
\bibcite{isi01}{KB01}
\bibcite{kio02}{Kos02}
\bibcite{mok02}{mok02}
\bibcite{nrc00}{NRC00}
\bibcite{ezt02}{Pol02}
\bibcite{esc02fr}{Ret02}
\bibcite{cdp02}{Rou02}
\bibcite{tap01fr}{TAP01}
\gdef\scr@tpo@lst{0}
