\BOOKMARK [1][-]{section.1}{Studies and Opinions related to the Software Patent Directive Project}{}
\BOOKMARK [2][-]{subsection.1.1}{EU Council of Regions 1999cor99}{section.1}
\BOOKMARK [2][-]{subsection.1.2}{NL 2000: Ruimere octrooiering van computerprogramma's : technicality of revolutie?vkd00}{section.1}
\BOOKMARK [2][-]{subsection.1.3}{US National Research Council 2000: The Digital Dilemmanrc00}{section.1}
\BOOKMARK [2][-]{subsection.1.4}{CEC 2000: ``Patent protection of computer programmes''tap01}{section.1}
\BOOKMARK [2][-]{subsection.1.5}{CEC 2000: ``The Economic Impact of Software Patents''ipi00}{section.1}
\BOOKMARK [2][-]{subsection.1.6}{CEC 2000: Consultation on the Planned Software Patent Directivecon00}{section.1}
\BOOKMARK [2][-]{subsection.1.7}{DE 2001: Micro- and Macroeconomic Implications of the Patentability of Software Innovationsisi01}{section.1}
\BOOKMARK [2][-]{subsection.1.8}{NL 2001: ``Intellectueel Eigendom en Innovatie -- Over de rol van intellectueel eigendom in de Nederlandse kenniseconomie''ezi01}{section.1}
\BOOKMARK [2][-]{subsection.1.9}{NL 2002: ``Toets op het concurrentievermogen''ezt02}{section.1}
\BOOKMARK [2][-]{subsection.1.10}{Bakels \046 Hugenholtz 2002: Discussion of European-level legislation in the field of patents for softwarebah02}{section.1}
\BOOKMARK [2][-]{subsection.1.11}{Monopolkommission report 2002-07-08mok02}{section.1}
\BOOKMARK [2][-]{subsection.1.12}{Commissariat g\351n\351ral au plan 2002-10-17: Rapport sur l'\311conomie du Logicielcdp02}{section.1}
\BOOKMARK [2][-]{subsection.1.13}{Koski 2002: Technology policy in the telecommunication sector: Market responses and economic impactskio02}{section.1}
\BOOKMARK [2][-]{subsection.1.14}{ESC 2002-09-24: Opinion Economic and Social Committee on the Commission Proposalesc02}{section.1}
\BOOKMARK [2][-]{subsection.1.15}{CULT 2003-01-22: Opinion Committee for Cultural Affairs and Youth of EPcult03}{section.1}
\BOOKMARK [2][-]{subsection.1.16}{ITRE 2003-02-21: Opinion Committee for Industry and Trade of EPitre03}{section.1}
\BOOKMARK [2][-]{subsection.1.17}{Bessen \046 Hunt 2003: An Empirical Look at Software Patentsbeh03}{section.1}
\BOOKMARK [2][-]{subsection.1.18}{Federal Trade Commission Hearings of 2002-2003ftc03}{section.1}
\BOOKMARK [2][-]{subsection.1.19}{Deutsche Bank Research 2004: Innovation in Germanydbr04}{section.1}
\BOOKMARK [1][-]{section.2}{FAQ}{}
\BOOKMARK [2][-]{subsection.2.1}{What is a software patent?}{section.2}
\BOOKMARK [2][-]{subsection.2.2}{What does the law say about software patents?}{section.2}
\BOOKMARK [2][-]{subsection.2.3}{What are ``computer-implemented inventions''?}{section.2}
\BOOKMARK [2][-]{subsection.2.4}{Why did the EP decide to reaffirm the non-patentability of software?}{section.2}
\BOOKMARK [2][-]{subsection.2.5}{Don't investments in software development have to be protected?}{section.2}
\BOOKMARK [2][-]{subsection.2.6}{What about mobile phones and washing machines?}{section.2}
\BOOKMARK [2][-]{subsection.2.7}{Doesn't the EP version contradict international treaties such as TRIPS?}{section.2}
\BOOKMARK [2][-]{subsection.2.8}{Isn't the Commission/Council version merely confirming the status quo?}{section.2}
\BOOKMARK [2][-]{subsection.2.9}{Why is ``data processing not a field of technology'' and what does this mean?}{section.2}
\BOOKMARK [2][-]{subsection.2.10}{Why does the EP define ``technology'' by reference to ``forces of nature''?}{section.2}
\BOOKMARK [2][-]{subsection.2.11}{Is insistence on ``forces of nature'' still adequate to today's inventions?}{section.2}
\BOOKMARK [2][-]{subsection.2.12}{Why was the EP not content with the Commission's safeguards for interoperability?}{section.2}
