\relax 
\catcode`"\active
\ifx\hyper@anchor\@undefined
\global \let \oldcontentsline\contentsline
\gdef \contentsline#1#2#3#4{\oldcontentsline{#1}{#2}{#3}}
\global \let \oldnewlabel\newlabel
\gdef \newlabel#1#2{\newlabelxx{#1}#2}
\gdef \newlabelxx#1#2#3#4#5#6{\oldnewlabel{#1}{{#2}{#3}}}
\AtEndDocument{\let \contentsline\oldcontentsline
\let \newlabel\oldnewlabel}
\else
\global \let \hyper@last\relax 
\fi

\bibstyle{alpha}
\citation{cor99}
\citation{vkd00}
\select@language{polish}
\@writefile{toc}{\select@language{polish}}
\@writefile{lof}{\select@language{polish}}
\@writefile{lot}{\select@language{polish}}
\@writefile{toc}{\contentsline {section}{\numberline {1}Studies and Opinions related to the Software Patent Directive Project}{1}{section.1}}
\newlabel{stud}{{1}{1}{Studies and Opinions related to the Software Patent Directive Project\relax }{section.1}{}}
\@writefile{toc}{\contentsline {subsection}{\numberline {1.1}EU Council of Regions 1999\cite  {cor99}}{1}{subsection.1.1}}
\newlabel{cor99}{{1.1}{1}{EU Council of Regions 1999\cite {cor99}\relax }{subsection.1.1}{}}
\citation{nrc00}
\citation{tap01}
\citation{ipi00}
\@writefile{toc}{\contentsline {subsection}{\numberline {1.2}NL 2000: Ruimere octrooiering van computerprogramma's : technicality of revolutie?\cite  {vkd00}}{2}{subsection.1.2}}
\newlabel{vkd00}{{1.2}{2}{NL 2000: Ruimere octrooiering van computerprogramma's : technicality of revolutie?\cite {vkd00}\relax }{subsection.1.2}{}}
\@writefile{toc}{\contentsline {subsection}{\numberline {1.3}US National Research Council 2000: The Digital Dilemma\cite  {nrc00}}{2}{subsection.1.3}}
\newlabel{nrc00}{{1.3}{2}{US National Research Council 2000: The Digital Dilemma\cite {nrc00}\relax }{subsection.1.3}{}}
\@writefile{toc}{\contentsline {subsection}{\numberline {1.4}CEC 2000: ``Patent protection of computer programmes''\cite  {tap01}}{2}{subsection.1.4}}
\newlabel{tap01}{{1.4}{2}{CEC 2000: ``Patent protection of computer programmes''\cite {tap01}\relax }{subsection.1.4}{}}
\citation{con00}
\@writefile{toc}{\contentsline {subsection}{\numberline {1.5}CEC 2000: ``The Economic Impact of Software Patents''\cite  {ipi00}}{3}{subsection.1.5}}
\newlabel{ipi00}{{1.5}{3}{CEC 2000: ``The Economic Impact of Software Patents''\cite {ipi00}\relax }{subsection.1.5}{}}
\@writefile{toc}{\contentsline {subsection}{\numberline {1.6}CEC 2000: Consultation on the Planned Software Patent Directive\cite  {con00}}{3}{subsection.1.6}}
\newlabel{con00}{{1.6}{3}{CEC 2000: Consultation on the Planned Software Patent Directive\cite {con00}\relax }{subsection.1.6}{}}
\citation{isi01}
\@writefile{toc}{\contentsline {subsection}{\numberline {1.7}DE 2001: Micro- and Macroeconomic Implications of the Patentability of Software Innovations\cite  {isi01}}{4}{subsection.1.7}}
\newlabel{isi01}{{1.7}{4}{DE 2001: Micro- and Macroeconomic Implications of the Patentability of Software Innovations\cite {isi01}\relax }{subsection.1.7}{}}
\citation{ezi01}
\citation{ezt02}
\citation{bah02}
\@writefile{toc}{\contentsline {subsection}{\numberline {1.8}NL 2001: ``Intellectueel Eigendom en Innovatie -- Over de rol van intellectueel eigendom in de Nederlandse kenniseconomie''\cite  {ezi01}}{5}{subsection.1.8}}
\newlabel{ezi01}{{1.8}{5}{NL 2001: ``Intellectueel Eigendom en Innovatie -- Over de rol van intellectueel eigendom in de Nederlandse kenniseconomie''\cite {ezi01}\relax }{subsection.1.8}{}}
\@writefile{toc}{\contentsline {subsection}{\numberline {1.9}NL 2002: ``Toets op het concurrentievermogen''\cite  {ezt02}}{5}{subsection.1.9}}
\newlabel{ezt02}{{1.9}{5}{NL 2002: ``Toets op het concurrentievermogen''\cite {ezt02}\relax }{subsection.1.9}{}}
\@writefile{toc}{\contentsline {subsection}{\numberline {1.10}Bakels \& Hugenholtz 2002: Discussion of European-level legislation in the field of patents for software\cite  {bah02}}{5}{subsection.1.10}}
\newlabel{bah02}{{1.10}{5}{Bakels \& Hugenholtz 2002: Discussion of European-level legislation in the field of patents for software\cite {bah02}\relax }{subsection.1.10}{}}
\citation{mok02}
\citation{cdp02}
\citation{kio02}
\citation{esc02}
\@writefile{toc}{\contentsline {subsection}{\numberline {1.11}Monopolkommission report 2002-07-08\cite  {mok02}}{6}{subsection.1.11}}
\newlabel{mok02}{{1.11}{6}{Monopolkommission report 2002-07-08\cite {mok02}\relax }{subsection.1.11}{}}
\@writefile{toc}{\contentsline {subsection}{\numberline {1.12}Commissariat g\'{e}n\'{e}ral au plan 2002-10-17: Rapport sur l'\'{E}conomie du Logiciel\cite  {cdp02}}{6}{subsection.1.12}}
\newlabel{cdp02}{{1.12}{6}{Commissariat g\'{e}n\'{e}ral au plan 2002-10-17: Rapport sur l'\'{E}conomie du Logiciel\cite {cdp02}\relax }{subsection.1.12}{}}
\@writefile{toc}{\contentsline {subsection}{\numberline {1.13}Koski 2002: Technology policy in the telecommunication sector: Market responses and economic impacts\cite  {kio02}}{6}{subsection.1.13}}
\newlabel{kio02}{{1.13}{6}{Koski 2002: Technology policy in the telecommunication sector: Market responses and economic impacts\cite {kio02}\relax }{subsection.1.13}{}}
\@writefile{toc}{\contentsline {subsection}{\numberline {1.14}ESC 2002-09-24: Opinion Economic and Social Committee on the Commission Proposal\cite  {esc02}}{6}{subsection.1.14}}
\newlabel{esc02}{{1.14}{6}{ESC 2002-09-24: Opinion Economic and Social Committee on the Commission Proposal\cite {esc02}\relax }{subsection.1.14}{}}
\citation{cult03}
\citation{itre03}
\citation{beh03}
\citation{ftc03}
\@writefile{toc}{\contentsline {subsection}{\numberline {1.15}CULT 2003-01-22: Opinion Committee for Cultural Affairs and Youth of EP\cite  {cult03}}{7}{subsection.1.15}}
\newlabel{cult03}{{1.15}{7}{CULT 2003-01-22: Opinion Committee for Cultural Affairs and Youth of EP\cite {cult03}\relax }{subsection.1.15}{}}
\@writefile{toc}{\contentsline {subsection}{\numberline {1.16}ITRE 2003-02-21: Opinion Committee for Industry and Trade of EP\cite  {itre03}}{7}{subsection.1.16}}
\newlabel{itre03}{{1.16}{7}{ITRE 2003-02-21: Opinion Committee for Industry and Trade of EP\cite {itre03}\relax }{subsection.1.16}{}}
\@writefile{toc}{\contentsline {subsection}{\numberline {1.17}Bessen \& Hunt 2003: An Empirical Look at Software Patents\cite  {beh03}}{7}{subsection.1.17}}
\newlabel{beh03}{{1.17}{7}{Bessen \& Hunt 2003: An Empirical Look at Software Patents\cite {beh03}\relax }{subsection.1.17}{}}
\@writefile{toc}{\contentsline {subsection}{\numberline {1.18}Federal Trade Commission Hearings of 2002-2003\cite  {ftc03}}{7}{subsection.1.18}}
\newlabel{ftc03}{{1.18}{7}{Federal Trade Commission Hearings of 2002-2003\cite {ftc03}\relax }{subsection.1.18}{}}
\citation{dbr04}
\@writefile{toc}{\contentsline {subsection}{\numberline {1.19}Deutsche Bank Research 2004: Innovation in Germany\cite  {dbr04}}{8}{subsection.1.19}}
\newlabel{dbr04}{{1.19}{8}{Deutsche Bank Research 2004: Innovation in Germany\cite {dbr04}\relax }{subsection.1.19}{}}
\@writefile{toc}{\contentsline {section}{\numberline {2}FAQ}{8}{section.2}}
\newlabel{faq}{{2}{8}{FAQ\relax }{section.2}{}}
\@writefile{toc}{\contentsline {subsection}{\numberline {2.1}What is a software patent?}{8}{subsection.2.1}}
\newlabel{qswp}{{2.1}{8}{What is a software patent?\relax }{subsection.2.1}{}}
\@writefile{toc}{\contentsline {subsection}{\numberline {2.2}What does the law say about software patents?}{9}{subsection.2.2}}
\newlabel{epc}{{2.2}{9}{What does the law say about software patents?\relax }{subsection.2.2}{}}
\@writefile{toc}{\contentsline {subsection}{\numberline {2.3}What are ``computer-implemented inventions''?}{9}{subsection.2.3}}
\newlabel{cii}{{2.3}{9}{What are ``computer-implemented inventions''?\relax }{subsection.2.3}{}}
\@writefile{toc}{\contentsline {subsection}{\numberline {2.4}Why did the EP decide to reaffirm the non-patentability of software?}{10}{subsection.2.4}}
\newlabel{ep39}{{2.4}{10}{Why did the EP decide to reaffirm the non-patentability of software?\relax }{subsection.2.4}{}}
\@writefile{toc}{\contentsline {subsection}{\numberline {2.5}Don't investments in software development have to be protected?}{10}{subsection.2.5}}
\newlabel{prot}{{2.5}{10}{Don't investments in software development have to be protected?\relax }{subsection.2.5}{}}
\@writefile{toc}{\contentsline {subsection}{\numberline {2.6}What about mobile phones and washing machines?}{10}{subsection.2.6}}
\newlabel{mobf}{{2.6}{10}{What about mobile phones and washing machines?\relax }{subsection.2.6}{}}
\@writefile{toc}{\contentsline {subsection}{\numberline {2.7}Doesn't the EP version contradict international treaties such as TRIPS?}{10}{subsection.2.7}}
\newlabel{trips}{{2.7}{10}{Doesn't the EP version contradict international treaties such as TRIPS?\relax }{subsection.2.7}{}}
\@writefile{toc}{\contentsline {subsection}{\numberline {2.8}Isn't the Commission/Council version merely confirming the status quo?}{10}{subsection.2.8}}
\newlabel{statq}{{2.8}{10}{Isn't the Commission/Council version merely confirming the status quo?\relax }{subsection.2.8}{}}
\@writefile{toc}{\contentsline {subsection}{\numberline {2.9}Why is ``data processing not a field of technology'' and what does this mean?}{10}{subsection.2.9}}
\newlabel{adp}{{2.9}{10}{Why is ``data processing not a field of technology'' and what does this mean?\relax }{subsection.2.9}{}}
\bibdata{swpat}
\bibcite{bah02}{BH02}
\bibcite{beh03}{BH03}
\bibcite{vkd00}{Bru00}
\bibcite{con00}{Con00}
\bibcite{cult03}{CUL02}
\@writefile{toc}{\contentsline {subsection}{\numberline {2.10}Why does the EP define ``technology'' by reference to ``forces of nature''?}{11}{subsection.2.10}}
\newlabel{natur}{{2.10}{11}{Why does the EP define ``technology'' by reference to ``forces of nature''?\relax }{subsection.2.10}{}}
\@writefile{toc}{\contentsline {subsection}{\numberline {2.11}Is insistence on ``forces of nature'' still adequate to today's inventions?}{11}{subsection.2.11}}
\newlabel{fnold}{{2.11}{11}{Is insistence on ``forces of nature'' still adequate to today's inventions?\relax }{subsection.2.11}{}}
\@writefile{toc}{\contentsline {subsection}{\numberline {2.12}Why was the EP not content with the Commission's safeguards for interoperability?}{11}{subsection.2.12}}
\newlabel{itop}{{2.12}{11}{Why was the EP not content with the Commission's safeguards for interoperability?\relax }{subsection.2.12}{}}
\bibcite{ezi01}{ezi01}
\bibcite{ftc03}{ftc03}
\bibcite{ipi00}{HHR00}
\bibcite{dbr04}{Hof04}
\bibcite{itre03}{ITR02}
\bibcite{isi01}{KB01}
\bibcite{kio02}{Kos02}
\bibcite{mok02}{mok02}
\bibcite{nrc00}{NRC00}
\bibcite{cor99}{otR99}
\bibcite{ezt02}{Pol02}
\bibcite{esc02}{Ret02}
\bibcite{cdp02}{Rou02}
\bibcite{tap01}{TAP01}
\gdef\scr@tpo@lst{0}
