\relax 
\ifx\hyper@anchor\@undefined
\global \let \oldcontentsline\contentsline
\gdef \contentsline#1#2#3#4{\oldcontentsline{#1}{#2}{#3}}
\global \let \oldnewlabel\newlabel
\gdef \newlabel#1#2{\newlabelxx{#1}#2}
\gdef \newlabelxx#1#2#3#4#5#6{\oldnewlabel{#1}{{#2}{#3}}}
\AtEndDocument{\let \contentsline\oldcontentsline
\let \newlabel\oldnewlabel}
\else
\global \let \hyper@last\relax 
\fi

\bibstyle{alpha}
\citation{cor99de}
\citation{vkd00}
\@writefile{toc}{\contentsline {section}{\numberline {1}Meinungen und Studien zur Softwarepatent-Richtlinie}{1}{section.1}}
\newlabel{stud}{{1}{1}{Meinungen und Studien zur Softwarepatent-Richtlinie\relax }{section.1}{}}
\@writefile{toc}{\contentsline {subsection}{\numberline {1.1}EU Ausschuss der Regionen 1999\cite  {cor99de}}{1}{subsection.1.1}}
\newlabel{cor99}{{1.1}{1}{EU Ausschuss der Regionen 1999\cite {cor99de}\relax }{subsection.1.1}{}}
\citation{nrc00}
\citation{tap01}
\citation{ipi00}
\@writefile{toc}{\contentsline {subsection}{\numberline {1.2}NL 2000: Ruimere octrooiering van computerprogramma's : technicality of revolutie?\cite  {vkd00}}{2}{subsection.1.2}}
\newlabel{vkd00}{{1.2}{2}{NL 2000: Ruimere octrooiering van computerprogramma's : technicality of revolutie?\cite {vkd00}\relax }{subsection.1.2}{}}
\@writefile{toc}{\contentsline {subsection}{\numberline {1.3}US National Research Council 2000: The Digital Dilemma\cite  {nrc00}}{2}{subsection.1.3}}
\newlabel{nrc00}{{1.3}{2}{US National Research Council 2000: The Digital Dilemma\cite {nrc00}\relax }{subsection.1.3}{}}
\@writefile{toc}{\contentsline {subsection}{\numberline {1.4}CEC 2000: ``Patent protection of computer programmes''\cite  {tap01}}{2}{subsection.1.4}}
\newlabel{tap01}{{1.4}{2}{CEC 2000: ``Patent protection of computer programmes''\cite {tap01}\relax }{subsection.1.4}{}}
\citation{con00}
\@writefile{toc}{\contentsline {subsection}{\numberline {1.5}CEC 2000: ``The Economic Impact of Software Patents''\cite  {ipi00}}{3}{subsection.1.5}}
\newlabel{ipi00}{{1.5}{3}{CEC 2000: ``The Economic Impact of Software Patents''\cite {ipi00}\relax }{subsection.1.5}{}}
\@writefile{toc}{\contentsline {subsection}{\numberline {1.6}Konsultation durch den Europ\"{a}ischen Rat\cite  {con00}}{3}{subsection.1.6}}
\newlabel{con00}{{1.6}{3}{Konsultation durch den Europ\"{a}ischen Rat\cite {con00}\relax }{subsection.1.6}{}}
\citation{isi01}
\@writefile{toc}{\contentsline {subsection}{\numberline {1.7}DE 2001: Mikro- und makro\"{o}konomische Implikationen der Patentierbarkeit von Softwareinnovationen\cite  {isi01}}{4}{subsection.1.7}}
\newlabel{isi01}{{1.7}{4}{DE 2001: Mikro- und makro\"{o}konomische Implikationen der Patentierbarkeit von Softwareinnovationen\cite {isi01}\relax }{subsection.1.7}{}}
\citation{ezi01}
\citation{ezt02}
\citation{bah02}
\@writefile{toc}{\contentsline {subsection}{\numberline {1.8}NL 2001: ``Intellectueel Eigendom en Innovatie -- Over de rol van intellectueel eigendom in de Nederlandse kenniseconomie''\cite  {ezi01}}{5}{subsection.1.8}}
\newlabel{ezi01}{{1.8}{5}{NL 2001: ``Intellectueel Eigendom en Innovatie -- Over de rol van intellectueel eigendom in de Nederlandse kenniseconomie''\cite {ezi01}\relax }{subsection.1.8}{}}
\@writefile{toc}{\contentsline {subsection}{\numberline {1.9}NL 2002: ``Toets op het concurrentievermogen''\cite  {ezt02}}{5}{subsection.1.9}}
\newlabel{ezt02}{{1.9}{5}{NL 2002: ``Toets op het concurrentievermogen''\cite {ezt02}\relax }{subsection.1.9}{}}
\citation{mok02de}
\citation{cdp02}
\citation{kio02}
\citation{esc02de}
\@writefile{toc}{\contentsline {subsection}{\numberline {1.10}Bakels \& Hugenholtz 2002: Discussion of European-level legislation in the field of patents for software\cite  {bah02}}{6}{subsection.1.10}}
\newlabel{bah02}{{1.10}{6}{Bakels \& Hugenholtz 2002: Discussion of European-level legislation in the field of patents for software\cite {bah02}\relax }{subsection.1.10}{}}
\@writefile{toc}{\contentsline {subsection}{\numberline {1.11}2002-07-08: Bericht der Monopolkommission\cite  {mok02de}}{6}{subsection.1.11}}
\newlabel{mok02}{{1.11}{6}{2002-07-08: Bericht der Monopolkommission\cite {mok02de}\relax }{subsection.1.11}{}}
\@writefile{toc}{\contentsline {subsection}{\numberline {1.12}2002-10-17 Franz\"{o}sisches Staatliches Planungskommissariat: Bericht \"{u}ber die Digitale Wirtschaft\cite  {cdp02}}{6}{subsection.1.12}}
\newlabel{cdp02}{{1.12}{6}{2002-10-17 Franz\"{o}sisches Staatliches Planungskommissariat: Bericht \"{u}ber die Digitale Wirtschaft\cite {cdp02}\relax }{subsection.1.12}{}}
\@writefile{toc}{\contentsline {subsection}{\numberline {1.13}Koski 2002: Technology policy in the telecommunication sector: Market responses and economic impacts\cite  {kio02}}{6}{subsection.1.13}}
\newlabel{kio02}{{1.13}{6}{Koski 2002: Technology policy in the telecommunication sector: Market responses and economic impacts\cite {kio02}\relax }{subsection.1.13}{}}
\citation{cult03de}
\citation{itre03de}
\citation{beh03}
\@writefile{toc}{\contentsline {subsection}{\numberline {1.14}WSA 2002-09-24: Stellungnahme des Wirtschafts- und Sozialausschusses des EP zum Kommissionsvorschlag\cite  {esc02de}}{7}{subsection.1.14}}
\newlabel{esc02}{{1.14}{7}{WSA 2002-09-24: Stellungnahme des Wirtschafts- und Sozialausschusses des EP zum Kommissionsvorschlag\cite {esc02de}\relax }{subsection.1.14}{}}
\@writefile{toc}{\contentsline {subsection}{\numberline {1.15}2002-12: Stellungnahme des Ausschusses f\"{u}r Kultur und Bildung des EP\cite  {cult03de}}{7}{subsection.1.15}}
\newlabel{cult03}{{1.15}{7}{2002-12: Stellungnahme des Ausschusses f\"{u}r Kultur und Bildung des EP\cite {cult03de}\relax }{subsection.1.15}{}}
\@writefile{toc}{\contentsline {subsection}{\numberline {1.16}ITRE 2003-02-21: Stellungnahme des Ausschusses f\"{u}r Industrie, Forschung und Energie\cite  {itre03de}}{7}{subsection.1.16}}
\newlabel{itre03}{{1.16}{7}{ITRE 2003-02-21: Stellungnahme des Ausschusses f\"{u}r Industrie, Forschung und Energie\cite {itre03de}\relax }{subsection.1.16}{}}
\@writefile{toc}{\contentsline {subsection}{\numberline {1.17}Bessen \& Hunt 2003: An Empirical Look at Software Patents\cite  {beh03}}{7}{subsection.1.17}}
\newlabel{beh03}{{1.17}{7}{Bessen \& Hunt 2003: An Empirical Look at Software Patents\cite {beh03}\relax }{subsection.1.17}{}}
\citation{ftc03}
\@writefile{toc}{\contentsline {subsection}{\numberline {1.18}2002/2003: Anh\"{o}rungen der US Federal Trade Commission.\cite  {ftc03}}{8}{subsection.1.18}}
\newlabel{ftc03}{{1.18}{8}{2002/2003: Anh\"{o}rungen der US Federal Trade Commission.\cite {ftc03}\relax }{subsection.1.18}{}}
\citation{dbr04}
\@writefile{toc}{\contentsline {subsection}{\numberline {1.19}Deutsche Bank Research 2004: Innovation in Germany\cite  {dbr04}}{9}{subsection.1.19}}
\newlabel{dbr04}{{1.19}{9}{Deutsche Bank Research 2004: Innovation in Germany\cite {dbr04}\relax }{subsection.1.19}{}}
\@writefile{toc}{\contentsline {section}{\numberline {2}H\"{a}ufig gestellte Fragen}{9}{section.2}}
\newlabel{faq}{{2}{9}{H\"{a}ufig gestellte Fragen\relax }{section.2}{}}
\@writefile{toc}{\contentsline {subsection}{\numberline {2.1}Was ist ein Softwarepatent?}{9}{subsection.2.1}}
\newlabel{qswp}{{2.1}{9}{Was ist ein Softwarepatent?\relax }{subsection.2.1}{}}
\@writefile{toc}{\contentsline {subsection}{\numberline {2.2}Was sagt das Gesetz \"{u}ber Softwarepatente?}{9}{subsection.2.2}}
\newlabel{epc}{{2.2}{9}{Was sagt das Gesetz \"{u}ber Softwarepatente?\relax }{subsection.2.2}{}}
\@writefile{toc}{\contentsline {subsection}{\numberline {2.3}Was sind ``computer-implementierte Erfindungen''?}{10}{subsection.2.3}}
\newlabel{cii}{{2.3}{10}{Was sind ``computer-implementierte Erfindungen''?\relax }{subsection.2.3}{}}
\@writefile{toc}{\contentsline {subsection}{\numberline {2.4}Warum hat das Europ\"{a}ische Parlament entschieden die Nichtpatentierbarkeit von Software nochmals zu betonen?}{10}{subsection.2.4}}
\newlabel{ep39}{{2.4}{10}{Warum hat das Europ\"{a}ische Parlament entschieden die Nichtpatentierbarkeit von Software nochmals zu betonen?\relax }{subsection.2.4}{}}
\@writefile{toc}{\contentsline {subsection}{\numberline {2.5}Sollten Investitionen in der Softwareentwicklung nicht gesch\"{u}tzt werden?}{10}{subsection.2.5}}
\newlabel{prot}{{2.5}{10}{Sollten Investitionen in der Softwareentwicklung nicht gesch\"{u}tzt werden?\relax }{subsection.2.5}{}}
\@writefile{toc}{\contentsline {subsection}{\numberline {2.6}Was ist mit Mobiltelefonen und Waschmaschinen?}{11}{subsection.2.6}}
\newlabel{mobf}{{2.6}{11}{Was ist mit Mobiltelefonen und Waschmaschinen?\relax }{subsection.2.6}{}}
\@writefile{toc}{\contentsline {subsection}{\numberline {2.7}Widerspricht die Version des Europ\"{a}ischen Parlaments nicht internationalen Vertr\"{a}gen wie TRIPs?}{11}{subsection.2.7}}
\newlabel{trips}{{2.7}{11}{Widerspricht die Version des Europ\"{a}ischen Parlaments nicht internationalen Vertr\"{a}gen wie TRIPs?\relax }{subsection.2.7}{}}
\@writefile{toc}{\contentsline {subsection}{\numberline {2.8}Best\"{a}tigt die Version der Kommission/des Rates nicht einfach nur den Status Quo?}{11}{subsection.2.8}}
\newlabel{statq}{{2.8}{11}{Best\"{a}tigt die Version der Kommission/des Rates nicht einfach nur den Status Quo?\relax }{subsection.2.8}{}}
\@writefile{toc}{\contentsline {subsection}{\numberline {2.9}Warum ist ``Datenverarbeitung kein Gebiet der Technik'' und was hei{\ss }t das?}{11}{subsection.2.9}}
\newlabel{adp}{{2.9}{11}{Warum ist ``Datenverarbeitung kein Gebiet der Technik'' und was hei{\ss }t das?\relax }{subsection.2.9}{}}
\@writefile{toc}{\contentsline {subsection}{\numberline {2.10}Warum definiert das Europ\"{a}ische Parlament ``Technik'' durch Bezug auf ``Naturkr\"{a}fte''?}{11}{subsection.2.10}}
\newlabel{natur}{{2.10}{11}{Warum definiert das Europ\"{a}ische Parlament ``Technik'' durch Bezug auf ``Naturkr\"{a}fte''?\relax }{subsection.2.10}{}}
\bibdata{swpat}
\bibcite{cor99de}{AdR99}
\bibcite{cult03de}{Aus03}
\bibcite{bah02}{BH02}
\bibcite{beh03}{BH03}
\bibcite{vkd00}{Bru00}
\@writefile{toc}{\contentsline {subsection}{\numberline {2.11}Ist das Beharren auf ``Naturgewalten'' bei heutigen Erfindungen noch angemessen?}{12}{subsection.2.11}}
\newlabel{fnold}{{2.11}{12}{Ist das Beharren auf ``Naturgewalten'' bei heutigen Erfindungen noch angemessen?\relax }{subsection.2.11}{}}
\@writefile{toc}{\contentsline {subsection}{\numberline {2.12}Warum war das Europ\"{a}ische Parlament mit den Vorkehrungen der Kommission zur Sicherung der Interoperabilit\"{a}t nicht zufrieden?}{12}{subsection.2.12}}
\newlabel{itop}{{2.12}{12}{Warum war das Europ\"{a}ische Parlament mit den Vorkehrungen der Kommission zur Sicherung der Interoperabilit\"{a}t nicht zufrieden?\relax }{subsection.2.12}{}}
\bibcite{con00}{Con00}
\bibcite{ezi01}{ezi01}
\bibcite{ftc03}{ftc03}
\bibcite{ipi00}{HHR00}
\bibcite{dbr04}{Hof04}
\bibcite{itre03de}{ITR03}
\bibcite{isi01}{KB01}
\bibcite{kio02}{Kos02}
\bibcite{mok02de}{mok02}
\bibcite{nrc00}{NRC00}
\bibcite{ezt02}{Pol02}
\bibcite{esc02de}{Ret02}
\bibcite{cdp02}{Rou02}
\bibcite{tap01}{TAP01}
\gdef\scr@tpo@lst{0}
