\relax 
\ifx\hyper@anchor\@undefined
\global \let \oldcontentsline\contentsline
\gdef \contentsline#1#2#3#4{\oldcontentsline{#1}{#2}{#3}}
\global \let \oldnewlabel\newlabel
\gdef \newlabel#1#2{\newlabelxx{#1}#2}
\gdef \newlabelxx#1#2#3#4#5#6{\oldnewlabel{#1}{{#2}{#3}}}
\AtEndDocument{\let \contentsline\oldcontentsline
\let \newlabel\oldnewlabel}
\else
\global \let \hyper@last\relax 
\fi

\@writefile{toc}{\contentsline {section}{\numberline {1}Header}{2}{section.1}}
\newlabel{kap}{{1}{2}{Header\relax }{section.1}{}}
\@writefile{toc}{\contentsline {section}{\numberline {2}Body}{2}{section.2}}
\newlabel{text}{{2}{2}{Body\relax }{section.2}{}}
\@writefile{toc}{\contentsline {section}{\numberline {3}footer}{4}{section.3}}
\newlabel{ped}{{3}{4}{footer\relax }{section.3}{}}
\@writefile{toc}{\contentsline {section}{\numberline {4}Annotated Links}{5}{section.4}}
\newlabel{links}{{4}{5}{Annotated Links\relax }{section.4}{}}
\gdef\scr@tpo@lst{0}
