\relax 
\ifx\hyper@anchor\@undefined
\global \let \oldcontentsline\contentsline
\gdef \contentsline#1#2#3#4{\oldcontentsline{#1}{#2}{#3}}
\global \let \oldnewlabel\newlabel
\gdef \newlabel#1#2{\newlabelxx{#1}#2}
\gdef \newlabelxx#1#2#3#4#5#6{\oldnewlabel{#1}{{#2}{#3}}}
\AtEndDocument{\let \contentsline\oldcontentsline
\let \newlabel\oldnewlabel}
\else
\global \let \hyper@last\relax 
\fi

\@writefile{toc}{\contentsline {section}{\numberline {1}Time and Place}{1}{section.1}}
\newlabel{tmplok}{{1}{1}{Time and Place\relax }{section.1}{}}
\@writefile{toc}{\contentsline {section}{\numberline {2}Program}{2}{section.2}}
\newlabel{prog}{{2}{2}{Program\relax }{section.2}{}}
\@writefile{toc}{\contentsline {section}{\numberline {3}Relevant Reading}{2}{section.3}}
\newlabel{links}{{3}{2}{Relevant Reading\relax }{section.3}{}}
