\relax 
\ifx\hyper@anchor\@undefined
\global \let \oldcontentsline\contentsline
\gdef \contentsline#1#2#3#4{\oldcontentsline{#1}{#2}{#3}}
\global \let \oldnewlabel\newlabel
\gdef \newlabel#1#2{\newlabelxx{#1}#2}
\gdef \newlabelxx#1#2#3#4#5#6{\oldnewlabel{#1}{{#2}{#3}}}
\AtEndDocument{\let \contentsline\oldcontentsline
\let \newlabel\oldnewlabel}
\else
\global \let \hyper@last\relax 
\fi

\@writefile{toc}{\contentsline {section}{\numberline {1}Veranstalter}{1}{section.1}}
\newlabel{ver}{{1}{1}{Veranstalter\relax }{section.1}{}}
\@writefile{toc}{\contentsline {section}{\numberline {2}Im Mittelpunkt der Tagung stehen die Fragen:}{2}{section.2}}
\newlabel{mit}{{2}{2}{Im Mittelpunkt der Tagung stehen die Fragen:\relax }{section.2}{}}
\@writefile{toc}{\contentsline {section}{\numberline {3}Pogramm}{2}{section.3}}
\newlabel{prg}{{3}{2}{Pogramm\relax }{section.3}{}}
\@writefile{toc}{\contentsline {subsection}{\numberline {3.1}Freitag, 20.10.00}{4}{subsection.3.1}}
\newlabel{tag1}{{3.1}{4}{Freitag, 20.10.00\relax }{subsection.3.1}{}}
\@writefile{toc}{\contentsline {subsection}{\numberline {3.2}Samstag 21.10.00}{6}{subsection.3.2}}
\newlabel{tag2}{{3.2}{6}{Samstag 21.10.00\relax }{subsection.3.2}{}}
