\BOOKMARK [1][-]{section.1}{Veranstalter}{}
\BOOKMARK [1][-]{section.2}{Im Mittelpunkt der Tagung stehen die Fragen:}{}
\BOOKMARK [1][-]{section.3}{Pogramm}{}
\BOOKMARK [2][-]{subsection.3.1}{Freitag, 20.10.00}{section.3}
\BOOKMARK [2][-]{subsection.3.2}{Samstag 21.10.00}{section.3}
