\contentsline {section}{\numberline {1}Veranstalter}{2}{section.1}
\contentsline {section}{\numberline {2}Im Mittelpunkt der Tagung stehen die Fragen:}{2}{section.2}
\contentsline {section}{\numberline {3}Pogramm}{2}{section.3}
\contentsline {subsection}{\numberline {3.1}Freitag, 20.10.00}{2}{subsection.3.1}
\contentsline {subsection}{\numberline {3.2}Samstag 21.10.00}{3}{subsection.3.2}
