\BOOKMARK [1][-]{section.1}{Zwingende rechtliche Gr\374nde f\374r Neuregelung des Patentwesens f\374r Software}{}
\BOOKMARK [1][-]{section.2}{Einf\374hrung eines eigenen Schutzrechtes f\374r Software}{}
\BOOKMARK [1][-]{section.3}{Wie k\366nnte ein ``ma\337geschneidertes Softwareschutzrecht'' aussehen?}{}
\BOOKMARK [1][-]{section.4}{Einf\374hrung von Sondervorschriften f\374r Software im Patentgesetz}{}
\BOOKMARK [1][-]{section.5}{Auswirkungen}{}
\BOOKMARK [1][-]{section.6}{Auswirkung einer Ausdehnung des Patentschutzes f\374r Software auf die Entwicklung von KMU}{}
\BOOKMARK [1][-]{section.7}{Gef\344hrdung der Innovation in der Softwarebranche?}{}
\BOOKMARK [1][-]{section.8}{Weitere Lekt\374re}{}
