\relax 
\ifx\hyper@anchor\@undefined
\global \let \oldcontentsline\contentsline
\gdef \contentsline#1#2#3#4{\oldcontentsline{#1}{#2}{#3}}
\global \let \oldnewlabel\newlabel
\gdef \newlabel#1#2{\newlabelxx{#1}#2}
\gdef \newlabelxx#1#2#3#4#5#6{\oldnewlabel{#1}{{#2}{#3}}}
\AtEndDocument{\let \contentsline\oldcontentsline
\let \newlabel\oldnewlabel}
\else
\global \let \hyper@last\relax 
\fi

\@writefile{toc}{\contentsline {section}{\numberline {1}Zwingende rechtliche Gr\"{u}nde f\"{u}r Neuregelung des Patentwesens f\"{u}r Software}{2}{section.1}}
\newlabel{jurk}{{1}{2}{Zwingende rechtliche Gr\"{u}nde f\"{u}r Neuregelung des Patentwesens f\"{u}r Software\relax }{section.1}{}}
\@writefile{toc}{\contentsline {section}{\numberline {2}Einf\"{u}hrung eines eigenen Schutzrechtes f\"{u}r Software}{2}{section.2}}
\newlabel{suig}{{2}{2}{Einf\"{u}hrung eines eigenen Schutzrechtes f\"{u}r Software\relax }{section.2}{}}
\@writefile{toc}{\contentsline {section}{\numberline {3}Wie k\"{o}nnte ein ``ma{\ss }geschneidertes Softwareschutzrecht'' aussehen?}{2}{section.3}}
\newlabel{mass}{{3}{2}{Wie k\"{o}nnte ein ``ma{\ss }geschneidertes Softwareschutzrecht'' aussehen?\relax }{section.3}{}}
\@writefile{toc}{\contentsline {section}{\numberline {4}Einf\"{u}hrung von Sondervorschriften f\"{u}r Software im Patentgesetz}{3}{section.4}}
\newlabel{sond}{{4}{3}{Einf\"{u}hrung von Sondervorschriften f\"{u}r Software im Patentgesetz\relax }{section.4}{}}
\@writefile{toc}{\contentsline {section}{\numberline {5}Auswirkungen}{3}{section.5}}
\newlabel{effe}{{5}{3}{Auswirkungen\relax }{section.5}{}}
\@writefile{toc}{\contentsline {section}{\numberline {6}Auswirkung einer Ausdehnung des Patentschutzes f\"{u}r Software auf die Entwicklung von KMU}{3}{section.6}}
\newlabel{kmue}{{6}{3}{Auswirkung einer Ausdehnung des Patentschutzes f\"{u}r Software auf die Entwicklung von KMU\relax }{section.6}{}}
\@writefile{toc}{\contentsline {section}{\numberline {7}Gef\"{a}hrdung der Innovation in der Softwarebranche?}{4}{section.7}}
\newlabel{inno}{{7}{4}{Gef\"{a}hrdung der Innovation in der Softwarebranche?\relax }{section.7}{}}
