\BOOKMARK [0][-]{chapter.1}{introduction}{}
\BOOKMARK [0][-]{chapter.2}{Standard Justifications for Program Claims}{}
\BOOKMARK [0][-]{chapter.3}{McCarthy: Program Claims render Freedom of Publication ``Caduc''}{}
\BOOKMARK [0][-]{chapter.4}{Annotated Links}{}
