\contentsline {chapter}{\numberline {1}Einf\"{u}hrung}{4}{chapter.1}
\contentsline {chapter}{\numberline {2}\"{U}bliche Rechtfertigung von Programm-Anspr\"{u}chen}{6}{chapter.2}
\contentsline {chapter}{\numberline {3}McCarthy: Program Claims render Freedom of Publication ``Caduc''}{7}{chapter.3}
\contentsline {chapter}{\numberline {4}Kommentierte Verweise}{8}{chapter.4}
