\relax 
\ifx\hyper@anchor\@undefined
\global \let \oldcontentsline\contentsline
\gdef \contentsline#1#2#3#4{\oldcontentsline{#1}{#2}{#3}}
\global \let \oldnewlabel\newlabel
\gdef \newlabel#1#2{\newlabelxx{#1}#2}
\gdef \newlabelxx#1#2#3#4#5#6{\oldnewlabel{#1}{{#2}{#3}}}
\AtEndDocument{\let \contentsline\oldcontentsline
\let \newlabel\oldnewlabel}
\else
\global \let \hyper@last\relax 
\fi

\@writefile{toc}{\contentsline {chapter}{\numberline {1}introduction}{4}{chapter.1}}
\@writefile{lof}{\addvspace {10\p@ }}
\@writefile{lot}{\addvspace {10\p@ }}
\newlabel{intro}{{1}{4}{introduction\relax }{chapter.1}{}}
\@writefile{toc}{\contentsline {chapter}{\numberline {2}Standard Justifications for Program Claims}{5}{chapter.2}}
\@writefile{lof}{\addvspace {10\p@ }}
\@writefile{lot}{\addvspace {10\p@ }}
\newlabel{just}{{2}{5}{Standard Justifications for Program Claims\relax }{chapter.2}{}}
\@writefile{toc}{\contentsline {chapter}{\numberline {3}McCarthy: Program Claims render Freedom of Publication ``Caduc''}{6}{chapter.3}}
\@writefile{lof}{\addvspace {10\p@ }}
\@writefile{lot}{\addvspace {10\p@ }}
\newlabel{amcc}{{3}{6}{McCarthy: Program Claims render Freedom of Publication ``Caduc''\relax }{chapter.3}{}}
\@writefile{toc}{\contentsline {chapter}{\numberline {4}Annotated Links}{7}{chapter.4}}
\@writefile{lof}{\addvspace {10\p@ }}
\@writefile{lot}{\addvspace {10\p@ }}
\newlabel{links}{{4}{7}{Annotated Links\relax }{chapter.4}{}}
