\select@language {french}
\select@language {french}
\contentsline {chapter}{\numberline {1}introduction}{4}{chapter.1}
\contentsline {chapter}{\numberline {2}Les Justifications Courantes des Revendications de Programme}{5}{chapter.2}
\contentsline {chapter}{\numberline {3}McCarthy\@DP Les Revendications de Programme rendent la Libert\'{e} de Publication ``Caduque''}{6}{chapter.3}
\contentsline {chapter}{\numberline {4}Liens Annot\'{e}s}{7}{chapter.4}
