\contentsline {chapter}{\numberline {1}introduction}{4}{chapter.1}
\contentsline {chapter}{\numberline {2}Standard Justifications for Program Claims}{5}{chapter.2}
\contentsline {chapter}{\numberline {3}McCarthy: Program Claims render Freedom of Publication ``Caduc''}{6}{chapter.3}
\contentsline {chapter}{\numberline {4}Annotated Links}{7}{chapter.4}
