\BOOKMARK [1][-]{section.1}{Adressaten}{}
\BOOKMARK [1][-]{section.2}{Sehr geehrte Damen und Herren!}{}
\BOOKMARK [1][-]{section.3}{Unterzeichner}{}
\BOOKMARK [1][-]{section.4}{Anhang: Von der Bundesregierung m\366glicherweise verletzte Logikpatente}{}
\BOOKMARK [1][-]{section.5}{Fragen, Aufgaben, Wie Sie helfen k\366nnen}{}
\BOOKMARK [1][-]{section.6}{Kommentierte Verweise}{}
