\contentsline {section}{\numberline {1}Adressaten}{2}{section.1}
\contentsline {section}{\numberline {2}Sehr geehrte Damen und Herren!}{2}{section.2}
\contentsline {section}{\numberline {3}Unterzeichner}{3}{section.3}
\contentsline {section}{\numberline {4}Anhang: Von der Bundesregierung m\"{o}glicherweise verletzte Logikpatente}{5}{section.4}
\contentsline {section}{\numberline {5}Fragen, Aufgaben, Wie Sie helfen k\"{o}nnen}{5}{section.5}
\contentsline {section}{\numberline {6}Kommentierte Verweise}{6}{section.6}
