\relax 
\ifx\hyper@anchor\@undefined
\global \let \oldcontentsline\contentsline
\gdef \contentsline#1#2#3#4{\oldcontentsline{#1}{#2}{#3}}
\global \let \oldnewlabel\newlabel
\gdef \newlabel#1#2{\newlabelxx{#1}#2}
\gdef \newlabelxx#1#2#3#4#5#6{\oldnewlabel{#1}{{#2}{#3}}}
\AtEndDocument{\let \contentsline\oldcontentsline
\let \newlabel\oldnewlabel}
\else
\global \let \hyper@last\relax 
\fi

\@writefile{toc}{\contentsline {section}{\numberline {1}Adressaten}{2}{section.1}}
\newlabel{adr}{{1}{2}{Adressaten\relax }{section.1}{}}
\@writefile{toc}{\contentsline {section}{\numberline {2}Sehr geehrte Damen und Herren!}{2}{section.2}}
\newlabel{draft}{{2}{2}{Sehr geehrte Damen und Herren!\relax }{section.2}{}}
\@writefile{toc}{\contentsline {section}{\numberline {3}Unterzeichner}{3}{section.3}}
\newlabel{sign}{{3}{3}{Unterzeichner\relax }{section.3}{}}
\@writefile{toc}{\contentsline {section}{\numberline {4}Anhang: Von der Bundesregierung m\"{o}glicherweise verletzte Logikpatente}{5}{section.4}}
\newlabel{epat}{{4}{5}{Anhang: Von der Bundesregierung m\"{o}glicherweise verletzte Logikpatente\relax }{section.4}{}}
\@writefile{toc}{\contentsline {section}{\numberline {5}Fragen, Aufgaben, Wie Sie helfen k\"{o}nnen}{5}{section.5}}
\newlabel{tasks}{{5}{5}{Fragen, Aufgaben, Wie Sie helfen k\"{o}nnen\relax }{section.5}{}}
\@writefile{toc}{\contentsline {section}{\numberline {6}Kommentierte Verweise}{6}{section.6}}
\newlabel{links}{{6}{6}{Kommentierte Verweise\relax }{section.6}{}}
