\relax 
\ifx\hyper@anchor\@undefined
\global \let \oldcontentsline\contentsline
\gdef \contentsline#1#2#3#4{\oldcontentsline{#1}{#2}{#3}}
\global \let \oldnewlabel\newlabel
\gdef \newlabel#1#2{\newlabelxx{#1}#2}
\gdef \newlabelxx#1#2#3#4#5#6{\oldnewlabel{#1}{{#2}{#3}}}
\AtEndDocument{\let \contentsline\oldcontentsline
\let \newlabel\oldnewlabel}
\else
\global \let \hyper@last\relax 
\fi

\csname auxWARNINGii\endcsname {\typeout {-34- this file and other auxiliary files require to use the following}}
\csname auxWARNINGii\endcsname {\typeout {-34- LaTeX packages: french and babel!}}
\csname auxWARNINGii\endcsname {\typeout {-34- check \protect \usepackage \space or remove these files. Typesetting is aborted!} \stop }
\select@language{french}
\@writefile{toc}{\select@language{french}}
\@writefile{lof}{\select@language{french}}
\@writefile{lot}{\select@language{french}}
\select@language{french}
\@writefile{toc}{\select@language{french}}
\@writefile{lof}{\select@language{french}}
\@writefile{lot}{\select@language{french}}
\@writefile{toc}{\contentsline {chapter}{\numberline {1}La doctrine de l'EOB/CEC/JURI sur la ``contribution technique'' r\'{e}sum\'{e}e en deux mots}{4}{chapter.1}}
\@writefile{lof}{\addvspace {10\p@ }}
\@writefile{lot}{\addvspace {10\p@ }}
\newlabel{intro}{{1}{4}{La doctrine de l'EOB/CEC/JURI sur la ``contribution technique'' r\'{e}sum\'{e}e en deux mots\relax }{chapter.1}{}}
\@writefile{toc}{\contentsline {chapter}{\numberline {2}Des Notions Vid\'{e}es de Sens et leur Contribution Technique a l'Engineering Politique dans l'Union Europ\'{e}enne}{5}{chapter.2}}
\@writefile{lof}{\addvspace {10\p@ }}
\@writefile{lot}{\addvspace {10\p@ }}
\newlabel{newspeak}{{2}{5}{Des Notions Vid\'{e}es de Sens et leur Contribution Technique a l'Engineering Politique dans l'Union Europ\'{e}enne\relax }{chapter.2}{}}
\@writefile{toc}{\contentsline {chapter}{\numberline {3}Statuts Privil\'{e}gi\'{e}s du Brevet Amazon One-Click \`{a} Bruxelles}{14}{chapter.3}}
\@writefile{lof}{\addvspace {10\p@ }}
\@writefile{lot}{\addvspace {10\p@ }}
\newlabel{amazon}{{3}{14}{Statuts Privil\'{e}gi\'{e}s du Brevet Amazon One-Click \`{a} Bruxelles\relax }{chapter.3}{}}
\@writefile{toc}{\contentsline {chapter}{\numberline {4}Comment la CEC/JURI maintient la Brevetabilit\'{e} Illimit\'{e}e\@DP  Quelques Echantillons de Mesures de leur Proposition de Directive}{16}{chapter.4}}
\@writefile{lof}{\addvspace {10\p@ }}
\@writefile{lot}{\addvspace {10\p@ }}
\newlabel{cecjuri}{{4}{16}{Comment la CEC/JURI maintient la Brevetabilit\'{e} Illimit\'{e}e: Quelques Echantillons de Mesures de leur Proposition de Directive\relax }{chapter.4}{}}
\@writefile{toc}{\contentsline {chapter}{\numberline {5}Liens Annot\'{e}s}{18}{chapter.5}}
\@writefile{lof}{\addvspace {10\p@ }}
\@writefile{lot}{\addvspace {10\p@ }}
\newlabel{links}{{5}{18}{Liens Annot\'{e}s\relax }{chapter.5}{}}
