\contentsline {chapter}{\numberline {1}The EPO/CEC/JURI doctrine of ``technical contribution'' in a nutshell}{4}{chapter.1}
\contentsline {chapter}{\numberline {2}Voided Terminology and its Technical Contribution to Political Engineering in the EU}{5}{chapter.2}
\contentsline {chapter}{\numberline {3}Privileged Status of the Amazon One-Click Patent in Brussels}{14}{chapter.3}
\contentsline {chapter}{\numberline {4}How CEC/JURI ensure Unlimited Patentability: Some Sample Provisions from their Directive Proposal}{16}{chapter.4}
\contentsline {chapter}{\numberline {5}Annotated Links}{18}{chapter.5}
