\relax 
\ifx\hyper@anchor\@undefined
\global \let \oldcontentsline\contentsline
\gdef \contentsline#1#2#3#4{\oldcontentsline{#1}{#2}{#3}}
\global \let \oldnewlabel\newlabel
\gdef \newlabel#1#2{\newlabelxx{#1}#2}
\gdef \newlabelxx#1#2#3#4#5#6{\oldnewlabel{#1}{{#2}{#3}}}
\AtEndDocument{\let \contentsline\oldcontentsline
\let \newlabel\oldnewlabel}
\else
\global \let \hyper@last\relax 
\fi

\@writefile{toc}{\contentsline {chapter}{\numberline {1}The EPO/CEC/JURI doctrine of ``technical contribution'' in a nutshell}{4}{chapter.1}}
\@writefile{lof}{\addvspace {10\p@ }}
\@writefile{lot}{\addvspace {10\p@ }}
\newlabel{intro}{{1}{4}{The EPO/CEC/JURI doctrine of ``technical contribution'' in a nutshell\relax }{chapter.1}{}}
\@writefile{toc}{\contentsline {chapter}{\numberline {2}Voided Terminology and its Technical Contribution to Political Engineering in the EU}{5}{chapter.2}}
\@writefile{lof}{\addvspace {10\p@ }}
\@writefile{lot}{\addvspace {10\p@ }}
\newlabel{newspeak}{{2}{5}{Voided Terminology and its Technical Contribution to Political Engineering in the EU\relax }{chapter.2}{}}
\@writefile{toc}{\contentsline {chapter}{\numberline {3}Privileged Status of the Amazon One-Click Patent in Brussels}{14}{chapter.3}}
\@writefile{lof}{\addvspace {10\p@ }}
\@writefile{lot}{\addvspace {10\p@ }}
\newlabel{amazon}{{3}{14}{Privileged Status of the Amazon One-Click Patent in Brussels\relax }{chapter.3}{}}
\@writefile{toc}{\contentsline {chapter}{\numberline {4}How CEC/JURI ensure Unlimited Patentability: Some Sample Provisions from their Directive Proposal}{16}{chapter.4}}
\@writefile{lof}{\addvspace {10\p@ }}
\@writefile{lot}{\addvspace {10\p@ }}
\newlabel{cecjuri}{{4}{16}{How CEC/JURI ensure Unlimited Patentability: Some Sample Provisions from their Directive Proposal\relax }{chapter.4}{}}
\@writefile{toc}{\contentsline {chapter}{\numberline {5}Annotated Links}{18}{chapter.5}}
\@writefile{lof}{\addvspace {10\p@ }}
\@writefile{lot}{\addvspace {10\p@ }}
\newlabel{links}{{5}{18}{Annotated Links\relax }{chapter.5}{}}
