\select@language {french}
\select@language {french}
\contentsline {chapter}{\numberline {1}La doctrine de l'EOB/CEC/JURI sur la ``contribution technique'' r\'{e}sum\'{e}e en deux mots}{4}{chapter.1}
\contentsline {chapter}{\numberline {2}Des Notions Vid\'{e}es de Sens et leur Contribution Technique a l'Engineering Politique dans l'Union Europ\'{e}enne}{5}{chapter.2}
\contentsline {chapter}{\numberline {3}Statuts Privil\'{e}gi\'{e}s du Brevet Amazon One-Click \`{a} Bruxelles}{14}{chapter.3}
\contentsline {chapter}{\numberline {4}Comment la CEC/JURI maintient la Brevetabilit\'{e} Illimit\'{e}e\@DP Quelques Echantillons de Mesures de leur Proposition de Directive}{16}{chapter.4}
\contentsline {chapter}{\numberline {5}Liens Annot\'{e}s}{18}{chapter.5}
