\relax 
\ifx\hyper@anchor\@undefined
\global \let \oldcontentsline\contentsline
\gdef \contentsline#1#2#3#4{\oldcontentsline{#1}{#2}{#3}}
\global \let \oldnewlabel\newlabel
\gdef \newlabel#1#2{\newlabelxx{#1}#2}
\gdef \newlabelxx#1#2#3#4#5#6{\oldnewlabel{#1}{{#2}{#3}}}
\AtEndDocument{\let \contentsline\oldcontentsline
\let \newlabel\oldnewlabel}
\else
\global \let \hyper@last\relax 
\fi

\@writefile{toc}{\contentsline {section}{\numberline {1}Is transforming of a program allowed?}{2}{section.1}}
\newlabel{umsch}{{1}{2}{Is transforming of a program allowed?\relax }{section.1}{}}
\@writefile{toc}{\contentsline {section}{\numberline {2}Legal certainty through registration?}{3}{section.2}}
\newlabel{rklar}{{2}{3}{Legal certainty through registration?\relax }{section.2}{}}
\@writefile{toc}{\contentsline {section}{\numberline {3}Investment incentives endangered?}{3}{section.3}}
\newlabel{imit}{{3}{3}{Investment incentives endangered?\relax }{section.3}{}}
\@writefile{toc}{\contentsline {section}{\numberline {4}No legal certainty without classic definition of technical}{4}{section.4}}
\newlabel{dispo}{{4}{4}{No legal certainty without classic definition of technical\relax }{section.4}{}}
\@writefile{toc}{\contentsline {section}{\numberline {5}Annotated Links}{5}{section.5}}
\newlabel{links}{{5}{5}{Annotated Links\relax }{section.5}{}}
\gdef\scr@tpo@lst{0}
