\relax 
\ifx\hyper@anchor\@undefined
\global \let \oldcontentsline\contentsline
\gdef \contentsline#1#2#3#4{\oldcontentsline{#1}{#2}{#3}}
\global \let \oldnewlabel\newlabel
\gdef \newlabel#1#2{\newlabelxx{#1}#2}
\gdef \newlabelxx#1#2#3#4#5#6{\oldnewlabel{#1}{{#2}{#3}}}
\AtEndDocument{\let \contentsline\oldcontentsline
\let \newlabel\oldnewlabel}
\else
\global \let \hyper@last\relax 
\fi

\@writefile{toc}{\contentsline {section}{\numberline {1}Umschreiben zul\"{a}ssig?}{2}{section.1}}
\newlabel{umsch}{{1}{2}{Umschreiben zul\"{a}ssig?\relax }{section.1}{}}
\@writefile{toc}{\contentsline {section}{\numberline {2}Rechtsklarheit durch Registrierung?}{3}{section.2}}
\newlabel{rklar}{{2}{3}{Rechtsklarheit durch Registrierung?\relax }{section.2}{}}
\@writefile{toc}{\contentsline {section}{\numberline {3}Investitionsanreize gef\"{a}hrdet?}{4}{section.3}}
\newlabel{imit}{{3}{4}{Investitionsanreize gef\"{a}hrdet?\relax }{section.3}{}}
\@writefile{toc}{\contentsline {section}{\numberline {4}Keine Rechtssicherheit ohne klassischen Technikbegriff}{4}{section.4}}
\newlabel{dispo}{{4}{4}{Keine Rechtssicherheit ohne klassischen Technikbegriff\relax }{section.4}{}}
\@writefile{toc}{\contentsline {section}{\numberline {5}Kommentierte Verweise}{5}{section.5}}
\newlabel{links}{{5}{5}{Kommentierte Verweise\relax }{section.5}{}}
\gdef\scr@tpo@lst{0}
