\contentsline {section}{\numberline {1}Is transforming of a program allowed?}{2}{section.1}
\contentsline {section}{\numberline {2}Legal certainty through registration?}{3}{section.2}
\contentsline {section}{\numberline {3}Investment incentives endangered?}{3}{section.3}
\contentsline {section}{\numberline {4}No legal certainty without classic definition of technical}{4}{section.4}
\contentsline {section}{\numberline {5}Annotated Links}{5}{section.5}
