\contentsline {section}{\numberline {1}Umschreiben zul\"{a}ssig?}{2}{section.1}
\contentsline {section}{\numberline {2}Rechtsklarheit durch Registrierung?}{3}{section.2}
\contentsline {section}{\numberline {3}Investitionsanreize gef\"{a}hrdet?}{4}{section.3}
\contentsline {section}{\numberline {4}Keine Rechtssicherheit ohne klassischen Technikbegriff}{4}{section.4}
\contentsline {section}{\numberline {5}Kommentierte Verweise}{5}{section.5}
