\contentsline {section}{\numberline {1}introduction}{1}{section.1}
\contentsline {section}{\numberline {2}Annotated Links}{2}{section.2}
\contentsline {section}{\numberline {3}Questions, Things To Do, How you can Help}{3}{section.3}
