\relax 
\catcode`"\active
\ifx\hyper@anchor\@undefined
\global \let \oldcontentsline\contentsline
\gdef \contentsline#1#2#3#4{\oldcontentsline{#1}{#2}{#3}}
\global \let \oldnewlabel\newlabel
\gdef \newlabel#1#2{\newlabelxx{#1}#2}
\gdef \newlabelxx#1#2#3#4#5#6{\oldnewlabel{#1}{{#2}{#3}}}
\AtEndDocument{\let \contentsline\oldcontentsline
\let \newlabel\oldnewlabel}
\else
\global \let \hyper@last\relax 
\fi

\select@language{catalan}
\@writefile{toc}{\select@language{catalan}}
\@writefile{lof}{\select@language{catalan}}
\@writefile{lot}{\select@language{catalan}}
\newlabel{ftn1}{{}{3}{\relax }{section*.2}{}}
\newlabel{ftn2}{{}{3}{\relax }{section*.2}{}}
\newlabel{ftn3}{{}{3}{\relax }{section*.2}{}}
\newlabel{ftn4}{{}{3}{\relax }{section*.2}{}}
\newlabel{ftn5}{{}{3}{\relax }{section*.2}{}}
\newlabel{ftn6}{{}{3}{\relax }{section*.2}{}}
\newlabel{ftn7}{{}{3}{\relax }{section*.2}{}}
\newlabel{ftn8}{{}{3}{\relax }{section*.2}{}}
\newlabel{ftn9}{{1}{3}{\relax }{Hfootnote.1}{}}
\newlabel{ftn10}{{3}{3}{\relax }{Hfootnote.4}{}}
\newlabel{ftn11}{{3}{3}{\relax }{Hfootnote.4}{}}
\newlabel{ftn12}{{5}{4}{\relax }{Hfootnote.6}{}}
\newlabel{ftn13}{{5}{4}{\relax }{Hfootnote.6}{}}
\newlabel{ftn14}{{5}{4}{\relax }{Hfootnote.6}{}}
\newlabel{ftn15}{{5}{4}{\relax }{Hfootnote.6}{}}
\newlabel{ftn16}{{5}{4}{\relax }{Hfootnote.6}{}}
\newlabel{ftn17}{{5}{4}{\relax }{Hfootnote.6}{}}
\newlabel{ftn18}{{5}{4}{\relax }{Hfootnote.6}{}}
\newlabel{ftn19}{{5}{4}{\relax }{Hfootnote.6}{}}
\newlabel{ftn20}{{5}{4}{\relax }{Hfootnote.6}{}}
\newlabel{ftn21}{{5}{4}{\relax }{Hfootnote.6}{}}
\newlabel{ftn22}{{5}{4}{\relax }{Hfootnote.6}{}}
\newlabel{ftn23}{{5}{4}{\relax }{Hfootnote.6}{}}
\newlabel{ftn24}{{5}{4}{\relax }{Hfootnote.6}{}}
\newlabel{ftn25}{{5}{4}{\relax }{Hfootnote.6}{}}
\newlabel{ftn26}{{5}{4}{\relax }{Hfootnote.6}{}}
\newlabel{ftn27}{{5}{4}{\relax }{Hfootnote.6}{}}
\newlabel{ftn28}{{7}{4}{\relax }{Hfootnote.7}{}}
\newlabel{ftn29}{{7}{4}{\relax }{Hfootnote.7}{}}
\newlabel{ftn30}{{7}{4}{\relax }{Hfootnote.7}{}}
\newlabel{ftn31}{{9}{5}{\relax }{Hfootnote.9}{}}
\newlabel{ftnB30}{{9}{5}{\relax }{Hfootnote.9}{}}
\newlabel{ftn32}{{9}{5}{\relax }{Hfootnote.9}{}}
\newlabel{ftn33}{{11}{5}{\relax }{Hfootnote.11}{}}
\newlabel{ftnB31}{{11}{5}{\relax }{Hfootnote.11}{}}
\newlabel{ftn34}{{11}{5}{\relax }{Hfootnote.11}{}}
\newlabel{ftnB32}{{11}{5}{\relax }{Hfootnote.11}{}}
\newlabel{ftn35}{{11}{5}{\relax }{Hfootnote.11}{}}
\newlabel{ftn36}{{12}{5}{\relax }{Hfootnote.12}{}}
\newlabel{ftnB33}{{12}{5}{\relax }{Hfootnote.12}{}}
\newlabel{ftn37}{{12}{5}{\relax }{Hfootnote.12}{}}
\newlabel{ftnB34}{{12}{5}{\relax }{Hfootnote.12}{}}
\newlabel{ftn38}{{12}{5}{\relax }{Hfootnote.12}{}}
\newlabel{ftnB35}{{12}{5}{\relax }{Hfootnote.12}{}}
\newlabel{ftn39}{{12}{6}{\relax }{Hfootnote.12}{}}
\newlabel{ftnB36}{{12}{6}{\relax }{Hfootnote.12}{}}
\newlabel{ftn40}{{12}{6}{\relax }{Hfootnote.12}{}}
\newlabel{ftnB37}{{12}{6}{\relax }{Hfootnote.12}{}}
\newlabel{ftn41}{{12}{6}{\relax }{Hfootnote.12}{}}
\newlabel{ftnB38}{{12}{6}{\relax }{Hfootnote.12}{}}
\newlabel{ftn42}{{12}{6}{\relax }{Hfootnote.12}{}}
\newlabel{ftn43}{{13}{6}{\relax }{Hfootnote.13}{}}
\newlabel{ftnB39}{{13}{6}{\relax }{Hfootnote.13}{}}
\newlabel{ftnB40}{{13}{6}{\relax }{Hfootnote.13}{}}
\newlabel{ftnB41}{{13}{6}{\relax }{Hfootnote.13}{}}
\newlabel{ftnB42}{{13}{6}{\relax }{Hfootnote.13}{}}
\newlabel{ftnB43}{{13}{6}{\relax }{Hfootnote.13}{}}
\newlabel{ftnB44}{{13}{6}{\relax }{Hfootnote.13}{}}
\newlabel{ftnB45}{{13}{6}{\relax }{Hfootnote.13}{}}
\newlabel{ftnB46}{{13}{6}{\relax }{Hfootnote.13}{}}
\newlabel{ftnB47}{{13}{6}{\relax }{Hfootnote.13}{}}
\newlabel{ftnB48}{{13}{6}{\relax }{Hfootnote.13}{}}
\newlabel{ftnB49}{{13}{6}{\relax }{Hfootnote.13}{}}
\newlabel{ftnB50}{{13}{6}{\relax }{Hfootnote.13}{}}
\newlabel{ftnB51}{{13}{6}{\relax }{Hfootnote.13}{}}
\newlabel{ftnB52}{{13}{6}{\relax }{Hfootnote.13}{}}
\newlabel{ftnB53}{{15}{6}{\relax }{Hfootnote.15}{}}
\newlabel{ftnB54}{{15}{6}{\relax }{Hfootnote.15}{}}
\newlabel{ftnB55}{{15}{6}{\relax }{Hfootnote.15}{}}
