\relax 
\ifx\hyper@anchor\@undefined
\global \let \oldcontentsline\contentsline
\gdef \contentsline#1#2#3#4{\oldcontentsline{#1}{#2}{#3}}
\global \let \oldnewlabel\newlabel
\gdef \newlabel#1#2{\newlabelxx{#1}#2}
\gdef \newlabelxx#1#2#3#4#5#6{\oldnewlabel{#1}{{#2}{#3}}}
\AtEndDocument{\let \contentsline\oldcontentsline
\let \newlabel\oldnewlabel}
\else
\global \let \hyper@last\relax 
\fi

\newlabel{ftn1}{{}{3}{\relax }{section*.2}{}}
\newlabel{ftn2}{{}{3}{\relax }{section*.2}{}}
\newlabel{ftn3}{{}{3}{\relax }{section*.2}{}}
\newlabel{ftn4}{{}{3}{\relax }{section*.2}{}}
\newlabel{ftn5}{{}{3}{\relax }{section*.2}{}}
\newlabel{ftn6}{{}{3}{\relax }{section*.2}{}}
\newlabel{ftn7}{{1}{3}{\relax }{Hfootnote.1}{}}
\newlabel{ftn8}{{2}{3}{\relax }{Hfootnote.2}{}}
\newlabel{ftn9}{{3}{3}{\relax }{Hfootnote.3}{}}
\newlabel{ftn10}{{5}{3}{\relax }{Hfootnote.6}{}}
\newlabel{ftn11}{{5}{3}{\relax }{Hfootnote.6}{}}
\newlabel{ftn12}{{7}{4}{\relax }{Hfootnote.8}{}}
\newlabel{ftn13}{{7}{4}{\relax }{Hfootnote.8}{}}
\newlabel{ftn14}{{7}{4}{\relax }{Hfootnote.8}{}}
\newlabel{ftn15}{{7}{4}{\relax }{Hfootnote.8}{}}
\newlabel{ftn16}{{7}{4}{\relax }{Hfootnote.8}{}}
\newlabel{ftn17}{{7}{4}{\relax }{Hfootnote.8}{}}
\newlabel{ftn18}{{7}{4}{\relax }{Hfootnote.8}{}}
\newlabel{ftn19}{{7}{4}{\relax }{Hfootnote.8}{}}
\newlabel{ftn20}{{7}{4}{\relax }{Hfootnote.8}{}}
\newlabel{ftn21}{{7}{4}{\relax }{Hfootnote.8}{}}
\newlabel{ftn22}{{7}{4}{\relax }{Hfootnote.8}{}}
\newlabel{ftn23}{{7}{4}{\relax }{Hfootnote.8}{}}
\newlabel{ftn24}{{7}{4}{\relax }{Hfootnote.8}{}}
\newlabel{ftn25}{{7}{4}{\relax }{Hfootnote.8}{}}
\newlabel{ftn26}{{7}{4}{\relax }{Hfootnote.8}{}}
\newlabel{ftn27}{{7}{4}{\relax }{Hfootnote.8}{}}
\newlabel{ftn28}{{9}{4}{\relax }{Hfootnote.9}{}}
\newlabel{ftn29}{{9}{4}{\relax }{Hfootnote.9}{}}
\newlabel{ftn30}{{9}{5}{\relax }{Hfootnote.9}{}}
\newlabel{ftn31}{{11}{5}{\relax }{Hfootnote.11}{}}
\newlabel{ftnB30}{{11}{5}{\relax }{Hfootnote.11}{}}
\newlabel{ftn32}{{11}{5}{\relax }{Hfootnote.11}{}}
\newlabel{ftn33}{{13}{5}{\relax }{Hfootnote.13}{}}
\newlabel{ftnB31}{{13}{5}{\relax }{Hfootnote.13}{}}
\newlabel{ftn34}{{13}{5}{\relax }{Hfootnote.13}{}}
\newlabel{ftnB32}{{13}{5}{\relax }{Hfootnote.13}{}}
\newlabel{ftn35}{{13}{5}{\relax }{Hfootnote.13}{}}
\newlabel{ftn36}{{14}{6}{\relax }{Hfootnote.14}{}}
\newlabel{ftnB33}{{14}{6}{\relax }{Hfootnote.14}{}}
\newlabel{ftn37}{{14}{6}{\relax }{Hfootnote.14}{}}
\newlabel{ftnB34}{{14}{6}{\relax }{Hfootnote.14}{}}
\newlabel{ftn38}{{14}{6}{\relax }{Hfootnote.14}{}}
\newlabel{ftnB35}{{14}{6}{\relax }{Hfootnote.14}{}}
\newlabel{ftn39}{{14}{6}{\relax }{Hfootnote.14}{}}
\newlabel{ftnB36}{{14}{6}{\relax }{Hfootnote.14}{}}
\newlabel{ftn40}{{14}{6}{\relax }{Hfootnote.14}{}}
\newlabel{ftnB37}{{14}{6}{\relax }{Hfootnote.14}{}}
\newlabel{ftn41}{{14}{6}{\relax }{Hfootnote.14}{}}
\newlabel{ftnB38}{{14}{6}{\relax }{Hfootnote.14}{}}
\newlabel{ftn42}{{14}{6}{\relax }{Hfootnote.14}{}}
\newlabel{ftn43}{{15}{6}{\relax }{Hfootnote.15}{}}
\newlabel{ftnB39}{{15}{6}{\relax }{Hfootnote.15}{}}
\newlabel{ftnB40}{{15}{6}{\relax }{Hfootnote.15}{}}
\newlabel{ftnB41}{{15}{6}{\relax }{Hfootnote.15}{}}
\newlabel{ftnB42}{{15}{6}{\relax }{Hfootnote.15}{}}
\newlabel{ftnB43}{{15}{6}{\relax }{Hfootnote.15}{}}
\newlabel{ftnB44}{{15}{6}{\relax }{Hfootnote.15}{}}
\newlabel{ftnB45}{{15}{6}{\relax }{Hfootnote.15}{}}
\newlabel{ftnB46}{{15}{6}{\relax }{Hfootnote.15}{}}
\newlabel{ftnB47}{{15}{6}{\relax }{Hfootnote.15}{}}
\newlabel{ftnB48}{{15}{6}{\relax }{Hfootnote.15}{}}
\newlabel{ftnB49}{{15}{6}{\relax }{Hfootnote.15}{}}
\newlabel{ftnB50}{{15}{6}{\relax }{Hfootnote.15}{}}
\newlabel{ftnB51}{{15}{6}{\relax }{Hfootnote.15}{}}
\newlabel{ftnB52}{{15}{7}{\relax }{Hfootnote.15}{}}
\newlabel{ftnB53}{{17}{7}{\relax }{Hfootnote.17}{}}
\newlabel{ftnB54}{{17}{7}{\relax }{Hfootnote.17}{}}
\newlabel{ftnB55}{{17}{7}{\relax }{Hfootnote.17}{}}
