\relax 
\ifx\hyper@anchor\@undefined
\global \let \oldcontentsline\contentsline
\gdef \contentsline#1#2#3#4{\oldcontentsline{#1}{#2}{#3}}
\global \let \oldnewlabel\newlabel
\gdef \newlabel#1#2{\newlabelxx{#1}#2}
\gdef \newlabelxx#1#2#3#4#5#6{\oldnewlabel{#1}{{#2}{#3}}}
\AtEndDocument{\let \contentsline\oldcontentsline
\let \newlabel\oldnewlabel}
\else
\global \let \hyper@last\relax 
\fi

\select@language{czech}
\@writefile{toc}{\select@language{czech}}
\@writefile{lof}{\select@language{czech}}
\@writefile{lot}{\select@language{czech}}
\@writefile{toc}{\contentsline {section}{\numberline {1}Jsme znepokojeni, \v {z}e}{2}{section.1}}
\newlabel{prob}{{1}{2}{Jsme znepokojeni, \v {z}e\relax }{section.1}{}}
\@writefile{toc}{\contentsline {section}{\numberline {2}Z t\v {e}chto d\r {u}vod\r {u} V\'{a}s \v {z}\'{a}d\'{a}me, abyste}{2}{section.2}}
\newlabel{solv}{{2}{2}{Z t\v {e}chto d\r {u}vod\r {u} V\'{a}s \v {z}\'{a}d\'{a}me, abyste\relax }{section.2}{}}
\@writefile{toc}{\contentsline {section}{\numberline {3}Signat\'{a}\v {r}i}{3}{section.3}}
\newlabel{sign}{{3}{3}{Signat\'{a}\v {r}i\relax }{section.3}{}}
