\contentsline {section}{\numberline {1}Vi noterer at}{2}{section.1}
\contentsline {section}{\numberline {2}Af disse grunde anmoder vi regeringer og folkevalgte lovgivende forsamlinger om at}{3}{section.2}
\contentsline {section}{\numberline {3}Undertegnere}{3}{section.3}
\contentsline {section}{\numberline {4}Bilag}{8}{section.4}
\contentsline {section}{\numberline {5}}{9}{section.5}
