\relax 
\catcode`.\active
\catcode`\.=12
\catcode`"\active
\catcode`<\active
\catcode`>\active
\es@quoting
\ifx\hyper@anchor\@undefined
\global \let \oldcontentsline\contentsline
\gdef \contentsline#1#2#3#4{\oldcontentsline{#1}{#2}{#3}}
\global \let \oldnewlabel\newlabel
\gdef \newlabel#1#2{\newlabelxx{#1}#2}
\gdef \newlabelxx#1#2#3#4#5#6{\oldnewlabel{#1}{{#2}{#3}}}
\AtEndDocument{\let \contentsline\oldcontentsline
\let \newlabel\oldnewlabel}
\else
\global \let \hyper@last\relax 
\fi

\select@language{spanish}
\@writefile{toc}{\select@language{spanish}}
\@writefile{lof}{\select@language{spanish}}
\@writefile{lot}{\select@language{spanish}}
\@writefile{toc}{\contentsline {section}{\numberline {1}Nos preocupa que}{2}{section.1}}
\newlabel{prob}{{1}{2}{Nos preocupa que\relax }{section.1}{}}
\@writefile{toc}{\contentsline {section}{\numberline {2}Por estas razones le apremiamos a}{3}{section.2}}
\newlabel{solv}{{2}{3}{Por estas razones le apremiamos a\relax }{section.2}{}}
\@writefile{toc}{\contentsline {section}{\numberline {3}Abajo firmantes}{3}{section.3}}
\newlabel{sign}{{3}{3}{Abajo firmantes\relax }{section.3}{}}
\@writefile{toc}{\contentsline {section}{\numberline {4}Anexos}{8}{section.4}}
\newlabel{annex}{{4}{8}{Anexos\relax }{section.4}{}}
\@writefile{toc}{\contentsline {section}{\numberline {5}}{9}{section.5}}
\newlabel{links}{{5}{9}{\relax }{section.5}{}}
\gdef\scr@tpo@lst{0}
