\contentsline {section}{\numberline {1}We are concerned that}{2}{section.1}
\contentsline {section}{\numberline {2}For these reasons we urge you to}{3}{section.2}
\contentsline {section}{\numberline {3}Undertegnere}{3}{section.3}
\contentsline {section}{\numberline {4}Annexes}{8}{section.4}
\contentsline {section}{\numberline {5}}{9}{section.5}
