\relax 
\ifx\hyper@anchor\@undefined
\global \let \oldcontentsline\contentsline
\gdef \contentsline#1#2#3#4{\oldcontentsline{#1}{#2}{#3}}
\global \let \oldnewlabel\newlabel
\gdef \newlabel#1#2{\newlabelxx{#1}#2}
\gdef \newlabelxx#1#2#3#4#5#6{\oldnewlabel{#1}{{#2}{#3}}}
\AtEndDocument{\let \contentsline\oldcontentsline
\let \newlabel\oldnewlabel}
\else
\global \let \hyper@last\relax 
\fi

\@writefile{toc}{\contentsline {section}{\numberline {1}We zijn bezorgd omdat}{2}{section.1}}
\newlabel{prob}{{1}{2}{We zijn bezorgd omdat\relax }{section.1}{}}
\@writefile{toc}{\contentsline {section}{\numberline {2}Om deze redenen dringen wij aan dat}{3}{section.2}}
\newlabel{solv}{{2}{3}{Om deze redenen dringen wij aan dat\relax }{section.2}{}}
\@writefile{toc}{\contentsline {section}{\numberline {3}Ondertekenaars}{3}{section.3}}
\newlabel{sign}{{3}{3}{Ondertekenaars\relax }{section.3}{}}
