\contentsline {section}{\numberline {1}We zijn bezorgd omdat}{2}{section.1}
\contentsline {section}{\numberline {2}Om deze redenen dringen wij aan dat}{3}{section.2}
\contentsline {section}{\numberline {3}Ondertekenaars}{3}{section.3}
\contentsline {section}{\numberline {4}Bijlagen}{8}{section.4}
\contentsline {section}{\numberline {5}}{9}{section.5}
