\relax 
\catcode`:\active
\catcode`;\active
\catcode`!\active
\catcode`?\active
\ifx\hyper@anchor\@undefined
\global \let \oldcontentsline\contentsline
\gdef \contentsline#1#2#3#4{\oldcontentsline{#1}{#2}{#3}}
\global \let \oldnewlabel\newlabel
\gdef \newlabel#1#2{\newlabelxx{#1}#2}
\gdef \newlabelxx#1#2#3#4#5#6{\oldnewlabel{#1}{{#2}{#3}}}
\AtEndDocument{\let \contentsline\oldcontentsline
\let \newlabel\oldnewlabel}
\else
\global \let \hyper@last\relax 
\fi

\select@language{french}
\@writefile{toc}{\select@language{french}}
\@writefile{lof}{\select@language{french}}
\@writefile{lot}{\select@language{french}}
\@writefile{toc}{\contentsline {section}{\numberline {1}Nous sommes concern\'{e}s par le fait que}{2}{section.1}}
\newlabel{prob}{{1}{2}{Nous sommes concern\'{e}s par le fait que\relax }{section.1}{}}
\@writefile{toc}{\contentsline {section}{\numberline {2}Pour ces raisons, nous vous demandons express\'{e}ment}{3}{section.2}}
\newlabel{solv}{{2}{3}{Pour ces raisons, nous vous demandons express\'{e}ment\relax }{section.2}{}}
\@writefile{toc}{\contentsline {section}{\numberline {3}Signataires}{3}{section.3}}
\newlabel{sign}{{3}{3}{Signataires\relax }{section.3}{}}
