\relax 
\ifx\hyper@anchor\@undefined
\global \let \oldcontentsline\contentsline
\gdef \contentsline#1#2#3#4{\oldcontentsline{#1}{#2}{#3}}
\global \let \oldnewlabel\newlabel
\gdef \newlabel#1#2{\newlabelxx{#1}#2}
\gdef \newlabelxx#1#2#3#4#5#6{\oldnewlabel{#1}{{#2}{#3}}}
\AtEndDocument{\let \contentsline\oldcontentsline
\let \newlabel\oldnewlabel}
\else
\global \let \hyper@last\relax 
\fi

\@writefile{toc}{\contentsline {section}{\numberline {1}Wir sind dar\"{u}ber besorgt, dass}{2}{section.1}}
\newlabel{prob}{{1}{2}{Wir sind dar\"{u}ber besorgt, dass\relax }{section.1}{}}
\@writefile{toc}{\contentsline {section}{\numberline {2}Aus diesen Gr\"{u}nden fordern wir Sie auf,}{3}{section.2}}
\newlabel{solv}{{2}{3}{Aus diesen Gr\"{u}nden fordern wir Sie auf,\relax }{section.2}{}}
\@writefile{toc}{\contentsline {section}{\numberline {3}Unterzeichner}{3}{section.3}}
\newlabel{sign}{{3}{3}{Unterzeichner\relax }{section.3}{}}
