\contentsline {section}{\numberline {1}Vi noterar att}{2}{section.1}
\contentsline {section}{\numberline {2}Vi uppmanar er d\"{a}rf\"{o}r att}{3}{section.2}
\contentsline {section}{\numberline {3}Undertecknare}{3}{section.3}
\contentsline {section}{\numberline {4}Bilagor}{8}{section.4}
\contentsline {section}{\numberline {5}}{9}{section.5}
