\select@language {french}
\contentsline {section}{\numberline {1}Nous sommes concern\'{e}s par le fait que}{2}{section.1}
\contentsline {section}{\numberline {2}Pour ces raisons, nous vous demandons express\'{e}ment}{3}{section.2}
\contentsline {section}{\numberline {3}Signataires}{3}{section.3}
\contentsline {section}{\numberline {4}Annexes}{7}{section.4}
\contentsline {section}{\numberline {5}}{8}{section.5}
