\relax 
\catcode`"\active
\ifx\hyper@anchor\@undefined
\global \let \oldcontentsline\contentsline
\gdef \contentsline#1#2#3#4{\oldcontentsline{#1}{#2}{#3}}
\global \let \oldnewlabel\newlabel
\gdef \newlabel#1#2{\newlabelxx{#1}#2}
\gdef \newlabelxx#1#2#3#4#5#6{\oldnewlabel{#1}{{#2}{#3}}}
\AtEndDocument{\let \contentsline\oldcontentsline
\let \newlabel\oldnewlabel}
\else
\global \let \hyper@last\relax 
\fi

\select@language{polish}
\@writefile{toc}{\select@language{polish}}
\@writefile{lof}{\select@language{polish}}
\@writefile{lot}{\select@language{polish}}
\@writefile{toc}{\contentsline {section}{\numberline {1}Jeste\'{s}my zaniepokojeni tym, \.{z}e}{2}{section.1}}
\newlabel{prob}{{1}{2}{Jeste\'{s}my zaniepokojeni tym, \.{z}e\relax }{section.1}{}}
\@writefile{toc}{\contentsline {section}{\numberline {2}Z tych powod\'{o}w wzywamy do}{3}{section.2}}
\newlabel{solv}{{2}{3}{Z tych powod\'{o}w wzywamy do\relax }{section.2}{}}
\@writefile{toc}{\contentsline {section}{\numberline {3}Sygnatariusze}{3}{section.3}}
\newlabel{sign}{{3}{3}{Sygnatariusze\relax }{section.3}{}}
