\select@language {polish}
\contentsline {section}{\numberline {1}Jeste\'{s}my zaniepokojeni tym, \.{z}e}{2}{section.1}
\contentsline {section}{\numberline {2}Z tych powod\'{o}w wzywamy do}{3}{section.2}
\contentsline {section}{\numberline {3}Sygnatariusze}{3}{section.3}
\contentsline {section}{\numberline {4}Za\L {}\k {a}czniki}{8}{section.4}
\contentsline {section}{\numberline {5}}{9}{section.5}
