\select@language {czech}
\contentsline {section}{\numberline {1}Jsme znepokojeni, \v {z}e}{2}{section.1}
\contentsline {section}{\numberline {2}Z t\v {e}chto d\r {u}vod\r {u} V\'{a}s \v {z}\'{a}d\'{a}me, abyste}{3}{section.2}
\contentsline {section}{\numberline {3}Signat\'{a}\v {r}i}{3}{section.3}
\contentsline {section}{\numberline {4}P\v {r}\'{\i }lohy}{8}{section.4}
\contentsline {section}{\numberline {5}}{9}{section.5}
