\BOOKMARK [1][-]{section.1}{Vi noterar att}{}
\BOOKMARK [1][-]{section.2}{Vi uppmanar er d\344rf\366r att}{}
\BOOKMARK [1][-]{section.3}{Undertecknare}{}
\BOOKMARK [1][-]{section.4}{Bilagor}{}
\BOOKMARK [1][-]{section.5}{}{}
