\BOOKMARK [1][-]{section.1}{Siamo preoccupati che}{}
\BOOKMARK [1][-]{section.2}{Per queste ragioni vi chiediamo urgentmente di}{}
\BOOKMARK [1][-]{section.3}{Firmatari}{}
\BOOKMARK [1][-]{section.4}{Appendici}{}
\BOOKMARK [1][-]{section.5}{}{}
