\contentsline {section}{\numberline {1}We are concerned that}{2}{section.1}
\contentsline {section}{\numberline {2}For these reasons we urge you to}{2}{section.2}
\contentsline {section}{\numberline {3}Signatories}{3}{section.3}
\contentsline {section}{\numberline {4}Annexes}{9}{section.4}
\contentsline {section}{\numberline {5}}{10}{section.5}
