\select@language {spanish}
\contentsline {section}{\numberline {1}Nos preocupa que}{2}{section.1}
\contentsline {section}{\numberline {2}Por estas razones le apremiamos a}{3}{section.2}
\contentsline {section}{\numberline {3}Abajo firmantes}{3}{section.3}
\contentsline {section}{\numberline {4}Anexos}{8}{section.4}
\contentsline {section}{\numberline {5}}{9}{section.5}
