\select@language {italian}
\contentsline {section}{\numberline {1}Siamo preoccupati che}{2}{section.1}
\contentsline {section}{\numberline {2}Per queste ragioni vi chiediamo urgentmente di}{3}{section.2}
\contentsline {section}{\numberline {3}Firmatari}{3}{section.3}
\contentsline {section}{\numberline {4}Appendici}{8}{section.4}
\contentsline {section}{\numberline {5}}{9}{section.5}
