\BOOKMARK [1][-]{section.1}{Nos preocupa que}{}
\BOOKMARK [1][-]{section.2}{Por estas razones le apremiamos a}{}
\BOOKMARK [1][-]{section.3}{Abajo firmantes}{}
\BOOKMARK [1][-]{section.4}{Anexos}{}
\BOOKMARK [1][-]{section.5}{}{}
