\contentsline {section}{\numberline {1}Wir sind dar\"{u}ber besorgt, dass}{2}{section.1}
\contentsline {section}{\numberline {2}Aus diesen Gr\"{u}nden fordern wir Sie auf,}{3}{section.2}
\contentsline {section}{\numberline {3}Unterzeichner}{3}{section.3}
\contentsline {section}{\numberline {4}Anlagen}{8}{section.4}
\contentsline {section}{\numberline {5}}{9}{section.5}
