\select@language {portuguese}
\contentsline {section}{\numberline {1}Estamos preocupados porque}{2}{section.1}
\contentsline {section}{\numberline {2}Por estes motivos apelamos a que}{3}{section.2}
\contentsline {section}{\numberline {3}Subscritores}{3}{section.3}
\contentsline {section}{\numberline {4}Anexos}{8}{section.4}
\contentsline {section}{\numberline {5}}{9}{section.5}
