\select@language {french}
\contentsline {section}{\numberline {1}Needed: 10 experts in Brussels, 10 on the phone, 8000 eur for last August Week}{2}{section.1}
\contentsline {section}{\numberline {2}Needed: 2 media lobbyists per country one week each for 8000 eur}{3}{section.2}
\contentsline {section}{\numberline {3}Presence at Linuxtag and other trade shows, stickers, printed materials}{4}{section.3}
\contentsline {section}{\numberline {4}Needed: Full-time Coordination}{4}{section.4}
\contentsline {section}{\numberline {5}Needed: Development of FFII Participation System}{4}{section.5}
\contentsline {section}{\numberline {6}Needed: Advertisement in European Voice et al}{4}{section.6}
\contentsline {section}{\numberline {7}Europarl Election Campaign 2004}{4}{section.7}
