\BOOKMARK [1][-]{section.1}{Needed: 10 experts in Brussels, 10 on the phone, 8000 eur for last August Week}{}
\BOOKMARK [1][-]{section.2}{Needed: 2 media lobbyists per country one week each for 8000 eur}{}
\BOOKMARK [1][-]{section.3}{Presence at Linuxtag and other trade shows, stickers, printed materials}{}
\BOOKMARK [1][-]{section.4}{Needed: Full-time Coordination}{}
\BOOKMARK [1][-]{section.5}{Needed: Development of FFII Participation System}{}
\BOOKMARK [1][-]{section.6}{Needed: Advertisement in European Voice et al}{}
\BOOKMARK [1][-]{section.7}{Europarl Election Campaign 2004}{}
