\relax 
\ifx\hyper@anchor\@undefined
\global \let \oldcontentsline\contentsline
\gdef \contentsline#1#2#3#4{\oldcontentsline{#1}{#2}{#3}}
\global \let \oldnewlabel\newlabel
\gdef \newlabel#1#2{\newlabelxx{#1}#2}
\gdef \newlabelxx#1#2#3#4#5#6{\oldnewlabel{#1}{{#2}{#3}}}
\AtEndDocument{\let \contentsline\oldcontentsline
\let \newlabel\oldnewlabel}
\else
\global \let \hyper@last\relax 
\fi

\@writefile{toc}{\contentsline {section}{\numberline {1}Needed: 10 experts in Brussels, 10 on the phone, 8000 eur for last August Week}{2}{section.1}}
\newlabel{europarl}{{1}{2}{Needed: 10 experts in Brussels, 10 on the phone, 8000 eur for last August Week\relax }{section.1}{}}
\@writefile{toc}{\contentsline {section}{\numberline {2}Needed: 2 media lobbyists per country one week each for 8000 eur}{3}{section.2}}
\newlabel{media}{{2}{3}{Needed: 2 media lobbyists per country one week each for 8000 eur\relax }{section.2}{}}
\@writefile{toc}{\contentsline {section}{\numberline {3}Presence at Linuxtag and other trade shows, stickers, printed materials}{4}{section.3}}
\newlabel{linuxtag}{{3}{4}{Presence at Linuxtag and other trade shows, stickers, printed materials\relax }{section.3}{}}
\@writefile{toc}{\contentsline {section}{\numberline {4}Needed: Full-time Coordination}{4}{section.4}}
\newlabel{koord}{{4}{4}{Needed: Full-time Coordination\relax }{section.4}{}}
\@writefile{toc}{\contentsline {section}{\numberline {5}Needed: Development of FFII Participation System}{4}{section.5}}
\newlabel{aktiv}{{5}{4}{Needed: Development of FFII Participation System\relax }{section.5}{}}
\@writefile{toc}{\contentsline {section}{\numberline {6}Needed: Advertisement in European Voice et al}{4}{section.6}}
\newlabel{advert}{{6}{4}{Needed: Advertisement in European Voice et al\relax }{section.6}{}}
\@writefile{toc}{\contentsline {section}{\numberline {7}Europarl Election Campaign 2004}{4}{section.7}}
\newlabel{elekt}{{7}{4}{Europarl Election Campaign 2004\relax }{section.7}{}}
