\relax 
\catcode`.\active
\catcode`\.=12
\catcode`"\active
\catcode`<\active
\catcode`>\active
\es@quoting
\ifx\hyper@anchor\@undefined
\global \let \oldcontentsline\contentsline
\gdef \contentsline#1#2#3#4{\oldcontentsline{#1}{#2}{#3}}
\global \let \oldnewlabel\newlabel
\gdef \newlabel#1#2{\newlabelxx{#1}#2}
\gdef \newlabelxx#1#2#3#4#5#6{\oldnewlabel{#1}{{#2}{#3}}}
\AtEndDocument{\let \contentsline\oldcontentsline
\let \newlabel\oldnewlabel}
\else
\global \let \hyper@last\relax 
\fi

\select@language{spanish}
\@writefile{toc}{\select@language{spanish}}
\@writefile{lof}{\select@language{spanish}}
\@writefile{lot}{\select@language{spanish}}
\@writefile{toc}{\contentsline {section}{\numberline {1}Las Patentes de Software vuelven a la Escena Politica de la UE}{2}{section.1}}
\newlabel{eumin}{{1}{2}{Las Patentes de Software vuelven a la Escena Politica de la UE\relax }{section.1}{}}
\@writefile{toc}{\contentsline {section}{\numberline {2}``Llamada a la Acci\'{o}n'' desde el Departamento de Patentes de Nokia}{2}{section.2}}
\newlabel{nokia}{{2}{2}{``Llamada a la Acci\'{o}n'' desde el Departamento de Patentes de Nokia\relax }{section.2}{}}
