\relax 
\catcode`:\active
\catcode`;\active
\catcode`!\active
\catcode`?\active
\ifx\hyper@anchor\@undefined
\global \let \oldcontentsline\contentsline
\gdef \contentsline#1#2#3#4{\oldcontentsline{#1}{#2}{#3}}
\global \let \oldnewlabel\newlabel
\gdef \newlabel#1#2{\newlabelxx{#1}#2}
\gdef \newlabelxx#1#2#3#4#5#6{\oldnewlabel{#1}{{#2}{#3}}}
\AtEndDocument{\let \contentsline\oldcontentsline
\let \newlabel\oldnewlabel}
\else
\global \let \hyper@last\relax 
\fi

\select@language{french}
\@writefile{toc}{\select@language{french}}
\@writefile{lof}{\select@language{french}}
\@writefile{lot}{\select@language{french}}
\@writefile{toc}{\contentsline {section}{\numberline {1}Les brevets logiciels reviennent sur la sc\`{e}ne politique de l'UE}{2}{section.1}}
\newlabel{eumin}{{1}{2}{Les brevets logiciels reviennent sur la sc\`{e}ne politique de l'UE\relax }{section.1}{}}
\@writefile{toc}{\contentsline {section}{\numberline {2}``Appel \`{a} l'action'' du d\'{e}partement brevets de Nokia}{2}{section.2}}
\newlabel{nokia}{{2}{2}{``Appel \`{a} l'action'' du d\'{e}partement brevets de Nokia\relax }{section.2}{}}
\@writefile{toc}{\contentsline {section}{\numberline {3}R\'{e}actions des parlementaires europ\'{e}ens \`{a} la position du Groupe de travail du Conseil}{3}{section.3}}
\newlabel{meps}{{3}{3}{R\'{e}actions des parlementaires europ\'{e}ens \`{a} la position du Groupe de travail du Conseil\relax }{section.3}{}}
\@writefile{toc}{\contentsline {section}{\numberline {4}Le texte de la Pr\'{e}sidence rejette l'interop\'{e}rabilit\'{e}}{5}{section.4}}
\newlabel{itop}{{4}{5}{Le texte de la Pr\'{e}sidence rejette l'interop\'{e}rabilit\'{e}\relax }{section.4}{}}
\@writefile{toc}{\contentsline {section}{\numberline {5}Gr\`{e}ve en ligne, rassemblements, conf\'{e}rences}{6}{section.5}}
\newlabel{bxl44}{{5}{6}{Gr\`{e}ve en ligne, rassemblements, conf\'{e}rences\relax }{section.5}{}}
\@writefile{toc}{\contentsline {section}{\numberline {6}Liens annot\'{e}s}{7}{section.6}}
\newlabel{links}{{6}{7}{Liens annot\'{e}s\relax }{section.6}{}}
