\relax 
\ifx\hyper@anchor\@undefined
\global \let \oldcontentsline\contentsline
\gdef \contentsline#1#2#3#4{\oldcontentsline{#1}{#2}{#3}}
\global \let \oldnewlabel\newlabel
\gdef \newlabel#1#2{\newlabelxx{#1}#2}
\gdef \newlabelxx#1#2#3#4#5#6{\oldnewlabel{#1}{{#2}{#3}}}
\AtEndDocument{\let \contentsline\oldcontentsline
\let \newlabel\oldnewlabel}
\else
\global \let \hyper@last\relax 
\fi

\@writefile{toc}{\contentsline {section}{\numberline {1}Softwarepatente kehren auf die politische B\"{u}hne der EU zur\"{u}ck}{2}{section.1}}
\newlabel{eumin}{{1}{2}{Softwarepatente kehren auf die politische B\"{u}hne der EU zur\"{u}ck\relax }{section.1}{}}
\@writefile{toc}{\contentsline {section}{\numberline {2}Der ``Aufruf zum Handeln'' aus der Nokia-Patentabteilung}{3}{section.2}}
\newlabel{nokia}{{2}{3}{Der ``Aufruf zum Handeln'' aus der Nokia-Patentabteilung\relax }{section.2}{}}
\@writefile{toc}{\contentsline {section}{\numberline {3}Reaktionen von Abgeordneten auf die Position der Rats-Arbeitsgruppe}{4}{section.3}}
\newlabel{meps}{{3}{4}{Reaktionen von Abgeordneten auf die Position der Rats-Arbeitsgruppe\relax }{section.3}{}}
\@writefile{toc}{\contentsline {section}{\numberline {4}Pr\"{a}sidentschaft lehnt Interoperabilit\"{a}tsprivileg ab}{6}{section.4}}
\newlabel{itop}{{4}{6}{Pr\"{a}sidentschaft lehnt Interoperabilit\"{a}tsprivileg ab\relax }{section.4}{}}
\@writefile{toc}{\contentsline {section}{\numberline {5}Netzstreik, Demonstrationen, Konferenzen}{7}{section.5}}
\newlabel{bxl44}{{5}{7}{Netzstreik, Demonstrationen, Konferenzen\relax }{section.5}{}}
\@writefile{toc}{\contentsline {section}{\numberline {6}Annotated Links}{7}{section.6}}
\newlabel{links}{{6}{7}{Annotated Links\relax }{section.6}{}}
