\relax 
\ifx\hyper@anchor\@undefined
\global \let \oldcontentsline\contentsline
\gdef \contentsline#1#2#3#4{\oldcontentsline{#1}{#2}{#3}}
\global \let \oldnewlabel\newlabel
\gdef \newlabel#1#2{\newlabelxx{#1}#2}
\gdef \newlabelxx#1#2#3#4#5#6{\oldnewlabel{#1}{{#2}{#3}}}
\AtEndDocument{\let \contentsline\oldcontentsline
\let \newlabel\oldnewlabel}
\else
\global \let \hyper@last\relax 
\fi

\@writefile{toc}{\contentsline {section}{\numberline {1}Ohjelmistopatentit palaavat EU-poliitikan keskusn\"{a}ytt\"{a}m\"{o}lle}{2}{section.1}}
\newlabel{eumin}{{1}{2}{Ohjelmistopatentit palaavat EU-poliitikan keskusn\"{a}ytt\"{a}m\"{o}lle\relax }{section.1}{}}
\@writefile{toc}{\contentsline {section}{\numberline {2}``Toimintakutsu'' Nokian patenttiosastolta}{3}{section.2}}
\newlabel{nokia}{{2}{3}{``Toimintakutsu'' Nokian patenttiosastolta\relax }{section.2}{}}
\@writefile{toc}{\contentsline {section}{\numberline {3}MEPpien reaktioita neuvoston ty\"{o}ryhm\"{a}n kantaan}{4}{section.3}}
\newlabel{meps}{{3}{4}{MEPpien reaktioita neuvoston ty\"{o}ryhm\"{a}n kantaan\relax }{section.3}{}}
\@writefile{toc}{\contentsline {section}{\numberline {4}Puheenjohtajamaan teksti torjuu yhteensopivuuden}{5}{section.4}}
\newlabel{itop}{{4}{5}{Puheenjohtajamaan teksti torjuu yhteensopivuuden\relax }{section.4}{}}
\@writefile{toc}{\contentsline {section}{\numberline {5}Nettilakko, mielenosoituksia, konferensseja}{6}{section.5}}
\newlabel{bxl44}{{5}{6}{Nettilakko, mielenosoituksia, konferensseja\relax }{section.5}{}}
\@writefile{toc}{\contentsline {section}{\numberline {6}Annotated Links}{7}{section.6}}
\newlabel{links}{{6}{7}{Annotated Links\relax }{section.6}{}}
