\relax 
\catcode`"\active
\ifx\hyper@anchor\@undefined
\global \let \oldcontentsline\contentsline
\gdef \contentsline#1#2#3#4{\oldcontentsline{#1}{#2}{#3}}
\global \let \oldnewlabel\newlabel
\gdef \newlabel#1#2{\newlabelxx{#1}#2}
\gdef \newlabelxx#1#2#3#4#5#6{\oldnewlabel{#1}{{#2}{#3}}}
\AtEndDocument{\let \contentsline\oldcontentsline
\let \newlabel\oldnewlabel}
\else
\global \let \hyper@last\relax 
\fi

\select@language{portuguese}
\@writefile{toc}{\select@language{portuguese}}
\@writefile{lof}{\select@language{portuguese}}
\@writefile{lot}{\select@language{portuguese}}
\@writefile{toc}{\contentsline {section}{\numberline {1}Regresso das Patentes de Software \`{a}o centro do Palco Pol\'{\i }tico Europeu}{2}{section.1}}
\newlabel{eumin}{{1}{2}{Regresso das Patentes de Software \`{a}o centro do Palco Pol\'{\i }tico Europeu\relax }{section.1}{}}
\@writefile{toc}{\contentsline {section}{\numberline {2}``Chamada \`{a} Ac\c {c}\~{a}o'' do Departamento de Patentes da Nokia}{3}{section.2}}
\newlabel{nokia}{{2}{3}{``Chamada \`{a} Ac\c {c}\~{a}o'' do Departamento de Patentes da Nokia\relax }{section.2}{}}
\@writefile{toc}{\contentsline {section}{\numberline {3}Reac\c {c}\~{o}es de Eurodeputados \`{a} posi\c {c}\~{a}o do Grupo de Trabalho do Conselho}{4}{section.3}}
\newlabel{meps}{{3}{4}{Reac\c {c}\~{o}es de Eurodeputados \`{a} posi\c {c}\~{a}o do Grupo de Trabalho do Conselho\relax }{section.3}{}}
\@writefile{toc}{\contentsline {section}{\numberline {4}Texto da Presid\^{e}ncia Rejeita Interoperabilidade}{6}{section.4}}
\newlabel{itop}{{4}{6}{Texto da Presid\^{e}ncia Rejeita Interoperabilidade\relax }{section.4}{}}
\@writefile{toc}{\contentsline {section}{\numberline {5}Greve On-line, Desfiles, Confer\^{e}ncias}{6}{section.5}}
\newlabel{bxl44}{{5}{6}{Greve On-line, Desfiles, Confer\^{e}ncias\relax }{section.5}{}}
\@writefile{toc}{\contentsline {section}{\numberline {6}Links Anotados}{7}{section.6}}
\newlabel{links}{{6}{7}{Links Anotados\relax }{section.6}{}}
