\relax 
\ifx\hyper@anchor\@undefined
\global \let \oldcontentsline\contentsline
\gdef \contentsline#1#2#3#4{\oldcontentsline{#1}{#2}{#3}}
\global \let \oldnewlabel\newlabel
\gdef \newlabel#1#2{\newlabelxx{#1}#2}
\gdef \newlabelxx#1#2#3#4#5#6{\oldnewlabel{#1}{{#2}{#3}}}
\AtEndDocument{\let \contentsline\oldcontentsline
\let \newlabel\oldnewlabel}
\else
\global \let \hyper@last\relax 
\fi

\@writefile{toc}{\contentsline {section}{\numberline {1}Softwarepatenten terug in de schijnwerpers van de Europese politiek}{2}{section.1}}
\newlabel{eumin}{{1}{2}{Softwarepatenten terug in de schijnwerpers van de Europese politiek\relax }{section.1}{}}
\@writefile{toc}{\contentsline {section}{\numberline {2}``Oproep tot handelen'' van Nokia's patentafdeling}{3}{section.2}}
\newlabel{nokia}{{2}{3}{``Oproep tot handelen'' van Nokia's patentafdeling\relax }{section.2}{}}
\@writefile{toc}{\contentsline {section}{\numberline {3}Reacties van EP-leden over de positie van de Raad-werkgroep}{4}{section.3}}
\newlabel{meps}{{3}{4}{Reacties van EP-leden over de positie van de Raad-werkgroep\relax }{section.3}{}}
\@writefile{toc}{\contentsline {section}{\numberline {4}Tekst van het voorzitterschap verwerpt interoperabiliteit}{6}{section.4}}
\newlabel{itop}{{4}{6}{Tekst van het voorzitterschap verwerpt interoperabiliteit\relax }{section.4}{}}
\@writefile{toc}{\contentsline {section}{\numberline {5}Webstaking, Demonstraties, Conferenties}{6}{section.5}}
\newlabel{bxl44}{{5}{6}{Webstaking, Demonstraties, Conferenties\relax }{section.5}{}}
\@writefile{toc}{\contentsline {section}{\numberline {6}koppelingen met voetnoten}{7}{section.6}}
\newlabel{links}{{6}{7}{koppelingen met voetnoten\relax }{section.6}{}}
