\relax 
\ifx\hyper@anchor\@undefined
\global \let \oldcontentsline\contentsline
\gdef \contentsline#1#2#3#4{\oldcontentsline{#1}{#2}{#3}}
\global \let \oldnewlabel\newlabel
\gdef \newlabel#1#2{\newlabelxx{#1}#2}
\gdef \newlabelxx#1#2#3#4#5#6{\oldnewlabel{#1}{{#2}{#3}}}
\AtEndDocument{\let \contentsline\oldcontentsline
\let \newlabel\oldnewlabel}
\else
\global \let \hyper@last\relax 
\fi

\@writefile{toc}{\contentsline {section}{\numberline {1}Software Patents return to the EU Political Centre Stage}{2}{section.1}}
\newlabel{eumin}{{1}{2}{Software Patents return to the EU Political Centre Stage\relax }{section.1}{}}
\@writefile{toc}{\contentsline {section}{\numberline {2}``Call for Action'' from Nokia's Patent Department}{3}{section.2}}
\newlabel{nokia}{{2}{3}{``Call for Action'' from Nokia's Patent Department\relax }{section.2}{}}
\@writefile{toc}{\contentsline {section}{\numberline {3}Reactions by MEPs to the Council Working Party position}{4}{section.3}}
\newlabel{meps}{{3}{4}{Reactions by MEPs to the Council Working Party position\relax }{section.3}{}}
\@writefile{toc}{\contentsline {section}{\numberline {4}Presidency Text Rejects Interoperability}{5}{section.4}}
\newlabel{itop}{{4}{5}{Presidency Text Rejects Interoperability\relax }{section.4}{}}
\@writefile{toc}{\contentsline {section}{\numberline {5}Net Strike, Rallies, Conferences}{6}{section.5}}
\newlabel{bxl44}{{5}{6}{Net Strike, Rallies, Conferences\relax }{section.5}{}}
\@writefile{toc}{\contentsline {section}{\numberline {6}Annotated Links}{7}{section.6}}
\newlabel{links}{{6}{7}{Annotated Links\relax }{section.6}{}}
