\select@language {french}
\contentsline {section}{\numberline {1}L'Enseignement Biblique}{2}{section.1}
\contentsline {section}{\numberline {2}Nouveaux Developments Ex\'{e}g\'{e}tiques}{3}{section.2}
\contentsline {section}{\numberline {3}Autre Lecture}{9}{section.3}
