\relax 
\catcode`:\active
\catcode`;\active
\catcode`!\active
\catcode`?\active
\ifx\hyper@anchor\@undefined
\global \let \oldcontentsline\contentsline
\gdef \contentsline#1#2#3#4{\oldcontentsline{#1}{#2}{#3}}
\global \let \oldnewlabel\newlabel
\gdef \newlabel#1#2{\newlabelxx{#1}#2}
\gdef \newlabelxx#1#2#3#4#5#6{\oldnewlabel{#1}{{#2}{#3}}}
\AtEndDocument{\let \contentsline\oldcontentsline
\let \newlabel\oldnewlabel}
\else
\global \let \hyper@last\relax 
\fi

\select@language{french}
\@writefile{toc}{\select@language{french}}
\@writefile{lof}{\select@language{french}}
\@writefile{lot}{\select@language{french}}
\gdef \LT@i {\LT@entry 
    {1}{196.83345pt}\LT@entry 
    {1}{196.43346pt}}
\@writefile{toc}{\contentsline {section}{\numberline {1}L'Enseignement Biblique}{2}{section.1}}
\newlabel{bibl}{{1}{2}{L'Enseignement Biblique\relax }{section.1}{}}
\@writefile{toc}{\contentsline {section}{\numberline {2}Nouveaux Developments Ex\'{e}g\'{e}tiques}{3}{section.2}}
\newlabel{kler}{{2}{3}{Nouveaux Developments Ex\'{e}g\'{e}tiques\relax }{section.2}{}}
\gdef \LT@ii {\LT@entry 
    {1}{196.83345pt}\LT@entry 
    {1}{196.43346pt}}
\@writefile{toc}{\contentsline {section}{\numberline {3}Autre Lecture}{9}{section.3}}
\newlabel{etc}{{3}{9}{Autre Lecture\relax }{section.3}{}}
\gdef\scr@tpo@lst{0}
