\relax 
\ifx\hyper@anchor\@undefined
\global \let \oldcontentsline\contentsline
\gdef \contentsline#1#2#3#4{\oldcontentsline{#1}{#2}{#3}}
\global \let \oldnewlabel\newlabel
\gdef \newlabel#1#2{\newlabelxx{#1}#2}
\gdef \newlabelxx#1#2#3#4#5#6{\oldnewlabel{#1}{{#2}{#3}}}
\AtEndDocument{\let \contentsline\oldcontentsline
\let \newlabel\oldnewlabel}
\else
\global \let \hyper@last\relax 
\fi

\gdef \LT@i {\LT@entry 
    {1}{196.83345pt}\LT@entry 
    {1}{196.43346pt}}
\@writefile{toc}{\contentsline {section}{\numberline {1}Die Biblische Lehre}{2}{section.1}}
\newlabel{bibl}{{1}{2}{Die Biblische Lehre\relax }{section.1}{}}
\@writefile{toc}{\contentsline {section}{\numberline {2}Neuere Exegetische Entwicklungen}{4}{section.2}}
\newlabel{kler}{{2}{4}{Neuere Exegetische Entwicklungen\relax }{section.2}{}}
\gdef \LT@ii {\LT@entry 
    {1}{196.83345pt}\LT@entry 
    {1}{196.43346pt}}
\@writefile{toc}{\contentsline {section}{\numberline {3}Weitere Lekt\"{u}re}{11}{section.3}}
\newlabel{etc}{{3}{11}{Weitere Lekt\"{u}re\relax }{section.3}{}}
\gdef\scr@tpo@lst{0}
