\contentsline {section}{\numberline {1}The Biblical Teaching}{2}{section.1}
\contentsline {section}{\numberline {2}Recent Exegetic Developments}{3}{section.2}
\contentsline {section}{\numberline {3}Further Reading}{9}{section.3}
