\contentsline {section}{\numberline {1}Die Biblische Lehre}{2}{section.1}
\contentsline {section}{\numberline {2}Neuere Exegetische Entwicklungen}{4}{section.2}
\contentsline {section}{\numberline {3}Weitere Lekt\"{u}re}{11}{section.3}
