\relax 
\ifx\hyper@anchor\@undefined
\global \let \oldcontentsline\contentsline
\gdef \contentsline#1#2#3#4{\oldcontentsline{#1}{#2}{#3}}
\global \let \oldnewlabel\newlabel
\gdef \newlabel#1#2{\newlabelxx{#1}#2}
\gdef \newlabelxx#1#2#3#4#5#6{\oldnewlabel{#1}{{#2}{#3}}}
\AtEndDocument{\let \contentsline\oldcontentsline
\let \newlabel\oldnewlabel}
\else
\global \let \hyper@last\relax 
\fi

\@writefile{toc}{\contentsline {section}{\numberline {1}Zeit und Ort}{2}{section.1}}
\newlabel{tmplok}{{1}{2}{Zeit und Ort\relax }{section.1}{}}
\@writefile{toc}{\contentsline {section}{\numberline {2}Einf\"{u}hrung}{2}{section.2}}
\newlabel{intro}{{2}{2}{Einf\"{u}hrung\relax }{section.2}{}}
\gdef \LT@i{\omit \kern 134.09128pt&\omit \kern 133.69128pt&\omit \kern 133.69128pt}
\@writefile{toc}{\contentsline {section}{\numberline {3}Programmvorschlag}{3}{section.3}}
\newlabel{prog}{{3}{3}{Programmvorschlag\relax }{section.3}{}}
\@writefile{toc}{\contentsline {section}{\numberline {4}Kommentierte Verweise}{6}{section.4}}
\newlabel{links}{{4}{6}{Kommentierte Verweise\relax }{section.4}{}}
