\relax 
\ifx\hyper@anchor\@undefined
\global \let \oldcontentsline\contentsline
\gdef \contentsline#1#2#3#4{\oldcontentsline{#1}{#2}{#3}}
\global \let \oldnewlabel\newlabel
\gdef \newlabel#1#2{\newlabelxx{#1}#2}
\gdef \newlabelxx#1#2#3#4#5#6{\oldnewlabel{#1}{{#2}{#3}}}
\AtEndDocument{\let \contentsline\oldcontentsline
\let \newlabel\oldnewlabel}
\else
\global \let \hyper@last\relax 
\fi

\csname auxWARNINGii\endcsname {\typeout {-34- this file and other auxiliary files require to use the following}}
\csname auxWARNINGii\endcsname {\typeout {-34- LaTeX packages: french and babel!}}
\csname auxWARNINGii\endcsname {\typeout {-34- check \protect \usepackage \space or remove these files. Typesetting is aborted!} \stop }
\select@language{french}
\@writefile{toc}{\select@language{french}}
\@writefile{lof}{\select@language{french}}
\@writefile{lot}{\select@language{french}}
\select@language{french}
\@writefile{toc}{\select@language{french}}
\@writefile{lof}{\select@language{french}}
\@writefile{lot}{\select@language{french}}
\@writefile{toc}{\contentsline {section}{\numberline {1}Temp et Lieu}{2}{section.0.1}}
\newlabel{tmplok}{{1}{2}{Temp et Lieu\relax }{section.0.1}{}}
\@writefile{toc}{\contentsline {section}{\numberline {2}introduction}{2}{section.0.2}}
\newlabel{intro}{{2}{2}{introduction\relax }{section.0.2}{}}
\gdef \LT@i{\omit \kern 134.09128pt&\omit \kern 133.69128pt&\omit \kern 133.69128pt}
\@writefile{toc}{\contentsline {section}{\numberline {3}Propos de Programme}{3}{section.0.3}}
\newlabel{prog}{{3}{3}{Propos de Programme\relax }{section.0.3}{}}
\@writefile{toc}{\contentsline {section}{\numberline {4}Liens Annot\'{e}s}{6}{section.0.4}}
\newlabel{links}{{4}{6}{Liens Annot\'{e}s\relax }{section.0.4}{}}
