\contentsline {section}{\numberline {1}Zeit und Ort}{2}{section.1}
\contentsline {section}{\numberline {2}Einf\"{u}hrung}{2}{section.2}
\contentsline {section}{\numberline {3}Programmvorschlag}{3}{section.3}
\contentsline {section}{\numberline {4}Kommentierte Verweise}{6}{section.4}
