\contentsline {section}{\numberline {1}Time and Place}{2}{section.1}
\contentsline {section}{\numberline {2}introduction}{2}{section.2}
\contentsline {section}{\numberline {3}Program Proposal}{3}{section.3}
\contentsline {section}{\numberline {4}Annotated Links}{6}{section.4}
