\relax 
\ifx\hyper@anchor\@undefined
\global \let \oldcontentsline\contentsline
\gdef \contentsline#1#2#3#4{\oldcontentsline{#1}{#2}{#3}}
\global \let \oldnewlabel\newlabel
\gdef \newlabel#1#2{\newlabelxx{#1}#2}
\gdef \newlabelxx#1#2#3#4#5#6{\oldnewlabel{#1}{{#2}{#3}}}
\AtEndDocument{\let \contentsline\oldcontentsline
\let \newlabel\oldnewlabel}
\else
\global \let \hyper@last\relax 
\fi

\@writefile{toc}{\contentsline {chapter}{\numberline {1}Rationale}{5}{chapter.1}}
\@writefile{lof}{\addvspace {10\p@ }}
\@writefile{lot}{\addvspace {10\p@ }}
\newlabel{intro}{{1}{5}{Rationale\relax }{chapter.1}{}}
\@writefile{toc}{\contentsline {section}{\numberline {1.1}Why a directive?}{5}{section.1.1}}
\newlabel{kial}{{1.1}{5}{Why a directive?\relax }{section.1.1}{}}
\@writefile{toc}{\contentsline {subsection}{\numberline {1.1.1}Harmonising a unified system?}{5}{subsection.1.1.1}}
\newlabel{harmon}{{1.1.1}{5}{Harmonising a unified system?\relax }{subsection.1.1.1}{}}
\@writefile{toc}{\contentsline {subsection}{\numberline {1.1.2}Clarifying the Unspeakable?}{5}{subsection.1.1.2}}
\newlabel{klarif}{{1.1.2}{5}{Clarifying the Unspeakable?\relax }{subsection.1.1.2}{}}
\@writefile{toc}{\contentsline {subsection}{\numberline {1.1.3}The political deal between EU and EPO}{5}{subsection.1.1.3}}
\newlabel{euepo}{{1.1.3}{5}{The political deal between EU and EPO\relax }{subsection.1.1.3}{}}
\@writefile{toc}{\contentsline {subsection}{\numberline {1.1.4}Valid Reasons for a Directive}{6}{subsection.1.1.4}}
\newlabel{valid}{{1.1.4}{6}{Valid Reasons for a Directive\relax }{subsection.1.1.4}{}}
\@writefile{toc}{\contentsline {section}{\numberline {1.2}Core Layer: Fence in the Technical Invention, Reaffirm Art 52 EPC}{6}{section.1.2}}
\newlabel{trans}{{1.2}{6}{Core Layer: Fence in the Technical Invention, Reaffirm Art 52 EPC\relax }{section.1.2}{}}
\@writefile{toc}{\contentsline {subsection}{\numberline {1.2.1}Negative Definition of ``Technical Invention'' in Art 52 EPC}{6}{subsection.1.2.1}}
\newlabel{negadef}{{1.2.1}{6}{Negative Definition of ``Technical Invention'' in Art 52 EPC\relax }{subsection.1.2.1}{}}
\@writefile{toc}{\contentsline {subsection}{\numberline {1.2.2}Translating from EPC language to TRIPs language}{7}{subsection.1.2.2}}
\newlabel{trips}{{1.2.2}{7}{Translating from EPC language to TRIPs language\relax }{subsection.1.2.2}{}}
\@writefile{toc}{\contentsline {subsection}{\numberline {1.2.3}Translating from EPC language to the Meta-Language of Claim-Writing}{7}{subsection.1.2.3}}
\newlabel{patclm}{{1.2.3}{7}{Translating from EPC language to the Meta-Language of Claim-Writing\relax }{subsection.1.2.3}{}}
\@writefile{toc}{\contentsline {subsection}{\numberline {1.2.4}A well-fenced gray zone}{7}{subsection.1.2.4}}
\newlabel{fenced}{{1.2.4}{7}{A well-fenced gray zone\relax }{subsection.1.2.4}{}}
\@writefile{toc}{\contentsline {subsection}{\numberline {1.2.5}No such thing as a ``Computer-Implemented Invention''}{8}{subsection.1.2.5}}
\newlabel{kompinv}{{1.2.5}{8}{No such thing as a ``Computer-Implemented Invention''\relax }{subsection.1.2.5}{}}
\@writefile{toc}{\contentsline {section}{\numberline {1.3}Extension Layer: Some Clarifications on enforcability of patents in the context of information goods}{8}{section.1.3}}
\newlabel{periph}{{1.3}{8}{Extension Layer: Some Clarifications on enforcability of patents in the context of information goods\relax }{section.1.3}{}}
\@writefile{toc}{\contentsline {section}{\numberline {1.4}Completion Layer: Define the ``Technical Invention'', limit the scope of judiciary rule-setting}{9}{section.1.4}}
\newlabel{griz}{{1.4}{9}{Completion Layer: Define the ``Technical Invention'', limit the scope of judiciary rule-setting\relax }{section.1.4}{}}
\@writefile{toc}{\contentsline {subsection}{\numberline {1.4.1}Abstract Definition of Technical Invention}{9}{subsection.1.4.1}}
\newlabel{absdef}{{1.4.1}{9}{Abstract Definition of Technical Invention\relax }{subsection.1.4.1}{}}
\@writefile{toc}{\contentsline {subsubsection}{the invention which a claim discloses vs the scope of implementations which it forbids}{9}{section*.3}}
\newlabel{invimpl}{{11}{9}{the invention which a claim discloses vs the scope of implementations which it forbids\relax }{section*.3}{}}
\@writefile{toc}{\contentsline {subsubsection}{Mind vs Matter}{9}{section*.4}}
\newlabel{mensmat}{{11}{9}{Mind vs Matter\relax }{section*.4}{}}
\@writefile{toc}{\contentsline {subsection}{\numberline {1.4.2}Categorial exclusions}{9}{subsection.1.4.2}}
\newlabel{katexk}{{1.4.2}{9}{Categorial exclusions\relax }{subsection.1.4.2}{}}
\@writefile{toc}{\contentsline {subsection}{\numberline {1.4.3}Application Examples}{10}{subsection.1.4.3}}
\newlabel{appexem}{{1.4.3}{10}{Application Examples\relax }{subsection.1.4.3}{}}
\@writefile{toc}{\contentsline {chapter}{\numberline {2}Preamble}{11}{chapter.2}}
\@writefile{lof}{\addvspace {10\p@ }}
\@writefile{lot}{\addvspace {10\p@ }}
\newlabel{pream}{{2}{11}{Preamble\relax }{chapter.2}{}}
\@writefile{toc}{\contentsline {section}{\numberline {2.1}[Toelichting 1: Interne markt]}{11}{section.2.1}}
\newlabel{recit1}{{2.1}{11}{[Toelichting 1: Interne markt]\relax }{section.2.1}{}}
\@writefile{toc}{\contentsline {section}{\numberline {2.2}[Toelichting 2: Verschillen]}{12}{section.2.2}}
\newlabel{recit2}{{2.2}{12}{[Toelichting 2: Verschillen]\relax }{section.2.2}{}}
\@writefile{toc}{\contentsline {section}{\numberline {2.3}[Toelichting 3: De verschillen zouden groter kunnen worden]}{13}{section.2.3}}
\newlabel{recit3}{{2.3}{13}{[Toelichting 3: De verschillen zouden groter kunnen worden]\relax }{section.2.3}{}}
\@writefile{toc}{\contentsline {section}{\numberline {2.4}[Toelichting 4: Informatisering]}{13}{section.2.4}}
\newlabel{recit4}{{2.4}{13}{[Toelichting 4: Informatisering]\relax }{section.2.4}{}}
\@writefile{toc}{\contentsline {section}{\numberline {2.5}[Toelichting 5: Dus harmonisatie en verheldering]}{14}{section.2.5}}
\newlabel{recit5}{{2.5}{14}{[Toelichting 5: Dus harmonisatie en verheldering]\relax }{section.2.5}{}}
\@writefile{toc}{\contentsline {section}{\numberline {2.6}[Toelichting 6: TRIPs]}{15}{section.2.6}}
\newlabel{recit6}{{2.6}{15}{[Toelichting 6: TRIPs]\relax }{section.2.6}{}}
\@writefile{toc}{\contentsline {section}{\numberline {2.7}[Toelichting 7: EPC]}{16}{section.2.7}}
\newlabel{recit7}{{2.7}{16}{[Toelichting 7: EPC]\relax }{section.2.7}{}}
\@writefile{toc}{\contentsline {section}{\numberline {2.8}[Toelichting 8: Octrooien en publiek belang]}{17}{section.2.8}}
\newlabel{recit8}{{2.8}{17}{[Toelichting 8: Octrooien en publiek belang]\relax }{section.2.8}{}}
\@writefile{toc}{\contentsline {section}{\numberline {2.9}[Toelichting 9: Octrooien en auteursrecht]}{18}{section.2.9}}
\newlabel{recit9}{{2.9}{18}{[Toelichting 9: Octrooien en auteursrecht]\relax }{section.2.9}{}}
\@writefile{toc}{\contentsline {section}{\numberline {2.10}[Toelichting 10: Technisch karakter]}{18}{section.2.10}}
\newlabel{recit10}{{2.10}{18}{[Toelichting 10: Technisch karakter]\relax }{section.2.10}{}}
\@writefile{toc}{\contentsline {section}{\numberline {2.11}[Toelichting 11: Gebied van de technologie]}{19}{section.2.11}}
\newlabel{recit11}{{2.11}{19}{[Toelichting 11: Gebied van de technologie]\relax }{section.2.11}{}}
\@writefile{toc}{\contentsline {section}{\numberline {2.12}[Toelichting 12: Technische bijdrage]}{20}{section.2.12}}
\newlabel{recit12}{{2.12}{20}{[Toelichting 12: Technische bijdrage]\relax }{section.2.12}{}}
\@writefile{toc}{\contentsline {section}{\numberline {2.13}[Toelichting 13: Algoritmes]}{20}{section.2.13}}
\newlabel{recit13}{{2.13}{20}{[Toelichting 13: Algoritmes]\relax }{section.2.13}{}}
\@writefile{toc}{\contentsline {subsection}{\numberline {2.13.1}Toelichting 13}{20}{subsection.2.13.1}}
\newlabel{recit130}{{2.13.1}{20}{Toelichting 13\relax }{subsection.2.13.1}{}}
\@writefile{toc}{\contentsline {subsection}{\numberline {2.13.2}Toelichting 13(a)(bis) []}{21}{subsection.2.13.2}}
\newlabel{recit13a}{{2.13.2}{21}{Toelichting 13(a)(bis) []\relax }{subsection.2.13.2}{}}
\@writefile{toc}{\contentsline {section}{\numberline {2.14}[Toelichting 14: Europese wetgeving versus nationale wetgeving]}{22}{section.2.14}}
\newlabel{recit14}{{2.14}{22}{[Toelichting 14: Europese wetgeving versus nationale wetgeving]\relax }{section.2.14}{}}
\@writefile{toc}{\contentsline {section}{\numberline {2.15}[Toelichting 15: Reikwijdte van de bepalingen]}{22}{section.2.15}}
\newlabel{recit15}{{2.15}{22}{[Toelichting 15: Reikwijdte van de bepalingen]\relax }{section.2.15}{}}
\@writefile{toc}{\contentsline {section}{\numberline {2.16}[Toelichting 16: Concurrentiepositie verbeteren]}{23}{section.2.16}}
\newlabel{recit16}{{2.16}{23}{[Toelichting 16: Concurrentiepositie verbeteren]\relax }{section.2.16}{}}
\@writefile{toc}{\contentsline {subsection}{\numberline {2.16.1}Toelichting 16}{23}{subsection.2.16.1}}
\newlabel{recit160}{{2.16.1}{23}{Toelichting 16\relax }{subsection.2.16.1}{}}
\@writefile{toc}{\contentsline {subsection}{\numberline {2.16.2}Toelichting 16a []}{23}{subsection.2.16.2}}
\newlabel{recit16a}{{2.16.2}{23}{Toelichting 16a []\relax }{subsection.2.16.2}{}}
\@writefile{toc}{\contentsline {section}{\numberline {2.17}[Toelichting 17: Mededingingsregels]}{24}{section.2.17}}
\newlabel{recit17}{{2.17}{24}{[Toelichting 17: Mededingingsregels]\relax }{section.2.17}{}}
\@writefile{toc}{\contentsline {section}{\numberline {2.18}[Toelichting 18: Decompilatie en compatibiliteit]}{24}{section.2.18}}
\newlabel{recit18}{{2.18}{24}{[Toelichting 18: Decompilatie en compatibiliteit]\relax }{section.2.18}{}}
\@writefile{toc}{\contentsline {section}{\numberline {2.19}[Toelichting 19: Subsidiariteit]}{25}{section.2.19}}
\newlabel{recit19}{{2.19}{25}{[Toelichting 19: Subsidiariteit]\relax }{section.2.19}{}}
\@writefile{toc}{\contentsline {chapter}{\numberline {3}De Artikels}{27}{chapter.3}}
\@writefile{lof}{\addvspace {10\p@ }}
\@writefile{lot}{\addvspace {10\p@ }}
\newlabel{arts}{{3}{27}{De Artikels\relax }{chapter.3}{}}
\@writefile{toc}{\contentsline {section}{\numberline {3.1}Artikel 1: Werkingssfeer}{27}{section.3.1}}
\newlabel{art1}{{3.1}{27}{Artikel 1: Werkingssfeer\relax }{section.3.1}{}}
\@writefile{toc}{\contentsline {section}{\numberline {3.2}Artikel 2: Definities}{27}{section.3.2}}
\newlabel{art2}{{3.2}{27}{Artikel 2: Definities\relax }{section.3.2}{}}
\@writefile{toc}{\contentsline {subsection}{\numberline {3.2.1}Computer-Implemented Invention}{27}{subsection.3.2.1}}
\newlabel{cii}{{3.2.1}{27}{Computer-Implemented Invention\relax }{subsection.3.2.1}{}}
\@writefile{toc}{\contentsline {subsection}{\numberline {3.2.2}Technology, Invention, Non-Inventions}{28}{subsection.3.2.2}}
\newlabel{tech}{{3.2.2}{28}{Technology, Invention, Non-Inventions\relax }{subsection.3.2.2}{}}
\@writefile{toc}{\contentsline {section}{\numberline {3.3}Artikel 3: Gebieden van technologie}{31}{section.3.3}}
\newlabel{art3}{{3.3}{31}{Artikel 3: Gebieden van technologie\relax }{section.3.3}{}}
\@writefile{toc}{\contentsline {subsection}{\numberline {3.3.1}Artikel 3}{31}{subsection.3.3.1}}
\newlabel{art30}{{3.3.1}{31}{Artikel 3\relax }{subsection.3.3.1}{}}
\@writefile{toc}{\contentsline {subsection}{\numberline {3.3.2}Artikel 3.bis []}{32}{subsection.3.3.2}}
\newlabel{art3a}{{3.3.2}{32}{Artikel 3.bis []\relax }{subsection.3.3.2}{}}
\@writefile{toc}{\contentsline {section}{\numberline {3.4}Artikel 4: Voorwaarden voor octrooieerbaarheid}{33}{section.3.4}}
\newlabel{art4}{{3.4}{33}{Artikel 4: Voorwaarden voor octrooieerbaarheid\relax }{section.3.4}{}}
\@writefile{toc}{\contentsline {subsection}{\numberline {3.4.1}Artikel 4(1)}{33}{subsection.3.4.1}}
\newlabel{art41}{{3.4.1}{33}{Artikel 4(1)\relax }{subsection.3.4.1}{}}
\@writefile{toc}{\contentsline {subsection}{\numberline {3.4.2}Artikel 4(2)}{34}{subsection.3.4.2}}
\newlabel{art42}{{3.4.2}{34}{Artikel 4(2)\relax }{subsection.3.4.2}{}}
\@writefile{toc}{\contentsline {subsection}{\numberline {3.4.3}Artikel 4(3)}{36}{subsection.3.4.3}}
\newlabel{art43}{{3.4.3}{36}{Artikel 4(3)\relax }{subsection.3.4.3}{}}
\@writefile{toc}{\contentsline {subsection}{\numberline {3.4.4}Artikel 4(3)a}{36}{subsection.3.4.4}}
\newlabel{art43a}{{3.4.4}{36}{Artikel 4(3)a\relax }{subsection.3.4.4}{}}
\@writefile{toc}{\contentsline {subsection}{\numberline {3.4.5}Artikel 4(a)bis []}{36}{subsection.3.4.5}}
\newlabel{art4abis}{{3.4.5}{36}{Artikel 4(a)bis []\relax }{subsection.3.4.5}{}}
\@writefile{toc}{\contentsline {section}{\numberline {3.5}Artikel 5: Draagwijdte van afdwingbaarheid}{37}{section.3.5}}
\newlabel{art5}{{3.5}{37}{Artikel 5: Draagwijdte van afdwingbaarheid\relax }{section.3.5}{}}
\@writefile{toc}{\contentsline {section}{\numberline {3.6}Artikel 6: Compatibiliteit}{40}{section.3.6}}
\newlabel{art6}{{3.6}{40}{Artikel 6: Compatibiliteit\relax }{section.3.6}{}}
\@writefile{toc}{\contentsline {section}{\numberline {3.7}Artikel 7: Monitoring}{42}{section.3.7}}
\newlabel{art7}{{3.7}{42}{Artikel 7: Monitoring\relax }{section.3.7}{}}
\@writefile{toc}{\contentsline {section}{\numberline {3.8}Artikel 8: Verslaggeving over de gevolgen van de richtlijn}{43}{section.3.8}}
\newlabel{art8}{{3.8}{43}{Artikel 8: Verslaggeving over de gevolgen van de richtlijn\relax }{section.3.8}{}}
\@writefile{toc}{\contentsline {section}{\numberline {3.9}Artikel 9: Omzetting}{45}{section.3.9}}
\newlabel{art9}{{3.9}{45}{Artikel 9: Omzetting\relax }{section.3.9}{}}
\@writefile{toc}{\contentsline {section}{\numberline {3.10}Artikel 10: Inwerkingtreding}{45}{section.3.10}}
\newlabel{art10}{{3.10}{45}{Artikel 10: Inwerkingtreding\relax }{section.3.10}{}}
\@writefile{toc}{\contentsline {section}{\numberline {3.11}Artikel 11: Adressaten}{45}{section.3.11}}
\newlabel{art11}{{3.11}{45}{Artikel 11: Adressaten\relax }{section.3.11}{}}
\@writefile{toc}{\contentsline {chapter}{\numberline {4}koppelingen met voetnoten}{46}{chapter.4}}
\@writefile{lof}{\addvspace {10\p@ }}
\@writefile{lot}{\addvspace {10\p@ }}
\newlabel{links}{{4}{46}{koppelingen met voetnoten\relax }{chapter.4}{}}
