\relax 
\ifx\hyper@anchor\@undefined
\global \let \oldcontentsline\contentsline
\gdef \contentsline#1#2#3#4{\oldcontentsline{#1}{#2}{#3}}
\global \let \oldnewlabel\newlabel
\gdef \newlabel#1#2{\newlabelxx{#1}#2}
\gdef \newlabelxx#1#2#3#4#5#6{\oldnewlabel{#1}{{#2}{#3}}}
\AtEndDocument{\let \contentsline\oldcontentsline
\let \newlabel\oldnewlabel}
\else
\global \let \hyper@last\relax 
\fi

\@writefile{toc}{\contentsline {chapter}{\numberline {1}Rationale}{5}{chapter.1}}
\@writefile{lof}{\addvspace {10\p@ }}
\@writefile{lot}{\addvspace {10\p@ }}
\newlabel{intro}{{1}{5}{Rationale\relax }{chapter.1}{}}
\@writefile{toc}{\contentsline {section}{\numberline {1.1}Why a directive?}{5}{section.1.1}}
\newlabel{kial}{{1.1}{5}{Why a directive?\relax }{section.1.1}{}}
\@writefile{toc}{\contentsline {subsection}{\numberline {1.1.1}Harmonising a unified system?}{5}{subsection.1.1.1}}
\newlabel{harmon}{{1.1.1}{5}{Harmonising a unified system?\relax }{subsection.1.1.1}{}}
\@writefile{toc}{\contentsline {subsection}{\numberline {1.1.2}Clarifying the Unspeakable?}{5}{subsection.1.1.2}}
\newlabel{klarif}{{1.1.2}{5}{Clarifying the Unspeakable?\relax }{subsection.1.1.2}{}}
\@writefile{toc}{\contentsline {subsection}{\numberline {1.1.3}The political deal between EU and EPO}{5}{subsection.1.1.3}}
\newlabel{euepo}{{1.1.3}{5}{The political deal between EU and EPO\relax }{subsection.1.1.3}{}}
\@writefile{toc}{\contentsline {subsection}{\numberline {1.1.4}Valid Reasons for a Directive}{6}{subsection.1.1.4}}
\newlabel{valid}{{1.1.4}{6}{Valid Reasons for a Directive\relax }{subsection.1.1.4}{}}
\@writefile{toc}{\contentsline {section}{\numberline {1.2}Core Layer: Fence in the Technical Invention, Reaffirm Art 52 EPC}{6}{section.1.2}}
\newlabel{trans}{{1.2}{6}{Core Layer: Fence in the Technical Invention, Reaffirm Art 52 EPC\relax }{section.1.2}{}}
\@writefile{toc}{\contentsline {subsection}{\numberline {1.2.1}Negative Definition of ``Technical Invention'' in Art 52 EPC}{6}{subsection.1.2.1}}
\newlabel{negadef}{{1.2.1}{6}{Negative Definition of ``Technical Invention'' in Art 52 EPC\relax }{subsection.1.2.1}{}}
\@writefile{toc}{\contentsline {subsection}{\numberline {1.2.2}Translating from EPC language to TRIPs language}{7}{subsection.1.2.2}}
\newlabel{trips}{{1.2.2}{7}{Translating from EPC language to TRIPs language\relax }{subsection.1.2.2}{}}
\@writefile{toc}{\contentsline {subsection}{\numberline {1.2.3}Translating from EPC language to the Meta-Language of Claim-Writing}{7}{subsection.1.2.3}}
\newlabel{patclm}{{1.2.3}{7}{Translating from EPC language to the Meta-Language of Claim-Writing\relax }{subsection.1.2.3}{}}
\@writefile{toc}{\contentsline {subsection}{\numberline {1.2.4}A well-fenced gray zone}{7}{subsection.1.2.4}}
\newlabel{fenced}{{1.2.4}{7}{A well-fenced gray zone\relax }{subsection.1.2.4}{}}
\@writefile{toc}{\contentsline {subsection}{\numberline {1.2.5}No such thing as a ``Computer-Implemented Invention''}{8}{subsection.1.2.5}}
\newlabel{kompinv}{{1.2.5}{8}{No such thing as a ``Computer-Implemented Invention''\relax }{subsection.1.2.5}{}}
\@writefile{toc}{\contentsline {section}{\numberline {1.3}Extension Layer: Some Clarifications on enforcability of patents in the context of information goods}{8}{section.1.3}}
\newlabel{periph}{{1.3}{8}{Extension Layer: Some Clarifications on enforcability of patents in the context of information goods\relax }{section.1.3}{}}
\@writefile{toc}{\contentsline {section}{\numberline {1.4}Completion Layer: Define the ``Technical Invention'', limit the scope of judiciary rule-setting}{9}{section.1.4}}
\newlabel{griz}{{1.4}{9}{Completion Layer: Define the ``Technical Invention'', limit the scope of judiciary rule-setting\relax }{section.1.4}{}}
\@writefile{toc}{\contentsline {subsection}{\numberline {1.4.1}Abstract Definition of Technical Invention}{9}{subsection.1.4.1}}
\newlabel{absdef}{{1.4.1}{9}{Abstract Definition of Technical Invention\relax }{subsection.1.4.1}{}}
\@writefile{toc}{\contentsline {subsubsection}{the invention which a claim discloses vs the scope of implementations which it forbids}{9}{section*.3}}
\newlabel{invimpl}{{11}{9}{the invention which a claim discloses vs the scope of implementations which it forbids\relax }{section*.3}{}}
\@writefile{toc}{\contentsline {subsubsection}{Mind vs Matter}{9}{section*.4}}
\newlabel{mensmat}{{11}{9}{Mind vs Matter\relax }{section*.4}{}}
\@writefile{toc}{\contentsline {subsection}{\numberline {1.4.2}Categorial exclusions}{9}{subsection.1.4.2}}
\newlabel{katexk}{{1.4.2}{9}{Categorial exclusions\relax }{subsection.1.4.2}{}}
\@writefile{toc}{\contentsline {subsection}{\numberline {1.4.3}Application Examples}{10}{subsection.1.4.3}}
\newlabel{appexem}{{1.4.3}{10}{Application Examples\relax }{subsection.1.4.3}{}}
\@writefile{toc}{\contentsline {chapter}{\numberline {2}Preamble}{11}{chapter.2}}
\@writefile{lof}{\addvspace {10\p@ }}
\@writefile{lot}{\addvspace {10\p@ }}
\newlabel{pream}{{2}{11}{Preamble\relax }{chapter.2}{}}
\@writefile{toc}{\contentsline {section}{\numberline {2.1}[Recital 1: Internal Market]}{11}{section.2.1}}
\newlabel{recit1}{{2.1}{11}{[Recital 1: Internal Market]\relax }{section.2.1}{}}
\@writefile{toc}{\contentsline {section}{\numberline {2.2}[Recital 2: Differences]}{12}{section.2.2}}
\newlabel{recit2}{{2.2}{12}{[Recital 2: Differences]\relax }{section.2.2}{}}
\@writefile{toc}{\contentsline {section}{\numberline {2.3}[Recital 3: No Convergence without Directive]}{12}{section.2.3}}
\newlabel{recit3}{{2.3}{12}{[Recital 3: No Convergence without Directive]\relax }{section.2.3}{}}
\@writefile{toc}{\contentsline {section}{\numberline {2.4}[Recital 4: Significance of Computer Programs Today]}{13}{section.2.4}}
\newlabel{recit4}{{2.4}{13}{[Recital 4: Significance of Computer Programs Today]\relax }{section.2.4}{}}
\@writefile{toc}{\contentsline {section}{\numberline {2.5}[Recital 5: Ergo Harmonisation \& Clarification]}{13}{section.2.5}}
\newlabel{recit5}{{2.5}{13}{[Recital 5: Ergo Harmonisation \& Clarification]\relax }{section.2.5}{}}
\@writefile{toc}{\contentsline {section}{\numberline {2.6}[Recital 6: TRIPs]}{14}{section.2.6}}
\newlabel{recit6}{{2.6}{14}{[Recital 6: TRIPs]\relax }{section.2.6}{}}
\@writefile{toc}{\contentsline {section}{\numberline {2.7}[Recital 7: EPC]}{15}{section.2.7}}
\newlabel{recit7}{{2.7}{15}{[Recital 7: EPC]\relax }{section.2.7}{}}
\@writefile{toc}{\contentsline {section}{\numberline {2.8}[Recital 8: Patents and Public Interest]}{17}{section.2.8}}
\newlabel{recit8}{{2.8}{17}{[Recital 8: Patents and Public Interest]\relax }{section.2.8}{}}
\@writefile{toc}{\contentsline {section}{\numberline {2.9}[Recital 9: Patents and Copyright]}{17}{section.2.9}}
\newlabel{recit9}{{2.9}{17}{[Recital 9: Patents and Copyright]\relax }{section.2.9}{}}
\@writefile{toc}{\contentsline {section}{\numberline {2.10}[Recital 10: Technical Character]}{18}{section.2.10}}
\newlabel{recit10}{{2.10}{18}{[Recital 10: Technical Character]\relax }{section.2.10}{}}
\@writefile{toc}{\contentsline {section}{\numberline {2.11}[Recital 11: Field of Technology]}{18}{section.2.11}}
\newlabel{recit11}{{2.11}{18}{[Recital 11: Field of Technology]\relax }{section.2.11}{}}
\@writefile{toc}{\contentsline {section}{\numberline {2.12}[Recital 12: Technical Contribution]}{18}{section.2.12}}
\newlabel{recit12}{{2.12}{18}{[Recital 12: Technical Contribution]\relax }{section.2.12}{}}
\@writefile{toc}{\contentsline {section}{\numberline {2.13}[Recital 13: Algorithms]}{19}{section.2.13}}
\newlabel{recit13}{{2.13}{19}{[Recital 13: Algorithms]\relax }{section.2.13}{}}
\@writefile{toc}{\contentsline {subsection}{\numberline {2.13.1}Recital 13}{19}{subsection.2.13.1}}
\newlabel{recit130}{{2.13.1}{19}{Recital 13\relax }{subsection.2.13.1}{}}
\@writefile{toc}{\contentsline {subsection}{\numberline {2.13.2}Recital 13(a)(bis) []}{20}{subsection.2.13.2}}
\newlabel{recit13a}{{2.13.2}{20}{Recital 13(a)(bis) []\relax }{subsection.2.13.2}{}}
\@writefile{toc}{\contentsline {section}{\numberline {2.14}[Recital 14: EU Law vs National Law]}{20}{section.2.14}}
\newlabel{recit14}{{2.14}{20}{[Recital 14: EU Law vs National Law]\relax }{section.2.14}{}}
\@writefile{toc}{\contentsline {section}{\numberline {2.15}[Recital 15: Scope of Regulation]}{20}{section.2.15}}
\newlabel{recit15}{{2.15}{20}{[Recital 15: Scope of Regulation]\relax }{section.2.15}{}}
\@writefile{toc}{\contentsline {section}{\numberline {2.16}[Recital 16: Competitivity]}{21}{section.2.16}}
\newlabel{recit16}{{2.16}{21}{[Recital 16: Competitivity]\relax }{section.2.16}{}}
\@writefile{toc}{\contentsline {subsection}{\numberline {2.16.1}Recital 16}{21}{subsection.2.16.1}}
\newlabel{recit160}{{2.16.1}{21}{Recital 16\relax }{subsection.2.16.1}{}}
\@writefile{toc}{\contentsline {subsection}{\numberline {2.16.2}Recital 16a []}{21}{subsection.2.16.2}}
\newlabel{recit16a}{{2.16.2}{21}{Recital 16a []\relax }{subsection.2.16.2}{}}
\@writefile{toc}{\contentsline {section}{\numberline {2.17}[Recital 17: Competition Rules]}{22}{section.2.17}}
\newlabel{recit17}{{2.17}{22}{[Recital 17: Competition Rules]\relax }{section.2.17}{}}
\@writefile{toc}{\contentsline {section}{\numberline {2.18}[Recital 18: Interoperability]}{22}{section.2.18}}
\newlabel{recit18}{{2.18}{22}{[Recital 18: Interoperability]\relax }{section.2.18}{}}
\@writefile{toc}{\contentsline {section}{\numberline {2.19}[Recital 19: Subsidiarity]}{23}{section.2.19}}
\newlabel{recit19}{{2.19}{23}{[Recital 19: Subsidiarity]\relax }{section.2.19}{}}
\@writefile{toc}{\contentsline {chapter}{\numberline {3}The Articles}{24}{chapter.3}}
\@writefile{lof}{\addvspace {10\p@ }}
\@writefile{lot}{\addvspace {10\p@ }}
\newlabel{arts}{{3}{24}{The Articles\relax }{chapter.3}{}}
\@writefile{toc}{\contentsline {section}{\numberline {3.1}Article 1: Scope}{24}{section.3.1}}
\newlabel{art1}{{3.1}{24}{Article 1: Scope\relax }{section.3.1}{}}
\@writefile{toc}{\contentsline {section}{\numberline {3.2}Article 2: Definitions}{24}{section.3.2}}
\newlabel{art2}{{3.2}{24}{Article 2: Definitions\relax }{section.3.2}{}}
\@writefile{toc}{\contentsline {subsection}{\numberline {3.2.1}Computer-Implemented Invention}{24}{subsection.3.2.1}}
\newlabel{cii}{{3.2.1}{24}{Computer-Implemented Invention\relax }{subsection.3.2.1}{}}
\@writefile{toc}{\contentsline {subsection}{\numberline {3.2.2}Technology, Invention, Non-Inventions}{25}{subsection.3.2.2}}
\newlabel{tech}{{3.2.2}{25}{Technology, Invention, Non-Inventions\relax }{subsection.3.2.2}{}}
\@writefile{toc}{\contentsline {section}{\numberline {3.3}Article 3: Fields of Technology}{28}{section.3.3}}
\newlabel{art3}{{3.3}{28}{Article 3: Fields of Technology\relax }{section.3.3}{}}
\@writefile{toc}{\contentsline {subsection}{\numberline {3.3.1}Article 3}{28}{subsection.3.3.1}}
\newlabel{art30}{{3.3.1}{28}{Article 3\relax }{subsection.3.3.1}{}}
\@writefile{toc}{\contentsline {subsection}{\numberline {3.3.2}Article 3.bis []}{29}{subsection.3.3.2}}
\newlabel{art3a}{{3.3.2}{29}{Article 3.bis []\relax }{subsection.3.3.2}{}}
\@writefile{toc}{\contentsline {section}{\numberline {3.4}Article 4: Conditions for patentability}{30}{section.3.4}}
\newlabel{art4}{{3.4}{30}{Article 4: Conditions for patentability\relax }{section.3.4}{}}
\@writefile{toc}{\contentsline {subsection}{\numberline {3.4.1}Article 4(1)}{30}{subsection.3.4.1}}
\newlabel{art41}{{3.4.1}{30}{Article 4(1)\relax }{subsection.3.4.1}{}}
\@writefile{toc}{\contentsline {subsection}{\numberline {3.4.2}Article 4(2)}{31}{subsection.3.4.2}}
\newlabel{art42}{{3.4.2}{31}{Article 4(2)\relax }{subsection.3.4.2}{}}
\@writefile{toc}{\contentsline {subsection}{\numberline {3.4.3}Article 4(3)}{33}{subsection.3.4.3}}
\newlabel{art43}{{3.4.3}{33}{Article 4(3)\relax }{subsection.3.4.3}{}}
\@writefile{toc}{\contentsline {subsection}{\numberline {3.4.4}Article 4(3)a}{33}{subsection.3.4.4}}
\newlabel{art43a}{{3.4.4}{33}{Article 4(3)a\relax }{subsection.3.4.4}{}}
\@writefile{toc}{\contentsline {subsection}{\numberline {3.4.5}Article 4(a)bis []}{33}{subsection.3.4.5}}
\newlabel{art4abis}{{3.4.5}{33}{Article 4(a)bis []\relax }{subsection.3.4.5}{}}
\@writefile{toc}{\contentsline {section}{\numberline {3.5}Article 5: Claims and Rights}{34}{section.3.5}}
\newlabel{art5}{{3.5}{34}{Article 5: Claims and Rights\relax }{section.3.5}{}}
\@writefile{toc}{\contentsline {section}{\numberline {3.6}Article 6: Interoperability}{37}{section.3.6}}
\newlabel{art6}{{3.6}{37}{Article 6: Interoperability\relax }{section.3.6}{}}
\@writefile{toc}{\contentsline {section}{\numberline {3.7}Article 7: Monitoring}{38}{section.3.7}}
\newlabel{art7}{{3.7}{38}{Article 7: Monitoring\relax }{section.3.7}{}}
\@writefile{toc}{\contentsline {section}{\numberline {3.8}Article 8: Reporting on the effects of the Directive}{39}{section.3.8}}
\newlabel{art8}{{3.8}{39}{Article 8: Reporting on the effects of the Directive\relax }{section.3.8}{}}
\@writefile{toc}{\contentsline {section}{\numberline {3.9}Article 9: Implementation}{42}{section.3.9}}
\newlabel{art9}{{3.9}{42}{Article 9: Implementation\relax }{section.3.9}{}}
\@writefile{toc}{\contentsline {section}{\numberline {3.10}Article 10: Entry into force}{42}{section.3.10}}
\newlabel{art10}{{3.10}{42}{Article 10: Entry into force\relax }{section.3.10}{}}
\@writefile{toc}{\contentsline {section}{\numberline {3.11}Article 11: Addressees}{42}{section.3.11}}
\newlabel{art11}{{3.11}{42}{Article 11: Addressees\relax }{section.3.11}{}}
\@writefile{toc}{\contentsline {chapter}{\numberline {4}Annotated Links}{43}{chapter.4}}
\@writefile{lof}{\addvspace {10\p@ }}
\@writefile{lot}{\addvspace {10\p@ }}
\newlabel{links}{{4}{43}{Annotated Links\relax }{chapter.4}{}}
