\relax 
\ifx\hyper@anchor\@undefined
\global \let \oldcontentsline\contentsline
\gdef \contentsline#1#2#3#4{\oldcontentsline{#1}{#2}{#3}}
\global \let \oldnewlabel\newlabel
\gdef \newlabel#1#2{\newlabelxx{#1}#2}
\gdef \newlabelxx#1#2#3#4#5#6{\oldnewlabel{#1}{{#2}{#3}}}
\AtEndDocument{\let \contentsline\oldcontentsline
\let \newlabel\oldnewlabel}
\else
\global \let \hyper@last\relax 
\fi

\@writefile{toc}{\contentsline {chapter}{\numberline {1}Zugrundeliegende Erw\"{a}gungen}{5}{chapter.1}}
\@writefile{lof}{\addvspace {10\p@ }}
\@writefile{lot}{\addvspace {10\p@ }}
\newlabel{intro}{{1}{5}{Zugrundeliegende Erw\"{a}gungen\relax }{chapter.1}{}}
\@writefile{toc}{\contentsline {section}{\numberline {1.1}Wozu eine Richtlinie?}{5}{section.1.1}}
\newlabel{kial}{{1.1}{5}{Wozu eine Richtlinie?\relax }{section.1.1}{}}
\@writefile{toc}{\contentsline {subsection}{\numberline {1.1.1}Ein einheitliches System harmonisieren?}{5}{subsection.1.1.1}}
\newlabel{harmon}{{1.1.1}{5}{Ein einheitliches System harmonisieren?\relax }{subsection.1.1.1}{}}
\@writefile{toc}{\contentsline {subsection}{\numberline {1.1.2}Das Unaussprechliche Kl\"{a}ren?}{5}{subsection.1.1.2}}
\newlabel{klarif}{{1.1.2}{5}{Das Unaussprechliche Kl\"{a}ren?\relax }{subsection.1.1.2}{}}
\@writefile{toc}{\contentsline {subsection}{\numberline {1.1.3}Der Kuhhandel zwischen EU und EPA}{5}{subsection.1.1.3}}
\newlabel{euepo}{{1.1.3}{5}{Der Kuhhandel zwischen EU und EPA\relax }{subsection.1.1.3}{}}
\@writefile{toc}{\contentsline {subsection}{\numberline {1.1.4}G\"{u}ltige Gr\"{u}nde f\"{u}r eine Richtlinie}{6}{subsection.1.1.4}}
\newlabel{valid}{{1.1.4}{6}{G\"{u}ltige Gr\"{u}nde f\"{u}r eine Richtlinie\relax }{subsection.1.1.4}{}}
\@writefile{toc}{\contentsline {section}{\numberline {1.2}Kernschicht: die Technische Erfindung einz\"{a}unen, Art 52 EP\"{U} Bekr\"{a}ftigen}{6}{section.1.2}}
\newlabel{trans}{{1.2}{6}{Kernschicht: die Technische Erfindung einz\"{a}unen, Art 52 EP\"{U} Bekr\"{a}ftigen\relax }{section.1.2}{}}
\@writefile{toc}{\contentsline {subsection}{\numberline {1.2.1}Negative Definition of ``Technical Invention'' in Art 52 EPC}{6}{subsection.1.2.1}}
\newlabel{negadef}{{1.2.1}{6}{Negative Definition of ``Technical Invention'' in Art 52 EPC\relax }{subsection.1.2.1}{}}
\@writefile{toc}{\contentsline {subsection}{\numberline {1.2.2}\"{U}bersetzung von der Sprache des EP\"{U} in die Sprache des TRIPs-Vertrages}{7}{subsection.1.2.2}}
\newlabel{trips}{{1.2.2}{7}{\"{U}bersetzung von der Sprache des EP\"{U} in die Sprache des TRIPs-Vertrages\relax }{subsection.1.2.2}{}}
\@writefile{toc}{\contentsline {subsection}{\numberline {1.2.3}\"{U}bersetzung von EP\"{U}-Sprache zur Meta-Sprache der Anspruchsformulierung}{7}{subsection.1.2.3}}
\newlabel{patclm}{{1.2.3}{7}{\"{U}bersetzung von EP\"{U}-Sprache zur Meta-Sprache der Anspruchsformulierung\relax }{subsection.1.2.3}{}}
\@writefile{toc}{\contentsline {subsection}{\numberline {1.2.4}Eine gut umz\"{a}unte Grauzone}{7}{subsection.1.2.4}}
\newlabel{fenced}{{1.2.4}{7}{Eine gut umz\"{a}unte Grauzone\relax }{subsection.1.2.4}{}}
\@writefile{toc}{\contentsline {subsection}{\numberline {1.2.5}``Computer-implementierten Erfindungen'' kann es nicht geben}{8}{subsection.1.2.5}}
\newlabel{kompinv}{{1.2.5}{8}{``Computer-implementierten Erfindungen'' kann es nicht geben\relax }{subsection.1.2.5}{}}
\@writefile{toc}{\contentsline {section}{\numberline {1.3}Erweiterungsschicht: einige Kl\"{a}rungen \"{u}ber die Anwendbarkeit von Patenten im Hinblick auf Informationsg\"{u}ter}{8}{section.1.3}}
\newlabel{periph}{{1.3}{8}{Erweiterungsschicht: einige Kl\"{a}rungen \"{u}ber die Anwendbarkeit von Patenten im Hinblick auf Informationsg\"{u}ter\relax }{section.1.3}{}}
\@writefile{toc}{\contentsline {section}{\numberline {1.4}Vollendungsschicht: die ``Technische Erfindung'' positiv definieren, den Bereich des Richterrechts eingrenzen}{9}{section.1.4}}
\newlabel{griz}{{1.4}{9}{Vollendungsschicht: die ``Technische Erfindung'' positiv definieren, den Bereich des Richterrechts eingrenzen\relax }{section.1.4}{}}
\@writefile{toc}{\contentsline {subsection}{\numberline {1.4.1}Abstrakte Definition der ``Technischen Erfindung''}{9}{subsection.1.4.1}}
\newlabel{absdef}{{1.4.1}{9}{Abstrakte Definition der ``Technischen Erfindung''\relax }{subsection.1.4.1}{}}
\@writefile{toc}{\contentsline {subsubsection}{the invention which a claim discloses vs the scope of implementations which it forbids}{9}{section*.3}}
\newlabel{invimpl}{{11}{9}{the invention which a claim discloses vs the scope of implementations which it forbids\relax }{section*.3}{}}
\@writefile{toc}{\contentsline {subsubsection}{Mind vs Matter}{9}{section*.4}}
\newlabel{mensmat}{{11}{9}{Mind vs Matter\relax }{section*.4}{}}
\@writefile{toc}{\contentsline {subsection}{\numberline {1.4.2}Kategorielle Ausschl\"{u}sse}{9}{subsection.1.4.2}}
\newlabel{katexk}{{1.4.2}{9}{Kategorielle Ausschl\"{u}sse\relax }{subsection.1.4.2}{}}
\@writefile{toc}{\contentsline {subsection}{\numberline {1.4.3}Anwendungsbeispiele}{10}{subsection.1.4.3}}
\newlabel{appexem}{{1.4.3}{10}{Anwendungsbeispiele\relax }{subsection.1.4.3}{}}
\@writefile{toc}{\contentsline {chapter}{\numberline {2}Pr\"{a}ambel}{11}{chapter.2}}
\@writefile{lof}{\addvspace {10\p@ }}
\@writefile{lot}{\addvspace {10\p@ }}
\newlabel{pream}{{2}{11}{Pr\"{a}ambel\relax }{chapter.2}{}}
\@writefile{toc}{\contentsline {section}{\numberline {2.1}[Erw\"{a}gung 1: Internal Market]}{11}{section.2.1}}
\newlabel{recit1}{{2.1}{11}{[Erw\"{a}gung 1: Internal Market]\relax }{section.2.1}{}}
\@writefile{toc}{\contentsline {section}{\numberline {2.2}[Erw\"{a}gung 2: Unterschiede.]}{12}{section.2.2}}
\newlabel{recit2}{{2.2}{12}{[Erw\"{a}gung 2: Unterschiede.]\relax }{section.2.2}{}}
\@writefile{toc}{\contentsline {section}{\numberline {2.3}[Erw\"{a}gung 3: Keine Konvergenz ohne Richtlinie]}{13}{section.2.3}}
\newlabel{recit3}{{2.3}{13}{[Erw\"{a}gung 3: Keine Konvergenz ohne Richtlinie]\relax }{section.2.3}{}}
\@writefile{toc}{\contentsline {section}{\numberline {2.4}[Erw\"{a}gung 4: Heutige Bedeutung der Automatischen Datenverarbeitung]}{13}{section.2.4}}
\newlabel{recit4}{{2.4}{13}{[Erw\"{a}gung 4: Heutige Bedeutung der Automatischen Datenverarbeitung]\relax }{section.2.4}{}}
\@writefile{toc}{\contentsline {section}{\numberline {2.5}[Erw\"{a}gung 5: Ergo Harmonisierung und Kl\"{a}rung]}{14}{section.2.5}}
\newlabel{recit5}{{2.5}{14}{[Erw\"{a}gung 5: Ergo Harmonisierung und Kl\"{a}rung]\relax }{section.2.5}{}}
\@writefile{toc}{\contentsline {section}{\numberline {2.6}[Erw\"{a}gung 6: TRIPs]}{14}{section.2.6}}
\newlabel{recit6}{{2.6}{14}{[Erw\"{a}gung 6: TRIPs]\relax }{section.2.6}{}}
\@writefile{toc}{\contentsline {section}{\numberline {2.7}[Erw\"{a}gung 7: EP\"{U}]}{16}{section.2.7}}
\newlabel{recit7}{{2.7}{16}{[Erw\"{a}gung 7: EP\"{U}]\relax }{section.2.7}{}}
\@writefile{toc}{\contentsline {section}{\numberline {2.8}[Erw\"{a}gung 8: Patente und \"{O}ffentliches Interesse]}{17}{section.2.8}}
\newlabel{recit8}{{2.8}{17}{[Erw\"{a}gung 8: Patente und \"{O}ffentliches Interesse]\relax }{section.2.8}{}}
\@writefile{toc}{\contentsline {section}{\numberline {2.9}[Erw\"{a}gung 9: Patente und Urheberrecht]}{17}{section.2.9}}
\newlabel{recit9}{{2.9}{17}{[Erw\"{a}gung 9: Patente und Urheberrecht]\relax }{section.2.9}{}}
\@writefile{toc}{\contentsline {section}{\numberline {2.10}[Erw\"{a}gung 10: Technischer Character (Technizit\"{a}t)]}{18}{section.2.10}}
\newlabel{recit10}{{2.10}{18}{[Erw\"{a}gung 10: Technischer Character (Technizit\"{a}t)]\relax }{section.2.10}{}}
\@writefile{toc}{\contentsline {section}{\numberline {2.11}[Erw\"{a}gung 11: Gebiet der Technik]}{18}{section.2.11}}
\newlabel{recit11}{{2.11}{18}{[Erw\"{a}gung 11: Gebiet der Technik]\relax }{section.2.11}{}}
\@writefile{toc}{\contentsline {section}{\numberline {2.12}[Erw\"{a}gung 12: Technischer Beitrag]}{19}{section.2.12}}
\newlabel{recit12}{{2.12}{19}{[Erw\"{a}gung 12: Technischer Beitrag]\relax }{section.2.12}{}}
\@writefile{toc}{\contentsline {section}{\numberline {2.13}[Erw\"{a}gung 13: Algorithmen]}{19}{section.2.13}}
\newlabel{recit13}{{2.13}{19}{[Erw\"{a}gung 13: Algorithmen]\relax }{section.2.13}{}}
\@writefile{toc}{\contentsline {subsection}{\numberline {2.13.1}Erw\"{a}gung 13}{19}{subsection.2.13.1}}
\newlabel{recit130}{{2.13.1}{19}{Erw\"{a}gung 13\relax }{subsection.2.13.1}{}}
\@writefile{toc}{\contentsline {subsection}{\numberline {2.13.2}Erw\"{a}gung 13(a)(bis) []}{20}{subsection.2.13.2}}
\newlabel{recit13a}{{2.13.2}{20}{Erw\"{a}gung 13(a)(bis) []\relax }{subsection.2.13.2}{}}
\@writefile{toc}{\contentsline {section}{\numberline {2.14}[Erw\"{a}gung 14: Europ\"{a}isches und Nationales Recht]}{21}{section.2.14}}
\newlabel{recit14}{{2.14}{21}{[Erw\"{a}gung 14: Europ\"{a}isches und Nationales Recht]\relax }{section.2.14}{}}
\@writefile{toc}{\contentsline {section}{\numberline {2.15}[Erw\"{a}gung 15: Umfang der Regelung]}{21}{section.2.15}}
\newlabel{recit15}{{2.15}{21}{[Erw\"{a}gung 15: Umfang der Regelung]\relax }{section.2.15}{}}
\@writefile{toc}{\contentsline {section}{\numberline {2.16}[Erw\"{a}gung 16: Wettbewerbsf\"{a}higkeit]}{22}{section.2.16}}
\newlabel{recit16}{{2.16}{22}{[Erw\"{a}gung 16: Wettbewerbsf\"{a}higkeit]\relax }{section.2.16}{}}
\@writefile{toc}{\contentsline {subsection}{\numberline {2.16.1}Erw\"{a}gung 16}{22}{subsection.2.16.1}}
\newlabel{recit160}{{2.16.1}{22}{Erw\"{a}gung 16\relax }{subsection.2.16.1}{}}
\@writefile{toc}{\contentsline {subsection}{\numberline {2.16.2}Erw\"{a}gung 16a []}{22}{subsection.2.16.2}}
\newlabel{recit16a}{{2.16.2}{22}{Erw\"{a}gung 16a []\relax }{subsection.2.16.2}{}}
\@writefile{toc}{\contentsline {section}{\numberline {2.17}[Erw\"{a}gung 17: Wettbewerbsregeln]}{23}{section.2.17}}
\newlabel{recit17}{{2.17}{23}{[Erw\"{a}gung 17: Wettbewerbsregeln]\relax }{section.2.17}{}}
\@writefile{toc}{\contentsline {section}{\numberline {2.18}[Erw\"{a}gung 18: Interoperabilit\"{a}t]}{23}{section.2.18}}
\newlabel{recit18}{{2.18}{23}{[Erw\"{a}gung 18: Interoperabilit\"{a}t]\relax }{section.2.18}{}}
\@writefile{toc}{\contentsline {section}{\numberline {2.19}[Erw\"{a}gung 19: Subsidiarit\"{a}t]}{24}{section.2.19}}
\newlabel{recit19}{{2.19}{24}{[Erw\"{a}gung 19: Subsidiarit\"{a}t]\relax }{section.2.19}{}}
\@writefile{toc}{\contentsline {chapter}{\numberline {3}Die Artikel}{25}{chapter.3}}
\@writefile{lof}{\addvspace {10\p@ }}
\@writefile{lot}{\addvspace {10\p@ }}
\newlabel{arts}{{3}{25}{Die Artikel\relax }{chapter.3}{}}
\@writefile{toc}{\contentsline {section}{\numberline {3.1}Artikel 1: Anwendungsbereich}{25}{section.3.1}}
\newlabel{art1}{{3.1}{25}{Artikel 1: Anwendungsbereich\relax }{section.3.1}{}}
\@writefile{toc}{\contentsline {section}{\numberline {3.2}Artikel 2: Begriffsbestimmungen}{25}{section.3.2}}
\newlabel{art2}{{3.2}{25}{Artikel 2: Begriffsbestimmungen\relax }{section.3.2}{}}
\@writefile{toc}{\contentsline {subsection}{\numberline {3.2.1}Computer-Implementierte Erfindung}{25}{subsection.3.2.1}}
\newlabel{cii}{{3.2.1}{25}{Computer-Implementierte Erfindung\relax }{subsection.3.2.1}{}}
\@writefile{toc}{\contentsline {subsection}{\numberline {3.2.2}Technik, Erfindung, Nicht-Erfindungen}{26}{subsection.3.2.2}}
\newlabel{tech}{{3.2.2}{26}{Technik, Erfindung, Nicht-Erfindungen\relax }{subsection.3.2.2}{}}
\@writefile{toc}{\contentsline {section}{\numberline {3.3}Artikel 3: Gebiete der Technik}{30}{section.3.3}}
\newlabel{art3}{{3.3}{30}{Artikel 3: Gebiete der Technik\relax }{section.3.3}{}}
\@writefile{toc}{\contentsline {subsection}{\numberline {3.3.1}Artikel 3}{30}{subsection.3.3.1}}
\newlabel{art30}{{3.3.1}{30}{Artikel 3\relax }{subsection.3.3.1}{}}
\@writefile{toc}{\contentsline {subsection}{\numberline {3.3.2}Artikel 3.bis []}{31}{subsection.3.3.2}}
\newlabel{art3a}{{3.3.2}{31}{Artikel 3.bis []\relax }{subsection.3.3.2}{}}
\@writefile{toc}{\contentsline {section}{\numberline {3.4}Artikel 4: Voraussetzungen der Patentierbarkeit}{32}{section.3.4}}
\newlabel{art4}{{3.4}{32}{Artikel 4: Voraussetzungen der Patentierbarkeit\relax }{section.3.4}{}}
\@writefile{toc}{\contentsline {subsection}{\numberline {3.4.1}Artikel 4(1)}{32}{subsection.3.4.1}}
\newlabel{art41}{{3.4.1}{32}{Artikel 4(1)\relax }{subsection.3.4.1}{}}
\@writefile{toc}{\contentsline {subsection}{\numberline {3.4.2}Artikel 4(2)}{32}{subsection.3.4.2}}
\newlabel{art42}{{3.4.2}{32}{Artikel 4(2)\relax }{subsection.3.4.2}{}}
\@writefile{toc}{\contentsline {subsection}{\numberline {3.4.3}Artikel 4(3)}{34}{subsection.3.4.3}}
\newlabel{art43}{{3.4.3}{34}{Artikel 4(3)\relax }{subsection.3.4.3}{}}
\@writefile{toc}{\contentsline {subsection}{\numberline {3.4.4}Artikel 4(3)a}{34}{subsection.3.4.4}}
\newlabel{art43a}{{3.4.4}{34}{Artikel 4(3)a\relax }{subsection.3.4.4}{}}
\@writefile{toc}{\contentsline {subsection}{\numberline {3.4.5}Artikel 4(a)bis []}{34}{subsection.3.4.5}}
\newlabel{art4abis}{{3.4.5}{34}{Artikel 4(a)bis []\relax }{subsection.3.4.5}{}}
\@writefile{toc}{\contentsline {section}{\numberline {3.5}Artikel 5: Anspr\"{u}che und Rechte}{35}{section.3.5}}
\newlabel{art5}{{3.5}{35}{Artikel 5: Anspr\"{u}che und Rechte\relax }{section.3.5}{}}
\@writefile{toc}{\contentsline {section}{\numberline {3.6}Artikel 6: Interoperability}{39}{section.3.6}}
\newlabel{art6}{{3.6}{39}{Artikel 6: Interoperability\relax }{section.3.6}{}}
\@writefile{toc}{\contentsline {section}{\numberline {3.7}Artikel 7: Beobachtung}{40}{section.3.7}}
\newlabel{art7}{{3.7}{40}{Artikel 7: Beobachtung\relax }{section.3.7}{}}
\@writefile{toc}{\contentsline {section}{\numberline {3.8}Artikel 8: Berichte \"{u}ber die Auswirkungen der Richtlinie}{41}{section.3.8}}
\newlabel{art8}{{3.8}{41}{Artikel 8: Berichte \"{u}ber die Auswirkungen der Richtlinie\relax }{section.3.8}{}}
\@writefile{toc}{\contentsline {section}{\numberline {3.9}Artikel 9: Umsetzung}{44}{section.3.9}}
\newlabel{art9}{{3.9}{44}{Artikel 9: Umsetzung\relax }{section.3.9}{}}
\@writefile{toc}{\contentsline {section}{\numberline {3.10}Artikel 10: Inkrafttreten}{44}{section.3.10}}
\newlabel{art10}{{3.10}{44}{Artikel 10: Inkrafttreten\relax }{section.3.10}{}}
\@writefile{toc}{\contentsline {section}{\numberline {3.11}Artikel 11: Adressaten}{44}{section.3.11}}
\newlabel{art11}{{3.11}{44}{Artikel 11: Adressaten\relax }{section.3.11}{}}
\@writefile{toc}{\contentsline {chapter}{\numberline {4}Kommentierte Verweise}{45}{chapter.4}}
\@writefile{lof}{\addvspace {10\p@ }}
\@writefile{lot}{\addvspace {10\p@ }}
\newlabel{links}{{4}{45}{Kommentierte Verweise\relax }{chapter.4}{}}
