\relax 
\ifx\hyper@anchor\@undefined
\global \let \oldcontentsline\contentsline
\gdef \contentsline#1#2#3#4{\oldcontentsline{#1}{#2}{#3}}
\global \let \oldnewlabel\newlabel
\gdef \newlabel#1#2{\newlabelxx{#1}#2}
\gdef \newlabelxx#1#2#3#4#5#6{\oldnewlabel{#1}{{#2}{#3}}}
\AtEndDocument{\let \contentsline\oldcontentsline
\let \newlabel\oldnewlabel}
\else
\global \let \hyper@last\relax 
\fi

\csname auxWARNINGii\endcsname {\typeout {-34- this file and other auxiliary files require to use the following}}
\csname auxWARNINGii\endcsname {\typeout {-34- LaTeX packages: french and babel!}}
\csname auxWARNINGii\endcsname {\typeout {-34- check \protect \usepackage \space or remove these files. Typesetting is aborted!} \stop }
\select@language{french}
\@writefile{toc}{\select@language{french}}
\@writefile{lof}{\select@language{french}}
\@writefile{lot}{\select@language{french}}
\select@language{french}
\@writefile{toc}{\select@language{french}}
\@writefile{lof}{\select@language{french}}
\@writefile{lot}{\select@language{french}}
\@writefile{toc}{\contentsline {chapter}{\numberline {1}Consid\'{e}rations Soujacentes}{4}{chapter.1}}
\@writefile{lof}{\addvspace {10\p@ }}
\@writefile{lot}{\addvspace {10\p@ }}
\newlabel{intro}{{1}{4}{Consid\'{e}rations Soujacentes\relax }{chapter.1}{}}
\@writefile{toc}{\contentsline {section}{\numberline {1.1}Pour quoi une Directive\@PI }{4}{section.1.1}}
\newlabel{kial}{{1.1}{4}{Pour quoi une Directive?\relax }{section.1.1}{}}
\@writefile{toc}{\contentsline {subsection}{\numberline {1.1.1}Harmoniser un Syst\`{e}me Unifi\'{e}\@PI }{4}{subsection.1.1.1}}
\newlabel{harmon}{{1.1.1}{4}{Harmoniser un Syst\`{e}me Unifi\'{e}?\relax }{subsection.1.1.1}{}}
\@writefile{toc}{\contentsline {subsection}{\numberline {1.1.2}Clarifier l'Inpronon\c {c}able\@PI }{4}{subsection.1.1.2}}
\newlabel{klarif}{{1.1.2}{4}{Clarifier l'Inpronon\c {c}able?\relax }{subsection.1.1.2}{}}
\@writefile{toc}{\contentsline {subsection}{\numberline {1.1.3}L'\'{e}change politique entre UE et OEB}{4}{subsection.1.1.3}}
\newlabel{euepo}{{1.1.3}{4}{L'\'{e}change politique entre UE et OEB\relax }{subsection.1.1.3}{}}
\@writefile{toc}{\contentsline {subsection}{\numberline {1.1.4}Raisons Valides pour une Directive}{5}{subsection.1.1.4}}
\newlabel{valid}{{1.1.4}{5}{Raisons Valides pour une Directive\relax }{subsection.1.1.4}{}}
\@writefile{toc}{\contentsline {section}{\numberline {1.2}Couche nucl\'{e}aire\@DP  Encadrer l'Invention Technique, R\'{e}affirmer l'Article 52 CBE}{5}{section.1.2}}
\newlabel{trans}{{1.2}{5}{Couche nucl\'{e}aire: Encadrer l'Invention Technique, R\'{e}affirmer l'Article 52 CBE\relax }{section.1.2}{}}
\@writefile{toc}{\contentsline {subsection}{\numberline {1.2.1}Negative Definition of ``Technical Invention'' in Art 52 EPC}{5}{subsection.1.2.1}}
\newlabel{negadef}{{1.2.1}{5}{Negative Definition of ``Technical Invention'' in Art 52 EPC\relax }{subsection.1.2.1}{}}
\@writefile{toc}{\contentsline {subsection}{\numberline {1.2.2}Translating from EPC language to TRIPs language}{6}{subsection.1.2.2}}
\newlabel{trips}{{1.2.2}{6}{Translating from EPC language to TRIPs language\relax }{subsection.1.2.2}{}}
\@writefile{toc}{\contentsline {subsection}{\numberline {1.2.3}Translating from EPC language to the Meta-Language of Claim-Writing}{6}{subsection.1.2.3}}
\newlabel{patclm}{{1.2.3}{6}{Translating from EPC language to the Meta-Language of Claim-Writing\relax }{subsection.1.2.3}{}}
\@writefile{toc}{\contentsline {subsection}{\numberline {1.2.4}A well-fenced gray zone}{6}{subsection.1.2.4}}
\newlabel{fenced}{{1.2.4}{6}{A well-fenced gray zone\relax }{subsection.1.2.4}{}}
\@writefile{toc}{\contentsline {subsection}{\numberline {1.2.5}Il ne peut pas y avoir des ``inventions mises en oevre par ordinateur''}{7}{subsection.1.2.5}}
\newlabel{kompinv}{{1.2.5}{7}{Il ne peut pas y avoir des ``inventions mises en oevre par ordinateur''\relax }{subsection.1.2.5}{}}
\@writefile{toc}{\contentsline {section}{\numberline {1.3}Couche d'Extensions\@DP  Quelques Clarifications sur l'Assurabilit\'{e} des Brevets dans le contexte des biens informationels}{7}{section.1.3}}
\newlabel{periph}{{1.3}{7}{Couche d'Extensions: Quelques Clarifications sur l'Assurabilit\'{e} des Brevets dans le contexte des biens informationels\relax }{section.1.3}{}}
\@writefile{toc}{\contentsline {section}{\numberline {1.4}Couche de Compl\'{e}tion\@DP  Positivement D\'{e}finir l'``Invention Technique'', limiter la gamme du ``droit des juges''}{7}{section.1.4}}
\newlabel{griz}{{1.4}{7}{Couche de Compl\'{e}tion: Positivement D\'{e}finir l'``Invention Technique'', limiter la gamme du ``droit des juges''\relax }{section.1.4}{}}
\@writefile{toc}{\contentsline {subsection}{\numberline {1.4.1}Abstract Definition of Technical Invention}{8}{subsection.1.4.1}}
\newlabel{absdef}{{1.4.1}{8}{Abstract Definition of Technical Invention\relax }{subsection.1.4.1}{}}
\@writefile{toc}{\contentsline {subsubsection}{the invention which a claim discloses vs the scope of implementations which it forbids}{8}{section*.3}}
\newlabel{invimpl}{{11}{8}{the invention which a claim discloses vs the scope of implementations which it forbids\relax }{section*.3}{}}
\@writefile{toc}{\contentsline {subsubsection}{Mind vs Matter}{8}{section*.4}}
\newlabel{mensmat}{{11}{8}{Mind vs Matter\relax }{section*.4}{}}
\@writefile{toc}{\contentsline {subsection}{\numberline {1.4.2}Categorial exclusions}{8}{subsection.1.4.2}}
\newlabel{katexk}{{1.4.2}{8}{Categorial exclusions\relax }{subsection.1.4.2}{}}
\@writefile{toc}{\contentsline {subsection}{\numberline {1.4.3}Application Examples}{8}{subsection.1.4.3}}
\newlabel{appexem}{{1.4.3}{8}{Application Examples\relax }{subsection.1.4.3}{}}
\@writefile{toc}{\contentsline {chapter}{\numberline {2}Pr\'{e}ambule}{10}{chapter.2}}
\@writefile{lof}{\addvspace {10\p@ }}
\@writefile{lot}{\addvspace {10\p@ }}
\newlabel{pream}{{2}{10}{Pr\'{e}ambule\relax }{chapter.2}{}}
\@writefile{toc}{\contentsline {section}{\numberline {2.1}[Recital 1\@DP  Internal Market]}{10}{section.2.1}}
\newlabel{recit1}{{2.1}{10}{[Recital 1: Internal Market]\relax }{section.2.1}{}}
\@writefile{toc}{\contentsline {section}{\numberline {2.2}[Recital 2\@DP  Differences]}{11}{section.2.2}}
\newlabel{recit2}{{2.2}{11}{[Recital 2: Differences]\relax }{section.2.2}{}}
\@writefile{toc}{\contentsline {section}{\numberline {2.3}[Recital 3\@DP  Pas de Convergence sans une Directive]}{12}{section.2.3}}
\newlabel{recit3}{{2.3}{12}{[Recital 3: Pas de Convergence sans une Directive]\relax }{section.2.3}{}}
\@writefile{toc}{\contentsline {section}{\numberline {2.4}[Recital 4\@DP  Significance of Computer Programs Today]}{12}{section.2.4}}
\newlabel{recit4}{{2.4}{12}{[Recital 4: Significance of Computer Programs Today]\relax }{section.2.4}{}}
\@writefile{toc}{\contentsline {section}{\numberline {2.5}[Recital 5\@DP  Ergo Harmonisation \& Clarification]}{13}{section.2.5}}
\newlabel{recit5}{{2.5}{13}{[Recital 5: Ergo Harmonisation \& Clarification]\relax }{section.2.5}{}}
\@writefile{toc}{\contentsline {section}{\numberline {2.6}[Recital 6\@DP  TRIPs]}{13}{section.2.6}}
\newlabel{recit6}{{2.6}{13}{[Recital 6: TRIPs]\relax }{section.2.6}{}}
\@writefile{toc}{\contentsline {section}{\numberline {2.7}[Recital 7\@DP  CBE]}{15}{section.2.7}}
\newlabel{recit7}{{2.7}{15}{[Recital 7: CBE]\relax }{section.2.7}{}}
\@writefile{toc}{\contentsline {section}{\numberline {2.8}[Recital 8\@DP  Brevets et Int\'{e}r\^{e}t Public]}{16}{section.2.8}}
\newlabel{recit8}{{2.8}{16}{[Recital 8: Brevets et Int\'{e}r\^{e}t Public]\relax }{section.2.8}{}}
\@writefile{toc}{\contentsline {section}{\numberline {2.9}[Recital 9\@DP  Patents and Copyright]}{16}{section.2.9}}
\newlabel{recit9}{{2.9}{16}{[Recital 9: Patents and Copyright]\relax }{section.2.9}{}}
\@writefile{toc}{\contentsline {section}{\numberline {2.10}[Recital 10\@DP  Technical Character]}{17}{section.2.10}}
\newlabel{recit10}{{2.10}{17}{[Recital 10: Technical Character]\relax }{section.2.10}{}}
\@writefile{toc}{\contentsline {section}{\numberline {2.11}[Recital 11\@DP  Field of Technology]}{17}{section.2.11}}
\newlabel{recit11}{{2.11}{17}{[Recital 11: Field of Technology]\relax }{section.2.11}{}}
\@writefile{toc}{\contentsline {section}{\numberline {2.12}[Recital 12\@DP  Technical Contribution]}{18}{section.2.12}}
\newlabel{recit12}{{2.12}{18}{[Recital 12: Technical Contribution]\relax }{section.2.12}{}}
\@writefile{toc}{\contentsline {section}{\numberline {2.13}[Recital 13\@DP  Algorithms]}{18}{section.2.13}}
\newlabel{recit13}{{2.13}{18}{[Recital 13: Algorithms]\relax }{section.2.13}{}}
\@writefile{toc}{\contentsline {subsection}{\numberline {2.13.1}Recital 13}{18}{subsection.2.13.1}}
\newlabel{recit130}{{2.13.1}{18}{Recital 13\relax }{subsection.2.13.1}{}}
\@writefile{toc}{\contentsline {subsection}{\numberline {2.13.2}Recital 13(a)(bis) []}{19}{subsection.2.13.2}}
\newlabel{recit13a}{{2.13.2}{19}{Recital 13(a)(bis) []\relax }{subsection.2.13.2}{}}
\@writefile{toc}{\contentsline {section}{\numberline {2.14}[Recital 14\@DP  EU Law vs National Law]}{20}{section.2.14}}
\newlabel{recit14}{{2.14}{20}{[Recital 14: EU Law vs National Law]\relax }{section.2.14}{}}
\@writefile{toc}{\contentsline {section}{\numberline {2.15}[Recital 15\@DP  Gamme du R\`{e}glement]}{20}{section.2.15}}
\newlabel{recit15}{{2.15}{20}{[Recital 15: Gamme du R\`{e}glement]\relax }{section.2.15}{}}
\@writefile{toc}{\contentsline {section}{\numberline {2.16}[Recital 16\@DP  Comp\'{e}titivit\'{e}]}{21}{section.2.16}}
\newlabel{recit16}{{2.16}{21}{[Recital 16: Comp\'{e}titivit\'{e}]\relax }{section.2.16}{}}
\@writefile{toc}{\contentsline {subsection}{\numberline {2.16.1}Recital 16}{21}{subsection.2.16.1}}
\newlabel{recit160}{{2.16.1}{21}{Recital 16\relax }{subsection.2.16.1}{}}
\@writefile{toc}{\contentsline {subsection}{\numberline {2.16.2}Recital 16a []}{21}{subsection.2.16.2}}
\newlabel{recit16a}{{2.16.2}{21}{Recital 16a []\relax }{subsection.2.16.2}{}}
\@writefile{toc}{\contentsline {section}{\numberline {2.17}[Recital 17\@DP  Competition Rules]}{22}{section.2.17}}
\newlabel{recit17}{{2.17}{22}{[Recital 17: Competition Rules]\relax }{section.2.17}{}}
\@writefile{toc}{\contentsline {section}{\numberline {2.18}[Recital 18\@DP  Interop\'{e}rabilit\'{e}]}{22}{section.2.18}}
\newlabel{recit18}{{2.18}{22}{[Recital 18: Interop\'{e}rabilit\'{e}]\relax }{section.2.18}{}}
\@writefile{toc}{\contentsline {section}{\numberline {2.19}[Recital 19\@DP  Subsidiarit\'{e}]}{23}{section.2.19}}
\newlabel{recit19}{{2.19}{23}{[Recital 19: Subsidiarit\'{e}]\relax }{section.2.19}{}}
\@writefile{toc}{\contentsline {chapter}{\numberline {3}Les Articles}{24}{chapter.3}}
\@writefile{lof}{\addvspace {10\p@ }}
\@writefile{lot}{\addvspace {10\p@ }}
\newlabel{arts}{{3}{24}{Les Articles\relax }{chapter.3}{}}
\@writefile{toc}{\contentsline {section}{\numberline {3.1}Article 1\@DP  Champ d'application}{24}{section.3.1}}
\newlabel{art1}{{3.1}{24}{Article 1: Champ d'application\relax }{section.3.1}{}}
\@writefile{toc}{\contentsline {section}{\numberline {3.2}Article 2\@DP  D\'{e}finitions}{24}{section.3.2}}
\newlabel{art2}{{3.2}{24}{Article 2: D\'{e}finitions\relax }{section.3.2}{}}
\@writefile{toc}{\contentsline {subsection}{\numberline {3.2.1}Computer-Implemented Invention}{24}{subsection.3.2.1}}
\newlabel{cii}{{3.2.1}{24}{Computer-Implemented Invention\relax }{subsection.3.2.1}{}}
\@writefile{toc}{\contentsline {subsection}{\numberline {3.2.2}Technology, Invention, Non-Inventions}{25}{subsection.3.2.2}}
\newlabel{tech}{{3.2.2}{25}{Technology, Invention, Non-Inventions\relax }{subsection.3.2.2}{}}
\@writefile{toc}{\contentsline {section}{\numberline {3.3}Article 3\@DP  Champs de Technologie}{28}{section.3.3}}
\newlabel{art3}{{3.3}{28}{Article 3: Champs de Technologie\relax }{section.3.3}{}}
\@writefile{toc}{\contentsline {subsection}{\numberline {3.3.1}Article 3}{28}{subsection.3.3.1}}
\newlabel{art30}{{3.3.1}{28}{Article 3\relax }{subsection.3.3.1}{}}
\@writefile{toc}{\contentsline {subsection}{\numberline {3.3.2}Article 3.bis []}{29}{subsection.3.3.2}}
\newlabel{art3a}{{3.3.2}{29}{Article 3.bis []\relax }{subsection.3.3.2}{}}
\@writefile{toc}{\contentsline {section}{\numberline {3.4}Article 4\@DP  Conditions de brevetabilit\'{e}}{30}{section.3.4}}
\newlabel{art4}{{3.4}{30}{Article 4: Conditions de brevetabilit\'{e}\relax }{section.3.4}{}}
\@writefile{toc}{\contentsline {subsection}{\numberline {3.4.1}Article 4(1)}{30}{subsection.3.4.1}}
\newlabel{art41}{{3.4.1}{30}{Article 4(1)\relax }{subsection.3.4.1}{}}
\@writefile{toc}{\contentsline {subsection}{\numberline {3.4.2}Article 4(2)}{30}{subsection.3.4.2}}
\newlabel{art42}{{3.4.2}{30}{Article 4(2)\relax }{subsection.3.4.2}{}}
\@writefile{toc}{\contentsline {subsection}{\numberline {3.4.3}Article 4(3)}{31}{subsection.3.4.3}}
\newlabel{art43}{{3.4.3}{31}{Article 4(3)\relax }{subsection.3.4.3}{}}
\@writefile{toc}{\contentsline {subsection}{\numberline {3.4.4}Article 4(3)a}{32}{subsection.3.4.4}}
\newlabel{art43a}{{3.4.4}{32}{Article 4(3)a\relax }{subsection.3.4.4}{}}
\@writefile{toc}{\contentsline {subsection}{\numberline {3.4.5}Article 4(a)bis []}{32}{subsection.3.4.5}}
\newlabel{art4abis}{{3.4.5}{32}{Article 4(a)bis []\relax }{subsection.3.4.5}{}}
\@writefile{toc}{\contentsline {section}{\numberline {3.5}Article 5\@DP  Revendications et Droits}{33}{section.3.5}}
\newlabel{art5}{{3.5}{33}{Article 5: Revendications et Droits\relax }{section.3.5}{}}
\@writefile{toc}{\contentsline {section}{\numberline {3.6}Article 6\@DP  Interoperability}{36}{section.3.6}}
\newlabel{art6}{{3.6}{36}{Article 6: Interoperability\relax }{section.3.6}{}}
\@writefile{toc}{\contentsline {section}{\numberline {3.7}Article 7\@DP  Suivi}{38}{section.3.7}}
\newlabel{art7}{{3.7}{38}{Article 7: Suivi\relax }{section.3.7}{}}
\@writefile{toc}{\contentsline {section}{\numberline {3.8}Article 8\@DP  Rapports sur les effets de la directive}{38}{section.3.8}}
\newlabel{art8}{{3.8}{38}{Article 8: Rapports sur les effets de la directive\relax }{section.3.8}{}}
\@writefile{toc}{\contentsline {section}{\numberline {3.9}Article 9\@DP  Mise en oeuvre}{41}{section.3.9}}
\newlabel{art9}{{3.9}{41}{Article 9: Mise en oeuvre\relax }{section.3.9}{}}
\@writefile{toc}{\contentsline {section}{\numberline {3.10}Article 10\@DP  Entr\'{e}e en vigueur}{41}{section.3.10}}
\newlabel{art10}{{3.10}{41}{Article 10: Entr\'{e}e en vigueur\relax }{section.3.10}{}}
\@writefile{toc}{\contentsline {section}{\numberline {3.11}Article 11\@DP  Destinataires}{41}{section.3.11}}
\newlabel{art11}{{3.11}{41}{Article 11: Destinataires\relax }{section.3.11}{}}
\@writefile{toc}{\contentsline {chapter}{\numberline {4}Liens Annot\'{e}s}{42}{chapter.4}}
\@writefile{lof}{\addvspace {10\p@ }}
\@writefile{lot}{\addvspace {10\p@ }}
\newlabel{links}{{4}{42}{Liens Annot\'{e}s\relax }{chapter.4}{}}
