\contentsline {chapter}{\numberline {1}Preamble}{4}{chapter.1}
\contentsline {chapter}{\numberline {2}The Articles}{12}{chapter.2}
\contentsline {chapter}{\numberline {3}Rationale}{19}{chapter.3}
\contentsline {chapter}{\numberline {4}Annotated Links}{21}{chapter.4}
