\select@language {french}
\select@language {french}
\contentsline {chapter}{\numberline {1}Pr\'{e}ambule}{4}{chapter.1}
\contentsline {chapter}{\numberline {2}Les Articles}{12}{chapter.2}
\contentsline {chapter}{\numberline {3}Remarques}{19}{chapter.3}
\contentsline {chapter}{\numberline {4}Liens Annot\'{e}s}{21}{chapter.4}
