\relax 
\ifx\hyper@anchor\@undefined
\global \let \oldcontentsline\contentsline
\gdef \contentsline#1#2#3#4{\oldcontentsline{#1}{#2}{#3}}
\global \let \oldnewlabel\newlabel
\gdef \newlabel#1#2{\newlabelxx{#1}#2}
\gdef \newlabelxx#1#2#3#4#5#6{\oldnewlabel{#1}{{#2}{#3}}}
\AtEndDocument{\let \contentsline\oldcontentsline
\let \newlabel\oldnewlabel}
\else
\global \let \hyper@last\relax 
\fi

\@writefile{toc}{\contentsline {chapter}{\numberline {1}Preamble}{4}{chapter.1}}
\@writefile{lof}{\addvspace {10\p@ }}
\@writefile{lot}{\addvspace {10\p@ }}
\newlabel{pream}{{1}{4}{Preamble\relax }{chapter.1}{}}
\@writefile{toc}{\contentsline {chapter}{\numberline {2}The Articles}{12}{chapter.2}}
\@writefile{lof}{\addvspace {10\p@ }}
\@writefile{lot}{\addvspace {10\p@ }}
\newlabel{arts}{{2}{12}{The Articles\relax }{chapter.2}{}}
\newlabel{prop1}{{2}{12}{The Articles\relax }{chapter.2}{}}
\newlabel{prop2}{{2}{12}{The Articles\relax }{chapter.2}{}}
\newlabel{prop3}{{2}{13}{The Articles\relax }{Item.6}{}}
\newlabel{prop4}{{2}{13}{The Articles\relax }{Item.6}{}}
\newlabel{prop5}{{2}{14}{The Articles\relax }{Hfootnote.11}{}}
\newlabel{prop6}{{2}{15}{The Articles\relax }{Item.21}{}}
\newlabel{prop7}{{2}{16}{The Articles\relax }{Item.23}{}}
\newlabel{prop8}{{2}{16}{The Articles\relax }{Item.23}{}}
\newlabel{prop9}{{2}{17}{The Articles\relax }{Hfootnote.13}{}}
\newlabel{prop10}{{2}{18}{The Articles\relax }{Hfootnote.13}{}}
\@writefile{toc}{\contentsline {chapter}{\numberline {3}Rationale}{19}{chapter.3}}
\@writefile{lof}{\addvspace {10\p@ }}
\@writefile{lot}{\addvspace {10\p@ }}
\newlabel{post}{{3}{19}{Rationale\relax }{chapter.3}{}}
\@writefile{toc}{\contentsline {chapter}{\numberline {4}Annotated Links}{21}{chapter.4}}
\@writefile{lof}{\addvspace {10\p@ }}
\@writefile{lot}{\addvspace {10\p@ }}
\newlabel{links}{{4}{21}{Annotated Links\relax }{chapter.4}{}}
