\contentsline {section}{\numberline {1}Nur Patentierbarkeitsausschl\"{u}sse harmonisieren den ``Status quo''}{2}{section.1}
\contentsline {section}{\numberline {2}Ver\"{o}ffentlichungsfreiheit}{2}{section.2}
\contentsline {section}{\numberline {3}Freiheit, Computer im B\"{u}ro- und Netzwerkumfeld einzusetzen}{3}{section.3}
\contentsline {section}{\numberline {4}Kl\"{a}rung der Einschlussausdr\"{u}cke, die TRIPs auferlegt}{3}{section.4}
\contentsline {section}{\numberline {5}Untersuchungsformalia geh\"{o}ren nicht ins Gesetz}{4}{section.5}
\contentsline {section}{\numberline {6}Interoperationsrecht als Konkretisierung von Art 30 TRIPs}{5}{section.6}
