\relax 
\catcode`:\active
\catcode`;\active
\catcode`!\active
\catcode`?\active
\ifx\hyper@anchor\@undefined
\global \let \oldcontentsline\contentsline
\gdef \contentsline#1#2#3#4{\oldcontentsline{#1}{#2}{#3}}
\global \let \oldnewlabel\newlabel
\gdef \newlabel#1#2{\newlabelxx{#1}#2}
\gdef \newlabelxx#1#2#3#4#5#6{\oldnewlabel{#1}{{#2}{#3}}}
\AtEndDocument{\let \contentsline\oldcontentsline
\let \newlabel\oldnewlabel}
\else
\global \let \hyper@last\relax 
\fi

\select@language{french}
\@writefile{toc}{\select@language{french}}
\@writefile{lof}{\select@language{french}}
\@writefile{lot}{\select@language{french}}
\@writefile{toc}{\contentsline {section}{\numberline {1}Seules les exclusions de la brevetabilit\'{e} peuvent aider \`{a} ``harmoniser le statu quo''}{1}{section.1}}
\newlabel{nepat}{{1}{1}{Seules les exclusions de la brevetabilit\'{e} peuvent aider \`{a} ``harmoniser le statu quo''\relax }{section.1}{}}
\@writefile{toc}{\contentsline {section}{\numberline {2}Libert\'{e} de publication}{2}{section.2}}
\newlabel{publi}{{2}{2}{Libert\'{e} de publication\relax }{section.2}{}}
\@writefile{toc}{\contentsline {section}{\numberline {3}Libert\'{e} d'utiliser des ordinateurs au bureau et dans des environnements connect\'{e}s}{2}{section.3}}
\newlabel{ofic}{{3}{2}{Libert\'{e} d'utiliser des ordinateurs au bureau et dans des environnements connect\'{e}s\relax }{section.3}{}}
\@writefile{toc}{\contentsline {section}{\numberline {4}Clarifier les termes inclusifs que les ADPIC imposent}{3}{section.4}}
\newlabel{trips}{{4}{3}{Clarifier les termes inclusifs que les ADPIC imposent\relax }{section.4}{}}
\@writefile{toc}{\contentsline {section}{\numberline {5}Ne pas codifier les formalismes pour l'examen}{3}{section.5}}
\newlabel{diff}{{5}{3}{Ne pas codifier les formalismes pour l'examen\relax }{section.5}{}}
\@writefile{toc}{\contentsline {section}{\numberline {6}\'{E}tablir la libert\'{e} d'interop\'{e}ration comme une concr\'{e}tisation de l'article 30 des ADPIC}{4}{section.6}}
\newlabel{itop}{{6}{4}{\'{E}tablir la libert\'{e} d'interop\'{e}ration comme une concr\'{e}tisation de l'article 30 des ADPIC\relax }{section.6}{}}
\gdef\scr@tpo@lst{0}
