\relax 
\ifx\hyper@anchor\@undefined
\global \let \oldcontentsline\contentsline
\gdef \contentsline#1#2#3#4{\oldcontentsline{#1}{#2}{#3}}
\global \let \oldnewlabel\newlabel
\gdef \newlabel#1#2{\newlabelxx{#1}#2}
\gdef \newlabelxx#1#2#3#4#5#6{\oldnewlabel{#1}{{#2}{#3}}}
\AtEndDocument{\let \contentsline\oldcontentsline
\let \newlabel\oldnewlabel}
\else
\global \let \hyper@last\relax 
\fi

\@writefile{toc}{\contentsline {section}{\numberline {1}Nur Patentierbarkeitsausschl\"{u}sse harmonisieren den ``Status quo''}{2}{section.1}}
\newlabel{nepat}{{1}{2}{Nur Patentierbarkeitsausschl\"{u}sse harmonisieren den ``Status quo''\relax }{section.1}{}}
\@writefile{toc}{\contentsline {section}{\numberline {2}Ver\"{o}ffentlichungsfreiheit}{2}{section.2}}
\newlabel{publi}{{2}{2}{Ver\"{o}ffentlichungsfreiheit\relax }{section.2}{}}
\@writefile{toc}{\contentsline {section}{\numberline {3}Freiheit, Computer im B\"{u}ro- und Netzwerkumfeld einzusetzen}{3}{section.3}}
\newlabel{ofic}{{3}{3}{Freiheit, Computer im B\"{u}ro- und Netzwerkumfeld einzusetzen\relax }{section.3}{}}
\@writefile{toc}{\contentsline {section}{\numberline {4}Kl\"{a}rung der Einschlussausdr\"{u}cke, die TRIPs auferlegt}{3}{section.4}}
\newlabel{trips}{{4}{3}{Kl\"{a}rung der Einschlussausdr\"{u}cke, die TRIPs auferlegt\relax }{section.4}{}}
\@writefile{toc}{\contentsline {section}{\numberline {5}Untersuchungsformalia geh\"{o}ren nicht ins Gesetz}{4}{section.5}}
\newlabel{diff}{{5}{4}{Untersuchungsformalia geh\"{o}ren nicht ins Gesetz\relax }{section.5}{}}
\@writefile{toc}{\contentsline {section}{\numberline {6}Interoperationsrecht als Konkretisierung von Art 30 TRIPs}{5}{section.6}}
\newlabel{itop}{{6}{5}{Interoperationsrecht als Konkretisierung von Art 30 TRIPs\relax }{section.6}{}}
\gdef\scr@tpo@lst{0}
