\contentsline {section}{\numberline {1}Only Exclusions from Patentability can help ``harmonise the status quo''}{2}{section.1}
\contentsline {section}{\numberline {2}Freedom of Publication}{2}{section.2}
\contentsline {section}{\numberline {3}Freedom to use computers in office and network environments}{3}{section.3}
\contentsline {section}{\numberline {4}Clarify the inclusive terms that TRIPs imposes}{3}{section.4}
\contentsline {section}{\numberline {5}Do not codify examination formalisms}{3}{section.5}
\contentsline {section}{\numberline {6}Establish Freedom of Interoperation as a Concretisation of Art 30 TRIPs}{4}{section.6}
