\relax 
\ifx\hyper@anchor\@undefined
\global \let \oldcontentsline\contentsline
\gdef \contentsline#1#2#3#4{\oldcontentsline{#1}{#2}{#3}}
\global \let \oldnewlabel\newlabel
\gdef \newlabel#1#2{\newlabelxx{#1}#2}
\gdef \newlabelxx#1#2#3#4#5#6{\oldnewlabel{#1}{{#2}{#3}}}
\AtEndDocument{\let \contentsline\oldcontentsline
\let \newlabel\oldnewlabel}
\else
\global \let \hyper@last\relax 
\fi

\@writefile{toc}{\contentsline {section}{\numberline {1}Only Exclusions from Patentability can help ``harmonise the status quo''}{2}{section.1}}
\newlabel{nepat}{{1}{2}{Only Exclusions from Patentability can help ``harmonise the status quo''\relax }{section.1}{}}
\@writefile{toc}{\contentsline {section}{\numberline {2}Freedom of Publication}{2}{section.2}}
\newlabel{publi}{{2}{2}{Freedom of Publication\relax }{section.2}{}}
\@writefile{toc}{\contentsline {section}{\numberline {3}Freedom to use computers in office and network environments}{3}{section.3}}
\newlabel{ofic}{{3}{3}{Freedom to use computers in office and network environments\relax }{section.3}{}}
\@writefile{toc}{\contentsline {section}{\numberline {4}Clarify the inclusive terms that TRIPs imposes}{3}{section.4}}
\newlabel{trips}{{4}{3}{Clarify the inclusive terms that TRIPs imposes\relax }{section.4}{}}
\@writefile{toc}{\contentsline {section}{\numberline {5}Do not codify examination formalisms}{3}{section.5}}
\newlabel{diff}{{5}{3}{Do not codify examination formalisms\relax }{section.5}{}}
\@writefile{toc}{\contentsline {section}{\numberline {6}Establish Freedom of Interoperation as a Concretisation of Art 30 TRIPs}{4}{section.6}}
\newlabel{itop}{{6}{4}{Establish Freedom of Interoperation as a Concretisation of Art 30 TRIPs\relax }{section.6}{}}
\gdef\scr@tpo@lst{0}
