\contentsline {section}{\numberline {1}Time and Place}{1}{section.1}
\contentsline {section}{\numberline {2}Program}{2}{section.2}
\contentsline {section}{\numberline {3}Relevant Reading}{2}{section.3}
