\BOOKMARK [1][-]{section.1}{Wann?}{}
\BOOKMARK [1][-]{section.2}{Tagungsprogramm}{}
\BOOKMARK [1][-]{section.3}{Wo?}{}
\BOOKMARK [1][-]{section.4}{Veranstalter}{}
\BOOKMARK [1][-]{section.5}{Finanzierung}{}
\BOOKMARK [1][-]{section.6}{Eingeladene Redner}{}
\BOOKMARK [1][-]{section.7}{Tagungsband}{}
