\relax 
\ifx\hyper@anchor\@undefined
\global \let \oldcontentsline\contentsline
\gdef \contentsline#1#2#3#4{\oldcontentsline{#1}{#2}{#3}}
\global \let \oldnewlabel\newlabel
\gdef \newlabel#1#2{\newlabelxx{#1}#2}
\gdef \newlabelxx#1#2#3#4#5#6{\oldnewlabel{#1}{{#2}{#3}}}
\AtEndDocument{\let \contentsline\oldcontentsline
\let \newlabel\oldnewlabel}
\else
\global \let \hyper@last\relax 
\fi

\newlabel{kiam}{{1}{2}{When?\label {kiam}\relax }{section.1}{}}
\@writefile{toc}{\contentsline {section}{\numberline {1}When?}{2}{section.1}}
\newlabel{kiom}{{2}{2}{Programme\label {kiom}\relax }{section.2}{}}
\@writefile{toc}{\contentsline {section}{\numberline {2}Programme}{2}{section.2}}
\newlabel{kie}{{3}{2}{Where?\label {kie}\relax }{section.3}{}}
\@writefile{toc}{\contentsline {section}{\numberline {3}Where?}{2}{section.3}}
\newlabel{vera}{{4}{2}{Organisers\label {vera}\relax }{section.4}{}}
\@writefile{toc}{\contentsline {section}{\numberline {4}Organisers}{2}{section.4}}
\newlabel{fina}{{5}{3}{Financing\label {fina}\relax }{section.5}{}}
\@writefile{toc}{\contentsline {section}{\numberline {5}Financing}{3}{section.5}}
\newlabel{redn}{{6}{3}{Invited Speakers\label {redn}\relax }{section.6}{}}
\@writefile{toc}{\contentsline {section}{\numberline {6}Invited Speakers}{3}{section.6}}
\newlabel{tagb}{{7}{3}{Conference Volume\label {tagb}\relax }{section.7}{}}
\@writefile{toc}{\contentsline {section}{\numberline {7}Conference Volume}{3}{section.7}}
