\BOOKMARK [1][-]{section.1}{When?}{}
\BOOKMARK [1][-]{section.2}{Programme}{}
\BOOKMARK [1][-]{section.3}{Where?}{}
\BOOKMARK [1][-]{section.4}{Organisers}{}
\BOOKMARK [1][-]{section.5}{Financing}{}
\BOOKMARK [1][-]{section.6}{Invited Speakers}{}
\BOOKMARK [1][-]{section.7}{Conference Volume}{}
