\relax 
\ifx\hyper@anchor\@undefined
\global \let \oldcontentsline\contentsline
\gdef \contentsline#1#2#3#4{\oldcontentsline{#1}{#2}{#3}}
\global \let \oldnewlabel\newlabel
\gdef \newlabel#1#2{\newlabelxx{#1}#2}
\gdef \newlabelxx#1#2#3#4#5#6{\oldnewlabel{#1}{{#2}{#3}}}
\AtEndDocument{\let \contentsline\oldcontentsline
\let \newlabel\oldnewlabel}
\else
\global \let \hyper@last\relax 
\fi

\newlabel{kiam}{{1}{2}{Wann?\label {kiam}\relax }{section.1}{}}
\@writefile{toc}{\contentsline {section}{\numberline {1}Wann?}{2}{section.1}}
\newlabel{kiom}{{2}{2}{Tagungsprogramm\label {kiom}\relax }{section.2}{}}
\@writefile{toc}{\contentsline {section}{\numberline {2}Tagungsprogramm}{2}{section.2}}
\newlabel{kie}{{3}{2}{Wo?\label {kie}\relax }{section.3}{}}
\@writefile{toc}{\contentsline {section}{\numberline {3}Wo?}{2}{section.3}}
\newlabel{vera}{{4}{3}{Veranstalter\label {vera}\relax }{section.4}{}}
\@writefile{toc}{\contentsline {section}{\numberline {4}Veranstalter}{3}{section.4}}
\newlabel{fina}{{5}{3}{Finanzierung\label {fina}\relax }{section.5}{}}
\@writefile{toc}{\contentsline {section}{\numberline {5}Finanzierung}{3}{section.5}}
\newlabel{redn}{{6}{3}{Eingeladene Redner\label {redn}\relax }{section.6}{}}
\@writefile{toc}{\contentsline {section}{\numberline {6}Eingeladene Redner}{3}{section.6}}
\newlabel{tagb}{{7}{3}{Tagungsband\label {tagb}\relax }{section.7}{}}
\@writefile{toc}{\contentsline {section}{\numberline {7}Tagungsband}{3}{section.7}}
