\relax 
\ifx\hyper@anchor\@undefined
\global \let \oldcontentsline\contentsline
\gdef \contentsline#1#2#3#4{\oldcontentsline{#1}{#2}{#3}}
\global \let \oldnewlabel\newlabel
\gdef \newlabel#1#2{\newlabelxx{#1}#2}
\gdef \newlabelxx#1#2#3#4#5#6{\oldnewlabel{#1}{{#2}{#3}}}
\AtEndDocument{\let \contentsline\oldcontentsline
\let \newlabel\oldnewlabel}
\else
\global \let \hyper@last\relax 
\fi

\csname auxWARNINGii\endcsname {\typeout {-34- this file and other auxiliary files require to use the following}}
\csname auxWARNINGii\endcsname {\typeout {-34- LaTeX packages: french and babel!}}
\csname auxWARNINGii\endcsname {\typeout {-34- check \protect \usepackage \space or remove these files. Typesetting is aborted!} \stop }
\select@language{french}
\@writefile{toc}{\select@language{french}}
\@writefile{lof}{\select@language{french}}
\@writefile{lot}{\select@language{french}}
\select@language{french}
\@writefile{toc}{\select@language{french}}
\@writefile{lof}{\select@language{french}}
\@writefile{lot}{\select@language{french}}
\@writefile{toc}{\contentsline {section}{\numberline {1}Quand\@PI }{4}{section.0.1}}
\newlabel{kiam}{{1}{4}{Quand?\relax }{section.0.1}{}}
\@writefile{toc}{\contentsline {section}{\numberline {2}Horaire}{4}{section.0.2}}
\newlabel{kiom}{{2}{4}{Horaire\relax }{section.0.2}{}}
\@writefile{toc}{\contentsline {section}{\numberline {3}Ou\@PI }{4}{section.0.3}}
\newlabel{kie}{{3}{4}{Ou?\relax }{section.0.3}{}}
\@writefile{toc}{\contentsline {section}{\numberline {4}Organisateurs}{4}{section.0.4}}
\newlabel{vera}{{4}{4}{Organisateurs\relax }{section.0.4}{}}
\@writefile{toc}{\contentsline {section}{\numberline {5}Financement}{4}{section.0.5}}
\newlabel{fina}{{5}{4}{Financement\relax }{section.0.5}{}}
\@writefile{toc}{\contentsline {section}{\numberline {6}Conf\'{e}renciers Invit\'{e}s}{4}{section.0.6}}
\newlabel{redn}{{6}{4}{Conf\'{e}renciers Invit\'{e}s\relax }{section.0.6}{}}
\@writefile{toc}{\contentsline {section}{\numberline {7}Document de Conf\'{e}rence}{5}{section.0.7}}
\newlabel{tagb}{{7}{5}{Document de Conf\'{e}rence\relax }{section.0.7}{}}
