\contentsline {section}{\numberline {1}Wann?}{2}{section.1}
\contentsline {section}{\numberline {2}Tagungsprogramm}{2}{section.2}
\contentsline {section}{\numberline {3}Wo?}{2}{section.3}
\contentsline {section}{\numberline {4}Veranstalter}{3}{section.4}
\contentsline {section}{\numberline {5}Finanzierung}{3}{section.5}
\contentsline {section}{\numberline {6}Eingeladene Redner}{3}{section.6}
\contentsline {section}{\numberline {7}Tagungsband}{3}{section.7}
