\relax 
\ifx\hyper@anchor\@undefined
\global \let \oldcontentsline\contentsline
\gdef \contentsline#1#2#3#4{\oldcontentsline{#1}{#2}{#3}}
\global \let \oldnewlabel\newlabel
\gdef \newlabel#1#2{\newlabelxx{#1}#2}
\gdef \newlabelxx#1#2#3#4#5#6{\oldnewlabel{#1}{{#2}{#3}}}
\AtEndDocument{\let \contentsline\oldcontentsline
\let \newlabel\oldnewlabel}
\else
\global \let \hyper@last\relax 
\fi

\@writefile{toc}{\contentsline {section}{\numberline {1}Wann?}{4}{section.1}}
\newlabel{kiam}{{1}{4}{Wann?\relax }{section.1}{}}
\@writefile{toc}{\contentsline {section}{\numberline {2}Tagungsprogramm}{4}{section.2}}
\newlabel{kiom}{{2}{4}{Tagungsprogramm\relax }{section.2}{}}
\@writefile{toc}{\contentsline {section}{\numberline {3}Wo?}{4}{section.3}}
\newlabel{kie}{{3}{4}{Wo?\relax }{section.3}{}}
\@writefile{toc}{\contentsline {section}{\numberline {4}Veranstalter}{4}{section.4}}
\newlabel{vera}{{4}{4}{Veranstalter\relax }{section.4}{}}
\@writefile{toc}{\contentsline {section}{\numberline {5}Finanzierung}{4}{section.5}}
\newlabel{fina}{{5}{4}{Finanzierung\relax }{section.5}{}}
\@writefile{toc}{\contentsline {section}{\numberline {6}Eingeladene Redner}{4}{section.6}}
\newlabel{redn}{{6}{4}{Eingeladene Redner\relax }{section.6}{}}
\@writefile{toc}{\contentsline {section}{\numberline {7}Tagungsband}{5}{section.7}}
\newlabel{tagb}{{7}{5}{Tagungsband\relax }{section.7}{}}
