\relax 
\ifx\hyper@anchor\@undefined
\global \let \oldcontentsline\contentsline
\gdef \contentsline#1#2#3#4{\oldcontentsline{#1}{#2}{#3}}
\global \let \oldnewlabel\newlabel
\gdef \newlabel#1#2{\newlabelxx{#1}#2}
\gdef \newlabelxx#1#2#3#4#5#6{\oldnewlabel{#1}{{#2}{#3}}}
\AtEndDocument{\let \contentsline\oldcontentsline
\let \newlabel\oldnewlabel}
\else
\global \let \hyper@last\relax 
\fi

\csname auxWARNINGii\endcsname {\typeout {-34- this file and other auxiliary files require to use the following}}
\csname auxWARNINGii\endcsname {\typeout {-34- LaTeX packages: french and babel!}}
\csname auxWARNINGii\endcsname {\typeout {-34- check \protect \usepackage \space or remove these files. Typesetting is aborted!} \stop }
\select@language{french}
\@writefile{toc}{\select@language{french}}
\@writefile{lof}{\select@language{french}}
\@writefile{lot}{\select@language{french}}
\select@language{french}
\@writefile{toc}{\select@language{french}}
\@writefile{lof}{\select@language{french}}
\@writefile{lot}{\select@language{french}}
\newlabel{kiam}{{1}{2}{Quand?\label {kiam}\relax }{section.0.1}{}}
\@writefile{toc}{\contentsline {section}{\numberline {1}Quand\@PI }{2}{section.0.1}}
\newlabel{kiom}{{2}{2}{Horaire\label {kiom}\relax }{section.0.2}{}}
\@writefile{toc}{\contentsline {section}{\numberline {2}Horaire}{2}{section.0.2}}
\newlabel{kie}{{3}{2}{Ou?\label {kie}\relax }{section.0.3}{}}
\@writefile{toc}{\contentsline {section}{\numberline {3}Ou\@PI }{2}{section.0.3}}
\newlabel{vera}{{4}{2}{Organisateurs\label {vera}\relax }{section.0.4}{}}
\@writefile{toc}{\contentsline {section}{\numberline {4}Organisateurs}{2}{section.0.4}}
\newlabel{fina}{{5}{3}{Financement\label {fina}\relax }{section.0.5}{}}
\@writefile{toc}{\contentsline {section}{\numberline {5}Financement}{3}{section.0.5}}
\newlabel{redn}{{6}{3}{Conf\'{e}renciers Invit\'{e}s\label {redn}\relax }{section.0.6}{}}
\@writefile{toc}{\contentsline {section}{\numberline {6}Conf\'{e}renciers Invit\'{e}s}{3}{section.0.6}}
\newlabel{tagb}{{7}{3}{Document de Conf\'{e}rence\label {tagb}\relax }{section.0.7}{}}
\@writefile{toc}{\contentsline {section}{\numberline {7}Document de Conf\'{e}rence}{3}{section.0.7}}
