\contentsline {section}{\numberline {1}When?}{2}{section.1}
\contentsline {section}{\numberline {2}Programme}{2}{section.2}
\contentsline {section}{\numberline {3}Where?}{2}{section.3}
\contentsline {section}{\numberline {4}Organisers}{2}{section.4}
\contentsline {section}{\numberline {5}Financing}{3}{section.5}
\contentsline {section}{\numberline {6}Invited Speakers}{3}{section.6}
\contentsline {section}{\numberline {7}Conference Volume}{3}{section.7}
