\select@language {french}
\select@language {french}
\contentsline {section}{\numberline {1}Quand\@PI }{4}{section.0.1}
\contentsline {section}{\numberline {2}Horaire}{4}{section.0.2}
\contentsline {section}{\numberline {3}Ou\@PI }{4}{section.0.3}
\contentsline {section}{\numberline {4}Organisateurs}{4}{section.0.4}
\contentsline {section}{\numberline {5}Financement}{4}{section.0.5}
\contentsline {section}{\numberline {6}Conf\'{e}renciers Invit\'{e}s}{4}{section.0.6}
\contentsline {section}{\numberline {7}Document de Conf\'{e}rence}{5}{section.0.7}
