\contentsline {section}{\numberline {1}When?}{4}{section.1}
\contentsline {section}{\numberline {2}Programme}{4}{section.2}
\contentsline {section}{\numberline {3}Where?}{4}{section.3}
\contentsline {section}{\numberline {4}Organisers}{4}{section.4}
\contentsline {section}{\numberline {5}Financing}{4}{section.5}
\contentsline {section}{\numberline {6}Invited Speakers}{4}{section.6}
\contentsline {section}{\numberline {7}Conference Volume}{5}{section.7}
