\relax 
\ifx\hyper@anchor\@undefined
\global \let \oldcontentsline\contentsline
\gdef \contentsline#1#2#3#4{\oldcontentsline{#1}{#2}{#3}}
\global \let \oldnewlabel\newlabel
\gdef \newlabel#1#2{\newlabelxx{#1}#2}
\gdef \newlabelxx#1#2#3#4#5#6{\oldnewlabel{#1}{{#2}{#3}}}
\AtEndDocument{\let \contentsline\oldcontentsline
\let \newlabel\oldnewlabel}
\else
\global \let \hyper@last\relax 
\fi

\@writefile{toc}{\contentsline {section}{\numberline {1}When?}{4}{section.1}}
\newlabel{kiam}{{1}{4}{When?\relax }{section.1}{}}
\@writefile{toc}{\contentsline {section}{\numberline {2}Programme}{4}{section.2}}
\newlabel{kiom}{{2}{4}{Programme\relax }{section.2}{}}
\@writefile{toc}{\contentsline {section}{\numberline {3}Where?}{4}{section.3}}
\newlabel{kie}{{3}{4}{Where?\relax }{section.3}{}}
\@writefile{toc}{\contentsline {section}{\numberline {4}Organisers}{4}{section.4}}
\newlabel{vera}{{4}{4}{Organisers\relax }{section.4}{}}
\@writefile{toc}{\contentsline {section}{\numberline {5}Financing}{4}{section.5}}
\newlabel{fina}{{5}{4}{Financing\relax }{section.5}{}}
\@writefile{toc}{\contentsline {section}{\numberline {6}Invited Speakers}{4}{section.6}}
\newlabel{redn}{{6}{4}{Invited Speakers\relax }{section.6}{}}
\@writefile{toc}{\contentsline {section}{\numberline {7}Conference Volume}{5}{section.7}}
\newlabel{tagb}{{7}{5}{Conference Volume\relax }{section.7}{}}
