\contentsline {section}{\numberline {1}Wann?}{4}{section.1}
\contentsline {section}{\numberline {2}Tagungsprogramm}{4}{section.2}
\contentsline {section}{\numberline {3}Wo?}{4}{section.3}
\contentsline {section}{\numberline {4}Veranstalter}{4}{section.4}
\contentsline {section}{\numberline {5}Finanzierung}{4}{section.5}
\contentsline {section}{\numberline {6}Eingeladene Redner}{4}{section.6}
\contentsline {section}{\numberline {7}Tagungsband}{5}{section.7}
