\relax 
\ifx\hyper@anchor\@undefined
\global \let \oldcontentsline\contentsline
\gdef \contentsline#1#2#3#4{\oldcontentsline{#1}{#2}{#3}}
\global \let \oldnewlabel\newlabel
\gdef \newlabel#1#2{\newlabelxx{#1}#2}
\gdef \newlabelxx#1#2#3#4#5#6{\oldnewlabel{#1}{{#2}{#3}}}
\AtEndDocument{\let \contentsline\oldcontentsline
\let \newlabel\oldnewlabel}
\else
\global \let \hyper@last\relax 
\fi

\@writefile{toc}{\contentsline {section}{\numberline {1}CSU: ``n\"{a}her am Menschen'' oder ``n\"{a}her an der Patentlobby''?}{1}{section.1}}
\newlabel{intro}{{1}{1}{CSU: ``n\"{a}her am Menschen'' oder ``n\"{a}her an der Patentlobby''?\relax }{section.1}{}}
\@writefile{toc}{\contentsline {section}{\numberline {2}Zeitplan}{2}{section.2}}
\newlabel{plan}{{2}{2}{Zeitplan\relax }{section.2}{}}
\@writefile{toc}{\contentsline {section}{\numberline {3}Kommentierte Verweise}{3}{section.3}}
\newlabel{links}{{3}{3}{Kommentierte Verweise\relax }{section.3}{}}
