\contentsline {section}{\numberline {1}CSU: ``n\"{a}her am Menschen'' oder ``n\"{a}her an der Patentlobby''?}{1}{section.1}
\contentsline {section}{\numberline {2}Zeitplan}{2}{section.2}
\contentsline {section}{\numberline {3}Kommentierte Verweise}{3}{section.3}
