\relax 
\ifx\hyper@anchor\@undefined
\global \let \oldcontentsline\contentsline
\gdef \contentsline#1#2#3#4{\oldcontentsline{#1}{#2}{#3}}
\global \let \oldnewlabel\newlabel
\gdef \newlabel#1#2{\newlabelxx{#1}#2}
\gdef \newlabelxx#1#2#3#4#5#6{\oldnewlabel{#1}{{#2}{#3}}}
\AtEndDocument{\let \contentsline\oldcontentsline
\let \newlabel\oldnewlabel}
\else
\global \let \hyper@last\relax 
\fi

\@writefile{toc}{\contentsline {section}{\numberline {1}Verf\"{a}lschte Verbandsmeinungen}{2}{section.1}}
\newlabel{guru}{{1}{2}{Verf\"{a}lschte Verbandsmeinungen\relax }{section.1}{}}
\@writefile{toc}{\contentsline {section}{\numberline {2}Der Glaube an das Geistige Eigentum}{3}{section.2}}
\newlabel{credo}{{2}{3}{Der Glaube an das Geistige Eigentum\relax }{section.2}{}}
\@writefile{toc}{\contentsline {section}{\numberline {3}Erfinderromantik und die Kleinbauern-Utopie}{5}{section.3}}
\newlabel{erfrom}{{3}{5}{Erfinderromantik und die Kleinbauern-Utopie\relax }{section.3}{}}
\@writefile{toc}{\contentsline {section}{\numberline {4}Mythen um ``Innovation'' und ``Technologietransfer''}{6}{section.4}}
\newlabel{transf}{{4}{6}{Mythen um ``Innovation'' und ``Technologietransfer''\relax }{section.4}{}}
\@writefile{toc}{\contentsline {section}{\numberline {5}Zeitgeist, Privatisierungsreflex, Marktfundamentalismus}{6}{section.5}}
\newlabel{fund}{{5}{6}{Zeitgeist, Privatisierungsreflex, Marktfundamentalismus\relax }{section.5}{}}
\@writefile{toc}{\contentsline {section}{\numberline {6}Hohepriester, Geheimlehren und Riten der Patentbewegung}{8}{section.6}}
\newlabel{soc}{{6}{8}{Hohepriester, Geheimlehren und Riten der Patentbewegung\relax }{section.6}{}}
\@writefile{toc}{\contentsline {section}{\numberline {7}Weitere Lekt\"{u}re}{8}{section.7}}
\newlabel{etc}{{7}{8}{Weitere Lekt\"{u}re\relax }{section.7}{}}
\gdef\scr@tpo@lst{0}
