\contentsline {section}{\numberline {1}Distorting Coroporate Opinion}{2}{section.1}
\contentsline {section}{\numberline {2}Der Glaube an das Geistige Eigentum}{3}{section.2}
\contentsline {section}{\numberline {3}Inventor Romanticism and the Utopia of the Small Pesant}{5}{section.3}
\contentsline {section}{\numberline {4}Mythen um ``Innovation'' und ``Technologietransfer''}{6}{section.4}
\contentsline {section}{\numberline {5}Zeitgeist, Privatisierungsreflex, Marktfundamentalismus}{6}{section.5}
\contentsline {section}{\numberline {6}Hohepriester, Geheimlehren und Riten der Patentbewegung}{7}{section.6}
\contentsline {section}{\numberline {7}Weitere Lekt\"{u}re}{8}{section.7}
