\contentsline {section}{\numberline {1}Microsoft and IBM masquerading as European SMEs}{2}{section.1}
\contentsline {section}{\numberline {2}Documents}{3}{section.2}
\contentsline {section}{\numberline {3}Patents of EICTA's SMEs}{3}{section.3}
\contentsline {section}{\numberline {4}Top manager of Microsoft Denmark coming as SME representative}{5}{section.4}
\contentsline {section}{\numberline {5}Kommentierte Verweise}{5}{section.5}
