\relax 
\ifx\hyper@anchor\@undefined
\global \let \oldcontentsline\contentsline
\gdef \contentsline#1#2#3#4{\oldcontentsline{#1}{#2}{#3}}
\global \let \oldnewlabel\newlabel
\gdef \newlabel#1#2{\newlabelxx{#1}#2}
\gdef \newlabelxx#1#2#3#4#5#6{\oldnewlabel{#1}{{#2}{#3}}}
\AtEndDocument{\let \contentsline\oldcontentsline
\let \newlabel\oldnewlabel}
\else
\global \let \hyper@last\relax 
\fi

\@writefile{toc}{\contentsline {section}{\numberline {1}Microsoft and IBM masquerading as European SMEs}{2}{section.1}}
\newlabel{text}{{1}{2}{Microsoft and IBM masquerading as European SMEs\relax }{section.1}{}}
\@writefile{toc}{\contentsline {section}{\numberline {2}Documents}{3}{section.2}}
\newlabel{eicta}{{2}{3}{Documents\relax }{section.2}{}}
\@writefile{toc}{\contentsline {section}{\numberline {3}Patents of EICTA's SMEs}{3}{section.3}}
\newlabel{pikta}{{3}{3}{Patents of EICTA's SMEs\relax }{section.3}{}}
\@writefile{toc}{\contentsline {section}{\numberline {4}Top manager of Microsoft Denmark coming as SME representative}{5}{section.4}}
\newlabel{microsoft}{{4}{5}{Top manager of Microsoft Denmark coming as SME representative\relax }{section.4}{}}
\@writefile{toc}{\contentsline {section}{\numberline {5}Annotated Links}{5}{section.5}}
\newlabel{links}{{5}{5}{Annotated Links\relax }{section.5}{}}
\gdef\scr@tpo@lst{0}
