\select@language {french}
\select@language {french}
\contentsline {section}{\numberline {1}Les nouvelles R\`{e}gles}{1}{section.0.1}
\contentsline {section}{\numberline {2}R\'{e}ferences et Documents a Lire}{2}{section.0.2}
