\relax 
\ifx\hyper@anchor\@undefined
\global \let \oldcontentsline\contentsline
\gdef \contentsline#1#2#3#4{\oldcontentsline{#1}{#2}{#3}}
\global \let \oldnewlabel\newlabel
\gdef \newlabel#1#2{\newlabelxx{#1}#2}
\gdef \newlabelxx#1#2#3#4#5#6{\oldnewlabel{#1}{{#2}{#3}}}
\AtEndDocument{\let \contentsline\oldcontentsline
\let \newlabel\oldnewlabel}
\else
\global \let \hyper@last\relax 
\fi

\newlabel{kiam}{{1}{2}{Wann Wo Wer Was?\label {kiam}\relax }{section.1}{}}
\@writefile{toc}{\contentsline {section}{\numberline {1}Wann Wo Wer Was?}{2}{section.1}}
\newlabel{etc}{{2}{3}{Vorbereitende Lek\"{u}re\label {etc}\relax }{section.2}{}}
\@writefile{toc}{\contentsline {section}{\numberline {2}Vorbereitende Lek\"{u}re}{3}{section.2}}
