\relax 
\ifx\hyper@anchor\@undefined
\global \let \oldcontentsline\contentsline
\gdef \contentsline#1#2#3#4{\oldcontentsline{#1}{#2}{#3}}
\global \let \oldnewlabel\newlabel
\gdef \newlabel#1#2{\newlabelxx{#1}#2}
\gdef \newlabelxx#1#2#3#4#5#6{\oldnewlabel{#1}{{#2}{#3}}}
\AtEndDocument{\let \contentsline\oldcontentsline
\let \newlabel\oldnewlabel}
\else
\global \let \hyper@last\relax 
\fi

\@writefile{toc}{\contentsline {section}{\numberline {1}Einstimmende Zitate}{2}{section.1}}
\newlabel{intro}{{1}{2}{Einstimmende Zitate\relax }{section.1}{}}
\@writefile{toc}{\contentsline {section}{\numberline {2}Freiheit alles Geistigen oder Patentierbarkeit alles Maschinenhaften?}{6}{section.2}}
\newlabel{dumond}{{2}{6}{Freiheit alles Geistigen oder Patentierbarkeit alles Maschinenhaften?\relax }{section.2}{}}
\@writefile{toc}{\contentsline {section}{\numberline {3}Von der Technizit\"{a}t zur Beliebigkeit}{8}{section.3}}
\newlabel{tisna}{{3}{8}{Von der Technizit\"{a}t zur Beliebigkeit\relax }{section.3}{}}
\@writefile{toc}{\contentsline {section}{\numberline {4}Sinnentleerte Begriffe und ihr technischer Beitrag zum Politischen Engineering in der EU}{11}{section.4}}
\newlabel{newspeak}{{4}{11}{Sinnentleerte Begriffe und ihr technischer Beitrag zum Politischen Engineering in der EU\relax }{section.4}{}}
\@writefile{toc}{\contentsline {section}{\numberline {5}Literatur\"{u}bersicht}{12}{section.5}}
\newlabel{stud}{{5}{12}{Literatur\"{u}bersicht\relax }{section.5}{}}
\gdef\scr@tpo@lst{0}
