\relax 
\catcode`:\active
\catcode`;\active
\catcode`!\active
\catcode`?\active
\ifx\hyper@anchor\@undefined
\global \let \oldcontentsline\contentsline
\gdef \contentsline#1#2#3#4{\oldcontentsline{#1}{#2}{#3}}
\global \let \oldnewlabel\newlabel
\gdef \newlabel#1#2{\newlabelxx{#1}#2}
\gdef \newlabelxx#1#2#3#4#5#6{\oldnewlabel{#1}{{#2}{#3}}}
\AtEndDocument{\let \contentsline\oldcontentsline
\let \newlabel\oldnewlabel}
\else
\global \let \hyper@last\relax 
\fi

\select@language{french}
\@writefile{toc}{\select@language{french}}
\@writefile{lof}{\select@language{french}}
\@writefile{lot}{\select@language{french}}
\@writefile{toc}{\contentsline {section}{\numberline {1}Citations Introductoires}{2}{section.1}}
\newlabel{intro}{{1}{2}{Citations Introductoires\relax }{section.1}{}}
\@writefile{toc}{\contentsline {section}{\numberline {2}Libert\'{e} de tout ce qui est intellectuel, ou brevetabilit\'{e} de tout ce qui ressemble \`{a} une machine ?}{5}{section.2}}
\newlabel{dumond}{{2}{5}{Libert\'{e} de tout ce qui est intellectuel, ou brevetabilit\'{e} de tout ce qui ressemble \`{a} une machine ?\relax }{section.2}{}}
\@writefile{toc}{\contentsline {section}{\numberline {3}De la technicit\'{e} au n'importe quoi}{7}{section.3}}
\newlabel{tisna}{{3}{7}{De la technicit\'{e} au n'importe quoi\relax }{section.3}{}}
\@writefile{toc}{\contentsline {section}{\numberline {4}De Notions Vid\'{e}es de Sense et leur Contribution Technique a l'Engineering Politique dans l'UE}{10}{section.4}}
\newlabel{newspeak}{{4}{10}{De Notions Vid\'{e}es de Sense et leur Contribution Technique a l'Engineering Politique dans l'UE\relax }{section.4}{}}
\@writefile{toc}{\contentsline {section}{\numberline {5}Bibliographie Comment\'{e}e}{12}{section.5}}
\newlabel{stud}{{5}{12}{Bibliographie Comment\'{e}e\relax }{section.5}{}}
\gdef\scr@tpo@lst{0}
