\relax 
\ifx\hyper@anchor\@undefined
\global \let \oldcontentsline\contentsline
\gdef \contentsline#1#2#3#4{\oldcontentsline{#1}{#2}{#3}}
\global \let \oldnewlabel\newlabel
\gdef \newlabel#1#2{\newlabelxx{#1}#2}
\gdef \newlabelxx#1#2#3#4#5#6{\oldnewlabel{#1}{{#2}{#3}}}
\AtEndDocument{\let \contentsline\oldcontentsline
\let \newlabel\oldnewlabel}
\else
\global \let \hyper@last\relax 
\fi

\@writefile{toc}{\contentsline {section}{\numberline {1}Introductory Quotes}{2}{section.1}}
\newlabel{intro}{{1}{2}{Introductory Quotes\relax }{section.1}{}}
\@writefile{toc}{\contentsline {section}{\numberline {2}Freedom of everything intellectual or patentability of everything machine-like?}{6}{section.2}}
\newlabel{dumond}{{2}{6}{Freedom of everything intellectual or patentability of everything machine-like?\relax }{section.2}{}}
\@writefile{toc}{\contentsline {section}{\numberline {3}From Technicity to Arbitrariness}{7}{section.3}}
\newlabel{tisna}{{3}{7}{From Technicity to Arbitrariness\relax }{section.3}{}}
\@writefile{toc}{\contentsline {section}{\numberline {4}Voided Terminology and its Technical Contribution to Legislative Engineering in the EU}{10}{section.4}}
\newlabel{newspeak}{{4}{10}{Voided Terminology and its Technical Contribution to Legislative Engineering in the EU\relax }{section.4}{}}
\@writefile{toc}{\contentsline {section}{\numberline {5}Literature Overview}{11}{section.5}}
\newlabel{stud}{{5}{11}{Literature Overview\relax }{section.5}{}}
\gdef\scr@tpo@lst{0}
