\BOOKMARK [1][-]{section.1}{Einstimmende Zitate}{}
\BOOKMARK [1][-]{section.2}{Freiheit alles Geistigen oder Patentierbarkeit alles Maschinenhaften?}{}
\BOOKMARK [1][-]{section.3}{Von der Technizit\344t zur Beliebigkeit}{}
\BOOKMARK [1][-]{section.4}{Sinnentleerte Begriffe und ihr technischer Beitrag zum Politischen Engineering in der EU}{}
\BOOKMARK [1][-]{section.5}{Literatur\374bersicht}{}
