\select@language {french}
\contentsline {section}{\numberline {1}Citations Introductoires}{2}{section.1}
\contentsline {section}{\numberline {2}Libert\'{e} de tout ce qui est intellectuel, ou brevetabilit\'{e} de tout ce qui ressemble \`{a} une machine ?}{5}{section.2}
\contentsline {section}{\numberline {3}De la technicit\'{e} au n'importe quoi}{7}{section.3}
\contentsline {section}{\numberline {4}De Notions Vid\'{e}es de Sense et leur Contribution Technique a l'Engineering Politique dans l'UE}{10}{section.4}
\contentsline {section}{\numberline {5}Bibliographie Comment\'{e}e}{12}{section.5}
