\contentsline {section}{\numberline {1}Introductory Quotes}{2}{section.1}
\contentsline {section}{\numberline {2}Freedom of everything intellectual or patentability of everything machine-like?}{6}{section.2}
\contentsline {section}{\numberline {3}From Technicity to Arbitrariness}{7}{section.3}
\contentsline {section}{\numberline {4}Voided Terminology and its Technical Contribution to Legislative Engineering in the EU}{10}{section.4}
\contentsline {section}{\numberline {5}Literature Overview}{11}{section.5}
