\contentsline {section}{\numberline {1}Einstimmende Zitate}{2}{section.1}
\contentsline {section}{\numberline {2}Freiheit alles Geistigen oder Patentierbarkeit alles Maschinenhaften?}{6}{section.2}
\contentsline {section}{\numberline {3}Von der Technizit\"{a}t zur Beliebigkeit}{8}{section.3}
\contentsline {section}{\numberline {4}Sinnentleerte Begriffe und ihr technischer Beitrag zum Politischen Engineering in der EU}{11}{section.4}
\contentsline {section}{\numberline {5}Literatur\"{u}bersicht}{12}{section.5}
