\select@language {french}
\select@language {french}
\contentsline {section}{\numberline {1}Temps et Lieux}{1}{section.0.1}
\contentsline {section}{\numberline {2}Invitation}{1}{section.0.2}
\contentsline {section}{\numberline {3}Suj\`{e}ts a Discuter}{2}{section.0.3}
\contentsline {section}{\numberline {4}Textes Pertinents}{2}{section.0.4}
