\relax 
\ifx\hyper@anchor\@undefined
\global \let \oldcontentsline\contentsline
\gdef \contentsline#1#2#3#4{\oldcontentsline{#1}{#2}{#3}}
\global \let \oldnewlabel\newlabel
\gdef \newlabel#1#2{\newlabelxx{#1}#2}
\gdef \newlabelxx#1#2#3#4#5#6{\oldnewlabel{#1}{{#2}{#3}}}
\AtEndDocument{\let \contentsline\oldcontentsline
\let \newlabel\oldnewlabel}
\else
\global \let \hyper@last\relax 
\fi

\csname auxWARNINGii\endcsname {\typeout {-34- this file and other auxiliary files require to use the following}}
\csname auxWARNINGii\endcsname {\typeout {-34- LaTeX packages: french and babel!}}
\csname auxWARNINGii\endcsname {\typeout {-34- check \protect \usepackage \space or remove these files. Typesetting is aborted!} \stop }
\select@language{french}
\@writefile{toc}{\select@language{french}}
\@writefile{lof}{\select@language{french}}
\@writefile{lot}{\select@language{french}}
\select@language{french}
\@writefile{toc}{\select@language{french}}
\@writefile{lof}{\select@language{french}}
\@writefile{lot}{\select@language{french}}
\@writefile{toc}{\contentsline {section}{\numberline {1}Temps et Lieux}{1}{section.0.1}}
\newlabel{tmplok}{{1}{1}{Temps et Lieux\relax }{section.0.1}{}}
\@writefile{toc}{\contentsline {section}{\numberline {2}Invitation}{1}{section.0.2}}
\newlabel{invit}{{2}{1}{Invitation\relax }{section.0.2}{}}
\@writefile{toc}{\contentsline {section}{\numberline {3}Suj\`{e}ts a Discuter}{2}{section.0.3}}
\newlabel{them}{{3}{2}{Suj\`{e}ts a Discuter\relax }{section.0.3}{}}
\@writefile{toc}{\contentsline {section}{\numberline {4}Textes Pertinents}{2}{section.0.4}}
\newlabel{links}{{4}{2}{Textes Pertinents\relax }{section.0.4}{}}
