\relax 
\ifx\hyper@anchor\@undefined
\global \let \oldcontentsline\contentsline
\gdef \contentsline#1#2#3#4{\oldcontentsline{#1}{#2}{#3}}
\global \let \oldnewlabel\newlabel
\gdef \newlabel#1#2{\newlabelxx{#1}#2}
\gdef \newlabelxx#1#2#3#4#5#6{\oldnewlabel{#1}{{#2}{#3}}}
\AtEndDocument{\let \contentsline\oldcontentsline
\let \newlabel\oldnewlabel}
\else
\global \let \hyper@last\relax 
\fi

\@writefile{toc}{\contentsline {section}{\numberline {1}Zeit und Ort}{1}{section.1}}
\newlabel{tmplok}{{1}{1}{Zeit und Ort\relax }{section.1}{}}
\@writefile{toc}{\contentsline {section}{\numberline {2}Einladung}{1}{section.2}}
\newlabel{invit}{{2}{1}{Einladung\relax }{section.2}{}}
\@writefile{toc}{\contentsline {section}{\numberline {3}Zu diskutierende Themen}{2}{section.3}}
\newlabel{them}{{3}{2}{Zu diskutierende Themen\relax }{section.3}{}}
\@writefile{toc}{\contentsline {section}{\numberline {4}Einschl\"{a}gige Lekt\"{u}re}{3}{section.4}}
\newlabel{links}{{4}{3}{Einschl\"{a}gige Lekt\"{u}re\relax }{section.4}{}}
