\contentsline {section}{\numberline {1}Zeit und Ort}{1}{section.1}
\contentsline {section}{\numberline {2}Einladung}{1}{section.2}
\contentsline {section}{\numberline {3}Zu diskutierende Themen}{2}{section.3}
\contentsline {section}{\numberline {4}Einschl\"{a}gige Lekt\"{u}re}{3}{section.4}
