\contentsline {section}{\numberline {1}Time and Place}{1}{section.1}
\contentsline {section}{\numberline {2}Invitation}{1}{section.2}
\contentsline {section}{\numberline {3}Subjects of discussion}{2}{section.3}
\contentsline {section}{\numberline {4}Relevant Reading}{3}{section.4}
