\relax 
\catcode`"\active
\ifx\hyper@anchor\@undefined
\global \let \oldcontentsline\contentsline
\gdef \contentsline#1#2#3#4{\oldcontentsline{#1}{#2}{#3}}
\global \let \oldnewlabel\newlabel
\gdef \newlabel#1#2{\newlabelxx{#1}#2}
\gdef \newlabelxx#1#2#3#4#5#6{\oldnewlabel{#1}{{#2}{#3}}}
\AtEndDocument{\let \contentsline\oldcontentsline
\let \newlabel\oldnewlabel}
\else
\global \let \hyper@last\relax 
\fi

\select@language{catalan}
\@writefile{toc}{\select@language{catalan}}
\@writefile{lof}{\select@language{catalan}}
\@writefile{lot}{\select@language{catalan}}
\@writefile{toc}{\contentsline {section}{\numberline {1}Time and Place}{1}{section.1}}
\newlabel{tmplok}{{1}{1}{Time and Place\relax }{section.1}{}}
\@writefile{toc}{\contentsline {section}{\numberline {2}Invitation}{2}{section.2}}
\newlabel{invit}{{2}{2}{Invitation\relax }{section.2}{}}
\@writefile{toc}{\contentsline {section}{\numberline {3}Subjects of discussion}{2}{section.3}}
\newlabel{them}{{3}{2}{Subjects of discussion\relax }{section.3}{}}
\@writefile{toc}{\contentsline {section}{\numberline {4}Relevant Reading}{3}{section.4}}
\newlabel{links}{{4}{3}{Relevant Reading\relax }{section.4}{}}
