\contentsline {section}{\numberline {1}When?}{1}{section.1}
\contentsline {section}{\numberline {2}Where?}{2}{section.2}
\contentsline {section}{\numberline {3}How?}{2}{section.3}
\contentsline {section}{\numberline {4}Friday 2001-10-12}{2}{section.4}
