\select@language {french}
\select@language {french}
\contentsline {section}{\numberline {1}Wann\@PI }{1}{section.0.1}
\contentsline {section}{\numberline {2}Wo\@PI }{1}{section.0.2}
\contentsline {section}{\numberline {3}Wie\@PI }{2}{section.0.3}
\contentsline {section}{\numberline {4}Vendredi\ 2001-10-12}{2}{section.0.4}
