\contentsline {section}{\numberline {1}Wann?}{1}{section.1}
\contentsline {section}{\numberline {2}Wo?}{1}{section.2}
\contentsline {section}{\numberline {3}Wie?}{2}{section.3}
\contentsline {section}{\numberline {4}Freitag 2001-10-12}{2}{section.4}
