\relax 
\ifx\hyper@anchor\@undefined
\global \let \oldcontentsline\contentsline
\gdef \contentsline#1#2#3#4{\oldcontentsline{#1}{#2}{#3}}
\global \let \oldnewlabel\newlabel
\gdef \newlabel#1#2{\newlabelxx{#1}#2}
\gdef \newlabelxx#1#2#3#4#5#6{\oldnewlabel{#1}{{#2}{#3}}}
\AtEndDocument{\let \contentsline\oldcontentsline
\let \newlabel\oldnewlabel}
\else
\global \let \hyper@last\relax 
\fi

\newlabel{kiam}{{1}{1}{Wann?\label {kiam}\relax }{section.1}{}}
\@writefile{toc}{\contentsline {section}{\numberline {1}Wann?}{1}{section.1}}
\newlabel{kiok}{{2}{1}{Wo?\label {kiok}\relax }{section.2}{}}
\@writefile{toc}{\contentsline {section}{\numberline {2}Wo?}{1}{section.2}}
\newlabel{kima}{{3}{2}{Wie?\label {kima}\relax }{section.3}{}}
\@writefile{toc}{\contentsline {section}{\numberline {3}Wie?}{2}{section.3}}
\newlabel{fre}{{4}{2}{Freitag 2001-10-12\label {fre}\relax }{section.4}{}}
\@writefile{toc}{\contentsline {section}{\numberline {4}Freitag 2001-10-12}{2}{section.4}}
