\contentsline {section}{\numberline {1}Header Data}{2}{section.1}
\contentsline {section}{\numberline {2}Key Doctrines}{2}{section.2}
\contentsline {section}{\numberline {3}Summary of Facts and Submissions}{2}{section.3}
\contentsline {section}{\numberline {4}Reasons for the Decision}{4}{section.4}
\contentsline {section}{\numberline {5}Order}{7}{section.5}
\contentsline {section}{\numberline {6}Annotated Links}{7}{section.6}
