\relax 
\ifx\hyper@anchor\@undefined
\global \let \oldcontentsline\contentsline
\gdef \contentsline#1#2#3#4{\oldcontentsline{#1}{#2}{#3}}
\global \let \oldnewlabel\newlabel
\gdef \newlabel#1#2{\newlabelxx{#1}#2}
\gdef \newlabelxx#1#2#3#4#5#6{\oldnewlabel{#1}{{#2}{#3}}}
\AtEndDocument{\let \contentsline\oldcontentsline
\let \newlabel\oldnewlabel}
\else
\global \let \hyper@last\relax 
\fi

\@writefile{toc}{\contentsline {section}{\numberline {1}Header Data}{2}{section.1}}
\newlabel{data}{{1}{2}{Header Data\relax }{section.1}{}}
\@writefile{toc}{\contentsline {section}{\numberline {2}Key Doctrines}{2}{section.2}}
\newlabel{doktrin}{{2}{2}{Key Doctrines\relax }{section.2}{}}
\@writefile{toc}{\contentsline {section}{\numberline {3}Summary of Facts and Submissions}{2}{section.3}}
\newlabel{sumfs}{{3}{2}{Summary of Facts and Submissions\relax }{section.3}{}}
\@writefile{toc}{\contentsline {section}{\numberline {4}Reasons for the Decision}{4}{section.4}}
\newlabel{ratio}{{4}{4}{Reasons for the Decision\relax }{section.4}{}}
\@writefile{toc}{\contentsline {section}{\numberline {5}Order}{7}{section.5}}
\newlabel{order}{{5}{7}{Order\relax }{section.5}{}}
\@writefile{toc}{\contentsline {section}{\numberline {6}Annotated Links}{7}{section.6}}
\newlabel{links}{{6}{7}{Annotated Links\relax }{section.6}{}}
\gdef\scr@tpo@lst{0}
