\BOOKMARK [1][-]{section.1}{Time \046 Place}{}
\BOOKMARK [1][-]{section.2}{Tentative Schedule of Public Meeting}{}
\BOOKMARK [1][-]{section.3}{Participants}{}
\BOOKMARK [1][-]{section.4}{Annotated Links}{}
