\relax 
\ifx\hyper@anchor\@undefined
\global \let \oldcontentsline\contentsline
\gdef \contentsline#1#2#3#4{\oldcontentsline{#1}{#2}{#3}}
\global \let \oldnewlabel\newlabel
\gdef \newlabel#1#2{\newlabelxx{#1}#2}
\gdef \newlabelxx#1#2#3#4#5#6{\oldnewlabel{#1}{{#2}{#3}}}
\AtEndDocument{\let \contentsline\oldcontentsline
\let \newlabel\oldnewlabel}
\else
\global \let \hyper@last\relax 
\fi

\@writefile{toc}{\contentsline {section}{\numberline {1}Time \& Place}{1}{section.1}}
\newlabel{temp}{{1}{1}{Time \& Place\relax }{section.1}{}}
\@writefile{toc}{\contentsline {section}{\numberline {2}Tentative Schedule of Public Meeting}{2}{section.2}}
\newlabel{prog}{{2}{2}{Tentative Schedule of Public Meeting\relax }{section.2}{}}
\@writefile{toc}{\contentsline {section}{\numberline {3}Participants}{3}{section.3}}
\newlabel{part}{{3}{3}{Participants\relax }{section.3}{}}
\@writefile{toc}{\contentsline {section}{\numberline {4}Annotated Links}{4}{section.4}}
\newlabel{links}{{4}{4}{Annotated Links\relax }{section.4}{}}
