\contentsline {section}{\numberline {1}Time \& Place}{1}{section.1}
\contentsline {section}{\numberline {2}Tentative Schedule of Public Meeting}{2}{section.2}
\contentsline {section}{\numberline {3}Participants}{3}{section.3}
\contentsline {section}{\numberline {4}Annotated Links}{4}{section.4}
