\contentsline {chapter}{\numberline {1}introduction}{4}{chapter.1}
\contentsline {chapter}{\numberline {2}Annotated Links}{6}{chapter.2}
\contentsline {chapter}{\numberline {3}Questions, Things To Do, How you can Help}{9}{chapter.3}
