\relax 
\ifx\hyper@anchor\@undefined
\global \let \oldcontentsline\contentsline
\gdef \contentsline#1#2#3#4{\oldcontentsline{#1}{#2}{#3}}
\global \let \oldnewlabel\newlabel
\gdef \newlabel#1#2{\newlabelxx{#1}#2}
\gdef \newlabelxx#1#2#3#4#5#6{\oldnewlabel{#1}{{#2}{#3}}}
\AtEndDocument{\let \contentsline\oldcontentsline
\let \newlabel\oldnewlabel}
\else
\global \let \hyper@last\relax 
\fi

\csname auxWARNINGii\endcsname {\typeout {-34- this file and other auxiliary files require to use the following}}
\csname auxWARNINGii\endcsname {\typeout {-34- LaTeX packages: french and babel!}}
\csname auxWARNINGii\endcsname {\typeout {-34- check \protect \usepackage \space or remove these files. Typesetting is aborted!} \stop }
\select@language{french}
\@writefile{toc}{\select@language{french}}
\@writefile{lof}{\select@language{french}}
\@writefile{lot}{\select@language{french}}
\select@language{french}
\@writefile{toc}{\select@language{french}}
\@writefile{lof}{\select@language{french}}
\@writefile{lot}{\select@language{french}}
\@writefile{toc}{\contentsline {chapter}{\numberline {1}introduction}{4}{chapter.1}}
\@writefile{lof}{\addvspace {10\p@ }}
\@writefile{lot}{\addvspace {10\p@ }}
\newlabel{intro}{{1}{4}{introduction\relax }{chapter.1}{}}
\@writefile{toc}{\contentsline {chapter}{\numberline {2}Liens annot\'{e}s}{6}{chapter.2}}
\@writefile{lof}{\addvspace {10\p@ }}
\@writefile{lot}{\addvspace {10\p@ }}
\newlabel{links}{{2}{6}{Liens annot\'{e}s\relax }{chapter.2}{}}
\@writefile{toc}{\contentsline {chapter}{\numberline {3}Questions, choses \`{a} faire, comment vous pouvez aider}{9}{chapter.3}}
\@writefile{lof}{\addvspace {10\p@ }}
\@writefile{lot}{\addvspace {10\p@ }}
\newlabel{tasks}{{3}{9}{Questions, choses \`{a} faire, comment vous pouvez aider\relax }{chapter.3}{}}
