\relax 
\ifx\hyper@anchor\@undefined
\global \let \oldcontentsline\contentsline
\gdef \contentsline#1#2#3#4{\oldcontentsline{#1}{#2}{#3}}
\global \let \oldnewlabel\newlabel
\gdef \newlabel#1#2{\newlabelxx{#1}#2}
\gdef \newlabelxx#1#2#3#4#5#6{\oldnewlabel{#1}{{#2}{#3}}}
\AtEndDocument{\let \contentsline\oldcontentsline
\let \newlabel\oldnewlabel}
\else
\global \let \hyper@last\relax 
\fi

\@writefile{toc}{\contentsline {section}{\numberline {1}backgrounds}{2}{section.1}}
\newlabel{bakgr}{{1}{2}{backgrounds\relax }{section.1}{}}
\@writefile{toc}{\contentsline {section}{\numberline {2}The ``Council Presidency Compromise Paper''}{3}{section.2}}
\newlabel{draft}{{2}{3}{The ``Council Presidency Compromise Paper''\relax }{section.2}{}}
\@writefile{toc}{\contentsline {section}{\numberline {3}Compromise Position?}{3}{section.3}}
\newlabel{compr}{{3}{3}{Compromise Position?\relax }{section.3}{}}
\@writefile{toc}{\contentsline {section}{\numberline {4}Interests behind the Council's Position}{4}{section.4}}
\newlabel{forc}{{4}{4}{Interests behind the Council's Position\relax }{section.4}{}}
\@writefile{toc}{\contentsline {section}{\numberline {5}Annotated Links}{6}{section.5}}
\newlabel{links}{{5}{6}{Annotated Links\relax }{section.5}{}}
\@writefile{toc}{\contentsline {section}{\numberline {6}Media contacts}{10}{section.6}}
\newlabel{media}{{6}{10}{Media contacts\relax }{section.6}{}}
\@writefile{toc}{\contentsline {section}{\numberline {7}About the FFII -- www.ffii.org}{10}{section.7}}
\newlabel{ffii}{{7}{10}{About the FFII -- www.ffii.org\relax }{section.7}{}}
\@writefile{toc}{\contentsline {section}{\numberline {8}Permanent URL of this Press Release}{10}{section.8}}
\newlabel{url}{{8}{10}{Permanent URL of this Press Release\relax }{section.8}{}}
\gdef\scr@tpo@lst{0}
