\contentsline {section}{\numberline {1}backgrounds}{2}{section.1}
\contentsline {section}{\numberline {2}The ``Council Presidency Compromise Paper''}{3}{section.2}
\contentsline {section}{\numberline {3}Compromise Position?}{3}{section.3}
\contentsline {section}{\numberline {4}Interests behind the Council's Position}{4}{section.4}
\contentsline {section}{\numberline {5}Annotated Links}{6}{section.5}
\contentsline {section}{\numberline {6}Media contacts}{10}{section.6}
\contentsline {section}{\numberline {7}About the FFII -- www.ffii.org}{10}{section.7}
\contentsline {section}{\numberline {8}Permanent URL of this Press Release}{10}{section.8}
