\relax 
\@input{call-for-action.aux}
\@input{situation-in-individual-countries.aux}
\@input{short-overview.aux}
\@input{compromise-proposal.aux}
\@input{objectweb-letter.aux}
\@input{eurolinux-petition.aux}
\@input{appeal-of-scientists.aux}
\@input{appeal-of-informaticians.aux}
