\relax 
\@writefile{toc}{\contentsline {section}{\numberline {A}Call for Action II}{2}}
\@writefile{toc}{\contentsline {subsection}{We are concerned that}{2}}
\@writefile{toc}{\contentsline {subsection}{For these reasons we recommend the following:}{2}}
\@writefile{toc}{\contentsline {subsection}{Signatories}{3}}
\@setckpt{call-for-action}{
\setcounter{page}{6}
\setcounter{equation}{0}
\setcounter{enumi}{4}
\setcounter{enumii}{0}
\setcounter{enumiii}{0}
\setcounter{enumiv}{0}
\setcounter{footnote}{0}
\setcounter{mpfootnote}{0}
\setcounter{part}{0}
\setcounter{section}{1}
\setcounter{subsection}{0}
\setcounter{subsubsection}{0}
\setcounter{paragraph}{0}
\setcounter{subparagraph}{0}
\setcounter{figure}{0}
\setcounter{table}{0}
}
