\relax 
\@writefile{toc}{\contentsline {section}{\numberline {D}{``}Compromise Proposal{''}}{10}}
\@writefile{toc}{\contentsline {subsection}{Collision instead of Compromise}{10}}
\@writefile{toc}{\contentsline {subsection}{Program Publication Not Allowed, All Bridges Torn Down}{11}}
\@writefile{toc}{\contentsline {subsection}{No Program Disclosure: Another Step Away from the Parliament}{14}}
\@writefile{toc}{\contentsline {subsection}{Interoperation with Patented Standards Not Allowed}{14}}
\@writefile{toc}{\contentsline {subsection}{Patentability Limited by Meaningless Terms, Definitions Removed}{16}}
\@writefile{toc}{\contentsline {subsection}{Technicity Mingled with Non-Obviousness}{17}}
\@writefile{toc}{\contentsline {subsection}{Scope of Directive Enlarged to Cover Any Process Invention}{19}}
\@writefile{toc}{\contentsline {subsection}{Fake Limits, Convoluted Ambiguities}{20}}
\@writefile{toc}{\contentsline {subsection}{Deliberate Destruction of EU Directive Project?}{22}}
\@setckpt{compromise-proposal}{
\setcounter{page}{23}
\setcounter{equation}{0}
\setcounter{enumi}{2}
\setcounter{enumii}{0}
\setcounter{enumiii}{0}
\setcounter{enumiv}{0}
\setcounter{footnote}{0}
\setcounter{mpfootnote}{0}
\setcounter{part}{0}
\setcounter{section}{4}
\setcounter{subsection}{0}
\setcounter{subsubsection}{0}
\setcounter{paragraph}{0}
\setcounter{subparagraph}{0}
\setcounter{figure}{0}
\setcounter{table}{0}
}
