\relax 
\@writefile{toc}{\contentsline {section}{\numberline {C}Software Patents in Europe: A Short Overview}{7}}
\@writefile{toc}{\contentsline {subsection}{Why all this fury about software patents?}{7}}
\@writefile{toc}{\contentsline {subsection}{Computer Programs from the Patent System's Perspective}{7}}
\@writefile{toc}{\contentsline {subsection}{Abortive Attempt to Amend Art 52 EPC}{8}}
\@writefile{toc}{\contentsline {subsection}{Failed Attempt to Fool the Parliament}{8}}
\@writefile{toc}{\contentsline {subsection}{The Council under Faltering Control of the Patent Establishment}{9}}
\@setckpt{short-overview}{
\setcounter{page}{10}
\setcounter{equation}{0}
\setcounter{enumi}{3}
\setcounter{enumii}{0}
\setcounter{enumiii}{0}
\setcounter{enumiv}{0}
\setcounter{footnote}{0}
\setcounter{mpfootnote}{0}
\setcounter{part}{0}
\setcounter{section}{3}
\setcounter{subsection}{0}
\setcounter{subsubsection}{0}
\setcounter{paragraph}{0}
\setcounter{subparagraph}{0}
\setcounter{figure}{0}
\setcounter{table}{0}
}
