\contentsline {section}{\numberline {1}Der Brief}{1}{section.1}
\contentsline {section}{\numberline {2}BMWA-Kontinuit\"{a}t: Interessen der Patent\"{a}mter sind Heilige K\"{u}he}{2}{section.2}
\contentsline {section}{\numberline {3}Kommentierte Verweise}{3}{section.3}
