\relax 
\ifx\hyper@anchor\@undefined
\global \let \oldcontentsline\contentsline
\gdef \contentsline#1#2#3#4{\oldcontentsline{#1}{#2}{#3}}
\global \let \oldnewlabel\newlabel
\gdef \newlabel#1#2{\newlabelxx{#1}#2}
\gdef \newlabelxx#1#2#3#4#5#6{\oldnewlabel{#1}{{#2}{#3}}}
\AtEndDocument{\let \contentsline\oldcontentsline
\let \newlabel\oldnewlabel}
\else
\global \let \hyper@last\relax 
\fi

\@writefile{toc}{\contentsline {section}{\numberline {1}Some relevant pages}{3}{section.1}}
\newlabel{ammcref}{{1}{3}{Some relevant pages\relax }{section.1}{}}
\@writefile{toc}{\contentsline {section}{\numberline {2}possible affiliations and sources of influence}{3}{section.2}}
\newlabel{ammcinf}{{2}{3}{possible affiliations and sources of influence\relax }{section.2}{}}
