\contentsline {section}{\numberline {1}McCarthy's Political Interests}{3}{section.1}
\contentsline {section}{\numberline {2}Suppressing Patent-Critical Views in the European Parliament}{4}{section.2}
\contentsline {section}{\numberline {3}Putting everybody at an equal level of Non-Understanding}{4}{section.3}
\contentsline {section}{\numberline {4}Shifting Focus to her Opponents' Impoliteness}{6}{section.4}
\contentsline {section}{\numberline {5}McCarthy's friends and counsels from UK/CEC/EPO patent community}{8}{section.5}
\contentsline {section}{\numberline {6}Campaigning the European Parliament for Music Industry rights}{9}{section.6}
\contentsline {section}{\numberline {7}McCarthy and Microsoft}{11}{section.7}
\contentsline {section}{\numberline {8}McCarthy's Reelection}{11}{section.8}
\contentsline {subsection}{\numberline {8.1}Rebellion in McCarthy's Electorate}{11}{subsection.8.1}
\contentsline {subsection}{\numberline {8.2}Which region/cities elected McCarthy?}{12}{subsection.8.2}
\contentsline {subsection}{\numberline {8.3}By what mechanism was McCarthy elected?}{12}{subsection.8.3}
\contentsline {subsection}{\numberline {8.4}Upcoming elections}{12}{subsection.8.4}
\contentsline {section}{\numberline {9}Some relevant pages}{13}{section.9}
\contentsline {section}{\numberline {10}possible affiliations and sources of influence}{20}{section.10}
\contentsline {section}{\numberline {11}Questions, Things To Do, How you can Help}{22}{section.11}
