\relax 
\ifx\hyper@anchor\@undefined
\global \let \oldcontentsline\contentsline
\gdef \contentsline#1#2#3#4{\oldcontentsline{#1}{#2}{#3}}
\global \let \oldnewlabel\newlabel
\gdef \newlabel#1#2{\newlabelxx{#1}#2}
\gdef \newlabelxx#1#2#3#4#5#6{\oldnewlabel{#1}{{#2}{#3}}}
\AtEndDocument{\let \contentsline\oldcontentsline
\let \newlabel\oldnewlabel}
\else
\global \let \hyper@last\relax 
\fi

\@writefile{toc}{\contentsline {section}{\numberline {1}McCarthy's Political Interests}{3}{section.1}}
\newlabel{interes}{{1}{3}{McCarthy's Political Interests\relax }{section.1}{}}
\@writefile{toc}{\contentsline {section}{\numberline {2}Suppressing Patent-Critical Views in the European Parliament}{4}{section.2}}
\newlabel{silent}{{2}{4}{Suppressing Patent-Critical Views in the European Parliament\relax }{section.2}{}}
\@writefile{toc}{\contentsline {section}{\numberline {3}Putting everybody at an equal level of Non-Understanding}{4}{section.3}}
\newlabel{dogma}{{3}{4}{Putting everybody at an equal level of Non-Understanding\relax }{section.3}{}}
\@writefile{toc}{\contentsline {section}{\numberline {4}Shifting Focus to her Opponents' Impoliteness}{6}{section.4}}
\newlabel{victim}{{4}{6}{Shifting Focus to her Opponents' Impoliteness\relax }{section.4}{}}
\@writefile{toc}{\contentsline {section}{\numberline {5}McCarthy's friends and counsels from UK/CEC/EPO patent community}{8}{section.5}}
\newlabel{patmov}{{5}{8}{McCarthy's friends and counsels from UK/CEC/EPO patent community\relax }{section.5}{}}
\@writefile{toc}{\contentsline {section}{\numberline {6}Campaigning the European Parliament for Music Industry rights}{9}{section.6}}
\newlabel{ipmov}{{6}{9}{Campaigning the European Parliament for Music Industry rights\relax }{section.6}{}}
\@writefile{toc}{\contentsline {section}{\numberline {7}McCarthy and Microsoft}{11}{section.7}}
\newlabel{microsoft}{{7}{11}{McCarthy and Microsoft\relax }{section.7}{}}
\@writefile{toc}{\contentsline {section}{\numberline {8}McCarthy's Reelection}{11}{section.8}}
\newlabel{elekt}{{8}{11}{McCarthy's Reelection\relax }{section.8}{}}
\@writefile{toc}{\contentsline {subsection}{\numberline {8.1}Rebellion in McCarthy's Electorate}{11}{subsection.8.1}}
\newlabel{rebel}{{8.1}{11}{Rebellion in McCarthy's Electorate\relax }{subsection.8.1}{}}
\@writefile{toc}{\contentsline {subsection}{\numberline {8.2}Which region/cities elected McCarthy?}{12}{subsection.8.2}}
\newlabel{regio}{{8.2}{12}{Which region/cities elected McCarthy?\relax }{subsection.8.2}{}}
\@writefile{toc}{\contentsline {subsection}{\numberline {8.3}By what mechanism was McCarthy elected?}{12}{subsection.8.3}}
\newlabel{eligsys}{{8.3}{12}{By what mechanism was McCarthy elected?\relax }{subsection.8.3}{}}
\@writefile{toc}{\contentsline {subsection}{\numberline {8.4}Upcoming elections}{12}{subsection.8.4}}
\newlabel{novsel}{{8.4}{12}{Upcoming elections\relax }{subsection.8.4}{}}
\@writefile{toc}{\contentsline {section}{\numberline {9}Some relevant pages}{13}{section.9}}
\newlabel{amccref}{{9}{13}{Some relevant pages\relax }{section.9}{}}
\@writefile{toc}{\contentsline {section}{\numberline {10}possible affiliations and sources of influence}{20}{section.10}}
\newlabel{amccinf}{{10}{20}{possible affiliations and sources of influence\relax }{section.10}{}}
\@writefile{toc}{\contentsline {section}{\numberline {11}Questions, Things To Do, How you can Help}{22}{section.11}}
\newlabel{tasks}{{11}{22}{Questions, Things To Do, How you can Help\relax }{section.11}{}}
\gdef\scr@tpo@lst{0}
