\BOOKMARK [1][-]{section.1}{McCarthy's Political Interests}{}
\BOOKMARK [1][-]{section.2}{Suppressing Patent-Critical Views in the European Parliament}{}
\BOOKMARK [1][-]{section.3}{Putting everybody at an equal level of Non-Understanding}{}
\BOOKMARK [1][-]{section.4}{Shifting Focus to her Opponents' Impoliteness}{}
\BOOKMARK [1][-]{section.5}{McCarthy's friends and counsels from UK/CEC/EPO patent community}{}
\BOOKMARK [1][-]{section.6}{Campaigning the European Parliament for Music Industry rights}{}
\BOOKMARK [1][-]{section.7}{McCarthy and Microsoft}{}
\BOOKMARK [1][-]{section.8}{McCarthy's Reelection}{}
\BOOKMARK [2][-]{subsection.8.1}{Rebellion in McCarthy's Electorate}{section.8}
\BOOKMARK [2][-]{subsection.8.2}{Which region/cities elected McCarthy?}{section.8}
\BOOKMARK [2][-]{subsection.8.3}{By what mechanism was McCarthy elected?}{section.8}
\BOOKMARK [2][-]{subsection.8.4}{Upcoming elections}{section.8}
\BOOKMARK [1][-]{section.9}{Some relevant pages}{}
\BOOKMARK [1][-]{section.10}{possible affiliations and sources of influence}{}
\BOOKMARK [1][-]{section.11}{Questions, Things To Do, How you can Help}{}
