\BOOKMARK [1][-]{section.1}{introduction}{}
\BOOKMARK [1][-]{section.2}{Patent Claims}{}
\BOOKMARK [1][-]{section.3}{Comments}{}
\BOOKMARK [1][-]{section.4}{Lernout \046 Hauspie Bankruptcy}{}
\BOOKMARK [1][-]{section.5}{Annotated Links}{}
