\relax 
\ifx\hyper@anchor\@undefined
\global \let \oldcontentsline\contentsline
\gdef \contentsline#1#2#3#4{\oldcontentsline{#1}{#2}{#3}}
\global \let \oldnewlabel\newlabel
\gdef \newlabel#1#2{\newlabelxx{#1}#2}
\gdef \newlabelxx#1#2#3#4#5#6{\oldnewlabel{#1}{{#2}{#3}}}
\AtEndDocument{\let \contentsline\oldcontentsline
\let \newlabel\oldnewlabel}
\else
\global \let \hyper@last\relax 
\fi

\@writefile{toc}{\contentsline {section}{\numberline {1}introduction}{1}{section.1}}
\newlabel{intro}{{1}{1}{introduction\relax }{section.1}{}}
\@writefile{toc}{\contentsline {section}{\numberline {2}Patent Claims}{2}{section.2}}
\newlabel{claims}{{2}{2}{Patent Claims\relax }{section.2}{}}
\@writefile{toc}{\contentsline {section}{\numberline {3}Comments}{5}{section.3}}
\newlabel{eval}{{3}{5}{Comments\relax }{section.3}{}}
\gdef \LT@i {\LT@entry 
    {1}{171.94327pt}\LT@entry 
    {1}{171.94327pt}}
\@writefile{toc}{\contentsline {section}{\numberline {4}Lernout \& Hauspie Bankruptcy}{7}{section.4}}
\newlabel{lhauspie}{{4}{7}{Lernout \& Hauspie Bankruptcy\relax }{section.4}{}}
\@writefile{toc}{\contentsline {section}{\numberline {5}Annotated Links}{7}{section.5}}
\newlabel{links}{{5}{7}{Annotated Links\relax }{section.5}{}}
\gdef \LT@ii {\LT@entry 
    {1}{100.30472pt}\LT@entry 
    {1}{99.90472pt}\LT@entry 
    {1}{99.90472pt}}
