\contentsline {section}{\numberline {1}Register as a Supporter}{2}{section.1}
\contentsline {section}{\numberline {2}Be in Brussels on Wednesday August 27th}{2}{section.2}
\contentsline {section}{\numberline {3}Demonstrate Online}{2}{section.3}
\contentsline {section}{\numberline {4}Inform the Media}{3}{section.4}
\contentsline {section}{\numberline {5}Donate for our activities}{3}{section.5}
