\relax 
\ifx\hyper@anchor\@undefined
\global \let \oldcontentsline\contentsline
\gdef \contentsline#1#2#3#4{\oldcontentsline{#1}{#2}{#3}}
\global \let \oldnewlabel\newlabel
\gdef \newlabel#1#2{\newlabelxx{#1}#2}
\gdef \newlabelxx#1#2#3#4#5#6{\oldnewlabel{#1}{{#2}{#3}}}
\AtEndDocument{\let \contentsline\oldcontentsline
\let \newlabel\oldnewlabel}
\else
\global \let \hyper@last\relax 
\fi

\@writefile{toc}{\contentsline {section}{\numberline {1}Register as a Supporter}{2}{section.1}}
\newlabel{aktiv}{{1}{2}{Register as a Supporter\relax }{section.1}{}}
\@writefile{toc}{\contentsline {section}{\numberline {2}Be in Brussels on Wednesday August 27th}{2}{section.2}}
\newlabel{bxl030827}{{2}{2}{Be in Brussels on Wednesday August 27th\relax }{section.2}{}}
\@writefile{toc}{\contentsline {section}{\numberline {3}Demonstrate Online}{2}{section.3}}
\newlabel{onldemo}{{3}{2}{Demonstrate Online\relax }{section.3}{}}
\@writefile{toc}{\contentsline {section}{\numberline {4}Inform the Media}{3}{section.4}}
\newlabel{media}{{4}{3}{Inform the Media\relax }{section.4}{}}
\@writefile{toc}{\contentsline {section}{\numberline {5}Donate for our activities}{3}{section.5}}
\newlabel{donac}{{5}{3}{Donate for our activities\relax }{section.5}{}}
\gdef\scr@tpo@lst{0}
