\contentsline {section}{\numberline {1}Roter Faden: Mehr Macht den Vorst\"{a}nden (?)}{1}{section.1}
\contentsline {section}{\numberline {2}Organisationsstruktur}{2}{section.2}
\contentsline {section}{\numberline {3}Bitkom-Umfrage 2002}{2}{section.3}
\contentsline {section}{\numberline {4}Kommentierte Verweise}{3}{section.4}
\contentsline {section}{\numberline {5}Fragen, Aufgaben, Wie Sie helfen k\"{o}nnen}{6}{section.5}
