\relax 
\ifx\hyper@anchor\@undefined
\global \let \oldcontentsline\contentsline
\gdef \contentsline#1#2#3#4{\oldcontentsline{#1}{#2}{#3}}
\global \let \oldnewlabel\newlabel
\gdef \newlabel#1#2{\newlabelxx{#1}#2}
\gdef \newlabelxx#1#2#3#4#5#6{\oldnewlabel{#1}{{#2}{#3}}}
\AtEndDocument{\let \contentsline\oldcontentsline
\let \newlabel\oldnewlabel}
\else
\global \let \hyper@last\relax 
\fi

\@writefile{toc}{\contentsline {section}{\numberline {1}Roter Faden: Mehr Macht den Vorst\"{a}nden (?)}{1}{section.1}}
\newlabel{prog}{{1}{1}{Roter Faden: Mehr Macht den Vorst\"{a}nden (?)\relax }{section.1}{}}
\@writefile{toc}{\contentsline {section}{\numberline {2}Organisationsstruktur}{2}{section.2}}
\newlabel{orgnatur}{{2}{2}{Organisationsstruktur\relax }{section.2}{}}
\@writefile{toc}{\contentsline {section}{\numberline {3}Bitkom-Umfrage 2002}{2}{section.3}}
\newlabel{umfrage}{{3}{2}{Bitkom-Umfrage 2002\relax }{section.3}{}}
\@writefile{toc}{\contentsline {section}{\numberline {4}Kommentierte Verweise}{3}{section.4}}
\newlabel{links}{{4}{3}{Kommentierte Verweise\relax }{section.4}{}}
\@writefile{toc}{\contentsline {section}{\numberline {5}Fragen, Aufgaben, Wie Sie helfen k\"{o}nnen}{6}{section.5}}
\newlabel{tasks}{{5}{6}{Fragen, Aufgaben, Wie Sie helfen k\"{o}nnen\relax }{section.5}{}}
