\relax 
\ifx\hyper@anchor\@undefined
\global \let \oldcontentsline\contentsline
\gdef \contentsline#1#2#3#4{\oldcontentsline{#1}{#2}{#3}}
\global \let \oldnewlabel\newlabel
\gdef \newlabel#1#2{\newlabelxx{#1}#2}
\gdef \newlabelxx#1#2#3#4#5#6{\oldnewlabel{#1}{{#2}{#3}}}
\AtEndDocument{\let \contentsline\oldcontentsline
\let \newlabel\oldnewlabel}
\else
\global \let \hyper@last\relax 
\fi

\@writefile{toc}{\contentsline {section}{\numberline {1}Details}{1}{section.1}}
\newlabel{detal}{{1}{1}{Details\relax }{section.1}{}}
\@writefile{toc}{\contentsline {section}{\numberline {2}What happened in Port -- Report after the Hearing}{3}{section.2}}
\newlabel{reprt}{{2}{3}{What happened in Port -- Report after the Hearing\relax }{section.2}{}}
\@writefile{toc}{\contentsline {section}{\numberline {3}About Symlabs Inc -- www.symlabs.com}{4}{section.3}}
\newlabel{symlabs}{{3}{4}{About Symlabs Inc -- www.symlabs.com\relax }{section.3}{}}
\@writefile{toc}{\contentsline {section}{\numberline {4}Permanent URL of this Press Release}{4}{section.4}}
\newlabel{url}{{4}{4}{Permanent URL of this Press Release\relax }{section.4}{}}
\@writefile{toc}{\contentsline {section}{\numberline {5}Annotated Links}{4}{section.5}}
\newlabel{links}{{5}{4}{Annotated Links\relax }{section.5}{}}
