\select@language {portuguese}
\contentsline {section}{\numberline {1}Detalhes}{2}{section.1}
\contentsline {section}{\numberline {2}What happened in Port -- Report after the Hearing}{3}{section.2}
\contentsline {section}{\numberline {3}Acerca de Symlabs Inc -- www.symlabs.com}{4}{section.3}
\contentsline {section}{\numberline {4}URL Permanente deste Press Release}{4}{section.4}
\contentsline {section}{\numberline {5}Links Anotados}{4}{section.5}
