\relax 
\catcode`"\active
\ifx\hyper@anchor\@undefined
\global \let \oldcontentsline\contentsline
\gdef \contentsline#1#2#3#4{\oldcontentsline{#1}{#2}{#3}}
\global \let \oldnewlabel\newlabel
\gdef \newlabel#1#2{\newlabelxx{#1}#2}
\gdef \newlabelxx#1#2#3#4#5#6{\oldnewlabel{#1}{{#2}{#3}}}
\AtEndDocument{\let \contentsline\oldcontentsline
\let \newlabel\oldnewlabel}
\else
\global \let \hyper@last\relax 
\fi

\select@language{portuguese}
\@writefile{toc}{\select@language{portuguese}}
\@writefile{lof}{\select@language{portuguese}}
\@writefile{lot}{\select@language{portuguese}}
\@writefile{toc}{\contentsline {section}{\numberline {1}Detalhes}{2}{section.1}}
\newlabel{detal}{{1}{2}{Detalhes\relax }{section.1}{}}
\@writefile{toc}{\contentsline {section}{\numberline {2}What happened in Port -- Report after the Hearing}{3}{section.2}}
\newlabel{reprt}{{2}{3}{What happened in Port -- Report after the Hearing\relax }{section.2}{}}
\@writefile{toc}{\contentsline {section}{\numberline {3}Acerca de Symlabs Inc -- www.symlabs.com}{4}{section.3}}
\newlabel{symlabs}{{3}{4}{Acerca de Symlabs Inc -- www.symlabs.com\relax }{section.3}{}}
\@writefile{toc}{\contentsline {section}{\numberline {4}URL Permanente deste Press Release}{4}{section.4}}
\newlabel{url}{{4}{4}{URL Permanente deste Press Release\relax }{section.4}{}}
\@writefile{toc}{\contentsline {section}{\numberline {5}Links Anotados}{4}{section.5}}
\newlabel{links}{{5}{4}{Links Anotados\relax }{section.5}{}}
