\contentsline {section}{\numberline {1}Details}{1}{section.1}
\contentsline {section}{\numberline {2}What happened in Port -- Report after the Hearing}{3}{section.2}
\contentsline {section}{\numberline {3}About Symlabs Inc -- www.symlabs.com}{4}{section.3}
\contentsline {section}{\numberline {4}Permanent URL of this Press Release}{4}{section.4}
\contentsline {section}{\numberline {5}Annotated Links}{4}{section.5}
