\contentsline {section}{\numberline {1}Annotated Links}{1}{section.1}
\contentsline {section}{\numberline {2}Comments}{3}{section.2}
\contentsline {subsection}{\numberline {2.1}Hartmut Pilch}{3}{subsection.2.1}
\contentsline {subsection}{\numberline {2.2}Jonas Maebe}{3}{subsection.2.2}
