\relax 
\ifx\hyper@anchor\@undefined
\global \let \oldcontentsline\contentsline
\gdef \contentsline#1#2#3#4{\oldcontentsline{#1}{#2}{#3}}
\global \let \oldnewlabel\newlabel
\gdef \newlabel#1#2{\newlabelxx{#1}#2}
\gdef \newlabelxx#1#2#3#4#5#6{\oldnewlabel{#1}{{#2}{#3}}}
\AtEndDocument{\let \contentsline\oldcontentsline
\let \newlabel\oldnewlabel}
\else
\global \let \hyper@last\relax 
\fi

\@writefile{toc}{\contentsline {section}{\numberline {1}2002-02-28 session}{2}{section.1}}
\newlabel{ses020228}{{1}{2}{2002-02-28 session\relax }{section.1}{}}
\@writefile{toc}{\contentsline {section}{\numberline {2}2002-03-20 and 04-11 sessions}{3}{section.2}}
\newlabel{ses0203}{{2}{3}{2002-03-20 and 04-11 sessions\relax }{section.2}{}}
\gdef\scr@tpo@lst{0}
