\relax 
\ifx\hyper@anchor\@undefined
\global \let \oldcontentsline\contentsline
\gdef \contentsline#1#2#3#4{\oldcontentsline{#1}{#2}{#3}}
\global \let \oldnewlabel\newlabel
\gdef \newlabel#1#2{\newlabelxx{#1}#2}
\gdef \newlabelxx#1#2#3#4#5#6{\oldnewlabel{#1}{{#2}{#3}}}
\AtEndDocument{\let \contentsline\oldcontentsline
\let \newlabel\oldnewlabel}
\else
\global \let \hyper@last\relax 
\fi

\csname auxWARNINGii\endcsname {\typeout {-34- this file and other auxiliary files require to use the following}}
\csname auxWARNINGii\endcsname {\typeout {-34- LaTeX packages: french and babel!}}
\csname auxWARNINGii\endcsname {\typeout {-34- check \protect \usepackage \space or remove these files. Typesetting is aborted!} \stop }
\select@language{french}
\@writefile{toc}{\select@language{french}}
\@writefile{lof}{\select@language{french}}
\@writefile{lot}{\select@language{french}}
\select@language{french}
\@writefile{toc}{\select@language{french}}
\@writefile{lof}{\select@language{french}}
\@writefile{lot}{\select@language{french}}
\@writefile{toc}{\contentsline {section}{\numberline {1}Informaticiens et Techniciens}{1}{section.0.1}}
\newlabel{swpra}{{1}{1}{Informaticiens et Techniciens\relax }{section.0.1}{}}
\newlabel{reback0206}{{1}{2}{Informaticiens et Techniciens\relax }{Hfootnote.1}{}}
\newlabel{eubsa}{{1}{3}{Informaticiens et Techniciens\relax }{Hfootnote.2}{}}
\newlabel{uspto94-rms}{{1}{5}{Informaticiens et Techniciens\relax }{Hfootnote.3}{}}
\newlabel{haren01}{{1}{5}{Informaticiens et Techniciens\relax }{Hfootnote.5}{}}
\newlabel{ftc020228-cisco}{{1}{6}{Informaticiens et Techniciens\relax }{Hfootnote.6}{}}
\newlabel{cadence02}{{1}{6}{Informaticiens et Techniciens\relax }{Hfootnote.7}{}}
\newlabel{greenhall02}{{1}{7}{Informaticiens et Techniciens\relax }{Hfootnote.8}{}}
\newlabel{adobe94}{{1}{8}{Informaticiens et Techniciens\relax }{Hfootnote.9}{}}
\newlabel{kaplan02}{{1}{8}{Informaticiens et Techniciens\relax }{Hfootnote.10}{}}
\newlabel{oracle94}{{1}{9}{Informaticiens et Techniciens\relax }{Hfootnote.11}{}}
\newlabel{autodesk94}{{1}{11}{Informaticiens et Techniciens\relax }{Hfootnote.12}{}}
\newlabel{kapor94}{{1}{11}{Informaticiens et Techniciens\relax }{Hfootnote.13}{}}
\newlabel{bgates91}{{1}{12}{Informaticiens et Techniciens\relax }{Hfootnote.14}{}}
\newlabel{opera}{{1}{12}{Informaticiens et Techniciens\relax }{Hfootnote.14}{}}
\newlabel{linus02}{{1}{13}{Informaticiens et Techniciens\relax }{Hfootnote.14}{}}
\newlabel{advogato-asfpat}{{1}{13}{Informaticiens et Techniciens\relax }{Hfootnote.15}{}}
\@writefile{toc}{\contentsline {section}{\numberline {2}Experts en Droit, Juges}{13}{section.0.2}}
\newlabel{iuris}{{2}{13}{Experts en Droit, Juges\relax }{section.0.2}{}}
\newlabel{lamy98}{{2}{14}{Experts en Droit, Juges\relax }{Hfootnote.16}{}}
\newlabel{dispo76}{{2}{15}{Experts en Droit, Juges\relax }{Hfootnote.17}{}}
\newlabel{bgh-walzst80}{{2}{16}{Experts en Droit, Juges\relax }{Hfootnote.22}{}}
\newlabel{kolle77}{{2}{20}{Experts en Droit, Juges\relax }{Hfootnote.23}{}}
\newlabel{epo78}{{2}{21}{Experts en Droit, Juges\relax }{Hfootnote.26}{}}
\newlabel{krasser86}{{2}{23}{Experts en Droit, Juges\relax }{Hfootnote.27}{}}
\newlabel{lenz01}{{2}{24}{Experts en Droit, Juges\relax }{Hfootnote.28}{}}
\newlabel{atlantic1882}{{2}{24}{Experts en Droit, Juges\relax }{Hfootnote.28}{}}
\newlabel{stuber}{{2}{24}{Experts en Droit, Juges\relax }{Hfootnote.28}{}}
\newlabel{kohler}{{2}{24}{Experts en Droit, Juges\relax }{Hfootnote.29}{}}
\newlabel{folk}{{2}{25}{Experts en Droit, Juges\relax }{Hfootnote.30}{}}
\newlabel{kinsella02}{{2}{25}{Experts en Droit, Juges\relax }{Hfootnote.31}{}}
\@writefile{toc}{\contentsline {section}{\numberline {3}\'{E}conomistes}{25}{section.0.3}}
\newlabel{ekon}{{3}{25}{\'{E}conomistes\relax }{section.0.3}{}}
\newlabel{iprcommission0209}{{3}{26}{\'{E}conomistes\relax }{Item.4}{}}
\newlabel{mopoko0207}{{3}{28}{\'{E}conomistes\relax }{Hfootnote.36}{}}
\newlabel{shulman00}{{3}{29}{\'{E}conomistes\relax }{Hfootnote.37}{}}
\newlabel{digidilem00}{{3}{29}{\'{E}conomistes\relax }{Hfootnote.38}{}}
\newlabel{mandeville82}{{3}{30}{\'{E}conomistes\relax }{Hfootnote.39}{}}
\newlabel{canada71}{{3}{30}{\'{E}conomistes\relax }{Hfootnote.40}{}}
\newlabel{machlup58}{{3}{31}{\'{E}conomistes\relax }{Hfootnote.41}{}}
\newlabel{penrose51}{{3}{31}{\'{E}conomistes\relax }{Hfootnote.42}{}}
\newlabel{gran90}{{3}{31}{\'{E}conomistes\relax }{Hfootnote.43}{}}
\newlabel{scotchmer90}{{3}{31}{\'{E}conomistes\relax }{Hfootnote.44}{}}
\newlabel{wirth1866}{{3}{32}{\'{E}conomistes\relax }{Hfootnote.45}{}}
\newlabel{polanyi44}{{3}{32}{\'{E}conomistes\relax }{Hfootnote.46}{}}
\newlabel{mises49}{{3}{33}{\'{E}conomistes\relax }{Hfootnote.47}{}}
\newlabel{hayek48}{{3}{33}{\'{E}conomistes\relax }{Hfootnote.48}{}}
\newlabel{plant34}{{3}{33}{\'{E}conomistes\relax }{Hfootnote.49}{}}
\@writefile{toc}{\contentsline {section}{\numberline {4}Math\'{e}maticiens, Savants de la Pens\'{e}e, Intellectuels}{33}{section.0.4}}
\newlabel{filos}{{4}{33}{Math\'{e}maticiens, Savants de la Pens\'{e}e, Intellectuels\relax }{section.0.4}{}}
\newlabel{newton}{{4}{33}{Math\'{e}maticiens, Savants de la Pens\'{e}e, Intellectuels\relax }{section.0.4}{}}
\newlabel{jefferson}{{4}{34}{Math\'{e}maticiens, Savants de la Pens\'{e}e, Intellectuels\relax }{Hfootnote.50}{}}
\newlabel{goethe}{{4}{34}{Math\'{e}maticiens, Savants de la Pens\'{e}e, Intellectuels\relax }{Hfootnote.50}{}}
\@writefile{toc}{\contentsline {section}{\numberline {5}Politiciens}{34}{section.0.5}}
\newlabel{polit}{{5}{34}{Politiciens\relax }{section.0.5}{}}
\newlabel{esc0209}{{5}{35}{Politiciens\relax }{section.0.5}{}}
\newlabel{cor}{{5}{36}{Politiciens\relax }{Hfootnote.51}{}}
\newlabel{pstic}{{5}{37}{Politiciens\relax }{Hfootnote.52}{}}
\newlabel{cheven}{{5}{37}{Politiciens\relax }{Hfootnote.53}{}}
\newlabel{ledeaut}{{5}{39}{Politiciens\relax }{Item.10}{}}
\newlabel{wolf}{{5}{40}{Politiciens\relax }{Hfootnote.56}{}}
\newlabel{tauss}{{5}{41}{Politiciens\relax }{Hfootnote.57}{}}
\newlabel{bruederle00}{{5}{42}{Politiciens\relax }{Hfootnote.58}{}}
\newlabel{fdp01}{{5}{42}{Politiciens\relax }{Hfootnote.59}{}}
\newlabel{mmayer}{{5}{43}{Politiciens\relax }{Item.13}{}}
\newlabel{yepp}{{5}{44}{Politiciens\relax }{Item.19}{}}
\newlabel{wodarg}{{5}{45}{Politiciens\relax }{Item.19}{}}
\newlabel{dgmelin0010}{{5}{46}{Politiciens\relax }{Item.19}{}}
\newlabel{dgmelin0103}{{5}{46}{Politiciens\relax }{Hfootnote.65}{}}
\newlabel{hewitt01}{{5}{47}{Politiciens\relax }{Hfootnote.65}{}}
\@writefile{toc}{\contentsline {section}{\numberline {6}Strat\`{e}ges en Brevet}{47}{section.0.6}}
\newlabel{patst}{{6}{47}{Strat\`{e}ges en Brevet\relax }{section.0.6}{}}
\newlabel{atnt00}{{6}{47}{Strat\`{e}ges en Brevet\relax }{Hfootnote.66}{}}
\newlabel{ibm90}{{6}{47}{Strat\`{e}ges en Brevet\relax }{Hfootnote.67}{}}
\newlabel{straus00}{{6}{48}{Strat\`{e}ges en Brevet\relax }{Hfootnote.68}{}}
\newlabel{the451-mundie010808}{{6}{48}{Strat\`{e}ges en Brevet\relax }{Hfootnote.69}{}}
\@writefile{toc}{\contentsline {section}{\numberline {7}Liens Annot\'{e}s}{48}{section.0.7}}
\newlabel{links}{{7}{48}{Liens Annot\'{e}s\relax }{section.0.7}{}}
\@writefile{toc}{\contentsline {section}{\numberline {8}Questions, Choses a faires, Comment vous pouvez aider}{48}{section.0.8}}
\newlabel{tasks}{{8}{48}{Questions, Choses a faires, Comment vous pouvez aider\relax }{section.0.8}{}}
