\relax 
\catcode`:\active
\catcode`;\active
\catcode`!\active
\catcode`?\active
\ifx\hyper@anchor\@undefined
\global \let \oldcontentsline\contentsline
\gdef \contentsline#1#2#3#4{\oldcontentsline{#1}{#2}{#3}}
\global \let \oldnewlabel\newlabel
\gdef \newlabel#1#2{\newlabelxx{#1}#2}
\gdef \newlabelxx#1#2#3#4#5#6{\oldnewlabel{#1}{{#2}{#3}}}
\AtEndDocument{\let \contentsline\oldcontentsline
\let \newlabel\oldnewlabel}
\else
\global \let \hyper@last\relax 
\fi

\select@language{french}
\@writefile{toc}{\select@language{french}}
\@writefile{lof}{\select@language{french}}
\@writefile{lot}{\select@language{french}}
\@writefile{toc}{\contentsline {section}{\numberline {1}Informaticiens et Techniciens}{1}{section.1}}
\newlabel{swpra}{{1}{1}{Informaticiens et Techniciens\relax }{section.1}{}}
\newlabel{eubsa}{{1}{2}{Informaticiens et Techniciens\relax }{section.1}{}}
\newlabel{haren01}{{1}{2}{Informaticiens et Techniciens\relax }{section.1}{}}
\newlabel{sapetc}{{1}{3}{Informaticiens et Techniciens\relax }{section.1}{}}
\newlabel{knuth02}{{1}{3}{Informaticiens et Techniciens\relax }{section.1}{}}
\newlabel{hgs97}{{1}{3}{Informaticiens et Techniciens\relax }{section.1}{}}
\newlabel{intel81}{{1}{4}{Informaticiens et Techniciens\relax }{section.1}{}}
\@writefile{toc}{\contentsline {section}{\numberline {2}Savants de Droit, Juges}{4}{section.2}}
\newlabel{iuris}{{2}{4}{Savants de Droit, Juges\relax }{section.2}{}}
\newlabel{lamy98}{{2}{4}{Savants de Droit, Juges\relax }{section.2}{}}
\newlabel{dispo76}{{2}{5}{Savants de Droit, Juges\relax }{section.2}{}}
\newlabel{bgh-walzst80}{{2}{6}{Savants de Droit, Juges\relax }{section.2}{}}
\newlabel{kolle77}{{2}{10}{Savants de Droit, Juges\relax }{section.2}{}}
\newlabel{epo78}{{2}{11}{Savants de Droit, Juges\relax }{section.2}{}}
\newlabel{krasser86}{{2}{13}{Savants de Droit, Juges\relax }{section.2}{}}
\newlabel{lenz01}{{2}{14}{Savants de Droit, Juges\relax }{section.2}{}}
\newlabel{atlantic1882}{{2}{14}{Savants de Droit, Juges\relax }{section.2}{}}
\newlabel{Stuber 1907}{{2}{14}{Savants de Droit, Juges\relax }{section.2}{}}
\newlabel{J. Kohler}{{2}{14}{Savants de Droit, Juges\relax }{section.2}{}}
\newlabel{G. Folk}{{2}{15}{Savants de Droit, Juges\relax }{section.2}{}}
\newlabel{kinsella02}{{2}{15}{Savants de Droit, Juges\relax }{section.2}{}}
\@writefile{toc}{\contentsline {section}{\numberline {3}\'{E}conomistes}{15}{section.3}}
\newlabel{ekon}{{3}{15}{\'{E}conomistes\relax }{section.3}{}}
\newlabel{shulman00}{{3}{15}{\'{E}conomistes\relax }{section.3}{}}
\newlabel{digidilem00}{{3}{16}{\'{E}conomistes\relax }{section.3}{}}
\newlabel{mandeville82}{{3}{16}{\'{E}conomistes\relax }{section.3}{}}
\newlabel{canada71}{{3}{17}{\'{E}conomistes\relax }{section.3}{}}
\newlabel{machlup58}{{3}{17}{\'{E}conomistes\relax }{section.3}{}}
\newlabel{penrose51}{{3}{17}{\'{E}conomistes\relax }{section.3}{}}
\newlabel{gran90}{{3}{18}{\'{E}conomistes\relax }{section.3}{}}
\newlabel{scotchmer90}{{3}{18}{\'{E}conomistes\relax }{section.3}{}}
\newlabel{wirth1866}{{3}{18}{\'{E}conomistes\relax }{section.3}{}}
\newlabel{polanyi44}{{3}{19}{\'{E}conomistes\relax }{section.3}{}}
\newlabel{mises49}{{3}{19}{\'{E}conomistes\relax }{section.3}{}}
\newlabel{hayek48}{{3}{19}{\'{E}conomistes\relax }{section.3}{}}
