\relax 
\ifx\hyper@anchor\@undefined
\global \let \oldcontentsline\contentsline
\gdef \contentsline#1#2#3#4{\oldcontentsline{#1}{#2}{#3}}
\global \let \oldnewlabel\newlabel
\gdef \newlabel#1#2{\newlabelxx{#1}#2}
\gdef \newlabelxx#1#2#3#4#5#6{\oldnewlabel{#1}{{#2}{#3}}}
\AtEndDocument{\let \contentsline\oldcontentsline
\let \newlabel\oldnewlabel}
\else
\global \let \hyper@last\relax 
\fi

\newlabel{eubsa}{{}{2}{\relax }{section*.2}{}}
\newlabel{cor}{{}{3}{\relax }{section*.2}{}}
\newlabel{pstic}{{}{4}{\relax }{section*.2}{}}
\newlabel{cheven}{{}{4}{\relax }{section*.2}{}}
\newlabel{pvda0202}{{}{6}{\relax }{section*.2}{}}
\newlabel{mamere0202}{{}{8}{\relax }{section*.2}{}}
\newlabel{ledeaut}{{}{10}{\relax }{Item.6}{}}
\newlabel{haren01}{{}{10}{\relax }{Item.6}{}}
\newlabel{knuth02}{{}{11}{\relax }{Item.6}{}}
\newlabel{lamy98}{{}{12}{\relax }{Item.6}{}}
\newlabel{dispo76}{{}{13}{\relax }{Item.6}{}}
\newlabel{bgh-walzst80}{{}{14}{\relax }{Item.6}{}}
\newlabel{kolle77}{{}{18}{\relax }{Item.6}{}}
\newlabel{krasser86}{{}{20}{\relax }{Item.6}{}}
\newlabel{lenz01}{{}{21}{\relax }{Item.6}{}}
\newlabel{einstein}{{}{21}{\relax }{Item.6}{}}
\newlabel{wolf}{{}{22}{\relax }{Item.6}{}}
\newlabel{tauss}{{}{23}{\relax }{Item.6}{}}
\newlabel{bruederle00}{{}{24}{\relax }{Item.6}{}}
\newlabel{mmayer}{{}{25}{\relax }{Item.9}{}}
\newlabel{wodarg}{{}{26}{\relax }{Item.9}{}}
\newlabel{dgmelin0010}{{}{26}{\relax }{Item.9}{}}
\newlabel{dgmelin0103}{{}{26}{\relax }{Item.9}{}}
\newlabel{goethe}{{}{27}{\relax }{Item.9}{}}
\newlabel{jefferson}{{}{27}{\relax }{Item.9}{}}
\newlabel{atlantic1882}{{}{28}{\relax }{Item.9}{}}
\newlabel{machlup58}{{}{28}{\relax }{Item.9}{}}
