\relax 
\ifx\hyper@anchor\@undefined
\global \let \oldcontentsline\contentsline
\gdef \contentsline#1#2#3#4{\oldcontentsline{#1}{#2}{#3}}
\global \let \oldnewlabel\newlabel
\gdef \newlabel#1#2{\newlabelxx{#1}#2}
\gdef \newlabelxx#1#2#3#4#5#6{\oldnewlabel{#1}{{#2}{#3}}}
\AtEndDocument{\let \contentsline\oldcontentsline
\let \newlabel\oldnewlabel}
\else
\global \let \hyper@last\relax 
\fi

\@writefile{toc}{\contentsline {section}{\numberline {1}Software \& Technology Practitioners}{2}{section.1}}
\newlabel{swpra}{{1}{2}{Software \& Technology Practitioners\relax }{section.1}{}}
\newlabel{reback0206}{{1}{3}{Software \& Technology Practitioners\relax }{Hfootnote.1}{}}
\newlabel{eubsa}{{1}{3}{Software \& Technology Practitioners\relax }{Hfootnote.2}{}}
\newlabel{uspto94-rms}{{1}{5}{Software \& Technology Practitioners\relax }{Hfootnote.3}{}}
\newlabel{haren01}{{1}{6}{Software \& Technology Practitioners\relax }{Hfootnote.5}{}}
\newlabel{ftc020228-cisco}{{1}{6}{Software \& Technology Practitioners\relax }{Hfootnote.6}{}}
\newlabel{cadence02}{{1}{7}{Software \& Technology Practitioners\relax }{Hfootnote.7}{}}
\newlabel{greenhall02}{{1}{8}{Software \& Technology Practitioners\relax }{Hfootnote.8}{}}
\newlabel{adobe94}{{1}{8}{Software \& Technology Practitioners\relax }{Hfootnote.9}{}}
\newlabel{kaplan02}{{1}{9}{Software \& Technology Practitioners\relax }{Hfootnote.10}{}}
\newlabel{oracle94}{{1}{9}{Software \& Technology Practitioners\relax }{Hfootnote.11}{}}
\newlabel{autodesk94}{{1}{11}{Software \& Technology Practitioners\relax }{Hfootnote.12}{}}
\newlabel{kapor94}{{1}{12}{Software \& Technology Practitioners\relax }{Hfootnote.13}{}}
\newlabel{bgates91}{{1}{12}{Software \& Technology Practitioners\relax }{Hfootnote.14}{}}
\newlabel{opera}{{1}{13}{Software \& Technology Practitioners\relax }{Hfootnote.14}{}}
\newlabel{linus02}{{1}{13}{Software \& Technology Practitioners\relax }{Hfootnote.14}{}}
\newlabel{advogato-asfpat}{{1}{13}{Software \& Technology Practitioners\relax }{Hfootnote.15}{}}
\@writefile{toc}{\contentsline {section}{\numberline {2}Law Scholars, Judges, Patent Practitioners}{14}{section.2}}
\newlabel{iuris}{{2}{14}{Law Scholars, Judges, Patent Practitioners\relax }{section.2}{}}
\newlabel{lamy98}{{2}{14}{Law Scholars, Judges, Patent Practitioners\relax }{Hfootnote.16}{}}
\newlabel{dispo76}{{2}{16}{Law Scholars, Judges, Patent Practitioners\relax }{Hfootnote.17}{}}
\newlabel{bgh-walzst80}{{2}{17}{Law Scholars, Judges, Patent Practitioners\relax }{Hfootnote.22}{}}
\newlabel{kolle77}{{2}{21}{Law Scholars, Judges, Patent Practitioners\relax }{Hfootnote.23}{}}
\newlabel{epo78}{{2}{22}{Law Scholars, Judges, Patent Practitioners\relax }{Hfootnote.26}{}}
\newlabel{krasser86}{{2}{23}{Law Scholars, Judges, Patent Practitioners\relax }{Hfootnote.27}{}}
\newlabel{lenz01}{{2}{24}{Law Scholars, Judges, Patent Practitioners\relax }{Hfootnote.28}{}}
\newlabel{atlantic1882}{{2}{24}{Law Scholars, Judges, Patent Practitioners\relax }{Hfootnote.28}{}}
\newlabel{stuber}{{2}{25}{Law Scholars, Judges, Patent Practitioners\relax }{Hfootnote.28}{}}
\newlabel{kohler}{{2}{25}{Law Scholars, Judges, Patent Practitioners\relax }{Hfootnote.29}{}}
\newlabel{folk}{{2}{25}{Law Scholars, Judges, Patent Practitioners\relax }{Hfootnote.30}{}}
\newlabel{kinsella02}{{2}{26}{Law Scholars, Judges, Patent Practitioners\relax }{Hfootnote.31}{}}
\@writefile{toc}{\contentsline {section}{\numberline {3}Economists}{26}{section.3}}
\newlabel{ekon}{{3}{26}{Economists\relax }{section.3}{}}
\newlabel{iprcommission0209}{{3}{27}{Economists\relax }{Item.4}{}}
\newlabel{mopoko0207}{{3}{29}{Economists\relax }{Hfootnote.36}{}}
\newlabel{shulman00}{{3}{29}{Economists\relax }{Hfootnote.37}{}}
\newlabel{digidilem00}{{3}{30}{Economists\relax }{Hfootnote.38}{}}
\newlabel{mandeville82}{{3}{30}{Economists\relax }{Hfootnote.39}{}}
\newlabel{canada71}{{3}{31}{Economists\relax }{Hfootnote.40}{}}
\newlabel{machlup58}{{3}{31}{Economists\relax }{Hfootnote.41}{}}
\newlabel{penrose51}{{3}{31}{Economists\relax }{Hfootnote.42}{}}
\newlabel{gran90}{{3}{32}{Economists\relax }{Hfootnote.43}{}}
\newlabel{scotchmer90}{{3}{32}{Economists\relax }{Hfootnote.44}{}}
\newlabel{wirth1866}{{3}{32}{Economists\relax }{Hfootnote.45}{}}
\newlabel{polanyi44}{{3}{33}{Economists\relax }{Hfootnote.46}{}}
\newlabel{mises49}{{3}{33}{Economists\relax }{Hfootnote.47}{}}
\newlabel{hayek48}{{3}{34}{Economists\relax }{Hfootnote.48}{}}
\newlabel{plant34}{{3}{34}{Economists\relax }{Hfootnote.49}{}}
\@writefile{toc}{\contentsline {section}{\numberline {4}Mathematicians, Philosophers, Generalists}{34}{section.4}}
\newlabel{filos}{{4}{34}{Mathematicians, Philosophers, Generalists\relax }{section.4}{}}
\newlabel{newton}{{4}{34}{Mathematicians, Philosophers, Generalists\relax }{section.4}{}}
\newlabel{jefferson}{{4}{35}{Mathematicians, Philosophers, Generalists\relax }{Hfootnote.50}{}}
\newlabel{goethe}{{4}{35}{Mathematicians, Philosophers, Generalists\relax }{Hfootnote.50}{}}
\@writefile{toc}{\contentsline {section}{\numberline {5}Politicians}{35}{section.5}}
\newlabel{polit}{{5}{35}{Politicians\relax }{section.5}{}}
\newlabel{esc0209}{{5}{36}{Politicians\relax }{section.5}{}}
\newlabel{cor}{{5}{37}{Politicians\relax }{Hfootnote.51}{}}
\newlabel{pstic}{{5}{37}{Politicians\relax }{Hfootnote.52}{}}
\newlabel{cheven}{{5}{38}{Politicians\relax }{Hfootnote.53}{}}
\newlabel{ledeaut}{{5}{40}{Politicians\relax }{Item.10}{}}
\newlabel{wolf}{{5}{41}{Politicians\relax }{Hfootnote.56}{}}
\newlabel{tauss}{{5}{41}{Politicians\relax }{Hfootnote.57}{}}
\newlabel{bruederle00}{{5}{42}{Politicians\relax }{Hfootnote.58}{}}
\newlabel{fdp01}{{5}{43}{Politicians\relax }{Hfootnote.59}{}}
\newlabel{mmayer}{{5}{44}{Politicians\relax }{Item.13}{}}
\newlabel{yepp}{{5}{45}{Politicians\relax }{Item.19}{}}
\newlabel{wodarg}{{5}{46}{Politicians\relax }{Item.19}{}}
\newlabel{dgmelin0010}{{5}{46}{Politicians\relax }{Item.19}{}}
\newlabel{dgmelin0103}{{5}{47}{Politicians\relax }{Hfootnote.65}{}}
\newlabel{hewitt01}{{5}{47}{Politicians\relax }{Hfootnote.65}{}}
\@writefile{toc}{\contentsline {section}{\numberline {6}Patent strategists}{48}{section.6}}
\newlabel{patst}{{6}{48}{Patent strategists\relax }{section.6}{}}
\newlabel{atnt00}{{6}{48}{Patent strategists\relax }{Hfootnote.66}{}}
\newlabel{ibm90}{{6}{48}{Patent strategists\relax }{Hfootnote.67}{}}
\newlabel{straus00}{{6}{49}{Patent strategists\relax }{Hfootnote.68}{}}
\newlabel{the451-mundie010808}{{6}{49}{Patent strategists\relax }{Hfootnote.69}{}}
\@writefile{toc}{\contentsline {section}{\numberline {7}Annotated Links}{49}{section.7}}
\newlabel{links}{{7}{49}{Annotated Links\relax }{section.7}{}}
\@writefile{toc}{\contentsline {section}{\numberline {8}Questions, Things To Do, How you can Help}{49}{section.8}}
\newlabel{tasks}{{8}{49}{Questions, Things To Do, How you can Help\relax }{section.8}{}}
