\relax 
\ifx\hyper@anchor\@undefined
\global \let \oldcontentsline\contentsline
\gdef \contentsline#1#2#3#4{\oldcontentsline{#1}{#2}{#3}}
\global \let \oldnewlabel\newlabel
\gdef \newlabel#1#2{\newlabelxx{#1}#2}
\gdef \newlabelxx#1#2#3#4#5#6{\oldnewlabel{#1}{{#2}{#3}}}
\AtEndDocument{\let \contentsline\oldcontentsline
\let \newlabel\oldnewlabel}
\else
\global \let \hyper@last\relax 
\fi

\@writefile{toc}{\contentsline {section}{\numberline {1}Softwerker und Techniker}{2}{section.1}}
\newlabel{swpra}{{1}{2}{Softwerker und Techniker\relax }{section.1}{}}
\newlabel{reback0206}{{1}{3}{Softwerker und Techniker\relax }{Hfootnote.1}{}}
\newlabel{eubsa}{{1}{3}{Softwerker und Techniker\relax }{Hfootnote.2}{}}
\newlabel{uspto94-rms}{{1}{5}{Softwerker und Techniker\relax }{Hfootnote.3}{}}
\newlabel{haren01}{{1}{6}{Softwerker und Techniker\relax }{Hfootnote.5}{}}
\newlabel{ftc020228-cisco}{{1}{6}{Softwerker und Techniker\relax }{Hfootnote.6}{}}
\newlabel{cadence02}{{1}{7}{Softwerker und Techniker\relax }{Hfootnote.7}{}}
\newlabel{greenhall02}{{1}{8}{Softwerker und Techniker\relax }{Hfootnote.8}{}}
\newlabel{adobe94}{{1}{8}{Softwerker und Techniker\relax }{Hfootnote.9}{}}
\newlabel{kaplan02}{{1}{9}{Softwerker und Techniker\relax }{Hfootnote.10}{}}
\newlabel{oracle94}{{1}{9}{Softwerker und Techniker\relax }{Hfootnote.11}{}}
\newlabel{autodesk94}{{1}{11}{Softwerker und Techniker\relax }{Hfootnote.12}{}}
\newlabel{kapor94}{{1}{12}{Softwerker und Techniker\relax }{Hfootnote.13}{}}
\newlabel{bgates91}{{1}{12}{Softwerker und Techniker\relax }{Hfootnote.14}{}}
\newlabel{opera}{{1}{13}{Softwerker und Techniker\relax }{Hfootnote.14}{}}
\newlabel{linus02}{{1}{13}{Softwerker und Techniker\relax }{Hfootnote.14}{}}
\newlabel{advogato-asfpat}{{1}{13}{Softwerker und Techniker\relax }{Hfootnote.15}{}}
\@writefile{toc}{\contentsline {section}{\numberline {2}Rechtsgelehrte, Richter}{14}{section.2}}
\newlabel{iuris}{{2}{14}{Rechtsgelehrte, Richter\relax }{section.2}{}}
\newlabel{lamy98}{{2}{14}{Rechtsgelehrte, Richter\relax }{Hfootnote.16}{}}
\newlabel{dispo76}{{2}{16}{Rechtsgelehrte, Richter\relax }{Hfootnote.17}{}}
\newlabel{bgh-walzst80}{{2}{17}{Rechtsgelehrte, Richter\relax }{Hfootnote.22}{}}
\newlabel{kolle77}{{2}{21}{Rechtsgelehrte, Richter\relax }{Hfootnote.23}{}}
\newlabel{epo78}{{2}{22}{Rechtsgelehrte, Richter\relax }{Hfootnote.26}{}}
\newlabel{krasser86}{{2}{24}{Rechtsgelehrte, Richter\relax }{Hfootnote.27}{}}
\newlabel{lenz01}{{2}{24}{Rechtsgelehrte, Richter\relax }{Hfootnote.28}{}}
\newlabel{atlantic1882}{{2}{25}{Rechtsgelehrte, Richter\relax }{Hfootnote.28}{}}
\newlabel{stuber}{{2}{25}{Rechtsgelehrte, Richter\relax }{Hfootnote.28}{}}
\newlabel{kohler}{{2}{25}{Rechtsgelehrte, Richter\relax }{Hfootnote.29}{}}
\newlabel{folk}{{2}{26}{Rechtsgelehrte, Richter\relax }{Hfootnote.30}{}}
\newlabel{kinsella02}{{2}{26}{Rechtsgelehrte, Richter\relax }{Hfootnote.31}{}}
\@writefile{toc}{\contentsline {section}{\numberline {3}Wirtschaftswissenschaftler}{27}{section.3}}
\newlabel{ekon}{{3}{27}{Wirtschaftswissenschaftler\relax }{section.3}{}}
\newlabel{iprcommission0209}{{3}{27}{Wirtschaftswissenschaftler\relax }{Item.4}{}}
\newlabel{mopoko0207}{{3}{29}{Wirtschaftswissenschaftler\relax }{Hfootnote.36}{}}
\newlabel{shulman00}{{3}{30}{Wirtschaftswissenschaftler\relax }{Hfootnote.37}{}}
\newlabel{digidilem00}{{3}{30}{Wirtschaftswissenschaftler\relax }{Hfootnote.38}{}}
\newlabel{mandeville82}{{3}{31}{Wirtschaftswissenschaftler\relax }{Hfootnote.39}{}}
\newlabel{canada71}{{3}{31}{Wirtschaftswissenschaftler\relax }{Hfootnote.40}{}}
\newlabel{machlup58}{{3}{32}{Wirtschaftswissenschaftler\relax }{Hfootnote.41}{}}
\newlabel{penrose51}{{3}{32}{Wirtschaftswissenschaftler\relax }{Hfootnote.42}{}}
\newlabel{gran90}{{3}{33}{Wirtschaftswissenschaftler\relax }{Hfootnote.43}{}}
\newlabel{scotchmer90}{{3}{33}{Wirtschaftswissenschaftler\relax }{Hfootnote.44}{}}
\newlabel{wirth1866}{{3}{33}{Wirtschaftswissenschaftler\relax }{Hfootnote.45}{}}
\newlabel{polanyi44}{{3}{34}{Wirtschaftswissenschaftler\relax }{Hfootnote.46}{}}
\newlabel{mises49}{{3}{34}{Wirtschaftswissenschaftler\relax }{Hfootnote.47}{}}
\newlabel{hayek48}{{3}{34}{Wirtschaftswissenschaftler\relax }{Hfootnote.48}{}}
\newlabel{plant34}{{3}{35}{Wirtschaftswissenschaftler\relax }{Hfootnote.49}{}}
\@writefile{toc}{\contentsline {section}{\numberline {4}Mathematiker, Geisteswissenschaftler, Generalisten}{35}{section.4}}
\newlabel{filos}{{4}{35}{Mathematiker, Geisteswissenschaftler, Generalisten\relax }{section.4}{}}
\newlabel{newton}{{4}{35}{Mathematiker, Geisteswissenschaftler, Generalisten\relax }{section.4}{}}
\newlabel{jefferson}{{4}{35}{Mathematiker, Geisteswissenschaftler, Generalisten\relax }{Hfootnote.50}{}}
\newlabel{goethe}{{4}{36}{Mathematiker, Geisteswissenschaftler, Generalisten\relax }{Hfootnote.50}{}}
\@writefile{toc}{\contentsline {section}{\numberline {5}Politiker}{36}{section.5}}
\newlabel{polit}{{5}{36}{Politiker\relax }{section.5}{}}
\newlabel{esc0209}{{5}{37}{Politiker\relax }{section.5}{}}
\newlabel{cor}{{5}{38}{Politiker\relax }{Hfootnote.51}{}}
\newlabel{pstic}{{5}{39}{Politiker\relax }{Hfootnote.52}{}}
\newlabel{cheven}{{5}{39}{Politiker\relax }{Hfootnote.53}{}}
\newlabel{ledeaut}{{5}{41}{Politiker\relax }{Item.10}{}}
\newlabel{wolf}{{5}{42}{Politiker\relax }{Hfootnote.56}{}}
\newlabel{tauss}{{5}{43}{Politiker\relax }{Hfootnote.57}{}}
\newlabel{bruederle00}{{5}{44}{Politiker\relax }{Hfootnote.58}{}}
\newlabel{fdp01}{{5}{44}{Politiker\relax }{Hfootnote.59}{}}
\newlabel{mmayer}{{5}{46}{Politiker\relax }{Item.13}{}}
\newlabel{yepp}{{5}{47}{Politiker\relax }{Item.19}{}}
\newlabel{wodarg}{{5}{48}{Politiker\relax }{Item.19}{}}
\newlabel{dgmelin0010}{{5}{48}{Politiker\relax }{Item.19}{}}
\newlabel{dgmelin0103}{{5}{49}{Politiker\relax }{Hfootnote.65}{}}
\newlabel{hewitt01}{{5}{49}{Politiker\relax }{Hfootnote.65}{}}
\@writefile{toc}{\contentsline {section}{\numberline {6}Patentstrategen}{49}{section.6}}
\newlabel{patst}{{6}{49}{Patentstrategen\relax }{section.6}{}}
\newlabel{atnt00}{{6}{49}{Patentstrategen\relax }{Hfootnote.66}{}}
\newlabel{ibm90}{{6}{50}{Patentstrategen\relax }{Hfootnote.67}{}}
\newlabel{straus00}{{6}{50}{Patentstrategen\relax }{Hfootnote.68}{}}
\newlabel{the451-mundie010808}{{6}{50}{Patentstrategen\relax }{Hfootnote.69}{}}
\@writefile{toc}{\contentsline {section}{\numberline {7}Kommentierte Verweise}{50}{section.7}}
\newlabel{links}{{7}{50}{Kommentierte Verweise\relax }{section.7}{}}
\@writefile{toc}{\contentsline {section}{\numberline {8}Fragen, Aufgaben, Wie Sie helfen k\"{o}nnen}{51}{section.8}}
\newlabel{tasks}{{8}{51}{Fragen, Aufgaben, Wie Sie helfen k\"{o}nnen\relax }{section.8}{}}
