\relax 
\ifx\hyper@anchor\@undefined
\global \let \oldcontentsline\contentsline
\gdef \contentsline#1#2#3#4{\oldcontentsline{#1}{#2}{#3}}
\global \let \oldnewlabel\newlabel
\gdef \newlabel#1#2{\newlabelxx{#1}#2}
\gdef \newlabelxx#1#2#3#4#5#6{\oldnewlabel{#1}{{#2}{#3}}}
\AtEndDocument{\let \contentsline\oldcontentsline
\let \newlabel\oldnewlabel}
\else
\global \let \hyper@last\relax 
\fi

\@writefile{toc}{\contentsline {section}{\numberline {1}Grunds\"{a}tzliche Bewertung}{3}{section.1}}
\newlabel{krit}{{1}{3}{Grunds\"{a}tzliche Bewertung\relax }{section.1}{}}
\@writefile{toc}{\contentsline {subsection}{\numberline {1.1}Wertvoller Kern: Repr\"{a}sentative Befragung}{3}{subsection.1.1}}
\newlabel{empir}{{1.1}{3}{Wertvoller Kern: Repr\"{a}sentative Befragung\relax }{subsection.1.1}{}}
\@writefile{toc}{\contentsline {subsection}{\numberline {1.2}Politischer Anspruch tr\"{u}bt Wissenschaftlichkeit}{3}{subsection.1.2}}
\newlabel{empfehl}{{1.2}{3}{Politischer Anspruch tr\"{u}bt Wissenschaftlichkeit\relax }{subsection.1.2}{}}
\@writefile{toc}{\contentsline {subsection}{\numberline {1.3}Doppelb\"{o}dige Begriffe: ``Status Quo'', ``erweiterte Patentierbarkeit amerikanischen Stils''}{4}{subsection.1.3}}
\newlabel{statusquo}{{1.3}{4}{Doppelb\"{o}dige Begriffe: ``Status Quo'', ``erweiterte Patentierbarkeit amerikanischen Stils''\relax }{subsection.1.3}{}}
\@writefile{toc}{\contentsline {subsection}{\numberline {1.4}Zirkelschluss: MPI kann entstellten Rechtsbegriffen keine Bedeutung abgewinnen}{4}{subsection.1.4}}
\newlabel{alssolche}{{1.4}{4}{Zirkelschluss: MPI kann entstellten Rechtsbegriffen keine Bedeutung abgewinnen\relax }{subsection.1.4}{}}
\@writefile{toc}{\contentsline {subsection}{\numberline {1.5}naturalistischer Fehlschluss: Normbegr\"{u}ndung aus (chaotischem) Ist-Zustand der Rechtsprechung}{5}{subsection.1.5}}
\newlabel{method}{{1.5}{5}{naturalistischer Fehlschluss: Normbegr\"{u}ndung aus (chaotischem) Ist-Zustand der Rechtsprechung\relax }{subsection.1.5}{}}
\@writefile{toc}{\contentsline {subsection}{\numberline {1.6}Verfassungskonforme Auslegung fehlt, empfohlene Freiheitsbeschr\"{a}nkungen nicht legitimiert}{5}{subsection.1.6}}
\newlabel{konst}{{1.6}{5}{Verfassungskonforme Auslegung fehlt, empfohlene Freiheitsbeschr\"{a}nkungen nicht legitimiert\relax }{subsection.1.6}{}}
\@writefile{toc}{\contentsline {subsection}{\numberline {1.7}Verletzung des Demokratieprinzips}{6}{subsection.1.7}}
\newlabel{demokr}{{1.7}{6}{Verletzung des Demokratieprinzips\relax }{subsection.1.7}{}}
\@writefile{toc}{\contentsline {subsection}{\numberline {1.8}Nebenbei noch ein paar Bonbons f\"{u}r die Patentbewegung}{6}{subsection.1.8}}
\newlabel{bmbf}{{1.8}{6}{Nebenbei noch ein paar Bonbons f\"{u}r die Patentbewegung\relax }{subsection.1.8}{}}
\@writefile{toc}{\contentsline {subsection}{\numberline {1.9}Eiertanz zwischen zwei heiligen K\"{u}hen: Opensource darf nicht ohne besorgte Mine geopfert werden}{6}{subsection.1.9}}
\newlabel{vaccae}{{1.9}{6}{Eiertanz zwischen zwei heiligen K\"{u}hen: Opensource darf nicht ohne besorgte Mine geopfert werden\relax }{subsection.1.9}{}}
\@writefile{toc}{\contentsline {section}{\numberline {2}Schreiben vom Juli an die Autoren der Studie}{7}{section.2}}
\newlabel{ltr}{{2}{7}{Schreiben vom Juli an die Autoren der Studie\relax }{section.2}{}}
\@writefile{toc}{\contentsline {subsection}{\numberline {2.1}Erkl\"{a}ren Sie bitte unabh\"{a}ngig von der jetzigen Rechtslage, wie patentierbare von nicht patentierbaren Gegenst\"{a}nden unterschieden werden k\"{o}nnen!}{8}{subsection.2.1}}
\newlabel{lim}{{2.1}{8}{Erkl\"{a}ren Sie bitte unabh\"{a}ngig von der jetzigen Rechtslage, wie patentierbare von nicht patentierbaren Gegenst\"{a}nden unterschieden werden k\"{o}nnen!\relax }{subsection.2.1}{}}
\@writefile{toc}{\contentsline {subsection}{\numberline {2.2}Nehmen Sie bitte zu den bekannten sinnvollen Interpretationen des Patentierungsausschlusses auf Programme f\"{u}r Datenverarbeitungsanlagen Stellung und erkl\"{a}ren Sie bitte, warum diese ``nicht m\"{o}glich'' sind!}{8}{subsection.2.2}}
\newlabel{sem}{{2.2}{8}{Nehmen Sie bitte zu den bekannten sinnvollen Interpretationen des Patentierungsausschlusses auf Programme f\"{u}r Datenverarbeitungsanlagen Stellung und erkl\"{a}ren Sie bitte, warum diese ``nicht m\"{o}glich'' sind!\relax }{subsection.2.2}{}}
