\BOOKMARK [1][-]{section.1}{Grunds\344tzliche Bewertung}{}
\BOOKMARK [2][-]{subsection.1.1}{Wertvoller Kern: Repr\344sentative Befragung}{section.1}
\BOOKMARK [2][-]{subsection.1.2}{Politischer Anspruch tr\374bt Wissenschaftlichkeit}{section.1}
\BOOKMARK [2][-]{subsection.1.3}{Doppelb\366dige Begriffe: ``Status Quo'', ``erweiterte Patentierbarkeit amerikanischen Stils''}{section.1}
\BOOKMARK [2][-]{subsection.1.4}{Zirkelschluss: MPI kann entstellten Rechtsbegriffen keine Bedeutung abgewinnen}{section.1}
\BOOKMARK [2][-]{subsection.1.5}{Naturalistischer Fehlschluss: Normbegr\374ndung aus \(chaotischem\) Ist-Zustand der Rechtsprechung}{section.1}
\BOOKMARK [2][-]{subsection.1.6}{Verfassungskonforme Auslegung fehlt, empfohlene Freiheitsbeschr\344nkungen nicht legitimiert}{section.1}
\BOOKMARK [2][-]{subsection.1.7}{Verletzung des Demokratieprinzips}{section.1}
\BOOKMARK [2][-]{subsection.1.8}{Nebenbei noch ein paar Bonbons f\374r die Patentbewegung}{section.1}
\BOOKMARK [2][-]{subsection.1.9}{Eiertanz zwischen zwei heiligen K\374hen: Opensource darf nicht ohne besorgte Mine geopfert werden}{section.1}
\BOOKMARK [1][-]{section.2}{Schreiben vom Juli an die Autoren der Studie}{}
\BOOKMARK [2][-]{subsection.2.1}{Erkl\344ren Sie bitte unabh\344ngig von der jetzigen Rechtslage, wie patentierbare von nicht patentierbaren Gegenst\344nden unterschieden werden k\366nnen!}{section.2}
\BOOKMARK [2][-]{subsection.2.2}{Nehmen Sie bitte zu den bekannten sinnvollen Interpretationen des Patentierungsausschlusses auf Programme f\374r Datenverarbeitungsanlagen Stellung und erkl\344ren Sie bitte, warum diese ``nicht m\366glich'' sind!}{section.2}
\BOOKMARK [1][-]{section.3}{Weitere Lekt\374re}{}
