\relax 
\ifx\hyper@anchor\@undefined
\global \let \oldcontentsline\contentsline
\gdef \contentsline#1#2#3#4{\oldcontentsline{#1}{#2}{#3}}
\global \let \oldnewlabel\newlabel
\gdef \newlabel#1#2{\newlabelxx{#1}#2}
\gdef \newlabelxx#1#2#3#4#5#6{\oldnewlabel{#1}{{#2}{#3}}}
\AtEndDocument{\let \contentsline\oldcontentsline
\let \newlabel\oldnewlabel}
\else
\global \let \hyper@last\relax 
\fi

\newlabel{krit}{{1}{3}{Basic Evaluation\label {krit}\relax }{section.1}{}}
\@writefile{toc}{\contentsline {section}{\numberline {1}Basic Evaluation}{3}{section.1}}
\newlabel{empir}{{1.1}{3}{Valuable Core: Representative Enquete\label {empir}\relax }{subsection.1.1}{}}
\@writefile{toc}{\contentsline {subsection}{\numberline {1.1}Valuable Core: Representative Enquete}{3}{subsection.1.1}}
\newlabel{empfehl}{{1.2}{3}{Political claims undermine scientificity\label {empfehl}\relax }{subsection.1.2}{}}
\@writefile{toc}{\contentsline {subsection}{\numberline {1.2}Political claims undermine scientificity}{3}{subsection.1.2}}
\newlabel{statusquo}{{1.3}{3}{Double-talk about ``status quo'' and ``american-type extensive patentability''\label {statusquo}\relax }{subsection.1.3}{}}
\@writefile{toc}{\contentsline {subsection}{\numberline {1.3}Double-talk about ``status quo'' and ``american-type extensive patentability''}{3}{subsection.1.3}}
\newlabel{alssolche}{{1.4}{4}{Cirucular reasoning: MPI unable to understand self-obfuscated legal terms\label {alssolche}\relax }{subsection.1.4}{}}
\@writefile{toc}{\contentsline {subsection}{\numberline {1.4}Cirucular reasoning: MPI unable to understand self-obfuscated legal terms}{4}{subsection.1.4}}
\newlabel{method}{{1.5}{5}{Naturalist fallacy: MPI attempts to derive normative statements from (chaotic) factual state of jurisdiction\label {method}\relax }{subsection.1.5}{}}
\@writefile{toc}{\contentsline {subsection}{\numberline {1.5}Naturalist fallacy: MPI attempts to derive normative statements from (chaotic) factual state of jurisdiction}{5}{subsection.1.5}}
\newlabel{konst}{{1.6}{5}{Constitution-conformant interpretation missing, recommended freedom restrictions not legitimised\label {konst}\relax }{subsection.1.6}{}}
\@writefile{toc}{\contentsline {subsection}{\numberline {1.6}Constitution-conformant interpretation missing, recommended freedom restrictions not legitimised}{5}{subsection.1.6}}
\newlabel{demokr}{{1.7}{6}{Violation of Democracy Principle\label {demokr}\relax }{subsection.1.7}{}}
\@writefile{toc}{\contentsline {subsection}{\numberline {1.7}Violation of Democracy Principle}{6}{subsection.1.7}}
\newlabel{bmbf}{{1.8}{6}{Wishlist of goodies for the patent movement\label {bmbf}\relax }{subsection.1.8}{}}
\@writefile{toc}{\contentsline {subsection}{\numberline {1.8}Wishlist of goodies for the patent movement}{6}{subsection.1.8}}
\newlabel{vaccae}{{1.9}{6}{``Without appropriate ritual weeping, opensource may not be sacrificed''\label {vaccae}\relax }{subsection.1.9}{}}
\@writefile{toc}{\contentsline {subsection}{\numberline {1.9}``Without appropriate ritual weeping, opensource may not be sacrificed''}{6}{subsection.1.9}}
\newlabel{ltr}{{2}{7}{Letter of 2001-07-18 to theauthors of the study\label {ltr}\relax }{section.2}{}}
\@writefile{toc}{\contentsline {section}{\numberline {2}Letter of 2001-07-18 to theauthors of the study}{7}{section.2}}
\newlabel{lim}{{2.1}{7}{Please explain independently of the current legal situation how patentable ideas can be reliably distinguished from non patentable ones!\label {lim}\relax }{subsection.2.1}{}}
\@writefile{toc}{\contentsline {subsection}{\numberline {2.1}Please explain independently of the current legal situation how patentable ideas can be reliably distinguished from non patentable ones!}{7}{subsection.2.1}}
\newlabel{sem}{{2.2}{8}{Please comment some well known meaningful interpretations of the exclusion of programs for comoputers and explain, why they are ``not possible''!\label {sem}\relax }{subsection.2.2}{}}
\@writefile{toc}{\contentsline {subsection}{\numberline {2.2}Please comment some well known meaningful interpretations of the exclusion of programs for comoputers and explain, why they are ``not possible''!}{8}{subsection.2.2}}
\newlabel{etc}{{3}{10}{Further Reading\label {etc}\relax }{section.3}{}}
\@writefile{toc}{\contentsline {section}{\numberline {3}Further Reading}{10}{section.3}}
