\relax 
\ifx\hyper@anchor\@undefined
\global \let \oldcontentsline\contentsline
\gdef \contentsline#1#2#3#4{\oldcontentsline{#1}{#2}{#3}}
\global \let \oldnewlabel\newlabel
\gdef \newlabel#1#2{\newlabelxx{#1}#2}
\gdef \newlabelxx#1#2#3#4#5#6{\oldnewlabel{#1}{{#2}{#3}}}
\AtEndDocument{\let \contentsline\oldcontentsline
\let \newlabel\oldnewlabel}
\else
\global \let \hyper@last\relax 
\fi

\newlabel{krit}{{1}{3}{Grunds\"atzliche Bewertung\label {krit}\relax }{section.1}{}}
\@writefile{toc}{\contentsline {section}{\numberline {1}Grunds\"atzliche Bewertung}{3}{section.1}}
\newlabel{empir}{{1.1}{3}{Wertvoller Kern: Repr\"asentative Befragung\label {empir}\relax }{subsection.1.1}{}}
\@writefile{toc}{\contentsline {subsection}{\numberline {1.1}Wertvoller Kern: Repr\"asentative Befragung}{3}{subsection.1.1}}
\newlabel{empfehl}{{1.2}{3}{Politischer Anspruch tr\"ubt Wissenschaftlichkeit\label {empfehl}\relax }{subsection.1.2}{}}
\@writefile{toc}{\contentsline {subsection}{\numberline {1.2}Politischer Anspruch tr\"ubt Wissenschaftlichkeit}{3}{subsection.1.2}}
\newlabel{statusquo}{{1.3}{3}{Doppelb\"odige Begriffe: ``Status Quo'', ``erweiterte Patentierbarkeit amerikanischen Stils''\label {statusquo}\relax }{subsection.1.3}{}}
\@writefile{toc}{\contentsline {subsection}{\numberline {1.3}Doppelb\"odige Begriffe: ``Status Quo'', ``erweiterte Patentierbarkeit amerikanischen Stils''}{3}{subsection.1.3}}
\newlabel{alssolche}{{1.4}{4}{Zirkelschluss: MPI kann entstellten Rechtsbegriffen keine Bedeutung abgewinnen\label {alssolche}\relax }{subsection.1.4}{}}
\@writefile{toc}{\contentsline {subsection}{\numberline {1.4}Zirkelschluss: MPI kann entstellten Rechtsbegriffen keine Bedeutung abgewinnen}{4}{subsection.1.4}}
\newlabel{method}{{1.5}{4}{Naturalistischer Fehlschluss: Normbegr\"undung aus (chaotischem) Ist-Zustand der Rechtsprechung\label {method}\relax }{subsection.1.5}{}}
\@writefile{toc}{\contentsline {subsection}{\numberline {1.5}Naturalistischer Fehlschluss: Normbegr\"undung aus (chaotischem) Ist-Zustand der Rechtsprechung}{4}{subsection.1.5}}
\newlabel{konst}{{1.6}{5}{Verfassungskonforme Auslegung fehlt, empfohlene Freiheitsbeschr\"ankungen nicht legitimiert\label {konst}\relax }{subsection.1.6}{}}
\@writefile{toc}{\contentsline {subsection}{\numberline {1.6}Verfassungskonforme Auslegung fehlt, empfohlene Freiheitsbeschr\"ankungen nicht legitimiert}{5}{subsection.1.6}}
\newlabel{demokr}{{1.7}{5}{Verletzung des Demokratieprinzips\label {demokr}\relax }{subsection.1.7}{}}
\@writefile{toc}{\contentsline {subsection}{\numberline {1.7}Verletzung des Demokratieprinzips}{5}{subsection.1.7}}
\newlabel{bmbf}{{1.8}{6}{Nebenbei noch ein paar Bonbons f\"ur die Patentbewegung\label {bmbf}\relax }{subsection.1.8}{}}
\@writefile{toc}{\contentsline {subsection}{\numberline {1.8}Nebenbei noch ein paar Bonbons f\"ur die Patentbewegung}{6}{subsection.1.8}}
\newlabel{vaccae}{{1.9}{6}{Eiertanz zwischen zwei heiligen K\"uhen: Opensource darf nicht ohne besorgte Mine geopfert werden\label {vaccae}\relax }{subsection.1.9}{}}
\@writefile{toc}{\contentsline {subsection}{\numberline {1.9}Eiertanz zwischen zwei heiligen K\"uhen: Opensource darf nicht ohne besorgte Mine geopfert werden}{6}{subsection.1.9}}
\newlabel{ltr}{{2}{6}{Schreiben vom Juli an die Autoren der Studie\label {ltr}\relax }{section.2}{}}
\@writefile{toc}{\contentsline {section}{\numberline {2}Schreiben vom Juli an die Autoren der Studie}{6}{section.2}}
\newlabel{lim}{{2.1}{7}{Erkl\"aren Sie bitte unabh\"angig von der jetzigen Rechtslage, wie patentierbare von nicht patentierbaren Gegenst\"anden unterschieden werden k\"onnen!\label {lim}\relax }{subsection.2.1}{}}
\@writefile{toc}{\contentsline {subsection}{\numberline {2.1}Erkl\"aren Sie bitte unabh\"angig von der jetzigen Rechtslage, wie patentierbare von nicht patentierbaren Gegenst\"anden unterschieden werden k\"onnen!}{7}{subsection.2.1}}
\newlabel{sem}{{2.2}{7}{Nehmen Sie bitte zu den bekannten sinnvollen Interpretationen des Patentierungsausschlusses auf Programme f\"ur Datenverarbeitungsanlagen Stellung und erkl\"aren Sie bitte, warum diese ``nicht m\"oglich'' sind!\label {sem}\relax }{subsection.2.2}{}}
\@writefile{toc}{\contentsline {subsection}{\numberline {2.2}Nehmen Sie bitte zu den bekannten sinnvollen Interpretationen des Patentierungsausschlusses auf Programme f\"ur Datenverarbeitungsanlagen Stellung und erkl\"aren Sie bitte, warum diese ``nicht m\"oglich'' sind!}{7}{subsection.2.2}}
\newlabel{etc}{{3}{10}{Weitere Lekt\"ure\label {etc}\relax }{section.3}{}}
\@writefile{toc}{\contentsline {section}{\numberline {3}Weitere Lekt\"ure}{10}{section.3}}
