\contentsline {section}{\numberline {1}Time and Place}{2}{section.1}
\contentsline {section}{\numberline {2}2003/04/08 14.00-16.00 LoW S23: Software Patents: Fixing the CEC/McCarthy Proposal}{2}{section.2}
\contentsline {section}{\numberline {3}Relevant Reading}{2}{section.3}
