\BOOKMARK [1][-]{section.1}{Time and Place}{}
\BOOKMARK [1][-]{section.2}{2003/04/08 14.00-16.00 LoW S23: Software Patents: Fixing the CEC/McCarthy Proposal}{}
\BOOKMARK [1][-]{section.3}{Relevant Reading}{}
