\relax 
\ifx\hyper@anchor\@undefined
\global \let \oldcontentsline\contentsline
\gdef \contentsline#1#2#3#4{\oldcontentsline{#1}{#2}{#3}}
\global \let \oldnewlabel\newlabel
\gdef \newlabel#1#2{\newlabelxx{#1}#2}
\gdef \newlabelxx#1#2#3#4#5#6{\oldnewlabel{#1}{{#2}{#3}}}
\AtEndDocument{\let \contentsline\oldcontentsline
\let \newlabel\oldnewlabel}
\else
\global \let \hyper@last\relax 
\fi

\@writefile{toc}{\contentsline {chapter}{\numberline {1}Title}{4}{chapter.1}}
\@writefile{lof}{\addvspace {10\p@ }}
\@writefile{lot}{\addvspace {10\p@ }}
\newlabel{tit}{{1}{4}{Title\relax }{chapter.1}{}}
\@writefile{toc}{\contentsline {chapter}{\numberline {2}Harmonisation}{5}{chapter.2}}
\@writefile{lof}{\addvspace {10\p@ }}
\@writefile{lot}{\addvspace {10\p@ }}
\newlabel{harmon}{{2}{5}{Harmonisation\relax }{chapter.2}{}}
\@writefile{toc}{\contentsline {chapter}{\numberline {3}Relation to Art 27 TRIPs: ``Technology'', ``Industry'' and ``Invention''}{6}{chapter.3}}
\@writefile{lof}{\addvspace {10\p@ }}
\@writefile{lot}{\addvspace {10\p@ }}
\newlabel{trips}{{3}{6}{Relation to Art 27 TRIPs: ``Technology'', ``Industry'' and ``Invention''\relax }{chapter.3}{}}
\@writefile{toc}{\contentsline {section}{\numberline {3.1}Positive Definition of Technical Invention (Article 2)}{6}{section.3.1}}
\newlabel{defs}{{3.1}{6}{Positive Definition of Technical Invention (Article 2)\relax }{section.3.1}{}}
\@writefile{toc}{\contentsline {section}{\numberline {3.2}Negative Definition of Technical Invention (Article 3)}{7}{section.3.2}}
\newlabel{datatech}{{3.2}{7}{Negative Definition of Technical Invention (Article 3)\relax }{section.3.2}{}}
\@writefile{toc}{\contentsline {chapter}{\numberline {4}Patents, Copyright and Freedom of Publication (Article 5.a)}{9}{chapter.4}}
\@writefile{lof}{\addvspace {10\p@ }}
\@writefile{lot}{\addvspace {10\p@ }}
\newlabel{publig}{{4}{9}{Patents, Copyright and Freedom of Publication (Article 5.a)\relax }{chapter.4}{}}
\@writefile{toc}{\contentsline {chapter}{\numberline {5}Other important Amendments}{10}{chapter.5}}
\@writefile{lof}{\addvspace {10\p@ }}
\@writefile{lot}{\addvspace {10\p@ }}
\newlabel{etc}{{5}{10}{Other important Amendments\relax }{chapter.5}{}}
\@writefile{toc}{\contentsline {section}{\numberline {5.1}Article 1: Definition of ``computer-implemented invention''}{10}{section.5.1}}
\newlabel{art1}{{5.1}{10}{Article 1: Definition of ``computer-implemented invention''\relax }{section.5.1}{}}
\@writefile{toc}{\contentsline {section}{\numberline {5.2}Article 4(a)bis [NEW]: Computing Efficiency not Technical}{10}{section.5.2}}
\newlabel{art4abis}{{5.2}{10}{Article 4(a)bis [NEW]: Computing Efficiency not Technical\relax }{section.5.2}{}}
\@writefile{toc}{\contentsline {section}{\numberline {5.3}Art 4(3): Technical Contribution consisting of Non-Technical Features?}{11}{section.5.3}}
\newlabel{art43}{{5.3}{11}{Art 4(3): Technical Contribution consisting of Non-Technical Features?\relax }{section.5.3}{}}
\@writefile{toc}{\contentsline {section}{\numberline {5.4}Art 4(2): Technicity and Non-Obviousness are Separate Requirements!}{12}{section.5.4}}
\newlabel{art42}{{5.4}{12}{Art 4(2): Technicity and Non-Obviousness are Separate Requirements!\relax }{section.5.4}{}}
\@writefile{toc}{\contentsline {section}{\numberline {5.5}Article 5: Forms of Claims}{12}{section.5.5}}
\newlabel{art5}{{5.5}{12}{Article 5: Forms of Claims\relax }{section.5.5}{}}
\@writefile{toc}{\contentsline {section}{\numberline {5.6}Art 6.a: Freedom of Interoperation for Data Processing Systems}{13}{section.5.6}}
\newlabel{art6a}{{5.6}{13}{Art 6.a: Freedom of Interoperation for Data Processing Systems\relax }{section.5.6}{}}
\@writefile{toc}{\contentsline {section}{\numberline {5.7}Recital 11: Fields of Technology}{13}{section.5.7}}
\newlabel{rec11}{{5.7}{13}{Recital 11: Fields of Technology\relax }{section.5.7}{}}
\@writefile{toc}{\contentsline {chapter}{\numberline {6}Annotated Links}{15}{chapter.6}}
\@writefile{lof}{\addvspace {10\p@ }}
\@writefile{lot}{\addvspace {10\p@ }}
\newlabel{links}{{6}{15}{Annotated Links\relax }{chapter.6}{}}
