\relax 
\ifx\hyper@anchor\@undefined
\global \let \oldcontentsline\contentsline
\gdef \contentsline#1#2#3#4{\oldcontentsline{#1}{#2}{#3}}
\global \let \oldnewlabel\newlabel
\gdef \newlabel#1#2{\newlabelxx{#1}#2}
\gdef \newlabelxx#1#2#3#4#5#6{\oldnewlabel{#1}{{#2}{#3}}}
\AtEndDocument{\let \contentsline\oldcontentsline
\let \newlabel\oldnewlabel}
\else
\global \let \hyper@last\relax 
\fi

\@writefile{toc}{\contentsline {chapter}{\numberline {1}Titel}{4}{chapter.1}}
\@writefile{lof}{\addvspace {10\p@ }}
\@writefile{lot}{\addvspace {10\p@ }}
\newlabel{tit}{{1}{4}{Titel\relax }{chapter.1}{}}
\@writefile{toc}{\contentsline {chapter}{\numberline {2}Harmonisierung}{5}{chapter.2}}
\@writefile{lof}{\addvspace {10\p@ }}
\@writefile{lot}{\addvspace {10\p@ }}
\newlabel{harmon}{{2}{5}{Harmonisierung\relax }{chapter.2}{}}
\@writefile{toc}{\contentsline {chapter}{\numberline {3}Beziehung zu Art 27 TRIPs: ``Technik'', ``Industrie'' und ``Erfindung''}{6}{chapter.3}}
\@writefile{lof}{\addvspace {10\p@ }}
\@writefile{lot}{\addvspace {10\p@ }}
\newlabel{trips}{{3}{6}{Beziehung zu Art 27 TRIPs: ``Technik'', ``Industrie'' und ``Erfindung''\relax }{chapter.3}{}}
\@writefile{toc}{\contentsline {section}{\numberline {3.1}Positive Definition der ``Technischen Erfindung'' (Artikel 2)}{6}{section.3.1}}
\newlabel{defs}{{3.1}{6}{Positive Definition der ``Technischen Erfindung'' (Artikel 2)\relax }{section.3.1}{}}
\@writefile{toc}{\contentsline {section}{\numberline {3.2}Negative Definition der Technischen Erfindung (Artikel 3)}{7}{section.3.2}}
\newlabel{datatech}{{3.2}{7}{Negative Definition der Technischen Erfindung (Artikel 3)\relax }{section.3.2}{}}
\@writefile{toc}{\contentsline {chapter}{\numberline {4}Patente, Urheberrecht und Ver\"{o}ffentlichungsfreiheit (Artikel 5.a)}{9}{chapter.4}}
\@writefile{lof}{\addvspace {10\p@ }}
\@writefile{lot}{\addvspace {10\p@ }}
\newlabel{publig}{{4}{9}{Patente, Urheberrecht und Ver\"{o}ffentlichungsfreiheit (Artikel 5.a)\relax }{chapter.4}{}}
\@writefile{toc}{\contentsline {chapter}{\numberline {5}Sonstige wichtige \"{A}nderungen}{10}{chapter.5}}
\@writefile{lof}{\addvspace {10\p@ }}
\@writefile{lot}{\addvspace {10\p@ }}
\newlabel{etc}{{5}{10}{Sonstige wichtige \"{A}nderungen\relax }{chapter.5}{}}
\@writefile{toc}{\contentsline {section}{\numberline {5.1}Artikel 1: Definition der ``computer-implementierten Erfindung''}{10}{section.5.1}}
\newlabel{art1}{{5.1}{10}{Artikel 1: Definition der ``computer-implementierten Erfindung''\relax }{section.5.1}{}}
\@writefile{toc}{\contentsline {section}{\numberline {5.2}Artikel 4(a)bis [NEU]: Recheneffizienz nicht Technisch}{11}{section.5.2}}
\newlabel{art4abis}{{5.2}{11}{Artikel 4(a)bis [NEU]: Recheneffizienz nicht Technisch\relax }{section.5.2}{}}
\@writefile{toc}{\contentsline {section}{\numberline {5.3}Art 4(3): Technischer Beitrag aus Nicht-Technischen Merkmalen?}{11}{section.5.3}}
\newlabel{art43}{{5.3}{11}{Art 4(3): Technischer Beitrag aus Nicht-Technischen Merkmalen?\relax }{section.5.3}{}}
\@writefile{toc}{\contentsline {section}{\numberline {5.4}Art 4(2): Technizit\"{a}t und Nicht-Naheliegen sind Zwei Paar Stiefel!}{12}{section.5.4}}
\newlabel{art42}{{5.4}{12}{Art 4(2): Technizit\"{a}t und Nicht-Naheliegen sind Zwei Paar Stiefel!\relax }{section.5.4}{}}
\@writefile{toc}{\contentsline {section}{\numberline {5.5}Article 5: Anspruchsform}{12}{section.5.5}}
\newlabel{art5}{{5.5}{12}{Article 5: Anspruchsform\relax }{section.5.5}{}}
\@writefile{toc}{\contentsline {section}{\numberline {5.6}Art 6.a: Freiheit der Interoperation von Datenverarbeitungssystemen}{13}{section.5.6}}
\newlabel{art6a}{{5.6}{13}{Art 6.a: Freiheit der Interoperation von Datenverarbeitungssystemen\relax }{section.5.6}{}}
\@writefile{toc}{\contentsline {section}{\numberline {5.7}Erw\"{a}gung 11: Gebiete der Technik}{13}{section.5.7}}
\newlabel{rec11}{{5.7}{13}{Erw\"{a}gung 11: Gebiete der Technik\relax }{section.5.7}{}}
\@writefile{toc}{\contentsline {chapter}{\numberline {6}Kommentierte Verweise}{15}{chapter.6}}
\@writefile{lof}{\addvspace {10\p@ }}
\@writefile{lot}{\addvspace {10\p@ }}
\newlabel{links}{{6}{15}{Kommentierte Verweise\relax }{chapter.6}{}}
