\contentsline {section}{\numberline {1}Patent-Universalist Bias and Eurolinux Message}{2}{section.1}
\contentsline {section}{\numberline {2}Emerging Problems and Solution Alternatives}{3}{section.2}
\contentsline {section}{\numberline {3}Eurolinux Proposal: Combined Solution Approach}{5}{section.3}
\contentsline {section}{\numberline {4}Patent Ideologemes}{6}{section.4}
\contentsline {section}{\numberline {5}Untruthful Assertions from EICTA and UNICE}{7}{section.5}
\contentsline {section}{\numberline {6}Questionable Statements from EPO}{8}{section.6}
\contentsline {section}{\numberline {7}A Glimpse into EU Lobbying Structures}{9}{section.7}
\contentsline {section}{\numberline {8}Green Hearing 2002-11-26}{10}{section.8}
\contentsline {section}{\numberline {9}Annotated Links}{12}{section.9}
