\relax 
\ifx\hyper@anchor\@undefined
\global \let \oldcontentsline\contentsline
\gdef \contentsline#1#2#3#4{\oldcontentsline{#1}{#2}{#3}}
\global \let \oldnewlabel\newlabel
\gdef \newlabel#1#2{\newlabelxx{#1}#2}
\gdef \newlabelxx#1#2#3#4#5#6{\oldnewlabel{#1}{{#2}{#3}}}
\AtEndDocument{\let \contentsline\oldcontentsline
\let \newlabel\oldnewlabel}
\else
\global \let \hyper@last\relax 
\fi

\@writefile{toc}{\contentsline {section}{\numberline {1}Patent-Universalist Bias and Eurolinux Message}{2}{section.1}}
\newlabel{bias}{{1}{2}{Patent-Universalist Bias and Eurolinux Message\relax }{section.1}{}}
\@writefile{toc}{\contentsline {section}{\numberline {2}Emerging Problems and Solution Alternatives}{3}{section.2}}
\newlabel{impr}{{2}{3}{Emerging Problems and Solution Alternatives\relax }{section.2}{}}
\@writefile{toc}{\contentsline {section}{\numberline {3}Eurolinux Proposal: Combined Solution Approach}{5}{section.3}}
\newlabel{solu}{{3}{5}{Eurolinux Proposal: Combined Solution Approach\relax }{section.3}{}}
\@writefile{toc}{\contentsline {section}{\numberline {4}Patent Ideologemes}{6}{section.4}}
\newlabel{ideo}{{4}{6}{Patent Ideologemes\relax }{section.4}{}}
\@writefile{toc}{\contentsline {section}{\numberline {5}Untruthful Assertions from EICTA and UNICE}{7}{section.5}}
\newlabel{mens}{{5}{7}{Untruthful Assertions from EICTA and UNICE\relax }{section.5}{}}
\@writefile{toc}{\contentsline {section}{\numberline {6}Questionable Statements from EPO}{8}{section.6}}
\newlabel{rees}{{6}{8}{Questionable Statements from EPO\relax }{section.6}{}}
\@writefile{toc}{\contentsline {section}{\numberline {7}A Glimpse into EU Lobbying Structures}{9}{section.7}}
\newlabel{lobb}{{7}{9}{A Glimpse into EU Lobbying Structures\relax }{section.7}{}}
\@writefile{toc}{\contentsline {section}{\numberline {8}Green Hearing 2002-11-26}{10}{section.8}}
\newlabel{medi021126}{{8}{10}{Green Hearing 2002-11-26\relax }{section.8}{}}
\@writefile{toc}{\contentsline {section}{\numberline {9}Annotated Links}{12}{section.9}}
\newlabel{lists}{{9}{12}{Annotated Links\relax }{section.9}{}}
\gdef\scr@tpo@lst{0}
