\BOOKMARK [1][-]{section.1}{ZDF-Intendant pr^^c3^^bcft FFII-Beschwerde}{}
\BOOKMARK [1][-]{section.2}{Knappe Mehrheit der Minister stimmt Softwarepatenten zu, erreicht durch faulen Kompromiss}{}
\BOOKMARK [1][-]{section.3}{Rat der EU will Parlamentsbeschluss ohne Diskussion verwerfen}{}
