\relax 
\ifx\hyper@anchor\@undefined
\global \let \oldcontentsline\contentsline
\gdef \contentsline#1#2#3#4{\oldcontentsline{#1}{#2}{#3}}
\global \let \oldnewlabel\newlabel
\gdef \newlabel#1#2{\newlabelxx{#1}#2}
\gdef \newlabelxx#1#2#3#4#5#6{\oldnewlabel{#1}{{#2}{#3}}}
\AtEndDocument{\let \contentsline\oldcontentsline
\let \newlabel\oldnewlabel}
\else
\global \let \hyper@last\relax 
\fi

\newlabel{zdf040824}{{1}{1}{ZDF-Intendant pr^^c3^^bcft FFII-Beschwerde\label {zdf040824}\relax }{section.1}{}}
\@writefile{toc}{\contentsline {section}{\numberline {1}ZDF-Intendant pr^^c3^^bcft FFII-Beschwerde}{1}{section.1}}
\newlabel{zdf040824}{{1}{2}{ZDF-Intendant pr^^c3^^bcft FFII-Beschwerde\label {zdf040824}\relax }{section.1}{}}
\newlabel{cons040518}{{2}{2}{Knappe Mehrheit der Minister stimmt Softwarepatenten zu, erreicht durch faulen Kompromiss\label {cons040518}\relax }{section.2}{}}
\@writefile{toc}{\contentsline {section}{\numberline {2}Knappe Mehrheit der Minister stimmt Softwarepatenten zu, erreicht durch faulen Kompromiss}{2}{section.2}}
\newlabel{cons040518}{{2}{2}{Knappe Mehrheit der Minister stimmt Softwarepatenten zu, erreicht durch faulen Kompromiss\label {cons040518}\relax }{section.2}{}}
\newlabel{cons040507}{{3}{2}{Rat der EU will Parlamentsbeschluss ohne Diskussion verwerfen\label {cons040507}\relax }{section.3}{}}
\@writefile{toc}{\contentsline {section}{\numberline {3}Rat der EU will Parlamentsbeschluss ohne Diskussion verwerfen}{2}{section.3}}
\newlabel{cons040507}{{3}{2}{Rat der EU will Parlamentsbeschluss ohne Diskussion verwerfen\label {cons040507}\relax }{section.3}{}}
