\relax 
\ifx\hyper@anchor\@undefined
\global \let \oldcontentsline\contentsline
\gdef \contentsline#1#2#3#4{\oldcontentsline{#1}{#2}{#3}}
\global \let \oldnewlabel\newlabel
\gdef \newlabel#1#2{\newlabelxx{#1}#2}
\gdef \newlabelxx#1#2#3#4#5#6{\oldnewlabel{#1}{{#2}{#3}}}
\AtEndDocument{\let \contentsline\oldcontentsline
\let \newlabel\oldnewlabel}
\else
\global \let \hyper@last\relax 
\fi

\newlabel{zdf040824}{{1}{1}{German TV Examines FFII Complaint\label {zdf040824}\relax }{section.1}{}}
\@writefile{toc}{\contentsline {section}{\numberline {1}German TV Examines FFII Complaint}{1}{section.1}}
\newlabel{zdf040824}{{1}{2}{German TV Examines FFII Complaint\label {zdf040824}\relax }{section.1}{}}
\newlabel{cons040518}{{2}{2}{Thin Majority of Ministers Approve Software Patents, Swayed by Bogus Compromise\label {cons040518}\relax }{section.2}{}}
\@writefile{toc}{\contentsline {section}{\numberline {2}Thin Majority of Ministers Approve Software Patents, Swayed by Bogus Compromise}{2}{section.2}}
\newlabel{cons040518}{{2}{2}{Thin Majority of Ministers Approve Software Patents, Swayed by Bogus Compromise\label {cons040518}\relax }{section.2}{}}
\newlabel{cons040507}{{3}{2}{EU Council Plans to Scrap Parliamentary Vote without Discussion\label {cons040507}\relax }{section.3}{}}
\@writefile{toc}{\contentsline {section}{\numberline {3}EU Council Plans to Scrap Parliamentary Vote without Discussion}{2}{section.3}}
\newlabel{cons040507}{{3}{2}{EU Council Plans to Scrap Parliamentary Vote without Discussion\label {cons040507}\relax }{section.3}{}}
