\relax 
\catcode`:\active
\catcode`;\active
\catcode`!\active
\catcode`?\active
\ifx\hyper@anchor\@undefined
\global \let \oldcontentsline\contentsline
\gdef \contentsline#1#2#3#4{\oldcontentsline{#1}{#2}{#3}}
\global \let \oldnewlabel\newlabel
\gdef \newlabel#1#2{\newlabelxx{#1}#2}
\gdef \newlabelxx#1#2#3#4#5#6{\oldnewlabel{#1}{{#2}{#3}}}
\AtEndDocument{\let \contentsline\oldcontentsline
\let \newlabel\oldnewlabel}
\else
\global \let \hyper@last\relax 
\fi

\select@language{french}
\@writefile{toc}{\select@language{french}}
\@writefile{lof}{\select@language{french}}
\@writefile{lot}{\select@language{french}}
\newlabel{zdf040824}{{1}{1}{German TV Examines FFII Complaint\label {zdf040824}\relax }{section.1}{}}
\@writefile{toc}{\contentsline {section}{\numberline {1}German TV Examines FFII Complaint}{1}{section.1}}
\newlabel{zdf040824}{{1}{2}{German TV Examines FFII Complaint\label {zdf040824}\relax }{section.1}{}}
\newlabel{cons040518}{{2}{2}{Une courte majorit^^c3^^a9 de ministres, influenc^^c3^^a9s par un compromis boggu^^c3^^a9, approuve les brevets logiciels\label {cons040518}\relax }{section.2}{}}
\@writefile{toc}{\contentsline {section}{\numberline {2}Une courte majorit^^c3^^a9 de ministres, influenc^^c3^^a9s par un compromis boggu^^c3^^a9, approuve les brevets logiciels}{2}{section.2}}
\newlabel{cons040518}{{2}{2}{Une courte majorit^^c3^^a9 de ministres, influenc^^c3^^a9s par un compromis boggu^^c3^^a9, approuve les brevets logiciels\label {cons040518}\relax }{section.2}{}}
\newlabel{cons040507}{{3}{2}{Le Conseil de l'UE s'appr^^c3^^aate ^^c3^^a0 balayer le vote du Parlement sans discussion\label {cons040507}\relax }{section.3}{}}
\@writefile{toc}{\contentsline {section}{\numberline {3}Le Conseil de l'UE s'appr^^c3^^aate ^^c3^^a0 balayer le vote du Parlement sans discussion}{2}{section.3}}
