\relax 
\ifx\hyper@anchor\@undefined
\global \let \oldcontentsline\contentsline
\gdef \contentsline#1#2#3#4{\oldcontentsline{#1}{#2}{#3}}
\global \let \oldnewlabel\newlabel
\gdef \newlabel#1#2{\newlabelxx{#1}#2}
\gdef \newlabelxx#1#2#3#4#5#6{\oldnewlabel{#1}{{#2}{#3}}}
\AtEndDocument{\let \contentsline\oldcontentsline
\let \newlabel\oldnewlabel}
\else
\global \let \hyper@last\relax 
\fi

\@writefile{toc}{\contentsline {section}{\numberline {1}Vorbemerkung}{2}{section.1}}
\newlabel{vorb}{{1}{2}{Vorbemerkung\relax }{section.1}{}}
\@writefile{toc}{\contentsline {section}{\numberline {2}Wortlaut der Regelung}{2}{section.2}}
\newlabel{wort}{{2}{2}{Wortlaut der Regelung\relax }{section.2}{}}
\@writefile{toc}{\contentsline {section}{\numberline {3}Systematische Auslegung}{4}{section.3}}
\newlabel{syst}{{3}{4}{Systematische Auslegung\relax }{section.3}{}}
\@writefile{toc}{\contentsline {section}{\numberline {4}Teleologische Auslegung}{5}{section.4}}
\newlabel{tele}{{4}{5}{Teleologische Auslegung\relax }{section.4}{}}
\@writefile{toc}{\contentsline {section}{\numberline {5}Historische Auslegung}{5}{section.5}}
\newlabel{hist}{{5}{5}{Historische Auslegung\relax }{section.5}{}}
\@writefile{toc}{\contentsline {section}{\numberline {6}Verfassungskonforme Auslegung}{6}{section.6}}
\newlabel{verf}{{6}{6}{Verfassungskonforme Auslegung\relax }{section.6}{}}
\@writefile{toc}{\contentsline {section}{\numberline {7}Zwischenergebnis}{8}{section.7}}
\newlabel{zwer}{{7}{8}{Zwischenergebnis\relax }{section.7}{}}
\@writefile{toc}{\contentsline {section}{\numberline {8}Diskussion der Praxis des Europ\"{a}ischen Patentamtes}{8}{section.8}}
\newlabel{epra}{{8}{8}{Diskussion der Praxis des Europ\"{a}ischen Patentamtes\relax }{section.8}{}}
\@writefile{toc}{\contentsline {section}{\numberline {9}Weitere Lekt\"{u}re (Empfehlungen des Herausgebers)}{10}{section.9}}
\newlabel{links}{{9}{10}{Weitere Lekt\"{u}re (Empfehlungen des Herausgebers)\relax }{section.9}{}}
\gdef\scr@tpo@lst{0}
