\contentsline {section}{\numberline {1}Vorbemerkung}{2}{section.1}
\contentsline {section}{\numberline {2}Wortlaut der Regelung}{2}{section.2}
\contentsline {section}{\numberline {3}Systematische Auslegung}{4}{section.3}
\contentsline {section}{\numberline {4}Teleologische Auslegung}{5}{section.4}
\contentsline {section}{\numberline {5}Historische Auslegung}{5}{section.5}
\contentsline {section}{\numberline {6}Verfassungskonforme Auslegung}{6}{section.6}
\contentsline {section}{\numberline {7}Zwischenergebnis}{8}{section.7}
\contentsline {section}{\numberline {8}Diskussion der Praxis des Europ\"{a}ischen Patentamtes}{8}{section.8}
\contentsline {section}{\numberline {9}Weitere Lekt\"{u}re (Empfehlungen des Herausgebers)}{10}{section.9}
