\relax 
\ifx\hyper@anchor\@undefined
\global \let \oldcontentsline\contentsline
\gdef \contentsline#1#2#3#4{\oldcontentsline{#1}{#2}{#3}}
\global \let \oldnewlabel\newlabel
\gdef \newlabel#1#2{\newlabelxx{#1}#2}
\gdef \newlabelxx#1#2#3#4#5#6{\oldnewlabel{#1}{{#2}{#3}}}
\AtEndDocument{\let \contentsline\oldcontentsline
\let \newlabel\oldnewlabel}
\else
\global \let \hyper@last\relax 
\fi

\@writefile{toc}{\contentsline {section}{\numberline {1}Preface}{2}{section.1}}
\newlabel{vorb}{{1}{2}{Preface\relax }{section.1}{}}
\@writefile{toc}{\contentsline {section}{\numberline {2}Wording of the Provisions}{2}{section.2}}
\newlabel{wort}{{2}{2}{Wording of the Provisions\relax }{section.2}{}}
\@writefile{toc}{\contentsline {section}{\numberline {3}Systematic Interpretation}{4}{section.3}}
\newlabel{syst}{{3}{4}{Systematic Interpretation\relax }{section.3}{}}
\@writefile{toc}{\contentsline {section}{\numberline {4}Teleologic Interpretation}{5}{section.4}}
\newlabel{tele}{{4}{5}{Teleologic Interpretation\relax }{section.4}{}}
\@writefile{toc}{\contentsline {section}{\numberline {5}Historical interpretation}{5}{section.5}}
\newlabel{hist}{{5}{5}{Historical interpretation\relax }{section.5}{}}
\@writefile{toc}{\contentsline {section}{\numberline {6}Constitutional Interpretation}{6}{section.6}}
\newlabel{verf}{{6}{6}{Constitutional Interpretation\relax }{section.6}{}}
\@writefile{toc}{\contentsline {section}{\numberline {7}Intermediate Result}{7}{section.7}}
\newlabel{zwer}{{7}{7}{Intermediate Result\relax }{section.7}{}}
\@writefile{toc}{\contentsline {section}{\numberline {8}Discussion of the practise of the European Patent Office}{7}{section.8}}
\newlabel{epra}{{8}{7}{Discussion of the practise of the European Patent Office\relax }{section.8}{}}
\@writefile{toc}{\contentsline {section}{\numberline {9}Further Reading (Editor's Recommendations)}{9}{section.9}}
\newlabel{links}{{9}{9}{Further Reading (Editor's Recommendations)\relax }{section.9}{}}
\gdef\scr@tpo@lst{0}
