\contentsline {chapter}{\numberline {1}Warum wollen wir Patente auf Software und Gesch\"aftsmethoden ausschlie{\ss }en?}{3}{chapter.1}
\contentsline {chapter}{\numberline {2}Was ist am \active@dq \dq@prtct {`}Gemeinsamen Standpunkt\active@dq \dq@prtct {'} denn so schlimm?}{5}{chapter.2}
\contentsline {chapter}{\numberline {3}Die Gretchenfrage: Naturwissenschaft oder exakte Wissenschaft?}{8}{chapter.3}
\contentsline {chapter}{\numberline {4}Wie man gem\"a{\ss } den \active@dq \dq@prtct {`}Zehn Klarstellungen\active@dq \dq@prtct {'} Computertomographie patentiert}{9}{chapter.4}
\contentsline {chapter}{\numberline {A}Die zehn zentralen Klarstellungen f\"ur die Softwarepatentrichtlinie}{11}{appendix.A}
