\relax 
\ifx\hyper@anchor\@undefined
\global \let \oldcontentsline\contentsline
\gdef \contentsline#1#2#3#4{\oldcontentsline{#1}{#2}{#3}}
\global \let \oldnewlabel\newlabel
\gdef \newlabel#1#2{\newlabelxx{#1}#2}
\gdef \newlabelxx#1#2#3#4#5#6{\oldnewlabel{#1}{{#2}{#3}}}
\AtEndDocument{\let \contentsline\oldcontentsline
\let \newlabel\oldnewlabel}
\else
\global \let \hyper@last\relax 
\fi

\@writefile{toc}{\contentsline {chapter}{\numberline {1}Warum wollen wir Patente auf Software und Gesch\"aftsmethoden ausschlie{\ss }en?}{3}{chapter.1}}
\@writefile{lof}{\addvspace {10\p@ }}
\@writefile{lot}{\addvspace {10\p@ }}
\@writefile{toc}{\contentsline {chapter}{\numberline {2}Was ist am \active@dq  \dq@prtct{`}Gemeinsamen Standpunkt\active@dq  \dq@prtct{'} denn so schlimm?}{5}{chapter.2}}
\@writefile{lof}{\addvspace {10\p@ }}
\@writefile{lot}{\addvspace {10\p@ }}
\@writefile{toc}{\contentsline {chapter}{\numberline {3}Die Gretchenfrage: Naturwissenschaft oder exakte Wissenschaft?}{8}{chapter.3}}
\@writefile{lof}{\addvspace {10\p@ }}
\@writefile{lot}{\addvspace {10\p@ }}
\@writefile{toc}{\contentsline {chapter}{\numberline {4}Wie man gem\"a{\ss } den \active@dq  \dq@prtct{`}Zehn Klarstellungen\active@dq  \dq@prtct{'} Computertomographie patentiert}{9}{chapter.4}}
\@writefile{lof}{\addvspace {10\p@ }}
\@writefile{lot}{\addvspace {10\p@ }}
\@writefile{toc}{\contentsline {chapter}{\numberline {A}Die zehn zentralen Klarstellungen f\"ur die Softwarepatentrichtlinie}{11}{appendix.A}}
\@writefile{lof}{\addvspace {10\p@ }}
\@writefile{lot}{\addvspace {10\p@ }}
\newlabel{nukleus}{{A}{11}{Die zehn zentralen Klarstellungen f\"ur die Softwarepatentrichtlinie\relax }{appendix.A}{}}
\gdef\scr@tpo@lst{0}
\global\@altsecnumformattrue
