\BOOKMARK [0][-]{chapter.1}{Perch\351 vogliamo escludere i brevetti sul software e i metodi commerciali?}{}
\BOOKMARK [0][-]{chapter.2}{Che cosa c'\350 di sbagliato nella ``Posizione Comune''?}{}
\BOOKMARK [0][-]{chapter.3}{La scelta basilare: Scienze Naturali vs Science Esatte}{}
\BOOKMARK [0][-]{chapter.4}{Brevettare invenzioni di tomografia computerizzata sotto le ``Dieci Chiarificazioni''}{}
\BOOKMARK [0][-]{appendix.A}{Dieci Chiarificazioni Chiave per la Direttiva sui Brevetti Software}{}
