\BOOKMARK [0][-]{chapter.1}{Warum wollen wir Patente auf Software und Gesch\344ftsmethoden ausschlie\337en?}{}
\BOOKMARK [0][-]{chapter.2}{Was ist am \214Gemeinsamen Standpunkt\215 denn so schlimm?}{}
\BOOKMARK [0][-]{chapter.3}{Die Gretchenfrage: Naturwissenschaft oder exakte Wissenschaft?}{}
\BOOKMARK [0][-]{chapter.4}{Wie man gem\344\337 den \214Zehn Klarstellungen\215 Computertomographie patentiert}{}
\BOOKMARK [0][-]{appendix.A}{Die zehn zentralen Klarstellungen f\374r die Softwarepatentrichtlinie}{}
