\relax 
\ifx\hyper@anchor\@undefined
\global \let \oldcontentsline\contentsline
\gdef \contentsline#1#2#3#4{\oldcontentsline{#1}{#2}{#3}}
\global \let \oldnewlabel\newlabel
\gdef \newlabel#1#2{\newlabelxx{#1}#2}
\gdef \newlabelxx#1#2#3#4#5#6{\oldnewlabel{#1}{{#2}{#3}}}
\AtEndDocument{\let \contentsline\oldcontentsline
\let \newlabel\oldnewlabel}
\else
\global \let \hyper@last\relax 
\fi

\@writefile{toc}{\contentsline {chapter}{\numberline {1}Why do we want to exclude patents on software and business methods?}{3}{chapter.1}}
\@writefile{lof}{\addvspace {10\p@ }}
\@writefile{lot}{\addvspace {10\p@ }}
\@writefile{toc}{\contentsline {chapter}{\numberline {2}What's wrong with the ``Common Position''?}{5}{chapter.2}}
\@writefile{lof}{\addvspace {10\p@ }}
\@writefile{lot}{\addvspace {10\p@ }}
\@writefile{toc}{\contentsline {section}{\numberline {2.1}The thoughts as such are free\dots  }{5}{section.2.1}}
\@writefile{toc}{\contentsline {section}{\numberline {2.2}A program claim shall not be allowed, unless\dots  }{6}{section.2.2}}
\@writefile{toc}{\contentsline {chapter}{\numberline {3}The Fundamental Choice: Natural vs Exact Science}{8}{chapter.3}}
\@writefile{lof}{\addvspace {10\p@ }}
\@writefile{lot}{\addvspace {10\p@ }}
\@writefile{toc}{\contentsline {chapter}{\numberline {4}Patenting computer tomography under the ``Ten Clarifications''}{9}{chapter.4}}
\@writefile{lof}{\addvspace {10\p@ }}
\@writefile{lot}{\addvspace {10\p@ }}
\@writefile{toc}{\contentsline {section}{\numberline {4.1}Process Claim}{9}{section.4.1}}
\@writefile{toc}{\contentsline {section}{\numberline {4.2}Program Claim}{10}{section.4.2}}
\@writefile{toc}{\contentsline {chapter}{\numberline {A}Ten Core Clarifications for the Software Patent Directive}{11}{appendix.A}}
\@writefile{lof}{\addvspace {10\p@ }}
\@writefile{lot}{\addvspace {10\p@ }}
\newlabel{nukleus}{{A}{11}{Ten Core Clarifications for the Software Patent Directive\relax }{appendix.A}{}}
\gdef\scr@tpo@lst{0}
\global\@altsecnumformattrue
