\select@language {italian}
\contentsline {chapter}{\numberline {1}Perch\IeC {\'e} vogliamo escludere i brevetti sul software e i metodi commerciali?}{3}{chapter.1}
\contentsline {chapter}{\numberline {2}Che cosa c'\IeC {\`e} di sbagliato nella ``Posizione Comune''?}{5}{chapter.2}
\contentsline {chapter}{\numberline {3}La scelta basilare: Scienze Naturali vs Science Esatte}{8}{chapter.3}
\contentsline {chapter}{\numberline {4}Brevettare invenzioni di tomografia computerizzata sotto le ``Dieci Chiarificazioni''}{9}{chapter.4}
\contentsline {chapter}{\numberline {A}Dieci Chiarificazioni Chiave per la Direttiva sui Brevetti Software}{11}{appendix.A}
