\relax 
\ifx\hyper@anchor\@undefined
\global \let \oldcontentsline\contentsline
\gdef \contentsline#1#2#3#4{\oldcontentsline{#1}{#2}{#3}}
\global \let \oldnewlabel\newlabel
\gdef \newlabel#1#2{\newlabelxx{#1}#2}
\gdef \newlabelxx#1#2#3#4#5#6{\oldnewlabel{#1}{{#2}{#3}}}
\AtEndDocument{\let \contentsline\oldcontentsline
\let \newlabel\oldnewlabel}
\else
\global \let \hyper@last\relax 
\fi

\@writefile{toc}{\contentsline {section}{\numberline {1}Why do we want to exclude patents on software and business methods?}{1}{section.1}}
\@writefile{toc}{\contentsline {section}{\numberline {2}What's wrong with the ``Common Position''?}{2}{section.2}}
\@writefile{toc}{\contentsline {section}{\numberline {3}The basic choice: Natural Science vs Exact Science}{4}{section.3}}
\@writefile{toc}{\contentsline {section}{\numberline {4}Patenting computer tomography inventions under the ``Ten Clarifications''}{4}{section.4}}
\gdef\scr@tpo@lst{0}
