\contentsline {section}{\numberline {1}Why do we want to exclude patents on software and business methods?}{1}{section.1}
\contentsline {section}{\numberline {2}What's wrong with the ``Common Position''?}{2}{section.2}
\contentsline {section}{\numberline {3}The basic choice: Natural Science vs Exact Science}{4}{section.3}
\contentsline {section}{\numberline {4}Patenting computer tomography inventions under the ``Ten Clarifications''}{4}{section.4}
