\relax 
\ifx\hyper@anchor\@undefined
\global \let \oldcontentsline\contentsline
\gdef \contentsline#1#2#3#4{\oldcontentsline{#1}{#2}{#3}}
\global \let \oldnewlabel\newlabel
\gdef \newlabel#1#2{\newlabelxx{#1}#2}
\gdef \newlabelxx#1#2#3#4#5#6{\oldnewlabel{#1}{{#2}{#3}}}
\AtEndDocument{\let \contentsline\oldcontentsline
\let \newlabel\oldnewlabel}
\else
\global \let \hyper@last\relax 
\fi

\newlabel{am230}{{1}{1}{Amendment 230\label {am230}\relax }{section.1}{}}
\@writefile{toc}{\contentsline {section}{\numberline {1}Amendment 230}{1}{section.1}}
\newlabel{am231}{{2}{2}{Amendment 231\label {am231}\relax }{section.2}{}}
\@writefile{toc}{\contentsline {section}{\numberline {2}Amendment 231}{2}{section.2}}
\newlabel{am232}{{3}{3}{Amendment 232\label {am232}\relax }{section.3}{}}
\@writefile{toc}{\contentsline {section}{\numberline {3}Amendment 232}{3}{section.3}}
\newlabel{am233}{{4}{4}{Amendment 233\label {am233}\relax }{section.4}{}}
\@writefile{toc}{\contentsline {section}{\numberline {4}Amendment 233}{4}{section.4}}
\@writefile{toc}{\contentsline {subsection}{\numberline {4.1}critique}{5}{subsection.4.1}}
\newlabel{am234}{{5}{5}{Amendment 234\label {am234}\relax }{section.5}{}}
\@writefile{toc}{\contentsline {section}{\numberline {5}Amendment 234}{5}{section.5}}
\newlabel{am235}{{6}{6}{Amendment 235\label {am235}\relax }{section.6}{}}
\@writefile{toc}{\contentsline {section}{\numberline {6}Amendment 235}{6}{section.6}}
\newlabel{am236}{{7}{7}{Amendment 236\label {am236}\relax }{section.7}{}}
\@writefile{toc}{\contentsline {section}{\numberline {7}Amendment 236}{7}{section.7}}
\gdef\scr@tpo@lst{0}
