\relax 
\ifx\hyper@anchor\@undefined
\global \let \oldcontentsline\contentsline
\gdef \contentsline#1#2#3#4{\oldcontentsline{#1}{#2}{#3}}
\global \let \oldnewlabel\newlabel
\gdef \newlabel#1#2{\newlabelxx{#1}#2}
\gdef \newlabelxx#1#2#3#4#5#6{\oldnewlabel{#1}{{#2}{#3}}}
\AtEndDocument{\let \contentsline\oldcontentsline
\let \newlabel\oldnewlabel}
\else
\global \let \hyper@last\relax 
\fi

\newlabel{am242}{{1}{2}{Amendment 242\label {am242}\relax }{section.1}{}}
\@writefile{toc}{\contentsline {section}{\numberline {1}Amendment 242}{2}{section.1}}
\newlabel{am244}{{2}{3}{Amendment 244\label {am244}\relax }{section.2}{}}
\@writefile{toc}{\contentsline {section}{\numberline {2}Amendment 244}{3}{section.2}}
\newlabel{am245}{{3}{4}{Amendment 245\label {am245}\relax }{section.3}{}}
\@writefile{toc}{\contentsline {section}{\numberline {3}Amendment 245}{4}{section.3}}
\newlabel{am246}{{4}{4}{Amendment 246\label {am246}\relax }{section.4}{}}
\@writefile{toc}{\contentsline {section}{\numberline {4}Amendment 246}{4}{section.4}}
\gdef\scr@tpo@lst{0}
