\relax 
\ifx\hyper@anchor\@undefined
\global \let \oldcontentsline\contentsline
\gdef \contentsline#1#2#3#4{\oldcontentsline{#1}{#2}{#3}}
\global \let \oldnewlabel\newlabel
\gdef \newlabel#1#2{\newlabelxx{#1}#2}
\gdef \newlabelxx#1#2#3#4#5#6{\oldnewlabel{#1}{{#2}{#3}}}
\AtEndDocument{\let \contentsline\oldcontentsline
\let \newlabel\oldnewlabel}
\else
\global \let \hyper@last\relax 
\fi

\@writefile{toc}{\contentsline {section}{\numberline {1}Voting List}{2}{section.1}}
\newlabel{votlist}{{1}{2}{Voting List\relax }{section.1}{}}
\@writefile{toc}{\contentsline {section}{\numberline {2}Amendments in Detail}{2}{section.2}}
\newlabel{amends}{{2}{2}{Amendments in Detail\relax }{section.2}{}}
\newlabel{am40}{{3}{2}{Amendment 40 rejette la position commune\label {am40}\relax }{section.3}{}}
\@writefile{toc}{\contentsline {section}{\numberline {3}Amendment 40 rejette la position commune}{2}{section.3}}
\@writefile{toc}{\contentsline {subsection}{\numberline {3.1}critique}{3}{subsection.3.1}}
\newlabel{am41}{{4}{3}{Amendment 41 Rejects the Common Position\label {am41}\relax }{section.4}{}}
\@writefile{toc}{\contentsline {section}{\numberline {4}Amendment 41 Rejects the Common Position}{3}{section.4}}
\@writefile{toc}{\contentsline {subsection}{\numberline {4.1}critique}{4}{subsection.4.1}}
\gdef\scr@tpo@lst{0}
