\BOOKMARK [1][-]{section.1}{Voting List}{}
\BOOKMARK [1][-]{section.2}{Amendments in Detail}{}
\BOOKMARK [1][-]{section.3}{Amendment 40 rejette la position commune}{}
\BOOKMARK [2][-]{subsection.3.1}{critique}{section.3}
\BOOKMARK [1][-]{section.4}{Amendment 41 Rejects the Common Position}{}
\BOOKMARK [2][-]{subsection.4.1}{critique}{section.4}
