\relax 
\ifx\hyper@anchor\@undefined
\global \let \oldcontentsline\contentsline
\gdef \contentsline#1#2#3#4{\oldcontentsline{#1}{#2}{#3}}
\global \let \oldnewlabel\newlabel
\gdef \newlabel#1#2{\newlabelxx{#1}#2}
\gdef \newlabelxx#1#2#3#4#5#6{\oldnewlabel{#1}{{#2}{#3}}}
\AtEndDocument{\let \contentsline\oldcontentsline
\let \newlabel\oldnewlabel}
\else
\global \let \hyper@last\relax 
\fi

\@writefile{toc}{\contentsline {section}{\numberline {1}Die zu leistenden Zentralen Klarstellungen}{2}{section.1}}
\newlabel{nukleus}{{1}{2}{Die zu leistenden Zentralen Klarstellungen\relax }{section.1}{}}
\@writefile{toc}{\contentsline {section}{\numberline {2}Nach Themen gruppierte \"{A}nderungsvorschl\"{a}ge}{3}{section.2}}
\newlabel{klas}{{2}{3}{Nach Themen gruppierte \"{A}nderungsvorschl\"{a}ge\relax }{section.2}{}}
\@writefile{toc}{\contentsline {section}{\numberline {3}Kommentierte Verweise}{5}{section.3}}
\newlabel{links}{{3}{5}{Kommentierte Verweise\relax }{section.3}{}}
\gdef\scr@tpo@lst{0}
