\contentsline {section}{\numberline {1}Introduction}{1}{section.1}
\contentsline {section}{\numberline {2}Voting List}{4}{section.2}
\contentsline {section}{\numberline {3}Amendments in Detail}{5}{section.3}
