\relax 
\ifx\hyper@anchor\@undefined
\global \let \oldcontentsline\contentsline
\gdef \contentsline#1#2#3#4{\oldcontentsline{#1}{#2}{#3}}
\global \let \oldnewlabel\newlabel
\gdef \newlabel#1#2{\newlabelxx{#1}#2}
\gdef \newlabelxx#1#2#3#4#5#6{\oldnewlabel{#1}{{#2}{#3}}}
\AtEndDocument{\let \contentsline\oldcontentsline
\let \newlabel\oldnewlabel}
\else
\global \let \hyper@last\relax 
\fi

\newlabel{am185}{{1}{1}{Amendment 185\label {am185}\relax }{section.1}{}}
\@writefile{toc}{\contentsline {section}{\numberline {1}Amendment 185}{1}{section.1}}
\newlabel{am186}{{2}{3}{Amendment 186\label {am186}\relax }{section.2}{}}
\@writefile{toc}{\contentsline {section}{\numberline {2}Amendment 186}{3}{section.2}}
\newlabel{am187}{{3}{4}{Amendment 187\label {am187}\relax }{section.3}{}}
\@writefile{toc}{\contentsline {section}{\numberline {3}Amendment 187}{4}{section.3}}
\newlabel{am188}{{4}{6}{Amendment 188\label {am188}\relax }{section.4}{}}
\@writefile{toc}{\contentsline {section}{\numberline {4}Amendment 188}{6}{section.4}}
\newlabel{am189}{{5}{7}{Amendment 189\label {am189}\relax }{section.5}{}}
\@writefile{toc}{\contentsline {section}{\numberline {5}Amendment 189}{7}{section.5}}
\gdef\scr@tpo@lst{0}
