\contentsline {section}{\numberline {1}Introduction}{1}{section.1}
\contentsline {section}{\numberline {2}Votes}{4}{section.2}
\contentsline {section}{\numberline {3}Amendments in Detail}{5}{section.3}
\contentsline {section}{\numberline {4}Amendment 98}{5}{section.4}
\contentsline {subsection}{\numberline {4.1}critique}{5}{subsection.4.1}
\contentsline {section}{\numberline {5}Amendment 111}{6}{section.5}
\contentsline {subsection}{\numberline {5.1}critique}{6}{subsection.5.1}
\contentsline {section}{\numberline {6}Amendment 112}{7}{section.6}
\contentsline {subsection}{\numberline {6.1}critique}{7}{subsection.6.1}
\contentsline {section}{\numberline {7}Amendment 113}{8}{section.7}
\contentsline {subsection}{\numberline {7.1}critique}{8}{subsection.7.1}
\contentsline {section}{\numberline {8}Amendment 114}{8}{section.8}
\contentsline {section}{\numberline {9}Amendment 115}{9}{section.9}
