\contentsline {section}{\numberline {1}Introduction}{1}{section.1}
\contentsline {section}{\numberline {2}Votes}{4}{section.2}
\contentsline {section}{\numberline {3}Amendments in Detail}{5}{section.3}
\contentsline {section}{\numberline {4}Amendment 33}{5}{section.4}
\contentsline {subsection}{\numberline {4.1}critique}{6}{subsection.4.1}
\contentsline {section}{\numberline {5}Amendment 116}{6}{section.5}
\contentsline {subsection}{\numberline {5.1}critique}{7}{subsection.5.1}
\contentsline {section}{\numberline {6}Amendment 117}{7}{section.6}
\contentsline {subsection}{\numberline {6.1}critique}{7}{subsection.6.1}
\contentsline {section}{\numberline {7}Amendment 118}{8}{section.7}
\contentsline {subsection}{\numberline {7.1}critique}{9}{subsection.7.1}
\contentsline {section}{\numberline {8}Amendment 119}{9}{section.8}
\contentsline {subsection}{\numberline {8.1}critique}{10}{subsection.8.1}
\contentsline {section}{\numberline {9}Amendment 120}{10}{section.9}
\contentsline {subsection}{\numberline {9.1}critique}{11}{subsection.9.1}
\contentsline {section}{\numberline {10}Amendment 121}{11}{section.10}
\contentsline {section}{\numberline {11}Amendment 237}{12}{section.11}
\contentsline {section}{\numberline {12}Amendment 238}{13}{section.12}
