\relax 
\ifx\hyper@anchor\@undefined
\global \let \oldcontentsline\contentsline
\gdef \contentsline#1#2#3#4{\oldcontentsline{#1}{#2}{#3}}
\global \let \oldnewlabel\newlabel
\gdef \newlabel#1#2{\newlabelxx{#1}#2}
\gdef \newlabelxx#1#2#3#4#5#6{\oldnewlabel{#1}{{#2}{#3}}}
\AtEndDocument{\let \contentsline\oldcontentsline
\let \newlabel\oldnewlabel}
\else
\global \let \hyper@last\relax 
\fi

\@writefile{toc}{\contentsline {section}{\numberline {1}Voting List}{2}{section.1}}
\newlabel{votlist}{{1}{2}{Voting List\relax }{section.1}{}}
\@writefile{toc}{\contentsline {section}{\numberline {2}Amendments in Detail}{3}{section.2}}
\newlabel{amends}{{2}{3}{Amendments in Detail\relax }{section.2}{}}
\newlabel{am1}{{3}{3}{Amendment 1\label {am1}\relax }{section.3}{}}
\@writefile{toc}{\contentsline {section}{\numberline {3}Amendment 1}{3}{section.3}}
\@writefile{toc}{\contentsline {subsection}{\numberline {3.1}critique}{3}{subsection.3.1}}
\newlabel{am23}{{4}{4}{Amendment 23\label {am23}\relax }{section.4}{}}
\@writefile{toc}{\contentsline {section}{\numberline {4}Amendment 23}{4}{section.4}}
\@writefile{toc}{\contentsline {subsection}{\numberline {4.1}critique}{5}{subsection.4.1}}
\newlabel{am42}{{5}{5}{Amendment 42\label {am42}\relax }{section.5}{}}
\@writefile{toc}{\contentsline {section}{\numberline {5}Amendment 42}{5}{section.5}}
\@writefile{toc}{\contentsline {subsection}{\numberline {5.1}critique}{6}{subsection.5.1}}
\newlabel{am43}{{6}{6}{Amendment 43\label {am43}\relax }{section.6}{}}
\@writefile{toc}{\contentsline {section}{\numberline {6}Amendment 43}{6}{section.6}}
\@writefile{toc}{\contentsline {subsection}{\numberline {6.1}critique}{7}{subsection.6.1}}
\newlabel{am44}{{7}{7}{Amendment 44\label {am44}\relax }{section.7}{}}
\@writefile{toc}{\contentsline {section}{\numberline {7}Amendment 44}{7}{section.7}}
\@writefile{toc}{\contentsline {subsection}{\numberline {7.1}critique}{7}{subsection.7.1}}
\newlabel{am45}{{8}{8}{Amendment 45\label {am45}\relax }{section.8}{}}
\@writefile{toc}{\contentsline {section}{\numberline {8}Amendment 45}{8}{section.8}}
\@writefile{toc}{\contentsline {subsection}{\numberline {8.1}critique}{9}{subsection.8.1}}
\newlabel{am46}{{9}{9}{Amendment 46\label {am46}\relax }{section.9}{}}
\@writefile{toc}{\contentsline {section}{\numberline {9}Amendment 46}{9}{section.9}}
\@writefile{toc}{\contentsline {subsection}{\numberline {9.1}critique}{10}{subsection.9.1}}
\newlabel{am47}{{10}{10}{Amendment 47\label {am47}\relax }{section.10}{}}
\@writefile{toc}{\contentsline {section}{\numberline {10}Amendment 47}{10}{section.10}}
\newlabel{am48}{{11}{10}{Amendment 48\label {am48}\relax }{section.11}{}}
\@writefile{toc}{\contentsline {section}{\numberline {11}Amendment 48}{10}{section.11}}
\@writefile{toc}{\contentsline {subsection}{\numberline {11.1}critique}{11}{subsection.11.1}}
\gdef\scr@tpo@lst{0}
