\relax 
\ifx\hyper@anchor\@undefined
\global \let \oldcontentsline\contentsline
\gdef \contentsline#1#2#3#4{\oldcontentsline{#1}{#2}{#3}}
\global \let \oldnewlabel\newlabel
\gdef \newlabel#1#2{\newlabelxx{#1}#2}
\gdef \newlabelxx#1#2#3#4#5#6{\oldnewlabel{#1}{{#2}{#3}}}
\AtEndDocument{\let \contentsline\oldcontentsline
\let \newlabel\oldnewlabel}
\else
\global \let \hyper@last\relax 
\fi

\@writefile{toc}{\contentsline {section}{\numberline {1}Votes}{2}{section.1}}
\newlabel{votlst}{{1}{2}{Votes\relax }{section.1}{}}
\@writefile{toc}{\contentsline {section}{\numberline {2}Amendments in Detail}{3}{section.2}}
\newlabel{amends}{{2}{3}{Amendments in Detail\relax }{section.2}{}}
\newlabel{am34}{{3}{3}{Amendment 34\label {am34}\relax }{section.3}{}}
\@writefile{toc}{\contentsline {section}{\numberline {3}Amendment 34}{3}{section.3}}
\@writefile{toc}{\contentsline {subsection}{\numberline {3.1}critique}{3}{subsection.3.1}}
\newlabel{am126}{{4}{4}{Amendment 126\label {am126}\relax }{section.4}{}}
\@writefile{toc}{\contentsline {section}{\numberline {4}Amendment 126}{4}{section.4}}
\@writefile{toc}{\contentsline {subsection}{\numberline {4.1}critique}{5}{subsection.4.1}}
\newlabel{am127}{{5}{5}{Amendment 127\label {am127}\relax }{section.5}{}}
\@writefile{toc}{\contentsline {section}{\numberline {5}Amendment 127}{5}{section.5}}
\@writefile{toc}{\contentsline {subsection}{\numberline {5.1}critique}{5}{subsection.5.1}}
\newlabel{am128}{{6}{6}{Amendment 128\label {am128}\relax }{section.6}{}}
\@writefile{toc}{\contentsline {section}{\numberline {6}Amendment 128}{6}{section.6}}
\@writefile{toc}{\contentsline {subsection}{\numberline {6.1}critique}{6}{subsection.6.1}}
\newlabel{am129}{{7}{7}{Amendment 129\label {am129}\relax }{section.7}{}}
\@writefile{toc}{\contentsline {section}{\numberline {7}Amendment 129}{7}{section.7}}
\newlabel{am130}{{8}{8}{Amendment 130\label {am130}\relax }{section.8}{}}
\@writefile{toc}{\contentsline {section}{\numberline {8}Amendment 130}{8}{section.8}}
\@writefile{toc}{\contentsline {subsection}{\numberline {8.1}critique}{9}{subsection.8.1}}
\newlabel{am131}{{9}{9}{Amendment 131\label {am131}\relax }{section.9}{}}
\@writefile{toc}{\contentsline {section}{\numberline {9}Amendment 131}{9}{section.9}}
\@writefile{toc}{\contentsline {subsection}{\numberline {9.1}critique}{9}{subsection.9.1}}
\newlabel{am132}{{10}{10}{Amendment 132\label {am132}\relax }{section.10}{}}
\@writefile{toc}{\contentsline {section}{\numberline {10}Amendment 132}{10}{section.10}}
\newlabel{am133}{{11}{11}{Amendment 133\label {am133}\relax }{section.11}{}}
\@writefile{toc}{\contentsline {section}{\numberline {11}Amendment 133}{11}{section.11}}
\@writefile{toc}{\contentsline {subsection}{\numberline {11.1}critique}{11}{subsection.11.1}}
\gdef\scr@tpo@lst{0}
