\contentsline {section}{\numberline {1}Amendment 184}{2}{section.1}
\contentsline {section}{\numberline {2}Amendment 190}{2}{section.2}
\contentsline {section}{\numberline {3}Amendment 191}{4}{section.3}
\contentsline {section}{\numberline {4}Amendment 192}{5}{section.4}
