\contentsline {section}{\numberline {1}Amendment 139}{1}{section.1}
\contentsline {subsection}{\numberline {1.1}critique}{2}{subsection.1.1}
\contentsline {section}{\numberline {2}Amendment 142}{2}{section.2}
