\relax 
\ifx\hyper@anchor\@undefined
\global \let \oldcontentsline\contentsline
\gdef \contentsline#1#2#3#4{\oldcontentsline{#1}{#2}{#3}}
\global \let \oldnewlabel\newlabel
\gdef \newlabel#1#2{\newlabelxx{#1}#2}
\gdef \newlabelxx#1#2#3#4#5#6{\oldnewlabel{#1}{{#2}{#3}}}
\AtEndDocument{\let \contentsline\oldcontentsline
\let \newlabel\oldnewlabel}
\else
\global \let \hyper@last\relax 
\fi

\newlabel{am206}{{1}{2}{Amendment 206\label {am206}\relax }{section.1}{}}
\@writefile{toc}{\contentsline {section}{\numberline {1}Amendment 206}{2}{section.1}}
\newlabel{am207}{{2}{3}{Amendment 207\label {am207}\relax }{section.2}{}}
\@writefile{toc}{\contentsline {section}{\numberline {2}Amendment 207}{3}{section.2}}
\@writefile{toc}{\contentsline {subsection}{\numberline {2.1}critique}{3}{subsection.2.1}}
\newlabel{am208}{{3}{4}{Amendment 208\label {am208}\relax }{section.3}{}}
\@writefile{toc}{\contentsline {section}{\numberline {3}Amendment 208}{4}{section.3}}
\newlabel{am209}{{4}{4}{Amendment 209\label {am209}\relax }{section.4}{}}
\@writefile{toc}{\contentsline {section}{\numberline {4}Amendment 209}{4}{section.4}}
\newlabel{am210}{{5}{5}{Amendment 210\label {am210}\relax }{section.5}{}}
\@writefile{toc}{\contentsline {section}{\numberline {5}Amendment 210}{5}{section.5}}
\newlabel{am211}{{6}{6}{Amendment 211\label {am211}\relax }{section.6}{}}
\@writefile{toc}{\contentsline {section}{\numberline {6}Amendment 211}{6}{section.6}}
\gdef\scr@tpo@lst{0}
