\contentsline {section}{\numberline {1}Amendment 185}{1}{section.1}
\contentsline {section}{\numberline {2}Amendment 186}{3}{section.2}
\contentsline {section}{\numberline {3}Amendment 187}{4}{section.3}
\contentsline {section}{\numberline {4}Amendment 188}{6}{section.4}
\contentsline {section}{\numberline {5}Amendment 189}{7}{section.5}
