\contentsline {section}{\numberline {1}Votes}{2}{section.1}
\contentsline {section}{\numberline {2}Amendments in Detail}{3}{section.2}
\contentsline {section}{\numberline {3}Amendment 34}{3}{section.3}
\contentsline {subsection}{\numberline {3.1}critique}{3}{subsection.3.1}
\contentsline {section}{\numberline {4}Amendment 126}{4}{section.4}
\contentsline {subsection}{\numberline {4.1}critique}{5}{subsection.4.1}
\contentsline {section}{\numberline {5}Amendment 127}{5}{section.5}
\contentsline {subsection}{\numberline {5.1}critique}{5}{subsection.5.1}
\contentsline {section}{\numberline {6}Amendment 128}{6}{section.6}
\contentsline {subsection}{\numberline {6.1}critique}{6}{subsection.6.1}
\contentsline {section}{\numberline {7}Amendment 129}{7}{section.7}
\contentsline {section}{\numberline {8}Amendment 130}{8}{section.8}
\contentsline {subsection}{\numberline {8.1}critique}{9}{subsection.8.1}
\contentsline {section}{\numberline {9}Amendment 131}{9}{section.9}
\contentsline {subsection}{\numberline {9.1}critique}{9}{subsection.9.1}
\contentsline {section}{\numberline {10}Amendment 132}{10}{section.10}
\contentsline {section}{\numberline {11}Amendment 133}{11}{section.11}
\contentsline {subsection}{\numberline {11.1}critique}{11}{subsection.11.1}
