\relax 
\ifx\hyper@anchor\@undefined
\global \let \oldcontentsline\contentsline
\gdef \contentsline#1#2#3#4{\oldcontentsline{#1}{#2}{#3}}
\global \let \oldnewlabel\newlabel
\gdef \newlabel#1#2{\newlabelxx{#1}#2}
\gdef \newlabelxx#1#2#3#4#5#6{\oldnewlabel{#1}{{#2}{#3}}}
\AtEndDocument{\let \contentsline\oldcontentsline
\let \newlabel\oldnewlabel}
\else
\global \let \hyper@last\relax 
\fi

\newlabel{am85}{{1}{2}{Amendment 85\label {am85}\relax }{section.1}{}}
\@writefile{toc}{\contentsline {section}{\numberline {1}Amendment 85}{2}{section.1}}
\newlabel{am86}{{2}{3}{Amendment 86\label {am86}\relax }{section.2}{}}
\@writefile{toc}{\contentsline {section}{\numberline {2}Amendment 86}{3}{section.2}}
\newlabel{am87}{{3}{4}{Amendment 87\label {am87}\relax }{section.3}{}}
\@writefile{toc}{\contentsline {section}{\numberline {3}Amendment 87}{4}{section.3}}
\newlabel{am88}{{4}{4}{Amendment 88\label {am88}\relax }{section.4}{}}
\@writefile{toc}{\contentsline {section}{\numberline {4}Amendment 88}{4}{section.4}}
\newlabel{am89}{{5}{5}{Amendment 89\label {am89}\relax }{section.5}{}}
\@writefile{toc}{\contentsline {section}{\numberline {5}Amendment 89}{5}{section.5}}
\newlabel{am90}{{6}{6}{Amendment 90\label {am90}\relax }{section.6}{}}
\@writefile{toc}{\contentsline {section}{\numberline {6}Amendment 90}{6}{section.6}}
\@writefile{toc}{\contentsline {subsection}{\numberline {6.1}critique}{7}{subsection.6.1}}
\newlabel{am91}{{7}{7}{Amendment 91\label {am91}\relax }{section.7}{}}
\@writefile{toc}{\contentsline {section}{\numberline {7}Amendment 91}{7}{section.7}}
\newlabel{am212}{{8}{8}{Amendment 212\label {am212}\relax }{section.8}{}}
\@writefile{toc}{\contentsline {section}{\numberline {8}Amendment 212}{8}{section.8}}
\newlabel{am213}{{9}{8}{Amendment 213\label {am213}\relax }{section.9}{}}
\@writefile{toc}{\contentsline {section}{\numberline {9}Amendment 213}{8}{section.9}}
\@writefile{toc}{\contentsline {subsection}{\numberline {9.1}critique}{9}{subsection.9.1}}
\newlabel{am214}{{10}{9}{Amendment 214\label {am214}\relax }{section.10}{}}
\@writefile{toc}{\contentsline {section}{\numberline {10}Amendment 214}{9}{section.10}}
\newlabel{am215}{{11}{10}{Amendment 215\label {am215}\relax }{section.11}{}}
\@writefile{toc}{\contentsline {section}{\numberline {11}Amendment 215}{10}{section.11}}
\newlabel{am216}{{12}{11}{Amendment 216\label {am216}\relax }{section.12}{}}
\@writefile{toc}{\contentsline {section}{\numberline {12}Amendment 216}{11}{section.12}}
\newlabel{am217}{{13}{12}{Amendment 217\label {am217}\relax }{section.13}{}}
\@writefile{toc}{\contentsline {section}{\numberline {13}Amendment 217}{12}{section.13}}
\newlabel{am218}{{14}{12}{Amendment 218\label {am218}\relax }{section.14}{}}
\@writefile{toc}{\contentsline {section}{\numberline {14}Amendment 218}{12}{section.14}}
\newlabel{am219}{{15}{13}{Amendment 219\label {am219}\relax }{section.15}{}}
\@writefile{toc}{\contentsline {section}{\numberline {15}Amendment 219}{13}{section.15}}
\@writefile{toc}{\contentsline {subsection}{\numberline {15.1}critique}{14}{subsection.15.1}}
\newlabel{am220}{{16}{14}{Amendment 220\label {am220}\relax }{section.16}{}}
\@writefile{toc}{\contentsline {section}{\numberline {16}Amendment 220}{14}{section.16}}
\newlabel{am221}{{17}{15}{Amendment 221\label {am221}\relax }{section.17}{}}
\@writefile{toc}{\contentsline {section}{\numberline {17}Amendment 221}{15}{section.17}}
\newlabel{am222}{{18}{15}{Amendment 222\label {am222}\relax }{section.18}{}}
\@writefile{toc}{\contentsline {section}{\numberline {18}Amendment 222}{15}{section.18}}
\newlabel{am223}{{19}{16}{Amendment 223\label {am223}\relax }{section.19}{}}
\@writefile{toc}{\contentsline {section}{\numberline {19}Amendment 223}{16}{section.19}}
\newlabel{am224}{{20}{17}{Amendment 224\label {am224}\relax }{section.20}{}}
\@writefile{toc}{\contentsline {section}{\numberline {20}Amendment 224}{17}{section.20}}
\newlabel{am225}{{21}{18}{Amendment 225\label {am225}\relax }{section.21}{}}
\@writefile{toc}{\contentsline {section}{\numberline {21}Amendment 225}{18}{section.21}}
\gdef\scr@tpo@lst{0}
