\relax 
\ifx\hyper@anchor\@undefined
\global \let \oldcontentsline\contentsline
\gdef \contentsline#1#2#3#4{\oldcontentsline{#1}{#2}{#3}}
\global \let \oldnewlabel\newlabel
\gdef \newlabel#1#2{\newlabelxx{#1}#2}
\gdef \newlabelxx#1#2#3#4#5#6{\oldnewlabel{#1}{{#2}{#3}}}
\AtEndDocument{\let \contentsline\oldcontentsline
\let \newlabel\oldnewlabel}
\else
\global \let \hyper@last\relax 
\fi

\@writefile{toc}{\contentsline {section}{\numberline {1}Introduction}{2}{section.1}}
\newlabel{intro}{{1}{2}{Introduction\relax }{section.1}{}}
\@writefile{toc}{\contentsline {section}{\numberline {2}Voting List}{5}{section.2}}
\newlabel{votlist}{{2}{5}{Voting List\relax }{section.2}{}}
\@writefile{toc}{\contentsline {section}{\numberline {3}Amendments in Detail}{6}{section.3}}
\newlabel{amends}{{3}{6}{Amendments in Detail\relax }{section.3}{}}
\newlabel{am67}{{4}{6}{Amendment 67\label {am67}\relax }{section.4}{}}
\@writefile{toc}{\contentsline {section}{\numberline {4}Amendment 67}{6}{section.4}}
\@writefile{toc}{\contentsline {subsection}{\numberline {4.1}critique}{6}{subsection.4.1}}
\newlabel{am68}{{5}{7}{Amendment 68\label {am68}\relax }{section.5}{}}
\@writefile{toc}{\contentsline {section}{\numberline {5}Amendment 68}{7}{section.5}}
\@writefile{toc}{\contentsline {subsection}{\numberline {5.1}critique}{7}{subsection.5.1}}
\newlabel{am74}{{6}{7}{Amendment 74\label {am74}\relax }{section.6}{}}
\@writefile{toc}{\contentsline {section}{\numberline {6}Amendment 74}{7}{section.6}}
\@writefile{toc}{\contentsline {subsection}{\numberline {6.1}critique}{8}{subsection.6.1}}
\newlabel{am70}{{7}{8}{Amendment 70\label {am70}\relax }{section.7}{}}
\@writefile{toc}{\contentsline {section}{\numberline {7}Amendment 70}{8}{section.7}}
\@writefile{toc}{\contentsline {subsection}{\numberline {7.1}critique}{9}{subsection.7.1}}
\newlabel{am71}{{8}{9}{Amendment 71\label {am71}\relax }{section.8}{}}
\@writefile{toc}{\contentsline {section}{\numberline {8}Amendment 71}{9}{section.8}}
\@writefile{toc}{\contentsline {subsection}{\numberline {8.1}critique}{10}{subsection.8.1}}
\newlabel{am72}{{9}{10}{Amendment 72\label {am72}\relax }{section.9}{}}
\@writefile{toc}{\contentsline {section}{\numberline {9}Amendment 72}{10}{section.9}}
\@writefile{toc}{\contentsline {subsection}{\numberline {9.1}critique}{11}{subsection.9.1}}
\newlabel{am73}{{10}{11}{Amendment 73\label {am73}\relax }{section.10}{}}
\@writefile{toc}{\contentsline {section}{\numberline {10}Amendment 73}{11}{section.10}}
\@writefile{toc}{\contentsline {subsection}{\numberline {10.1}critique}{12}{subsection.10.1}}
\newlabel{am76}{{11}{12}{Amendment 76\label {am76}\relax }{section.11}{}}
\@writefile{toc}{\contentsline {section}{\numberline {11}Amendment 76}{12}{section.11}}
\@writefile{toc}{\contentsline {subsection}{\numberline {11.1}critique}{13}{subsection.11.1}}
\gdef\scr@tpo@lst{0}
