\BOOKMARK [1][-]{section.1}{De Kernverduidelijkingen die gemaakt moeten worden door de Richtlijn}{}
\BOOKMARK [1][-]{section.2}{Amendementen Gegroepeerd naar Onderwerp}{}
\BOOKMARK [1][-]{section.3}{Koppelingen met voetnoten}{}
