\select@language {italian}
\contentsline {section}{\numberline {1}Le Chiarificazioni Chiave da apportare alla Direttiva}{2}{section.1}
\contentsline {section}{\numberline {2}Emendamenti raggruppati per Argomento}{3}{section.2}
\contentsline {section}{\numberline {3}Annotated Links}{5}{section.3}
