\contentsline {section}{\numberline {1}Amendment 201}{1}{section.1}
\contentsline {section}{\numberline {2}Amendment 202}{3}{section.2}
\contentsline {section}{\numberline {3}Amendment 203}{4}{section.3}
\contentsline {section}{\numberline {4}Amendment 204}{5}{section.4}
