\contentsline {section}{\numberline {1}Amendment 1}{15}{section.1}
\contentsline {subsection}{\numberline {1.1}critique}{16}{subsection.1.1}
\contentsline {section}{\numberline {2}Amendment 2}{16}{section.2}
\contentsline {subsection}{\numberline {2.1}critique}{17}{subsection.2.1}
\contentsline {section}{\numberline {3}Amendment 3}{17}{section.3}
\contentsline {subsection}{\numberline {3.1}critique}{18}{subsection.3.1}
\contentsline {section}{\numberline {4}Amendment 4}{18}{section.4}
\contentsline {subsection}{\numberline {4.1}critique}{19}{subsection.4.1}
\contentsline {section}{\numberline {5}Amendment 5}{19}{section.5}
\contentsline {subsection}{\numberline {5.1}critique}{20}{subsection.5.1}
\contentsline {section}{\numberline {6}Amendment 6}{21}{section.6}
\contentsline {subsection}{\numberline {6.1}critique}{22}{subsection.6.1}
\contentsline {section}{\numberline {7}Amendment 7}{22}{section.7}
\contentsline {subsection}{\numberline {7.1}critique}{22}{subsection.7.1}
\contentsline {section}{\numberline {8}Amendment 8}{23}{section.8}
\contentsline {subsection}{\numberline {8.1}critique}{24}{subsection.8.1}
\contentsline {section}{\numberline {9}Amendment 9}{24}{section.9}
\contentsline {subsection}{\numberline {9.1}critique}{24}{subsection.9.1}
\contentsline {section}{\numberline {10}Amendment 10}{25}{section.10}
\contentsline {subsection}{\numberline {10.1}critique}{26}{subsection.10.1}
\contentsline {section}{\numberline {11}Amendment 11}{26}{section.11}
\contentsline {subsection}{\numberline {11.1}critique}{26}{subsection.11.1}
\contentsline {section}{\numberline {12}Amendment 12}{27}{section.12}
\contentsline {subsection}{\numberline {12.1}critique}{28}{subsection.12.1}
\contentsline {section}{\numberline {13}Amendment 13}{28}{section.13}
\contentsline {subsection}{\numberline {13.1}critique}{29}{subsection.13.1}
\contentsline {section}{\numberline {14}Amendment 14}{29}{section.14}
\contentsline {subsection}{\numberline {14.1}critique}{30}{subsection.14.1}
\contentsline {section}{\numberline {15}Amendment 15}{30}{section.15}
\contentsline {subsection}{\numberline {15.1}critique}{31}{subsection.15.1}
\contentsline {section}{\numberline {16}Amendment 16}{31}{section.16}
\contentsline {subsection}{\numberline {16.1}critique}{32}{subsection.16.1}
\contentsline {section}{\numberline {17}Amendment 17}{32}{section.17}
\contentsline {subsection}{\numberline {17.1}critique}{34}{subsection.17.1}
\contentsline {section}{\numberline {18}Amendment 18}{34}{section.18}
\contentsline {subsection}{\numberline {18.1}critique}{35}{subsection.18.1}
\contentsline {section}{\numberline {19}Amendment 19}{35}{section.19}
\contentsline {subsection}{\numberline {19.1}critique}{36}{subsection.19.1}
\contentsline {section}{\numberline {20}Amendment 20}{36}{section.20}
\contentsline {subsection}{\numberline {20.1}critique}{37}{subsection.20.1}
\contentsline {section}{\numberline {21}Amendment 21}{38}{section.21}
\contentsline {subsection}{\numberline {21.1}critique}{39}{subsection.21.1}
\contentsline {section}{\numberline {22}Amendment 22}{39}{section.22}
\contentsline {subsection}{\numberline {22.1}critique}{40}{subsection.22.1}
\contentsline {section}{\numberline {23}Amendment 23}{40}{section.23}
\contentsline {subsection}{\numberline {23.1}critique}{40}{subsection.23.1}
\contentsline {section}{\numberline {24}Amendment 24}{40}{section.24}
\contentsline {subsection}{\numberline {24.1}critique}{41}{subsection.24.1}
\contentsline {section}{\numberline {25}Amendment 25}{41}{section.25}
\contentsline {subsection}{\numberline {25.1}critique}{42}{subsection.25.1}
\contentsline {section}{\numberline {26}Amendment 26}{42}{section.26}
\contentsline {subsection}{\numberline {26.1}critique}{43}{subsection.26.1}
\contentsline {section}{\numberline {27}Amendment 27}{43}{section.27}
\contentsline {subsection}{\numberline {27.1}critique}{44}{subsection.27.1}
\contentsline {section}{\numberline {28}Amendment 28}{44}{section.28}
\contentsline {subsection}{\numberline {28.1}critique}{45}{subsection.28.1}
\contentsline {section}{\numberline {29}Amendment 29}{45}{section.29}
\contentsline {subsection}{\numberline {29.1}critique}{46}{subsection.29.1}
\contentsline {section}{\numberline {30}Amendment 30}{46}{section.30}
\contentsline {subsection}{\numberline {30.1}critique}{48}{subsection.30.1}
\contentsline {section}{\numberline {31}Amendment 31}{48}{section.31}
\contentsline {subsection}{\numberline {31.1}critique}{49}{subsection.31.1}
\contentsline {section}{\numberline {32}Amendment 32}{49}{section.32}
\contentsline {subsection}{\numberline {32.1}critique}{50}{subsection.32.1}
\contentsline {section}{\numberline {33}Amendment 33}{50}{section.33}
\contentsline {subsection}{\numberline {33.1}critique}{52}{subsection.33.1}
\contentsline {section}{\numberline {34}Amendment 34}{52}{section.34}
\contentsline {subsection}{\numberline {34.1}critique}{53}{subsection.34.1}
\contentsline {section}{\numberline {35}Amendment 35}{53}{section.35}
\contentsline {subsection}{\numberline {35.1}critique}{54}{subsection.35.1}
\contentsline {section}{\numberline {36}Amendment 36}{54}{section.36}
\contentsline {subsection}{\numberline {36.1}critique}{55}{subsection.36.1}
\contentsline {section}{\numberline {37}Amendment 37}{55}{section.37}
\contentsline {subsection}{\numberline {37.1}critique}{55}{subsection.37.1}
\contentsline {section}{\numberline {38}Amendment 38}{56}{section.38}
\contentsline {subsection}{\numberline {38.1}critique}{57}{subsection.38.1}
\contentsline {section}{\numberline {39}Amendment 39}{57}{section.39}
\contentsline {subsection}{\numberline {39.1}critique}{58}{subsection.39.1}
\contentsline {section}{\numberline {40}Amendment 40 rejette la position commune}{58}{section.40}
\contentsline {subsection}{\numberline {40.1}critique}{58}{subsection.40.1}
\contentsline {section}{\numberline {41}Amendment 41 Rejects the Common Position}{58}{section.41}
\contentsline {subsection}{\numberline {41.1}critique}{59}{subsection.41.1}
\contentsline {section}{\numberline {42}Amendment 42}{59}{section.42}
\contentsline {subsection}{\numberline {42.1}critique}{60}{subsection.42.1}
\contentsline {section}{\numberline {43}Amendment 43}{60}{section.43}
\contentsline {subsection}{\numberline {43.1}critique}{62}{subsection.43.1}
\contentsline {section}{\numberline {44}Amendment 44}{62}{section.44}
\contentsline {subsection}{\numberline {44.1}critique}{62}{subsection.44.1}
\contentsline {section}{\numberline {45}Amendment 45}{63}{section.45}
\contentsline {subsection}{\numberline {45.1}critique}{64}{subsection.45.1}
\contentsline {section}{\numberline {46}Amendment 46}{64}{section.46}
\contentsline {subsection}{\numberline {46.1}critique}{65}{subsection.46.1}
\contentsline {section}{\numberline {47}Amendment 47}{65}{section.47}
\contentsline {section}{\numberline {48}Amendment 48}{65}{section.48}
\contentsline {subsection}{\numberline {48.1}critique}{66}{subsection.48.1}
\contentsline {section}{\numberline {49}Amendment 49}{66}{section.49}
\contentsline {section}{\numberline {50}Amendment 50}{67}{section.50}
\contentsline {subsection}{\numberline {50.1}critique}{69}{subsection.50.1}
\contentsline {section}{\numberline {51}Amendment 51}{69}{section.51}
\contentsline {subsection}{\numberline {51.1}critique}{70}{subsection.51.1}
\contentsline {section}{\numberline {52}Amendment 52}{70}{section.52}
\contentsline {subsection}{\numberline {52.1}critique}{71}{subsection.52.1}
\contentsline {section}{\numberline {53}Amendment 53}{71}{section.53}
\contentsline {subsection}{\numberline {53.1}critique}{72}{subsection.53.1}
\contentsline {section}{\numberline {54}Amendment 54}{72}{section.54}
\contentsline {subsection}{\numberline {54.1}critique}{73}{subsection.54.1}
\contentsline {section}{\numberline {55}Amendment 55}{73}{section.55}
\contentsline {subsection}{\numberline {55.1}critique}{75}{subsection.55.1}
\contentsline {section}{\numberline {56}Amendment 56}{75}{section.56}
\contentsline {subsection}{\numberline {56.1}critique}{76}{subsection.56.1}
\contentsline {section}{\numberline {57}Amendment 57}{76}{section.57}
\contentsline {subsection}{\numberline {57.1}critique}{77}{subsection.57.1}
\contentsline {section}{\numberline {58}Amendment 58}{77}{section.58}
\contentsline {subsection}{\numberline {58.1}critique}{79}{subsection.58.1}
\contentsline {section}{\numberline {59}Amendment 59}{79}{section.59}
\contentsline {subsection}{\numberline {59.1}critique}{80}{subsection.59.1}
\contentsline {section}{\numberline {60}Amendment 60}{80}{section.60}
\contentsline {subsection}{\numberline {60.1}critique}{82}{subsection.60.1}
\contentsline {section}{\numberline {61}Amendment 61}{82}{section.61}
\contentsline {subsection}{\numberline {61.1}critique}{83}{subsection.61.1}
\contentsline {section}{\numberline {62}Amendment 62}{83}{section.62}
\contentsline {subsection}{\numberline {62.1}critique}{84}{subsection.62.1}
\contentsline {section}{\numberline {63}Amendment 63}{85}{section.63}
\contentsline {subsection}{\numberline {63.1}critique}{86}{subsection.63.1}
\contentsline {section}{\numberline {64}Amendment 64}{86}{section.64}
\contentsline {subsection}{\numberline {64.1}critique}{88}{subsection.64.1}
\contentsline {section}{\numberline {65}Amendment 65}{88}{section.65}
\contentsline {subsection}{\numberline {65.1}critique}{89}{subsection.65.1}
\contentsline {section}{\numberline {66}Amendment 66}{89}{section.66}
\contentsline {section}{\numberline {67}Amendment 67}{90}{section.67}
\contentsline {subsection}{\numberline {67.1}critique}{90}{subsection.67.1}
\contentsline {section}{\numberline {68}Amendment 68}{91}{section.68}
\contentsline {subsection}{\numberline {68.1}critique}{91}{subsection.68.1}
\contentsline {section}{\numberline {69}Amendment 69}{91}{section.69}
\contentsline {section}{\numberline {70}Amendment 70}{92}{section.70}
\contentsline {subsection}{\numberline {70.1}critique}{93}{subsection.70.1}
\contentsline {section}{\numberline {71}Amendment 71}{93}{section.71}
\contentsline {subsection}{\numberline {71.1}critique}{94}{subsection.71.1}
\contentsline {section}{\numberline {72}Amendment 72}{94}{section.72}
\contentsline {subsection}{\numberline {72.1}critique}{95}{subsection.72.1}
\contentsline {section}{\numberline {73}Amendment 73}{95}{section.73}
\contentsline {subsection}{\numberline {73.1}critique}{96}{subsection.73.1}
\contentsline {section}{\numberline {74}Amendment 74}{96}{section.74}
\contentsline {subsection}{\numberline {74.1}critique}{97}{subsection.74.1}
\contentsline {section}{\numberline {75}Amendment 75}{97}{section.75}
\contentsline {section}{\numberline {76}Amendment 76}{98}{section.76}
\contentsline {subsection}{\numberline {76.1}critique}{99}{subsection.76.1}
\contentsline {section}{\numberline {77}Amendment 77}{99}{section.77}
\contentsline {section}{\numberline {78}Amendment 78}{100}{section.78}
\contentsline {section}{\numberline {79}Amendment 79}{100}{section.79}
\contentsline {section}{\numberline {80}Amendment 80}{101}{section.80}
\contentsline {section}{\numberline {81}Amendment 81}{102}{section.81}
\contentsline {section}{\numberline {82}Amendment 82}{103}{section.82}
\contentsline {section}{\numberline {83}Amendment 83}{104}{section.83}
\contentsline {section}{\numberline {84}Amendment 84}{105}{section.84}
\contentsline {section}{\numberline {85}Amendment 85}{106}{section.85}
\contentsline {section}{\numberline {86}Amendment 86}{107}{section.86}
\contentsline {section}{\numberline {87}Amendment 87}{108}{section.87}
\contentsline {section}{\numberline {88}Amendment 88}{108}{section.88}
\contentsline {section}{\numberline {89}Amendment 89}{109}{section.89}
\contentsline {section}{\numberline {90}Amendment 90}{110}{section.90}
\contentsline {subsection}{\numberline {90.1}critique}{111}{subsection.90.1}
\contentsline {section}{\numberline {91}Amendment 91}{111}{section.91}
\contentsline {section}{\numberline {92}Amendment 92}{112}{section.92}
\contentsline {subsection}{\numberline {92.1}critique}{113}{subsection.92.1}
\contentsline {section}{\numberline {93}Amendment 93}{113}{section.93}
\contentsline {subsection}{\numberline {93.1}critique}{114}{subsection.93.1}
\contentsline {section}{\numberline {94}Amendment 94}{114}{section.94}
\contentsline {section}{\numberline {95}Amendment 95}{115}{section.95}
\contentsline {subsection}{\numberline {95.1}critique}{116}{subsection.95.1}
\contentsline {section}{\numberline {96}Amendment 96}{116}{section.96}
\contentsline {section}{\numberline {97}Amendment 97}{117}{section.97}
\contentsline {subsection}{\numberline {97.1}critique}{118}{subsection.97.1}
\contentsline {section}{\numberline {98}Amendment 98}{118}{section.98}
\contentsline {subsection}{\numberline {98.1}critique}{120}{subsection.98.1}
\contentsline {section}{\numberline {99}Amendment 99}{120}{section.99}
\contentsline {subsection}{\numberline {99.1}critique}{120}{subsection.99.1}
\contentsline {section}{\numberline {100}Amendment 100}{121}{section.100}
\contentsline {subsection}{\numberline {100.1}critique}{122}{subsection.100.1}
\contentsline {section}{\numberline {101}Amendment 101}{122}{section.101}
\contentsline {subsection}{\numberline {101.1}critique}{122}{subsection.101.1}
\contentsline {section}{\numberline {102}Amendment 102}{123}{section.102}
\contentsline {subsection}{\numberline {102.1}critique}{124}{subsection.102.1}
\contentsline {section}{\numberline {103}Amendment 103}{124}{section.103}
\contentsline {subsection}{\numberline {103.1}critique}{124}{subsection.103.1}
\contentsline {section}{\numberline {104}Amendment 104}{125}{section.104}
\contentsline {subsection}{\numberline {104.1}critique}{125}{subsection.104.1}
\contentsline {section}{\numberline {105}Amendment 105}{126}{section.105}
\contentsline {subsection}{\numberline {105.1}critique}{128}{subsection.105.1}
\contentsline {section}{\numberline {106}Amendment 106}{128}{section.106}
\contentsline {subsection}{\numberline {106.1}critique}{130}{subsection.106.1}
\contentsline {section}{\numberline {107}Amendment 107}{130}{section.107}
\contentsline {subsection}{\numberline {107.1}critique}{131}{subsection.107.1}
\contentsline {section}{\numberline {108}Amendment 108}{131}{section.108}
\contentsline {section}{\numberline {109}Amendment 109}{132}{section.109}
\contentsline {section}{\numberline {110}Amendment 110}{133}{section.110}
\contentsline {subsection}{\numberline {110.1}critique}{134}{subsection.110.1}
\contentsline {section}{\numberline {111}Amendment 111}{134}{section.111}
\contentsline {subsection}{\numberline {111.1}critique}{135}{subsection.111.1}
\contentsline {section}{\numberline {112}Amendment 112}{135}{section.112}
\contentsline {subsection}{\numberline {112.1}critique}{136}{subsection.112.1}
\contentsline {section}{\numberline {113}Amendment 113}{136}{section.113}
\contentsline {subsection}{\numberline {113.1}critique}{137}{subsection.113.1}
\contentsline {section}{\numberline {114}Amendment 114}{137}{section.114}
\contentsline {section}{\numberline {115}Amendment 115}{138}{section.115}
\contentsline {section}{\numberline {116}Amendment 116}{139}{section.116}
\contentsline {subsection}{\numberline {116.1}critique}{139}{subsection.116.1}
\contentsline {section}{\numberline {117}Amendment 117}{140}{section.117}
\contentsline {subsection}{\numberline {117.1}critique}{141}{subsection.117.1}
\contentsline {section}{\numberline {118}Amendment 118}{141}{section.118}
\contentsline {subsection}{\numberline {118.1}critique}{141}{subsection.118.1}
\contentsline {section}{\numberline {119}Amendment 119}{142}{section.119}
\contentsline {subsection}{\numberline {119.1}critique}{142}{subsection.119.1}
\contentsline {section}{\numberline {120}Amendment 120}{143}{section.120}
\contentsline {subsection}{\numberline {120.1}critique}{143}{subsection.120.1}
\contentsline {section}{\numberline {121}Amendment 121}{144}{section.121}
\contentsline {section}{\numberline {122}Amendment 122}{144}{section.122}
\contentsline {subsection}{\numberline {122.1}critique}{145}{subsection.122.1}
\contentsline {section}{\numberline {123}Amendment 123}{145}{section.123}
\contentsline {subsection}{\numberline {123.1}critique}{146}{subsection.123.1}
\contentsline {section}{\numberline {124}Amendment 124}{146}{section.124}
\contentsline {section}{\numberline {125}Amendment 125}{148}{section.125}
\contentsline {section}{\numberline {126}Amendment 126}{149}{section.126}
\contentsline {subsection}{\numberline {126.1}critique}{150}{subsection.126.1}
\contentsline {section}{\numberline {127}Amendment 127}{150}{section.127}
\contentsline {subsection}{\numberline {127.1}critique}{151}{subsection.127.1}
\contentsline {section}{\numberline {128}Amendment 128}{151}{section.128}
\contentsline {subsection}{\numberline {128.1}critique}{152}{subsection.128.1}
\contentsline {section}{\numberline {129}Amendment 129}{152}{section.129}
\contentsline {section}{\numberline {130}Amendment 130}{153}{section.130}
\contentsline {subsection}{\numberline {130.1}critique}{154}{subsection.130.1}
\contentsline {section}{\numberline {131}Amendment 131}{154}{section.131}
\contentsline {subsection}{\numberline {131.1}critique}{155}{subsection.131.1}
\contentsline {section}{\numberline {132}Amendment 132}{155}{section.132}
\contentsline {section}{\numberline {133}Amendment 133}{156}{section.133}
\contentsline {subsection}{\numberline {133.1}critique}{157}{subsection.133.1}
\contentsline {section}{\numberline {134}Amendment 134}{157}{section.134}
\contentsline {subsection}{\numberline {134.1}critique}{158}{subsection.134.1}
\contentsline {section}{\numberline {135}Amendment 135}{158}{section.135}
\contentsline {subsection}{\numberline {135.1}critique}{159}{subsection.135.1}
\contentsline {section}{\numberline {136}Amendment 136}{159}{section.136}
\contentsline {subsection}{\numberline {136.1}critique}{160}{subsection.136.1}
\contentsline {section}{\numberline {137}Amendment 137}{160}{section.137}
\contentsline {subsection}{\numberline {137.1}critique}{161}{subsection.137.1}
\contentsline {section}{\numberline {138}Amendment 138}{161}{section.138}
\contentsline {subsection}{\numberline {138.1}critique}{161}{subsection.138.1}
\contentsline {section}{\numberline {139}Amendment 139}{162}{section.139}
\contentsline {subsection}{\numberline {139.1}critique}{163}{subsection.139.1}
\contentsline {section}{\numberline {140}Amendment 140}{163}{section.140}
\contentsline {subsection}{\numberline {140.1}critique}{163}{subsection.140.1}
\contentsline {section}{\numberline {141}Amendment 141}{164}{section.141}
\contentsline {subsection}{\numberline {141.1}critique}{164}{subsection.141.1}
\contentsline {section}{\numberline {142}Amendment 142}{164}{section.142}
\contentsline {section}{\numberline {143}Amendment 143}{165}{section.143}
\contentsline {subsection}{\numberline {143.1}critique}{166}{subsection.143.1}
\contentsline {section}{\numberline {144}Amendment 144}{166}{section.144}
\contentsline {section}{\numberline {145}Amendment 145}{167}{section.145}
\contentsline {section}{\numberline {146}Amendment 146}{169}{section.146}
\contentsline {section}{\numberline {147}Amendment 147}{170}{section.147}
\contentsline {subsection}{\numberline {147.1}critique}{170}{subsection.147.1}
\contentsline {section}{\numberline {148}Amendment 148}{170}{section.148}
\contentsline {section}{\numberline {149}Amendment 149}{172}{section.149}
\contentsline {section}{\numberline {150}Amendment 150}{173}{section.150}
\contentsline {section}{\numberline {151}Amendment 151}{174}{section.151}
\contentsline {section}{\numberline {152}Amendment 152}{174}{section.152}
\contentsline {section}{\numberline {153}Amendment 153}{175}{section.153}
\contentsline {section}{\numberline {154}Amendment 154}{176}{section.154}
\contentsline {section}{\numberline {155}Amendment 155}{177}{section.155}
\contentsline {section}{\numberline {156}Amendment 156}{179}{section.156}
\contentsline {section}{\numberline {157}Amendment 157}{180}{section.157}
\contentsline {section}{\numberline {158}Amendment 158}{181}{section.158}
\contentsline {section}{\numberline {159}Amendment 159}{181}{section.159}
\contentsline {section}{\numberline {160}Amendment 160}{182}{section.160}
\contentsline {section}{\numberline {161}Amendment 161}{185}{section.161}
\contentsline {section}{\numberline {162}Amendment 162}{186}{section.162}
\contentsline {section}{\numberline {163}Amendment 163}{187}{section.163}
\contentsline {section}{\numberline {164}Amendment 164}{189}{section.164}
\contentsline {section}{\numberline {165}Amendment 165}{190}{section.165}
\contentsline {section}{\numberline {166}Amendment 166}{190}{section.166}
\contentsline {section}{\numberline {167}Amendment 167}{191}{section.167}
\contentsline {section}{\numberline {168}Amendment 168}{192}{section.168}
\contentsline {section}{\numberline {169}Amendment 169}{193}{section.169}
\contentsline {section}{\numberline {170}Amendment 170}{193}{section.170}
\contentsline {section}{\numberline {171}Amendment 171}{194}{section.171}
\contentsline {section}{\numberline {172}Amendment 172}{195}{section.172}
\contentsline {section}{\numberline {173}Amendment 173}{195}{section.173}
\contentsline {section}{\numberline {174}Amendment 174}{196}{section.174}
\contentsline {section}{\numberline {175}Amendment 175}{197}{section.175}
\contentsline {section}{\numberline {176}Amendment 176}{198}{section.176}
\contentsline {section}{\numberline {177}Amendment 177}{198}{section.177}
\contentsline {section}{\numberline {178}Amendment 178}{199}{section.178}
\contentsline {section}{\numberline {179}Amendment 179}{200}{section.179}
\contentsline {section}{\numberline {180}Amendment 180}{201}{section.180}
\contentsline {section}{\numberline {181}Amendment 181}{202}{section.181}
\contentsline {section}{\numberline {182}Amendment 182}{203}{section.182}
\contentsline {section}{\numberline {183}Amendment 183}{204}{section.183}
\contentsline {section}{\numberline {184}Amendment 184}{205}{section.184}
\contentsline {section}{\numberline {185}Amendment 185}{205}{section.185}
\contentsline {section}{\numberline {186}Amendment 186}{206}{section.186}
\contentsline {section}{\numberline {187}Amendment 187}{208}{section.187}
\contentsline {section}{\numberline {188}Amendment 188}{209}{section.188}
\contentsline {section}{\numberline {189}Amendment 189}{211}{section.189}
\contentsline {section}{\numberline {190}Amendment 190}{212}{section.190}
\contentsline {section}{\numberline {191}Amendment 191}{214}{section.191}
\contentsline {section}{\numberline {192}Amendment 192}{215}{section.192}
\contentsline {section}{\numberline {193}Amendment 193}{216}{section.193}
\contentsline {subsection}{\numberline {193.1}critique}{217}{subsection.193.1}
\contentsline {section}{\numberline {194}Amendment 194}{217}{section.194}
\contentsline {section}{\numberline {195}Amendment 195}{217}{section.195}
\contentsline {section}{\numberline {196}Amendment 196}{218}{section.196}
\contentsline {section}{\numberline {197}Amendment 197}{219}{section.197}
\contentsline {section}{\numberline {198}Amendment 198}{220}{section.198}
\contentsline {section}{\numberline {199}Amendment 199}{221}{section.199}
\contentsline {section}{\numberline {200}Amendment 200}{222}{section.200}
\contentsline {section}{\numberline {201}Amendment 201}{223}{section.201}
\contentsline {section}{\numberline {202}Amendment 202}{224}{section.202}
\contentsline {section}{\numberline {203}Amendment 203}{225}{section.203}
\contentsline {section}{\numberline {204}Amendment 204}{226}{section.204}
\contentsline {section}{\numberline {205}Amendment 205}{227}{section.205}
\contentsline {subsection}{\numberline {205.1}critique}{228}{subsection.205.1}
\contentsline {section}{\numberline {206}Amendment 206}{228}{section.206}
\contentsline {section}{\numberline {207}Amendment 207}{229}{section.207}
\contentsline {subsection}{\numberline {207.1}critique}{229}{subsection.207.1}
\contentsline {section}{\numberline {208}Amendment 208}{230}{section.208}
\contentsline {section}{\numberline {209}Amendment 209}{230}{section.209}
\contentsline {section}{\numberline {210}Amendment 210}{231}{section.210}
\contentsline {section}{\numberline {211}Amendment 211}{232}{section.211}
\contentsline {section}{\numberline {212}Amendment 212}{232}{section.212}
\contentsline {section}{\numberline {213}Amendment 213}{233}{section.213}
\contentsline {subsection}{\numberline {213.1}critique}{234}{subsection.213.1}
\contentsline {section}{\numberline {214}Amendment 214}{234}{section.214}
\contentsline {section}{\numberline {215}Amendment 215}{235}{section.215}
\contentsline {section}{\numberline {216}Amendment 216}{235}{section.216}
\contentsline {section}{\numberline {217}Amendment 217}{236}{section.217}
\contentsline {section}{\numberline {218}Amendment 218}{237}{section.218}
\contentsline {section}{\numberline {219}Amendment 219}{238}{section.219}
\contentsline {subsection}{\numberline {219.1}critique}{239}{subsection.219.1}
\contentsline {section}{\numberline {220}Amendment 220}{239}{section.220}
\contentsline {section}{\numberline {221}Amendment 221}{240}{section.221}
\contentsline {section}{\numberline {222}Amendment 222}{240}{section.222}
\contentsline {section}{\numberline {223}Amendment 223}{241}{section.223}
\contentsline {section}{\numberline {224}Amendment 224}{242}{section.224}
\contentsline {section}{\numberline {225}Amendment 225}{243}{section.225}
\contentsline {section}{\numberline {226}Amendment 226}{244}{section.226}
\contentsline {section}{\numberline {227}Amendment 227}{245}{section.227}
\contentsline {subsection}{\numberline {227.1}critique}{246}{subsection.227.1}
\contentsline {section}{\numberline {228}Amendment 228}{246}{section.228}
\contentsline {subsection}{\numberline {228.1}critique}{246}{subsection.228.1}
\contentsline {section}{\numberline {229}Amendment 229}{247}{section.229}
\contentsline {subsection}{\numberline {229.1}critique}{248}{subsection.229.1}
\contentsline {section}{\numberline {230}Amendment 230}{248}{section.230}
\contentsline {section}{\numberline {231}Amendment 231}{249}{section.231}
\contentsline {section}{\numberline {232}Amendment 232}{250}{section.232}
\contentsline {section}{\numberline {233}Amendment 233}{251}{section.233}
\contentsline {subsection}{\numberline {233.1}critique}{251}{subsection.233.1}
\contentsline {section}{\numberline {234}Amendment 234}{252}{section.234}
\contentsline {section}{\numberline {235}Amendment 235}{253}{section.235}
\contentsline {section}{\numberline {236}Amendment 236}{254}{section.236}
\contentsline {section}{\numberline {237}Amendment 237}{255}{section.237}
\contentsline {section}{\numberline {238}Amendment 238}{256}{section.238}
\contentsline {section}{\numberline {239}Amendment 239}{257}{section.239}
\contentsline {section}{\numberline {240}Amendment 240}{257}{section.240}
\contentsline {section}{\numberline {241}Amendment 241}{258}{section.241}
\contentsline {section}{\numberline {242}Amendment 242}{259}{section.242}
\contentsline {section}{\numberline {243}Amendment 243}{260}{section.243}
\contentsline {section}{\numberline {244}Amendment 244}{262}{section.244}
\contentsline {section}{\numberline {245}Amendment 245}{263}{section.245}
\contentsline {section}{\numberline {246}Amendment 246}{263}{section.246}
\contentsline {section}{\numberline {247}Amendment 247}{264}{section.247}
\contentsline {section}{\numberline {248}Amendment 248}{266}{section.248}
\contentsline {section}{\numberline {249}Amendment 249}{266}{section.249}
\contentsline {section}{\numberline {250}Amendment 250}{267}{section.250}
\contentsline {section}{\numberline {251}Amendment 251}{268}{section.251}
\contentsline {section}{\numberline {252}Amendment 252}{269}{section.252}
\contentsline {section}{\numberline {253}Amendment 253}{270}{section.253}
\contentsline {section}{\numberline {254}Amendment 254}{271}{section.254}
\contentsline {section}{\numberline {255}Amendment 255}{272}{section.255}
\contentsline {section}{\numberline {256}Amendment 256}{274}{section.256}
