\contentsline {section}{\numberline {1}Amendment 67}{2}{section.1}
\contentsline {subsection}{\numberline {1.1}critique}{2}{subsection.1.1}
\contentsline {section}{\numberline {2}Amendment 107}{3}{section.2}
\contentsline {subsection}{\numberline {2.1}critique}{4}{subsection.2.1}
\contentsline {section}{\numberline {3}Amendment 108}{4}{section.3}
\contentsline {section}{\numberline {4}Amendment 109}{5}{section.4}
\contentsline {section}{\numberline {5}Amendment 226}{6}{section.5}
\contentsline {section}{\numberline {6}Amendment 227}{7}{section.6}
\contentsline {subsection}{\numberline {6.1}critique}{8}{subsection.6.1}
