\relax 
\ifx\hyper@anchor\@undefined
\global \let \oldcontentsline\contentsline
\gdef \contentsline#1#2#3#4{\oldcontentsline{#1}{#2}{#3}}
\global \let \oldnewlabel\newlabel
\gdef \newlabel#1#2{\newlabelxx{#1}#2}
\gdef \newlabelxx#1#2#3#4#5#6{\oldnewlabel{#1}{{#2}{#3}}}
\AtEndDocument{\let \contentsline\oldcontentsline
\let \newlabel\oldnewlabel}
\else
\global \let \hyper@last\relax 
\fi

\@writefile{toc}{\contentsline {section}{\numberline {1}Introduction}{1}{section.1}}
\newlabel{intro}{{1}{1}{Introduction\relax }{section.1}{}}
\@writefile{toc}{\contentsline {section}{\numberline {2}Voting List}{3}{section.2}}
\newlabel{votlst}{{2}{3}{Voting List\relax }{section.2}{}}
\@writefile{toc}{\contentsline {section}{\numberline {3}Amendments in Detail}{3}{section.3}}
\newlabel{amends}{{3}{3}{Amendments in Detail\relax }{section.3}{}}
\newlabel{am92}{{4}{3}{Amendment 92\label {am92}\relax }{section.4}{}}
\@writefile{toc}{\contentsline {section}{\numberline {4}Amendment 92}{3}{section.4}}
\@writefile{toc}{\contentsline {subsection}{\numberline {4.1}critique}{4}{subsection.4.1}}
\newlabel{am95}{{5}{4}{Amendment 95\label {am95}\relax }{section.5}{}}
\@writefile{toc}{\contentsline {section}{\numberline {5}Amendment 95}{4}{section.5}}
\@writefile{toc}{\contentsline {subsection}{\numberline {5.1}critique}{6}{subsection.5.1}}
\newlabel{am110}{{6}{6}{Amendment 110\label {am110}\relax }{section.6}{}}
\@writefile{toc}{\contentsline {section}{\numberline {6}Amendment 110}{6}{section.6}}
\@writefile{toc}{\contentsline {subsection}{\numberline {6.1}critique}{7}{subsection.6.1}}
\newlabel{am193}{{7}{7}{Amendment 193\label {am193}\relax }{section.7}{}}
\@writefile{toc}{\contentsline {section}{\numberline {7}Amendment 193}{7}{section.7}}
\@writefile{toc}{\contentsline {subsection}{\numberline {7.1}critique}{8}{subsection.7.1}}
\newlabel{am228}{{8}{8}{Amendment 228\label {am228}\relax }{section.8}{}}
\@writefile{toc}{\contentsline {section}{\numberline {8}Amendment 228}{8}{section.8}}
\@writefile{toc}{\contentsline {subsection}{\numberline {8.1}critique}{8}{subsection.8.1}}
\gdef\scr@tpo@lst{0}
