\contentsline {section}{\numberline {1}Amendment 182}{1}{section.1}
\contentsline {section}{\numberline {2}Amendment 183}{2}{section.2}
\contentsline {section}{\numberline {3}Amendment 256}{3}{section.3}
