\relax 
\catcode`"\active
\ifx\hyper@anchor\@undefined
\global \let \oldcontentsline\contentsline
\gdef \contentsline#1#2#3#4{\oldcontentsline{#1}{#2}{#3}}
\global \let \oldnewlabel\newlabel
\gdef \newlabel#1#2{\newlabelxx{#1}#2}
\gdef \newlabelxx#1#2#3#4#5#6{\oldnewlabel{#1}{{#2}{#3}}}
\AtEndDocument{\let \contentsline\oldcontentsline
\let \newlabel\oldnewlabel}
\else
\global \let \hyper@last\relax 
\fi

\select@language{italian}
\@writefile{toc}{\select@language{italian}}
\@writefile{lof}{\select@language{italian}}
\@writefile{lot}{\select@language{italian}}
\@writefile{toc}{\contentsline {section}{\numberline {1}Le Chiarificazioni Chiave da apportare alla Direttiva}{2}{section.1}}
\newlabel{nukleus}{{1}{2}{Le Chiarificazioni Chiave da apportare alla Direttiva\relax }{section.1}{}}
\@writefile{toc}{\contentsline {section}{\numberline {2}Emendamenti raggruppati per Argomento}{3}{section.2}}
\newlabel{klas}{{2}{3}{Emendamenti raggruppati per Argomento\relax }{section.2}{}}
\@writefile{toc}{\contentsline {section}{\numberline {3}Annotated Links}{5}{section.3}}
\newlabel{links}{{3}{5}{Annotated Links\relax }{section.3}{}}
\gdef\scr@tpo@lst{0}
