\contentsline {section}{\numberline {1}De Kernverduidelijkingen die gemaakt moeten worden door de Richtlijn}{2}{section.1}
\contentsline {section}{\numberline {2}Amendementen Gegroepeerd naar Onderwerp}{3}{section.2}
\contentsline {section}{\numberline {3}Koppelingen met voetnoten}{5}{section.3}
