\relax 
\catcode`:\active
\catcode`;\active
\catcode`!\active
\catcode`?\active
\ifx\hyper@anchor\@undefined
\global \let \oldcontentsline\contentsline
\gdef \contentsline#1#2#3#4{\oldcontentsline{#1}{#2}{#3}}
\global \let \oldnewlabel\newlabel
\gdef \newlabel#1#2{\newlabelxx{#1}#2}
\gdef \newlabelxx#1#2#3#4#5#6{\oldnewlabel{#1}{{#2}{#3}}}
\AtEndDocument{\let \contentsline\oldcontentsline
\let \newlabel\oldnewlabel}
\else
\global \let \hyper@last\relax 
\fi

\select@language{french}
\@writefile{toc}{\select@language{french}}
\@writefile{lof}{\select@language{french}}
\@writefile{lot}{\select@language{french}}
\@writefile{toc}{\contentsline {section}{\numberline {1}Les clarifications cl\'{e}s que la directive doit apporter}{2}{section.1}}
\newlabel{nukleus}{{1}{2}{Les clarifications cl\'{e}s que la directive doit apporter\relax }{section.1}{}}
\@writefile{toc}{\contentsline {section}{\numberline {2}Amendements regroup\'{e}s par th\`{e}me}{3}{section.2}}
\newlabel{klas}{{2}{3}{Amendements regroup\'{e}s par th\`{e}me\relax }{section.2}{}}
\@writefile{toc}{\contentsline {section}{\numberline {3}Liens annot\'{e}s}{4}{section.3}}
\newlabel{links}{{3}{4}{Liens annot\'{e}s\relax }{section.3}{}}
\gdef\scr@tpo@lst{0}
