\contentsline {section}{\numberline {1}The Core Clarifications to be made by the Directive}{2}{section.1}
\contentsline {section}{\numberline {2}Amendments Grouped by Topics}{3}{section.2}
\contentsline {section}{\numberline {3}Annotated Links}{4}{section.3}
