\contentsline {section}{\numberline {1}Amendment 230}{1}{section.1}
\contentsline {section}{\numberline {2}Amendment 231}{2}{section.2}
\contentsline {section}{\numberline {3}Amendment 232}{3}{section.3}
\contentsline {section}{\numberline {4}Amendment 233}{4}{section.4}
\contentsline {subsection}{\numberline {4.1}critique}{5}{subsection.4.1}
\contentsline {section}{\numberline {5}Amendment 234}{5}{section.5}
\contentsline {section}{\numberline {6}Amendment 235}{6}{section.6}
\contentsline {section}{\numberline {7}Amendment 236}{7}{section.7}
