\contentsline {section}{\numberline {1}Amendment 75}{2}{section.1}
\contentsline {section}{\numberline {2}Amendment 77}{2}{section.2}
\contentsline {section}{\numberline {3}Amendment 78}{3}{section.3}
\contentsline {section}{\numberline {4}Amendment 79}{4}{section.4}
\contentsline {section}{\numberline {5}Amendment 81}{5}{section.5}
\contentsline {section}{\numberline {6}Amendment 82}{6}{section.6}
