\BOOKMARK [1][-]{section.1}{Introduction}{}
\BOOKMARK [1][-]{section.2}{Voting List}{}
\BOOKMARK [1][-]{section.3}{Amendments in Detail}{}
\BOOKMARK [1][-]{section.4}{Amendment 31}{}
\BOOKMARK [2][-]{subsection.4.1}{critique}{section.4}
\BOOKMARK [1][-]{section.5}{Amendment 97}{}
\BOOKMARK [2][-]{subsection.5.1}{critique}{section.5}
\BOOKMARK [1][-]{section.6}{Amendment 99}{}
\BOOKMARK [2][-]{subsection.6.1}{critique}{section.6}
\BOOKMARK [1][-]{section.7}{Amendment 100}{}
\BOOKMARK [2][-]{subsection.7.1}{critique}{section.7}
\BOOKMARK [1][-]{section.8}{Amendment 101}{}
\BOOKMARK [2][-]{subsection.8.1}{critique}{section.8}
\BOOKMARK [1][-]{section.9}{Amendment 102}{}
\BOOKMARK [2][-]{subsection.9.1}{critique}{section.9}
\BOOKMARK [1][-]{section.10}{Amendment 103}{}
\BOOKMARK [2][-]{subsection.10.1}{critique}{section.10}
\BOOKMARK [1][-]{section.11}{Amendment 104}{}
\BOOKMARK [2][-]{subsection.11.1}{critique}{section.11}
\BOOKMARK [1][-]{section.12}{Amendment 105}{}
\BOOKMARK [2][-]{subsection.12.1}{critique}{section.12}
\BOOKMARK [1][-]{section.13}{Amendment 106}{}
\BOOKMARK [2][-]{subsection.13.1}{critique}{section.13}
\BOOKMARK [1][-]{section.14}{Amendment 107}{}
\BOOKMARK [2][-]{subsection.14.1}{critique}{section.14}
