\relax 
\ifx\hyper@anchor\@undefined
\global \let \oldcontentsline\contentsline
\gdef \contentsline#1#2#3#4{\oldcontentsline{#1}{#2}{#3}}
\global \let \oldnewlabel\newlabel
\gdef \newlabel#1#2{\newlabelxx{#1}#2}
\gdef \newlabelxx#1#2#3#4#5#6{\oldnewlabel{#1}{{#2}{#3}}}
\AtEndDocument{\let \contentsline\oldcontentsline
\let \newlabel\oldnewlabel}
\else
\global \let \hyper@last\relax 
\fi

\newlabel{am163}{{1}{2}{Amendment 163\label {am163}\relax }{section.1}{}}
\@writefile{toc}{\contentsline {section}{\numberline {1}Amendment 163}{2}{section.1}}
\newlabel{am164}{{2}{4}{Amendment 164\label {am164}\relax }{section.2}{}}
\@writefile{toc}{\contentsline {section}{\numberline {2}Amendment 164}{4}{section.2}}
\newlabel{am167}{{3}{5}{Amendment 167\label {am167}\relax }{section.3}{}}
\@writefile{toc}{\contentsline {section}{\numberline {3}Amendment 167}{5}{section.3}}
\newlabel{am174}{{4}{6}{Amendment 174\label {am174}\relax }{section.4}{}}
\@writefile{toc}{\contentsline {section}{\numberline {4}Amendment 174}{6}{section.4}}
\newlabel{am249}{{5}{6}{Amendment 249\label {am249}\relax }{section.5}{}}
\@writefile{toc}{\contentsline {section}{\numberline {5}Amendment 249}{6}{section.5}}
\gdef\scr@tpo@lst{0}
