\contentsline {section}{\numberline {1}Voting List}{2}{section.1}
\contentsline {section}{\numberline {2}Amendments in Detail}{2}{section.2}
\contentsline {section}{\numberline {3}Amendment 40 rejette la position commune}{2}{section.3}
\contentsline {subsection}{\numberline {3.1}critique}{3}{subsection.3.1}
\contentsline {section}{\numberline {4}Amendment 41 Rejects the Common Position}{3}{section.4}
\contentsline {subsection}{\numberline {4.1}critique}{4}{subsection.4.1}
