\contentsline {section}{\numberline {1}Amendment 124}{2}{section.1}
\contentsline {section}{\numberline {2}Amendment 125}{3}{section.2}
\contentsline {section}{\numberline {3}Amendment 144}{5}{section.3}
\contentsline {section}{\numberline {4}Amendment 241}{6}{section.4}
