\select@language {french}
\contentsline {section}{\numberline {1}Les clarifications cl\'{e}s que la directive doit apporter}{2}{section.1}
\contentsline {section}{\numberline {2}Amendements regroup\'{e}s par th\`{e}me}{3}{section.2}
\contentsline {section}{\numberline {3}Liens annot\'{e}s}{4}{section.3}
