\relax 
\ifx\hyper@anchor\@undefined
\global \let \oldcontentsline\contentsline
\gdef \contentsline#1#2#3#4{\oldcontentsline{#1}{#2}{#3}}
\global \let \oldnewlabel\newlabel
\gdef \newlabel#1#2{\newlabelxx{#1}#2}
\gdef \newlabelxx#1#2#3#4#5#6{\oldnewlabel{#1}{{#2}{#3}}}
\AtEndDocument{\let \contentsline\oldcontentsline
\let \newlabel\oldnewlabel}
\else
\global \let \hyper@last\relax 
\fi

\newlabel{am67}{{1}{2}{Amendment 67\label {am67}\relax }{section.1}{}}
\@writefile{toc}{\contentsline {section}{\numberline {1}Amendment 67}{2}{section.1}}
\@writefile{toc}{\contentsline {subsection}{\numberline {1.1}critique}{2}{subsection.1.1}}
\newlabel{am107}{{2}{3}{Amendment 107\label {am107}\relax }{section.2}{}}
\@writefile{toc}{\contentsline {section}{\numberline {2}Amendment 107}{3}{section.2}}
\@writefile{toc}{\contentsline {subsection}{\numberline {2.1}critique}{4}{subsection.2.1}}
\newlabel{am108}{{3}{4}{Amendment 108\label {am108}\relax }{section.3}{}}
\@writefile{toc}{\contentsline {section}{\numberline {3}Amendment 108}{4}{section.3}}
\newlabel{am109}{{4}{5}{Amendment 109\label {am109}\relax }{section.4}{}}
\@writefile{toc}{\contentsline {section}{\numberline {4}Amendment 109}{5}{section.4}}
\newlabel{am226}{{5}{6}{Amendment 226\label {am226}\relax }{section.5}{}}
\@writefile{toc}{\contentsline {section}{\numberline {5}Amendment 226}{6}{section.5}}
\newlabel{am227}{{6}{7}{Amendment 227\label {am227}\relax }{section.6}{}}
\@writefile{toc}{\contentsline {section}{\numberline {6}Amendment 227}{7}{section.6}}
\@writefile{toc}{\contentsline {subsection}{\numberline {6.1}critique}{8}{subsection.6.1}}
\gdef\scr@tpo@lst{0}
