\relax 
\ifx\hyper@anchor\@undefined
\global \let \oldcontentsline\contentsline
\gdef \contentsline#1#2#3#4{\oldcontentsline{#1}{#2}{#3}}
\global \let \oldnewlabel\newlabel
\gdef \newlabel#1#2{\newlabelxx{#1}#2}
\gdef \newlabelxx#1#2#3#4#5#6{\oldnewlabel{#1}{{#2}{#3}}}
\AtEndDocument{\let \contentsline\oldcontentsline
\let \newlabel\oldnewlabel}
\else
\global \let \hyper@last\relax 
\fi

\newlabel{am75}{{1}{2}{Amendment 75\label {am75}\relax }{section.1}{}}
\@writefile{toc}{\contentsline {section}{\numberline {1}Amendment 75}{2}{section.1}}
\newlabel{am77}{{2}{2}{Amendment 77\label {am77}\relax }{section.2}{}}
\@writefile{toc}{\contentsline {section}{\numberline {2}Amendment 77}{2}{section.2}}
\newlabel{am78}{{3}{3}{Amendment 78\label {am78}\relax }{section.3}{}}
\@writefile{toc}{\contentsline {section}{\numberline {3}Amendment 78}{3}{section.3}}
\newlabel{am79}{{4}{4}{Amendment 79\label {am79}\relax }{section.4}{}}
\@writefile{toc}{\contentsline {section}{\numberline {4}Amendment 79}{4}{section.4}}
\newlabel{am81}{{5}{5}{Amendment 81\label {am81}\relax }{section.5}{}}
\@writefile{toc}{\contentsline {section}{\numberline {5}Amendment 81}{5}{section.5}}
\newlabel{am82}{{6}{6}{Amendment 82\label {am82}\relax }{section.6}{}}
\@writefile{toc}{\contentsline {section}{\numberline {6}Amendment 82}{6}{section.6}}
\gdef\scr@tpo@lst{0}
