\relax 
\ifx\hyper@anchor\@undefined
\global \let \oldcontentsline\contentsline
\gdef \contentsline#1#2#3#4{\oldcontentsline{#1}{#2}{#3}}
\global \let \oldnewlabel\newlabel
\gdef \newlabel#1#2{\newlabelxx{#1}#2}
\gdef \newlabelxx#1#2#3#4#5#6{\oldnewlabel{#1}{{#2}{#3}}}
\AtEndDocument{\let \contentsline\oldcontentsline
\let \newlabel\oldnewlabel}
\else
\global \let \hyper@last\relax 
\fi

\newlabel{am161}{{1}{2}{Amendment 161\label {am161}\relax }{section.1}{}}
\@writefile{toc}{\contentsline {section}{\numberline {1}Amendment 161}{2}{section.1}}
\newlabel{am162}{{2}{3}{Amendment 162\label {am162}\relax }{section.2}{}}
\@writefile{toc}{\contentsline {section}{\numberline {2}Amendment 162}{3}{section.2}}
\newlabel{am163}{{3}{4}{Amendment 163\label {am163}\relax }{section.3}{}}
\@writefile{toc}{\contentsline {section}{\numberline {3}Amendment 163}{4}{section.3}}
\newlabel{am164}{{4}{6}{Amendment 164\label {am164}\relax }{section.4}{}}
\@writefile{toc}{\contentsline {section}{\numberline {4}Amendment 164}{6}{section.4}}
\newlabel{am165}{{5}{7}{Amendment 165\label {am165}\relax }{section.5}{}}
\@writefile{toc}{\contentsline {section}{\numberline {5}Amendment 165}{7}{section.5}}
\newlabel{am166}{{6}{7}{Amendment 166\label {am166}\relax }{section.6}{}}
\@writefile{toc}{\contentsline {section}{\numberline {6}Amendment 166}{7}{section.6}}
\newlabel{am167}{{7}{8}{Amendment 167\label {am167}\relax }{section.7}{}}
\@writefile{toc}{\contentsline {section}{\numberline {7}Amendment 167}{8}{section.7}}
\newlabel{am168}{{8}{9}{Amendment 168\label {am168}\relax }{section.8}{}}
\@writefile{toc}{\contentsline {section}{\numberline {8}Amendment 168}{9}{section.8}}
\newlabel{am169}{{9}{10}{Amendment 169\label {am169}\relax }{section.9}{}}
\@writefile{toc}{\contentsline {section}{\numberline {9}Amendment 169}{10}{section.9}}
\newlabel{am170}{{10}{10}{Amendment 170\label {am170}\relax }{section.10}{}}
\@writefile{toc}{\contentsline {section}{\numberline {10}Amendment 170}{10}{section.10}}
\newlabel{am171}{{11}{11}{Amendment 171\label {am171}\relax }{section.11}{}}
\@writefile{toc}{\contentsline {section}{\numberline {11}Amendment 171}{11}{section.11}}
\newlabel{am172}{{12}{12}{Amendment 172\label {am172}\relax }{section.12}{}}
\@writefile{toc}{\contentsline {section}{\numberline {12}Amendment 172}{12}{section.12}}
\newlabel{am173}{{13}{12}{Amendment 173\label {am173}\relax }{section.13}{}}
\@writefile{toc}{\contentsline {section}{\numberline {13}Amendment 173}{12}{section.13}}
\newlabel{am174}{{14}{13}{Amendment 174\label {am174}\relax }{section.14}{}}
\@writefile{toc}{\contentsline {section}{\numberline {14}Amendment 174}{13}{section.14}}
\newlabel{am175}{{15}{14}{Amendment 175\label {am175}\relax }{section.15}{}}
\@writefile{toc}{\contentsline {section}{\numberline {15}Amendment 175}{14}{section.15}}
\newlabel{am176}{{16}{15}{Amendment 176\label {am176}\relax }{section.16}{}}
\@writefile{toc}{\contentsline {section}{\numberline {16}Amendment 176}{15}{section.16}}
\newlabel{am177}{{17}{15}{Amendment 177\label {am177}\relax }{section.17}{}}
\@writefile{toc}{\contentsline {section}{\numberline {17}Amendment 177}{15}{section.17}}
\newlabel{am178}{{18}{16}{Amendment 178\label {am178}\relax }{section.18}{}}
\@writefile{toc}{\contentsline {section}{\numberline {18}Amendment 178}{16}{section.18}}
\newlabel{am179}{{19}{17}{Amendment 179\label {am179}\relax }{section.19}{}}
\@writefile{toc}{\contentsline {section}{\numberline {19}Amendment 179}{17}{section.19}}
\newlabel{am180}{{20}{18}{Amendment 180\label {am180}\relax }{section.20}{}}
\@writefile{toc}{\contentsline {section}{\numberline {20}Amendment 180}{18}{section.20}}
\newlabel{am181}{{21}{19}{Amendment 181\label {am181}\relax }{section.21}{}}
\@writefile{toc}{\contentsline {section}{\numberline {21}Amendment 181}{19}{section.21}}
\newlabel{am253}{{22}{20}{Amendment 253\label {am253}\relax }{section.22}{}}
\@writefile{toc}{\contentsline {section}{\numberline {22}Amendment 253}{20}{section.22}}
\gdef\scr@tpo@lst{0}
