\contentsline {section}{\numberline {1}Amendment 242}{2}{section.1}
\contentsline {section}{\numberline {2}Amendment 244}{3}{section.2}
\contentsline {section}{\numberline {3}Amendment 245}{4}{section.3}
\contentsline {section}{\numberline {4}Amendment 246}{4}{section.4}
