\contentsline {section}{\numberline {1}Amendment 85}{2}{section.1}
\contentsline {section}{\numberline {2}Amendment 86}{3}{section.2}
\contentsline {section}{\numberline {3}Amendment 87}{4}{section.3}
\contentsline {section}{\numberline {4}Amendment 88}{4}{section.4}
\contentsline {section}{\numberline {5}Amendment 89}{5}{section.5}
\contentsline {section}{\numberline {6}Amendment 90}{6}{section.6}
\contentsline {subsection}{\numberline {6.1}critique}{7}{subsection.6.1}
\contentsline {section}{\numberline {7}Amendment 91}{7}{section.7}
\contentsline {section}{\numberline {8}Amendment 212}{8}{section.8}
\contentsline {section}{\numberline {9}Amendment 213}{8}{section.9}
\contentsline {subsection}{\numberline {9.1}critique}{9}{subsection.9.1}
\contentsline {section}{\numberline {10}Amendment 214}{9}{section.10}
\contentsline {section}{\numberline {11}Amendment 215}{10}{section.11}
\contentsline {section}{\numberline {12}Amendment 216}{11}{section.12}
\contentsline {section}{\numberline {13}Amendment 217}{12}{section.13}
\contentsline {section}{\numberline {14}Amendment 218}{12}{section.14}
\contentsline {section}{\numberline {15}Amendment 219}{13}{section.15}
\contentsline {subsection}{\numberline {15.1}critique}{14}{subsection.15.1}
\contentsline {section}{\numberline {16}Amendment 220}{14}{section.16}
\contentsline {section}{\numberline {17}Amendment 221}{15}{section.17}
\contentsline {section}{\numberline {18}Amendment 222}{15}{section.18}
\contentsline {section}{\numberline {19}Amendment 223}{16}{section.19}
\contentsline {section}{\numberline {20}Amendment 224}{17}{section.20}
\contentsline {section}{\numberline {21}Amendment 225}{18}{section.21}
