\relax 
\ifx\hyper@anchor\@undefined
\global \let \oldcontentsline\contentsline
\gdef \contentsline#1#2#3#4{\oldcontentsline{#1}{#2}{#3}}
\global \let \oldnewlabel\newlabel
\gdef \newlabel#1#2{\newlabelxx{#1}#2}
\gdef \newlabelxx#1#2#3#4#5#6{\oldnewlabel{#1}{{#2}{#3}}}
\AtEndDocument{\let \contentsline\oldcontentsline
\let \newlabel\oldnewlabel}
\else
\global \let \hyper@last\relax 
\fi

\@writefile{toc}{\contentsline {section}{\numberline {1}Introduction}{1}{section.1}}
\newlabel{intro}{{1}{1}{Introduction\relax }{section.1}{}}
\@writefile{toc}{\contentsline {section}{\numberline {2}Voting List}{4}{section.2}}
\newlabel{votlist}{{2}{4}{Voting List\relax }{section.2}{}}
\@writefile{toc}{\contentsline {section}{\numberline {3}Amendments in Detail}{5}{section.3}}
\newlabel{amends}{{3}{5}{Amendments in Detail\relax }{section.3}{}}
\newlabel{am31}{{4}{5}{Amendment 31\label {am31}\relax }{section.4}{}}
\@writefile{toc}{\contentsline {section}{\numberline {4}Amendment 31}{5}{section.4}}
\@writefile{toc}{\contentsline {subsection}{\numberline {4.1}critique}{5}{subsection.4.1}}
\newlabel{am97}{{5}{6}{Amendment 97\label {am97}\relax }{section.5}{}}
\@writefile{toc}{\contentsline {section}{\numberline {5}Amendment 97}{6}{section.5}}
\@writefile{toc}{\contentsline {subsection}{\numberline {5.1}critique}{6}{subsection.5.1}}
\newlabel{am99}{{6}{7}{Amendment 99\label {am99}\relax }{section.6}{}}
\@writefile{toc}{\contentsline {section}{\numberline {6}Amendment 99}{7}{section.6}}
\@writefile{toc}{\contentsline {subsection}{\numberline {6.1}critique}{8}{subsection.6.1}}
\newlabel{am100}{{7}{8}{Amendment 100\label {am100}\relax }{section.7}{}}
\@writefile{toc}{\contentsline {section}{\numberline {7}Amendment 100}{8}{section.7}}
\@writefile{toc}{\contentsline {subsection}{\numberline {7.1}critique}{8}{subsection.7.1}}
\newlabel{am101}{{8}{9}{Amendment 101\label {am101}\relax }{section.8}{}}
\@writefile{toc}{\contentsline {section}{\numberline {8}Amendment 101}{9}{section.8}}
\@writefile{toc}{\contentsline {subsection}{\numberline {8.1}critique}{10}{subsection.8.1}}
\newlabel{am102}{{9}{10}{Amendment 102\label {am102}\relax }{section.9}{}}
\@writefile{toc}{\contentsline {section}{\numberline {9}Amendment 102}{10}{section.9}}
\@writefile{toc}{\contentsline {subsection}{\numberline {9.1}critique}{10}{subsection.9.1}}
\newlabel{am103}{{10}{11}{Amendment 103\label {am103}\relax }{section.10}{}}
\@writefile{toc}{\contentsline {section}{\numberline {10}Amendment 103}{11}{section.10}}
\@writefile{toc}{\contentsline {subsection}{\numberline {10.1}critique}{12}{subsection.10.1}}
\newlabel{am104}{{11}{12}{Amendment 104\label {am104}\relax }{section.11}{}}
\@writefile{toc}{\contentsline {section}{\numberline {11}Amendment 104}{12}{section.11}}
\@writefile{toc}{\contentsline {subsection}{\numberline {11.1}critique}{13}{subsection.11.1}}
\newlabel{am105}{{12}{13}{Amendment 105\label {am105}\relax }{section.12}{}}
\@writefile{toc}{\contentsline {section}{\numberline {12}Amendment 105}{13}{section.12}}
\@writefile{toc}{\contentsline {subsection}{\numberline {12.1}critique}{15}{subsection.12.1}}
\newlabel{am106}{{13}{15}{Amendment 106\label {am106}\relax }{section.13}{}}
\@writefile{toc}{\contentsline {section}{\numberline {13}Amendment 106}{15}{section.13}}
\@writefile{toc}{\contentsline {subsection}{\numberline {13.1}critique}{17}{subsection.13.1}}
\newlabel{am107}{{14}{17}{Amendment 107\label {am107}\relax }{section.14}{}}
\@writefile{toc}{\contentsline {section}{\numberline {14}Amendment 107}{17}{section.14}}
\@writefile{toc}{\contentsline {subsection}{\numberline {14.1}critique}{18}{subsection.14.1}}
\gdef\scr@tpo@lst{0}
