\contentsline {section}{\numberline {1}Amendment 161}{2}{section.1}
\contentsline {section}{\numberline {2}Amendment 162}{3}{section.2}
\contentsline {section}{\numberline {3}Amendment 163}{4}{section.3}
\contentsline {section}{\numberline {4}Amendment 164}{6}{section.4}
\contentsline {section}{\numberline {5}Amendment 165}{7}{section.5}
\contentsline {section}{\numberline {6}Amendment 166}{7}{section.6}
\contentsline {section}{\numberline {7}Amendment 167}{8}{section.7}
\contentsline {section}{\numberline {8}Amendment 168}{9}{section.8}
\contentsline {section}{\numberline {9}Amendment 169}{10}{section.9}
\contentsline {section}{\numberline {10}Amendment 170}{10}{section.10}
\contentsline {section}{\numberline {11}Amendment 171}{11}{section.11}
\contentsline {section}{\numberline {12}Amendment 172}{12}{section.12}
\contentsline {section}{\numberline {13}Amendment 173}{12}{section.13}
\contentsline {section}{\numberline {14}Amendment 174}{13}{section.14}
\contentsline {section}{\numberline {15}Amendment 175}{14}{section.15}
\contentsline {section}{\numberline {16}Amendment 176}{15}{section.16}
\contentsline {section}{\numberline {17}Amendment 177}{15}{section.17}
\contentsline {section}{\numberline {18}Amendment 178}{16}{section.18}
\contentsline {section}{\numberline {19}Amendment 179}{17}{section.19}
\contentsline {section}{\numberline {20}Amendment 180}{18}{section.20}
\contentsline {section}{\numberline {21}Amendment 181}{19}{section.21}
\contentsline {section}{\numberline {22}Amendment 253}{20}{section.22}
