\contentsline {section}{\numberline {1}Amendment 206}{2}{section.1}
\contentsline {section}{\numberline {2}Amendment 207}{3}{section.2}
\contentsline {subsection}{\numberline {2.1}critique}{3}{subsection.2.1}
\contentsline {section}{\numberline {3}Amendment 208}{4}{section.3}
\contentsline {section}{\numberline {4}Amendment 209}{4}{section.4}
\contentsline {section}{\numberline {5}Amendment 210}{5}{section.5}
\contentsline {section}{\numberline {6}Amendment 211}{6}{section.6}
