\relax 
\ifx\hyper@anchor\@undefined
\global \let \oldcontentsline\contentsline
\gdef \contentsline#1#2#3#4{\oldcontentsline{#1}{#2}{#3}}
\global \let \oldnewlabel\newlabel
\gdef \newlabel#1#2{\newlabelxx{#1}#2}
\gdef \newlabelxx#1#2#3#4#5#6{\oldnewlabel{#1}{{#2}{#3}}}
\AtEndDocument{\let \contentsline\oldcontentsline
\let \newlabel\oldnewlabel}
\else
\global \let \hyper@last\relax 
\fi

\newlabel{am182}{{1}{1}{Amendment 182\label {am182}\relax }{section.1}{}}
\@writefile{toc}{\contentsline {section}{\numberline {1}Amendment 182}{1}{section.1}}
\newlabel{am183}{{2}{2}{Amendment 183\label {am183}\relax }{section.2}{}}
\@writefile{toc}{\contentsline {section}{\numberline {2}Amendment 183}{2}{section.2}}
\newlabel{am256}{{3}{3}{Amendment 256\label {am256}\relax }{section.3}{}}
\@writefile{toc}{\contentsline {section}{\numberline {3}Amendment 256}{3}{section.3}}
\gdef\scr@tpo@lst{0}
