\contentsline {section}{\numberline {1}Amendment 163}{2}{section.1}
\contentsline {section}{\numberline {2}Amendment 164}{4}{section.2}
\contentsline {section}{\numberline {3}Amendment 167}{5}{section.3}
\contentsline {section}{\numberline {4}Amendment 174}{6}{section.4}
\contentsline {section}{\numberline {5}Amendment 249}{6}{section.5}
