\contentsline {section}{\numberline {1}Amendment 196}{1}{section.1}
\contentsline {section}{\numberline {2}Amendment 197}{2}{section.2}
\contentsline {section}{\numberline {3}Amendment 198}{3}{section.3}
\contentsline {section}{\numberline {4}Amendment 199}{4}{section.4}
\contentsline {section}{\numberline {5}Amendment 200}{5}{section.5}
