\BOOKMARK [1][-]{section.1}{Introduction}{}
\BOOKMARK [1][-]{section.2}{Votes}{}
\BOOKMARK [1][-]{section.3}{Amendments in Detail}{}
\BOOKMARK [1][-]{section.4}{Amendment 98}{}
\BOOKMARK [2][-]{subsection.4.1}{critique}{section.4}
\BOOKMARK [1][-]{section.5}{Amendment 111}{}
\BOOKMARK [2][-]{subsection.5.1}{critique}{section.5}
\BOOKMARK [1][-]{section.6}{Amendment 112}{}
\BOOKMARK [2][-]{subsection.6.1}{critique}{section.6}
\BOOKMARK [1][-]{section.7}{Amendment 113}{}
\BOOKMARK [2][-]{subsection.7.1}{critique}{section.7}
\BOOKMARK [1][-]{section.8}{Amendment 114}{}
\BOOKMARK [1][-]{section.9}{Amendment 115}{}
