\relax 
\ifx\hyper@anchor\@undefined
\global \let \oldcontentsline\contentsline
\gdef \contentsline#1#2#3#4{\oldcontentsline{#1}{#2}{#3}}
\global \let \oldnewlabel\newlabel
\gdef \newlabel#1#2{\newlabelxx{#1}#2}
\gdef \newlabelxx#1#2#3#4#5#6{\oldnewlabel{#1}{{#2}{#3}}}
\AtEndDocument{\let \contentsline\oldcontentsline
\let \newlabel\oldnewlabel}
\else
\global \let \hyper@last\relax 
\fi

\@writefile{toc}{\contentsline {section}{\numberline {1}Introduction}{1}{section.1}}
\newlabel{intro}{{1}{1}{Introduction\relax }{section.1}{}}
\@writefile{toc}{\contentsline {section}{\numberline {2}Voting List}{2}{section.2}}
\newlabel{votlist}{{2}{2}{Voting List\relax }{section.2}{}}
\@writefile{toc}{\contentsline {section}{\numberline {3}Amendments in Detail}{2}{section.3}}
\newlabel{amends}{{3}{2}{Amendments in Detail\relax }{section.3}{}}
\newlabel{am122}{{4}{2}{Amendment 122\label {am122}\relax }{section.4}{}}
\@writefile{toc}{\contentsline {section}{\numberline {4}Amendment 122}{2}{section.4}}
\@writefile{toc}{\contentsline {subsection}{\numberline {4.1}critique}{3}{subsection.4.1}}
\newlabel{am123}{{5}{3}{Amendment 123\label {am123}\relax }{section.5}{}}
\@writefile{toc}{\contentsline {section}{\numberline {5}Amendment 123}{3}{section.5}}
\@writefile{toc}{\contentsline {subsection}{\numberline {5.1}critique}{3}{subsection.5.1}}
\newlabel{am134}{{6}{4}{Amendment 134\label {am134}\relax }{section.6}{}}
\@writefile{toc}{\contentsline {section}{\numberline {6}Amendment 134}{4}{section.6}}
\@writefile{toc}{\contentsline {subsection}{\numberline {6.1}critique}{5}{subsection.6.1}}
\newlabel{am135}{{7}{5}{Amendment 135\label {am135}\relax }{section.7}{}}
\@writefile{toc}{\contentsline {section}{\numberline {7}Amendment 135}{5}{section.7}}
\@writefile{toc}{\contentsline {subsection}{\numberline {7.1}critique}{6}{subsection.7.1}}
\newlabel{am141}{{8}{6}{Amendment 141\label {am141}\relax }{section.8}{}}
\@writefile{toc}{\contentsline {section}{\numberline {8}Amendment 141}{6}{section.8}}
\@writefile{toc}{\contentsline {subsection}{\numberline {8.1}critique}{6}{subsection.8.1}}
\newlabel{am143}{{9}{7}{Amendment 143\label {am143}\relax }{section.9}{}}
\@writefile{toc}{\contentsline {section}{\numberline {9}Amendment 143}{7}{section.9}}
\@writefile{toc}{\contentsline {subsection}{\numberline {9.1}critique}{7}{subsection.9.1}}
\gdef\scr@tpo@lst{0}
