\relax 
\ifx\hyper@anchor\@undefined
\global \let \oldcontentsline\contentsline
\gdef \contentsline#1#2#3#4{\oldcontentsline{#1}{#2}{#3}}
\global \let \oldnewlabel\newlabel
\gdef \newlabel#1#2{\newlabelxx{#1}#2}
\gdef \newlabelxx#1#2#3#4#5#6{\oldnewlabel{#1}{{#2}{#3}}}
\AtEndDocument{\let \contentsline\oldcontentsline
\let \newlabel\oldnewlabel}
\else
\global \let \hyper@last\relax 
\fi

\@writefile{toc}{\contentsline {section}{\numberline {1}De Kernverduidelijkingen die gemaakt moeten worden door de Richtlijn}{2}{section.1}}
\newlabel{nukleus}{{1}{2}{De Kernverduidelijkingen die gemaakt moeten worden door de Richtlijn\relax }{section.1}{}}
\@writefile{toc}{\contentsline {section}{\numberline {2}Amendementen Gegroepeerd naar Onderwerp}{3}{section.2}}
\newlabel{klas}{{2}{3}{Amendementen Gegroepeerd naar Onderwerp\relax }{section.2}{}}
\@writefile{toc}{\contentsline {section}{\numberline {3}Koppelingen met voetnoten}{5}{section.3}}
\newlabel{links}{{3}{5}{Koppelingen met voetnoten\relax }{section.3}{}}
\gdef\scr@tpo@lst{0}
