\relax 
\ifx\hyper@anchor\@undefined
\global \let \oldcontentsline\contentsline
\gdef \contentsline#1#2#3#4{\oldcontentsline{#1}{#2}{#3}}
\global \let \oldnewlabel\newlabel
\gdef \newlabel#1#2{\newlabelxx{#1}#2}
\gdef \newlabelxx#1#2#3#4#5#6{\oldnewlabel{#1}{{#2}{#3}}}
\AtEndDocument{\let \contentsline\oldcontentsline
\let \newlabel\oldnewlabel}
\else
\global \let \hyper@last\relax 
\fi

\newlabel{am94}{{1}{1}{Amendment 94\label {am94}\relax }{section.1}{}}
\@writefile{toc}{\contentsline {section}{\numberline {1}Amendment 94}{1}{section.1}}
\newlabel{am96}{{2}{2}{Amendment 96\label {am96}\relax }{section.2}{}}
\@writefile{toc}{\contentsline {section}{\numberline {2}Amendment 96}{2}{section.2}}
\newlabel{am158}{{3}{3}{Amendment 158\label {am158}\relax }{section.3}{}}
\@writefile{toc}{\contentsline {section}{\numberline {3}Amendment 158}{3}{section.3}}
\newlabel{am239}{{4}{4}{Amendment 239\label {am239}\relax }{section.4}{}}
\@writefile{toc}{\contentsline {section}{\numberline {4}Amendment 239}{4}{section.4}}
\newlabel{am240}{{5}{4}{Amendment 240\label {am240}\relax }{section.5}{}}
\@writefile{toc}{\contentsline {section}{\numberline {5}Amendment 240}{4}{section.5}}
\gdef\scr@tpo@lst{0}
