\relax 
\ifx\hyper@anchor\@undefined
\global \let \oldcontentsline\contentsline
\gdef \contentsline#1#2#3#4{\oldcontentsline{#1}{#2}{#3}}
\global \let \oldnewlabel\newlabel
\gdef \newlabel#1#2{\newlabelxx{#1}#2}
\gdef \newlabelxx#1#2#3#4#5#6{\oldnewlabel{#1}{{#2}{#3}}}
\AtEndDocument{\let \contentsline\oldcontentsline
\let \newlabel\oldnewlabel}
\else
\global \let \hyper@last\relax 
\fi

\newlabel{am66}{{1}{2}{Amendment 66\label {am66}\relax }{section.1}{}}
\@writefile{toc}{\contentsline {section}{\numberline {1}Amendment 66}{2}{section.1}}
\newlabel{am69}{{2}{3}{Amendment 69\label {am69}\relax }{section.2}{}}
\@writefile{toc}{\contentsline {section}{\numberline {2}Amendment 69}{3}{section.2}}
\newlabel{am80}{{3}{4}{Amendment 80\label {am80}\relax }{section.3}{}}
\@writefile{toc}{\contentsline {section}{\numberline {3}Amendment 80}{4}{section.3}}
\newlabel{am84}{{4}{4}{Amendment 84\label {am84}\relax }{section.4}{}}
\@writefile{toc}{\contentsline {section}{\numberline {4}Amendment 84}{4}{section.4}}
\newlabel{am145}{{5}{5}{Amendment 145\label {am145}\relax }{section.5}{}}
\@writefile{toc}{\contentsline {section}{\numberline {5}Amendment 145}{5}{section.5}}
\newlabel{am146}{{6}{7}{Amendment 146\label {am146}\relax }{section.6}{}}
\@writefile{toc}{\contentsline {section}{\numberline {6}Amendment 146}{7}{section.6}}
\newlabel{am147}{{7}{8}{Amendment 147\label {am147}\relax }{section.7}{}}
\@writefile{toc}{\contentsline {section}{\numberline {7}Amendment 147}{8}{section.7}}
\@writefile{toc}{\contentsline {subsection}{\numberline {7.1}critique}{8}{subsection.7.1}}
\newlabel{am148}{{8}{8}{Amendment 148\label {am148}\relax }{section.8}{}}
\@writefile{toc}{\contentsline {section}{\numberline {8}Amendment 148}{8}{section.8}}
\newlabel{am149}{{9}{10}{Amendment 149\label {am149}\relax }{section.9}{}}
\@writefile{toc}{\contentsline {section}{\numberline {9}Amendment 149}{10}{section.9}}
\newlabel{am150}{{10}{11}{Amendment 150\label {am150}\relax }{section.10}{}}
\@writefile{toc}{\contentsline {section}{\numberline {10}Amendment 150}{11}{section.10}}
\newlabel{am151}{{11}{12}{Amendment 151\label {am151}\relax }{section.11}{}}
\@writefile{toc}{\contentsline {section}{\numberline {11}Amendment 151}{12}{section.11}}
\newlabel{am152}{{12}{12}{Amendment 152\label {am152}\relax }{section.12}{}}
\@writefile{toc}{\contentsline {section}{\numberline {12}Amendment 152}{12}{section.12}}
\newlabel{am153}{{13}{13}{Amendment 153\label {am153}\relax }{section.13}{}}
\@writefile{toc}{\contentsline {section}{\numberline {13}Amendment 153}{13}{section.13}}
\newlabel{am154}{{14}{14}{Amendment 154\label {am154}\relax }{section.14}{}}
\@writefile{toc}{\contentsline {section}{\numberline {14}Amendment 154}{14}{section.14}}
\newlabel{am155}{{15}{15}{Amendment 155\label {am155}\relax }{section.15}{}}
\@writefile{toc}{\contentsline {section}{\numberline {15}Amendment 155}{15}{section.15}}
\newlabel{am156}{{16}{17}{Amendment 156\label {am156}\relax }{section.16}{}}
\@writefile{toc}{\contentsline {section}{\numberline {16}Amendment 156}{17}{section.16}}
\newlabel{am157}{{17}{18}{Amendment 157\label {am157}\relax }{section.17}{}}
\@writefile{toc}{\contentsline {section}{\numberline {17}Amendment 157}{18}{section.17}}
\newlabel{am159}{{18}{19}{Amendment 159\label {am159}\relax }{section.18}{}}
\@writefile{toc}{\contentsline {section}{\numberline {18}Amendment 159}{19}{section.18}}
\gdef\scr@tpo@lst{0}
