\relax 
\ifx\hyper@anchor\@undefined
\global \let \oldcontentsline\contentsline
\gdef \contentsline#1#2#3#4{\oldcontentsline{#1}{#2}{#3}}
\global \let \oldnewlabel\newlabel
\gdef \newlabel#1#2{\newlabelxx{#1}#2}
\gdef \newlabelxx#1#2#3#4#5#6{\oldnewlabel{#1}{{#2}{#3}}}
\AtEndDocument{\let \contentsline\oldcontentsline
\let \newlabel\oldnewlabel}
\else
\global \let \hyper@last\relax 
\fi

\@writefile{toc}{\contentsline {section}{\numberline {1}Introduction}{1}{section.1}}
\newlabel{intro}{{1}{1}{Introduction\relax }{section.1}{}}
\@writefile{toc}{\contentsline {section}{\numberline {2}Votes}{4}{section.2}}
\newlabel{votlst}{{2}{4}{Votes\relax }{section.2}{}}
\@writefile{toc}{\contentsline {section}{\numberline {3}Amendments in Detail}{5}{section.3}}
\newlabel{amends}{{3}{5}{Amendments in Detail\relax }{section.3}{}}
\newlabel{am98}{{4}{5}{Amendment 98\label {am98}\relax }{section.4}{}}
\@writefile{toc}{\contentsline {section}{\numberline {4}Amendment 98}{5}{section.4}}
\@writefile{toc}{\contentsline {subsection}{\numberline {4.1}critique}{5}{subsection.4.1}}
\newlabel{am111}{{5}{6}{Amendment 111\label {am111}\relax }{section.5}{}}
\@writefile{toc}{\contentsline {section}{\numberline {5}Amendment 111}{6}{section.5}}
\@writefile{toc}{\contentsline {subsection}{\numberline {5.1}critique}{6}{subsection.5.1}}
\newlabel{am112}{{6}{7}{Amendment 112\label {am112}\relax }{section.6}{}}
\@writefile{toc}{\contentsline {section}{\numberline {6}Amendment 112}{7}{section.6}}
\@writefile{toc}{\contentsline {subsection}{\numberline {6.1}critique}{7}{subsection.6.1}}
\newlabel{am113}{{7}{8}{Amendment 113\label {am113}\relax }{section.7}{}}
\@writefile{toc}{\contentsline {section}{\numberline {7}Amendment 113}{8}{section.7}}
\@writefile{toc}{\contentsline {subsection}{\numberline {7.1}critique}{8}{subsection.7.1}}
\newlabel{am114}{{8}{8}{Amendment 114\label {am114}\relax }{section.8}{}}
\@writefile{toc}{\contentsline {section}{\numberline {8}Amendment 114}{8}{section.8}}
\newlabel{am115}{{9}{9}{Amendment 115\label {am115}\relax }{section.9}{}}
\@writefile{toc}{\contentsline {section}{\numberline {9}Amendment 115}{9}{section.9}}
\gdef\scr@tpo@lst{0}
