\contentsline {section}{\numberline {1}Amendment 66}{2}{section.1}
\contentsline {section}{\numberline {2}Amendment 69}{3}{section.2}
\contentsline {section}{\numberline {3}Amendment 80}{4}{section.3}
\contentsline {section}{\numberline {4}Amendment 84}{4}{section.4}
\contentsline {section}{\numberline {5}Amendment 145}{5}{section.5}
\contentsline {section}{\numberline {6}Amendment 146}{7}{section.6}
\contentsline {section}{\numberline {7}Amendment 147}{8}{section.7}
\contentsline {subsection}{\numberline {7.1}critique}{8}{subsection.7.1}
\contentsline {section}{\numberline {8}Amendment 148}{8}{section.8}
\contentsline {section}{\numberline {9}Amendment 149}{10}{section.9}
\contentsline {section}{\numberline {10}Amendment 150}{11}{section.10}
\contentsline {section}{\numberline {11}Amendment 151}{12}{section.11}
\contentsline {section}{\numberline {12}Amendment 152}{12}{section.12}
\contentsline {section}{\numberline {13}Amendment 153}{13}{section.13}
\contentsline {section}{\numberline {14}Amendment 154}{14}{section.14}
\contentsline {section}{\numberline {15}Amendment 155}{15}{section.15}
\contentsline {section}{\numberline {16}Amendment 156}{17}{section.16}
\contentsline {section}{\numberline {17}Amendment 157}{18}{section.17}
\contentsline {section}{\numberline {18}Amendment 159}{19}{section.18}
