\relax 
\ifx\hyper@anchor\@undefined
\global \let \oldcontentsline\contentsline
\gdef \contentsline#1#2#3#4{\oldcontentsline{#1}{#2}{#3}}
\global \let \oldnewlabel\newlabel
\gdef \newlabel#1#2{\newlabelxx{#1}#2}
\gdef \newlabelxx#1#2#3#4#5#6{\oldnewlabel{#1}{{#2}{#3}}}
\AtEndDocument{\let \contentsline\oldcontentsline
\let \newlabel\oldnewlabel}
\else
\global \let \hyper@last\relax 
\fi

\newlabel{am196}{{1}{1}{Amendment 196\label {am196}\relax }{section.1}{}}
\@writefile{toc}{\contentsline {section}{\numberline {1}Amendment 196}{1}{section.1}}
\newlabel{am197}{{2}{2}{Amendment 197\label {am197}\relax }{section.2}{}}
\@writefile{toc}{\contentsline {section}{\numberline {2}Amendment 197}{2}{section.2}}
\newlabel{am198}{{3}{3}{Amendment 198\label {am198}\relax }{section.3}{}}
\@writefile{toc}{\contentsline {section}{\numberline {3}Amendment 198}{3}{section.3}}
\newlabel{am199}{{4}{4}{Amendment 199\label {am199}\relax }{section.4}{}}
\@writefile{toc}{\contentsline {section}{\numberline {4}Amendment 199}{4}{section.4}}
\newlabel{am200}{{5}{5}{Amendment 200\label {am200}\relax }{section.5}{}}
\@writefile{toc}{\contentsline {section}{\numberline {5}Amendment 200}{5}{section.5}}
\gdef\scr@tpo@lst{0}
