\contentsline {section}{\numberline {1}Introduction}{1}{section.1}
\contentsline {section}{\numberline {2}Voting List}{2}{section.2}
\contentsline {section}{\numberline {3}Amendments in Detail}{2}{section.3}
\contentsline {section}{\numberline {4}Amendment 122}{2}{section.4}
\contentsline {subsection}{\numberline {4.1}critique}{3}{subsection.4.1}
\contentsline {section}{\numberline {5}Amendment 123}{3}{section.5}
\contentsline {subsection}{\numberline {5.1}critique}{3}{subsection.5.1}
\contentsline {section}{\numberline {6}Amendment 134}{4}{section.6}
\contentsline {subsection}{\numberline {6.1}critique}{5}{subsection.6.1}
\contentsline {section}{\numberline {7}Amendment 135}{5}{section.7}
\contentsline {subsection}{\numberline {7.1}critique}{6}{subsection.7.1}
\contentsline {section}{\numberline {8}Amendment 141}{6}{section.8}
\contentsline {subsection}{\numberline {8.1}critique}{6}{subsection.8.1}
\contentsline {section}{\numberline {9}Amendment 143}{7}{section.9}
\contentsline {subsection}{\numberline {9.1}critique}{7}{subsection.9.1}
