\relax 
\ifx\hyper@anchor\@undefined
\global \let \oldcontentsline\contentsline
\gdef \contentsline#1#2#3#4{\oldcontentsline{#1}{#2}{#3}}
\global \let \oldnewlabel\newlabel
\gdef \newlabel#1#2{\newlabelxx{#1}#2}
\gdef \newlabelxx#1#2#3#4#5#6{\oldnewlabel{#1}{{#2}{#3}}}
\AtEndDocument{\let \contentsline\oldcontentsline
\let \newlabel\oldnewlabel}
\else
\global \let \hyper@last\relax 
\fi

\newlabel{am1}{{1}{15}{Amendment 1\label {am1}\relax }{section.1}{}}
\@writefile{toc}{\contentsline {section}{\numberline {1}Amendment 1}{15}{section.1}}
\@writefile{toc}{\contentsline {subsection}{\numberline {1.1}critique}{16}{subsection.1.1}}
\newlabel{am2}{{2}{16}{Amendment 2\label {am2}\relax }{section.2}{}}
\@writefile{toc}{\contentsline {section}{\numberline {2}Amendment 2}{16}{section.2}}
\@writefile{toc}{\contentsline {subsection}{\numberline {2.1}critique}{17}{subsection.2.1}}
\newlabel{am3}{{3}{17}{Amendment 3\label {am3}\relax }{section.3}{}}
\@writefile{toc}{\contentsline {section}{\numberline {3}Amendment 3}{17}{section.3}}
\@writefile{toc}{\contentsline {subsection}{\numberline {3.1}critique}{18}{subsection.3.1}}
\newlabel{am4}{{4}{18}{Amendment 4\label {am4}\relax }{section.4}{}}
\@writefile{toc}{\contentsline {section}{\numberline {4}Amendment 4}{18}{section.4}}
\@writefile{toc}{\contentsline {subsection}{\numberline {4.1}critique}{19}{subsection.4.1}}
\newlabel{am5}{{5}{19}{Amendment 5\label {am5}\relax }{section.5}{}}
\@writefile{toc}{\contentsline {section}{\numberline {5}Amendment 5}{19}{section.5}}
\@writefile{toc}{\contentsline {subsection}{\numberline {5.1}critique}{20}{subsection.5.1}}
\newlabel{am6}{{6}{21}{Amendment 6\label {am6}\relax }{section.6}{}}
\@writefile{toc}{\contentsline {section}{\numberline {6}Amendment 6}{21}{section.6}}
\@writefile{toc}{\contentsline {subsection}{\numberline {6.1}critique}{22}{subsection.6.1}}
\newlabel{am7}{{7}{22}{Amendment 7\label {am7}\relax }{section.7}{}}
\@writefile{toc}{\contentsline {section}{\numberline {7}Amendment 7}{22}{section.7}}
\@writefile{toc}{\contentsline {subsection}{\numberline {7.1}critique}{22}{subsection.7.1}}
\newlabel{am8}{{8}{23}{Amendment 8\label {am8}\relax }{section.8}{}}
\@writefile{toc}{\contentsline {section}{\numberline {8}Amendment 8}{23}{section.8}}
\@writefile{toc}{\contentsline {subsection}{\numberline {8.1}critique}{24}{subsection.8.1}}
\newlabel{am9}{{9}{24}{Amendment 9\label {am9}\relax }{section.9}{}}
\@writefile{toc}{\contentsline {section}{\numberline {9}Amendment 9}{24}{section.9}}
\@writefile{toc}{\contentsline {subsection}{\numberline {9.1}critique}{24}{subsection.9.1}}
\newlabel{am10}{{10}{25}{Amendment 10\label {am10}\relax }{section.10}{}}
\@writefile{toc}{\contentsline {section}{\numberline {10}Amendment 10}{25}{section.10}}
\@writefile{toc}{\contentsline {subsection}{\numberline {10.1}critique}{26}{subsection.10.1}}
\newlabel{am11}{{11}{26}{Amendment 11\label {am11}\relax }{section.11}{}}
\@writefile{toc}{\contentsline {section}{\numberline {11}Amendment 11}{26}{section.11}}
\@writefile{toc}{\contentsline {subsection}{\numberline {11.1}critique}{26}{subsection.11.1}}
\newlabel{am12}{{12}{27}{Amendment 12\label {am12}\relax }{section.12}{}}
\@writefile{toc}{\contentsline {section}{\numberline {12}Amendment 12}{27}{section.12}}
\@writefile{toc}{\contentsline {subsection}{\numberline {12.1}critique}{28}{subsection.12.1}}
\newlabel{am13}{{13}{28}{Amendment 13\label {am13}\relax }{section.13}{}}
\@writefile{toc}{\contentsline {section}{\numberline {13}Amendment 13}{28}{section.13}}
\@writefile{toc}{\contentsline {subsection}{\numberline {13.1}critique}{29}{subsection.13.1}}
\newlabel{am14}{{14}{29}{Amendment 14\label {am14}\relax }{section.14}{}}
\@writefile{toc}{\contentsline {section}{\numberline {14}Amendment 14}{29}{section.14}}
\@writefile{toc}{\contentsline {subsection}{\numberline {14.1}critique}{30}{subsection.14.1}}
\newlabel{am15}{{15}{30}{Amendment 15\label {am15}\relax }{section.15}{}}
\@writefile{toc}{\contentsline {section}{\numberline {15}Amendment 15}{30}{section.15}}
\@writefile{toc}{\contentsline {subsection}{\numberline {15.1}critique}{31}{subsection.15.1}}
\newlabel{am16}{{16}{31}{Amendment 16\label {am16}\relax }{section.16}{}}
\@writefile{toc}{\contentsline {section}{\numberline {16}Amendment 16}{31}{section.16}}
\@writefile{toc}{\contentsline {subsection}{\numberline {16.1}critique}{32}{subsection.16.1}}
\newlabel{am17}{{17}{32}{Amendment 17\label {am17}\relax }{section.17}{}}
\@writefile{toc}{\contentsline {section}{\numberline {17}Amendment 17}{32}{section.17}}
\@writefile{toc}{\contentsline {subsection}{\numberline {17.1}critique}{34}{subsection.17.1}}
\newlabel{am18}{{18}{34}{Amendment 18\label {am18}\relax }{section.18}{}}
\@writefile{toc}{\contentsline {section}{\numberline {18}Amendment 18}{34}{section.18}}
\@writefile{toc}{\contentsline {subsection}{\numberline {18.1}critique}{35}{subsection.18.1}}
\newlabel{am19}{{19}{35}{Amendment 19\label {am19}\relax }{section.19}{}}
\@writefile{toc}{\contentsline {section}{\numberline {19}Amendment 19}{35}{section.19}}
\@writefile{toc}{\contentsline {subsection}{\numberline {19.1}critique}{36}{subsection.19.1}}
\newlabel{am20}{{20}{36}{Amendment 20\label {am20}\relax }{section.20}{}}
\@writefile{toc}{\contentsline {section}{\numberline {20}Amendment 20}{36}{section.20}}
\@writefile{toc}{\contentsline {subsection}{\numberline {20.1}critique}{37}{subsection.20.1}}
\newlabel{am21}{{21}{38}{Amendment 21\label {am21}\relax }{section.21}{}}
\@writefile{toc}{\contentsline {section}{\numberline {21}Amendment 21}{38}{section.21}}
\@writefile{toc}{\contentsline {subsection}{\numberline {21.1}critique}{39}{subsection.21.1}}
\newlabel{am22}{{22}{39}{Amendment 22\label {am22}\relax }{section.22}{}}
\@writefile{toc}{\contentsline {section}{\numberline {22}Amendment 22}{39}{section.22}}
\@writefile{toc}{\contentsline {subsection}{\numberline {22.1}critique}{40}{subsection.22.1}}
\newlabel{am23}{{23}{40}{Amendment 23\label {am23}\relax }{section.23}{}}
\@writefile{toc}{\contentsline {section}{\numberline {23}Amendment 23}{40}{section.23}}
\@writefile{toc}{\contentsline {subsection}{\numberline {23.1}critique}{40}{subsection.23.1}}
\newlabel{am24}{{24}{40}{Amendment 24\label {am24}\relax }{section.24}{}}
\@writefile{toc}{\contentsline {section}{\numberline {24}Amendment 24}{40}{section.24}}
\@writefile{toc}{\contentsline {subsection}{\numberline {24.1}critique}{41}{subsection.24.1}}
\newlabel{am25}{{25}{41}{Amendment 25\label {am25}\relax }{section.25}{}}
\@writefile{toc}{\contentsline {section}{\numberline {25}Amendment 25}{41}{section.25}}
\@writefile{toc}{\contentsline {subsection}{\numberline {25.1}critique}{42}{subsection.25.1}}
\newlabel{am26}{{26}{42}{Amendment 26\label {am26}\relax }{section.26}{}}
\@writefile{toc}{\contentsline {section}{\numberline {26}Amendment 26}{42}{section.26}}
\@writefile{toc}{\contentsline {subsection}{\numberline {26.1}critique}{43}{subsection.26.1}}
\newlabel{am27}{{27}{43}{Amendment 27\label {am27}\relax }{section.27}{}}
\@writefile{toc}{\contentsline {section}{\numberline {27}Amendment 27}{43}{section.27}}
\@writefile{toc}{\contentsline {subsection}{\numberline {27.1}critique}{44}{subsection.27.1}}
\newlabel{am28}{{28}{44}{Amendment 28\label {am28}\relax }{section.28}{}}
\@writefile{toc}{\contentsline {section}{\numberline {28}Amendment 28}{44}{section.28}}
\@writefile{toc}{\contentsline {subsection}{\numberline {28.1}critique}{45}{subsection.28.1}}
\newlabel{am29}{{29}{45}{Amendment 29\label {am29}\relax }{section.29}{}}
\@writefile{toc}{\contentsline {section}{\numberline {29}Amendment 29}{45}{section.29}}
\@writefile{toc}{\contentsline {subsection}{\numberline {29.1}critique}{46}{subsection.29.1}}
\newlabel{am30}{{30}{46}{Amendment 30\label {am30}\relax }{section.30}{}}
\@writefile{toc}{\contentsline {section}{\numberline {30}Amendment 30}{46}{section.30}}
\@writefile{toc}{\contentsline {subsection}{\numberline {30.1}critique}{48}{subsection.30.1}}
\newlabel{am31}{{31}{48}{Amendment 31\label {am31}\relax }{section.31}{}}
\@writefile{toc}{\contentsline {section}{\numberline {31}Amendment 31}{48}{section.31}}
\@writefile{toc}{\contentsline {subsection}{\numberline {31.1}critique}{49}{subsection.31.1}}
\newlabel{am32}{{32}{49}{Amendment 32\label {am32}\relax }{section.32}{}}
\@writefile{toc}{\contentsline {section}{\numberline {32}Amendment 32}{49}{section.32}}
\@writefile{toc}{\contentsline {subsection}{\numberline {32.1}critique}{50}{subsection.32.1}}
\newlabel{am33}{{33}{50}{Amendment 33\label {am33}\relax }{section.33}{}}
\@writefile{toc}{\contentsline {section}{\numberline {33}Amendment 33}{50}{section.33}}
\@writefile{toc}{\contentsline {subsection}{\numberline {33.1}critique}{52}{subsection.33.1}}
\newlabel{am34}{{34}{52}{Amendment 34\label {am34}\relax }{section.34}{}}
\@writefile{toc}{\contentsline {section}{\numberline {34}Amendment 34}{52}{section.34}}
\@writefile{toc}{\contentsline {subsection}{\numberline {34.1}critique}{53}{subsection.34.1}}
\newlabel{am35}{{35}{53}{Amendment 35\label {am35}\relax }{section.35}{}}
\@writefile{toc}{\contentsline {section}{\numberline {35}Amendment 35}{53}{section.35}}
\@writefile{toc}{\contentsline {subsection}{\numberline {35.1}critique}{54}{subsection.35.1}}
\newlabel{am36}{{36}{54}{Amendment 36\label {am36}\relax }{section.36}{}}
\@writefile{toc}{\contentsline {section}{\numberline {36}Amendment 36}{54}{section.36}}
\@writefile{toc}{\contentsline {subsection}{\numberline {36.1}critique}{55}{subsection.36.1}}
\newlabel{am37}{{37}{55}{Amendment 37\label {am37}\relax }{section.37}{}}
\@writefile{toc}{\contentsline {section}{\numberline {37}Amendment 37}{55}{section.37}}
\@writefile{toc}{\contentsline {subsection}{\numberline {37.1}critique}{55}{subsection.37.1}}
\newlabel{am38}{{38}{56}{Amendment 38\label {am38}\relax }{section.38}{}}
\@writefile{toc}{\contentsline {section}{\numberline {38}Amendment 38}{56}{section.38}}
\@writefile{toc}{\contentsline {subsection}{\numberline {38.1}critique}{57}{subsection.38.1}}
\newlabel{am39}{{39}{57}{Amendment 39\label {am39}\relax }{section.39}{}}
\@writefile{toc}{\contentsline {section}{\numberline {39}Amendment 39}{57}{section.39}}
\@writefile{toc}{\contentsline {subsection}{\numberline {39.1}critique}{58}{subsection.39.1}}
\newlabel{am40}{{40}{58}{Amendment 40 rejette la position commune\label {am40}\relax }{section.40}{}}
\@writefile{toc}{\contentsline {section}{\numberline {40}Amendment 40 rejette la position commune}{58}{section.40}}
\@writefile{toc}{\contentsline {subsection}{\numberline {40.1}critique}{58}{subsection.40.1}}
\newlabel{am41}{{41}{58}{Amendment 41 Rejects the Common Position\label {am41}\relax }{section.41}{}}
\@writefile{toc}{\contentsline {section}{\numberline {41}Amendment 41 Rejects the Common Position}{58}{section.41}}
\@writefile{toc}{\contentsline {subsection}{\numberline {41.1}critique}{59}{subsection.41.1}}
\newlabel{am42}{{42}{59}{Amendment 42\label {am42}\relax }{section.42}{}}
\@writefile{toc}{\contentsline {section}{\numberline {42}Amendment 42}{59}{section.42}}
\@writefile{toc}{\contentsline {subsection}{\numberline {42.1}critique}{60}{subsection.42.1}}
\newlabel{am43}{{43}{60}{Amendment 43\label {am43}\relax }{section.43}{}}
\@writefile{toc}{\contentsline {section}{\numberline {43}Amendment 43}{60}{section.43}}
\@writefile{toc}{\contentsline {subsection}{\numberline {43.1}critique}{62}{subsection.43.1}}
\newlabel{am44}{{44}{62}{Amendment 44\label {am44}\relax }{section.44}{}}
\@writefile{toc}{\contentsline {section}{\numberline {44}Amendment 44}{62}{section.44}}
\@writefile{toc}{\contentsline {subsection}{\numberline {44.1}critique}{62}{subsection.44.1}}
\newlabel{am45}{{45}{63}{Amendment 45\label {am45}\relax }{section.45}{}}
\@writefile{toc}{\contentsline {section}{\numberline {45}Amendment 45}{63}{section.45}}
\@writefile{toc}{\contentsline {subsection}{\numberline {45.1}critique}{64}{subsection.45.1}}
\newlabel{am46}{{46}{64}{Amendment 46\label {am46}\relax }{section.46}{}}
\@writefile{toc}{\contentsline {section}{\numberline {46}Amendment 46}{64}{section.46}}
\@writefile{toc}{\contentsline {subsection}{\numberline {46.1}critique}{65}{subsection.46.1}}
\newlabel{am47}{{47}{65}{Amendment 47\label {am47}\relax }{section.47}{}}
\@writefile{toc}{\contentsline {section}{\numberline {47}Amendment 47}{65}{section.47}}
\newlabel{am48}{{48}{65}{Amendment 48\label {am48}\relax }{section.48}{}}
\@writefile{toc}{\contentsline {section}{\numberline {48}Amendment 48}{65}{section.48}}
\@writefile{toc}{\contentsline {subsection}{\numberline {48.1}critique}{66}{subsection.48.1}}
\newlabel{am49}{{49}{66}{Amendment 49\label {am49}\relax }{section.49}{}}
\@writefile{toc}{\contentsline {section}{\numberline {49}Amendment 49}{66}{section.49}}
\newlabel{am50}{{50}{67}{Amendment 50\label {am50}\relax }{section.50}{}}
\@writefile{toc}{\contentsline {section}{\numberline {50}Amendment 50}{67}{section.50}}
\@writefile{toc}{\contentsline {subsection}{\numberline {50.1}critique}{69}{subsection.50.1}}
\newlabel{am51}{{51}{69}{Amendment 51\label {am51}\relax }{section.51}{}}
\@writefile{toc}{\contentsline {section}{\numberline {51}Amendment 51}{69}{section.51}}
\@writefile{toc}{\contentsline {subsection}{\numberline {51.1}critique}{70}{subsection.51.1}}
\newlabel{am52}{{52}{70}{Amendment 52\label {am52}\relax }{section.52}{}}
\@writefile{toc}{\contentsline {section}{\numberline {52}Amendment 52}{70}{section.52}}
\@writefile{toc}{\contentsline {subsection}{\numberline {52.1}critique}{71}{subsection.52.1}}
\newlabel{am53}{{53}{71}{Amendment 53\label {am53}\relax }{section.53}{}}
\@writefile{toc}{\contentsline {section}{\numberline {53}Amendment 53}{71}{section.53}}
\@writefile{toc}{\contentsline {subsection}{\numberline {53.1}critique}{72}{subsection.53.1}}
\newlabel{am54}{{54}{72}{Amendment 54\label {am54}\relax }{section.54}{}}
\@writefile{toc}{\contentsline {section}{\numberline {54}Amendment 54}{72}{section.54}}
\@writefile{toc}{\contentsline {subsection}{\numberline {54.1}critique}{73}{subsection.54.1}}
\newlabel{am55}{{55}{73}{Amendment 55\label {am55}\relax }{section.55}{}}
\@writefile{toc}{\contentsline {section}{\numberline {55}Amendment 55}{73}{section.55}}
\@writefile{toc}{\contentsline {subsection}{\numberline {55.1}critique}{75}{subsection.55.1}}
\newlabel{am56}{{56}{75}{Amendment 56\label {am56}\relax }{section.56}{}}
\@writefile{toc}{\contentsline {section}{\numberline {56}Amendment 56}{75}{section.56}}
\@writefile{toc}{\contentsline {subsection}{\numberline {56.1}critique}{76}{subsection.56.1}}
\newlabel{am57}{{57}{76}{Amendment 57\label {am57}\relax }{section.57}{}}
\@writefile{toc}{\contentsline {section}{\numberline {57}Amendment 57}{76}{section.57}}
\@writefile{toc}{\contentsline {subsection}{\numberline {57.1}critique}{77}{subsection.57.1}}
\newlabel{am58}{{58}{77}{Amendment 58\label {am58}\relax }{section.58}{}}
\@writefile{toc}{\contentsline {section}{\numberline {58}Amendment 58}{77}{section.58}}
\@writefile{toc}{\contentsline {subsection}{\numberline {58.1}critique}{79}{subsection.58.1}}
\newlabel{am59}{{59}{79}{Amendment 59\label {am59}\relax }{section.59}{}}
\@writefile{toc}{\contentsline {section}{\numberline {59}Amendment 59}{79}{section.59}}
\@writefile{toc}{\contentsline {subsection}{\numberline {59.1}critique}{80}{subsection.59.1}}
\newlabel{am60}{{60}{80}{Amendment 60\label {am60}\relax }{section.60}{}}
\@writefile{toc}{\contentsline {section}{\numberline {60}Amendment 60}{80}{section.60}}
\@writefile{toc}{\contentsline {subsection}{\numberline {60.1}critique}{82}{subsection.60.1}}
\newlabel{am61}{{61}{82}{Amendment 61\label {am61}\relax }{section.61}{}}
\@writefile{toc}{\contentsline {section}{\numberline {61}Amendment 61}{82}{section.61}}
\@writefile{toc}{\contentsline {subsection}{\numberline {61.1}critique}{83}{subsection.61.1}}
\newlabel{am62}{{62}{83}{Amendment 62\label {am62}\relax }{section.62}{}}
\@writefile{toc}{\contentsline {section}{\numberline {62}Amendment 62}{83}{section.62}}
\@writefile{toc}{\contentsline {subsection}{\numberline {62.1}critique}{84}{subsection.62.1}}
\newlabel{am63}{{63}{85}{Amendment 63\label {am63}\relax }{section.63}{}}
\@writefile{toc}{\contentsline {section}{\numberline {63}Amendment 63}{85}{section.63}}
\@writefile{toc}{\contentsline {subsection}{\numberline {63.1}critique}{86}{subsection.63.1}}
\newlabel{am64}{{64}{86}{Amendment 64\label {am64}\relax }{section.64}{}}
\@writefile{toc}{\contentsline {section}{\numberline {64}Amendment 64}{86}{section.64}}
\@writefile{toc}{\contentsline {subsection}{\numberline {64.1}critique}{88}{subsection.64.1}}
\newlabel{am65}{{65}{88}{Amendment 65\label {am65}\relax }{section.65}{}}
\@writefile{toc}{\contentsline {section}{\numberline {65}Amendment 65}{88}{section.65}}
\@writefile{toc}{\contentsline {subsection}{\numberline {65.1}critique}{89}{subsection.65.1}}
\newlabel{am66}{{66}{89}{Amendment 66\label {am66}\relax }{section.66}{}}
\@writefile{toc}{\contentsline {section}{\numberline {66}Amendment 66}{89}{section.66}}
\newlabel{am67}{{67}{90}{Amendment 67\label {am67}\relax }{section.67}{}}
\@writefile{toc}{\contentsline {section}{\numberline {67}Amendment 67}{90}{section.67}}
\@writefile{toc}{\contentsline {subsection}{\numberline {67.1}critique}{90}{subsection.67.1}}
\newlabel{am68}{{68}{91}{Amendment 68\label {am68}\relax }{section.68}{}}
\@writefile{toc}{\contentsline {section}{\numberline {68}Amendment 68}{91}{section.68}}
\@writefile{toc}{\contentsline {subsection}{\numberline {68.1}critique}{91}{subsection.68.1}}
\newlabel{am69}{{69}{91}{Amendment 69\label {am69}\relax }{section.69}{}}
\@writefile{toc}{\contentsline {section}{\numberline {69}Amendment 69}{91}{section.69}}
\newlabel{am70}{{70}{92}{Amendment 70\label {am70}\relax }{section.70}{}}
\@writefile{toc}{\contentsline {section}{\numberline {70}Amendment 70}{92}{section.70}}
\@writefile{toc}{\contentsline {subsection}{\numberline {70.1}critique}{93}{subsection.70.1}}
\newlabel{am71}{{71}{93}{Amendment 71\label {am71}\relax }{section.71}{}}
\@writefile{toc}{\contentsline {section}{\numberline {71}Amendment 71}{93}{section.71}}
\@writefile{toc}{\contentsline {subsection}{\numberline {71.1}critique}{94}{subsection.71.1}}
\newlabel{am72}{{72}{94}{Amendment 72\label {am72}\relax }{section.72}{}}
\@writefile{toc}{\contentsline {section}{\numberline {72}Amendment 72}{94}{section.72}}
\@writefile{toc}{\contentsline {subsection}{\numberline {72.1}critique}{95}{subsection.72.1}}
\newlabel{am73}{{73}{95}{Amendment 73\label {am73}\relax }{section.73}{}}
\@writefile{toc}{\contentsline {section}{\numberline {73}Amendment 73}{95}{section.73}}
\@writefile{toc}{\contentsline {subsection}{\numberline {73.1}critique}{96}{subsection.73.1}}
\newlabel{am74}{{74}{96}{Amendment 74\label {am74}\relax }{section.74}{}}
\@writefile{toc}{\contentsline {section}{\numberline {74}Amendment 74}{96}{section.74}}
\@writefile{toc}{\contentsline {subsection}{\numberline {74.1}critique}{97}{subsection.74.1}}
\newlabel{am75}{{75}{97}{Amendment 75\label {am75}\relax }{section.75}{}}
\@writefile{toc}{\contentsline {section}{\numberline {75}Amendment 75}{97}{section.75}}
\newlabel{am76}{{76}{98}{Amendment 76\label {am76}\relax }{section.76}{}}
\@writefile{toc}{\contentsline {section}{\numberline {76}Amendment 76}{98}{section.76}}
\@writefile{toc}{\contentsline {subsection}{\numberline {76.1}critique}{99}{subsection.76.1}}
\newlabel{am77}{{77}{99}{Amendment 77\label {am77}\relax }{section.77}{}}
\@writefile{toc}{\contentsline {section}{\numberline {77}Amendment 77}{99}{section.77}}
\newlabel{am78}{{78}{100}{Amendment 78\label {am78}\relax }{section.78}{}}
\@writefile{toc}{\contentsline {section}{\numberline {78}Amendment 78}{100}{section.78}}
\newlabel{am79}{{79}{100}{Amendment 79\label {am79}\relax }{section.79}{}}
\@writefile{toc}{\contentsline {section}{\numberline {79}Amendment 79}{100}{section.79}}
\newlabel{am80}{{80}{101}{Amendment 80\label {am80}\relax }{section.80}{}}
\@writefile{toc}{\contentsline {section}{\numberline {80}Amendment 80}{101}{section.80}}
\newlabel{am81}{{81}{102}{Amendment 81\label {am81}\relax }{section.81}{}}
\@writefile{toc}{\contentsline {section}{\numberline {81}Amendment 81}{102}{section.81}}
\newlabel{am82}{{82}{103}{Amendment 82\label {am82}\relax }{section.82}{}}
\@writefile{toc}{\contentsline {section}{\numberline {82}Amendment 82}{103}{section.82}}
\newlabel{am83}{{83}{104}{Amendment 83\label {am83}\relax }{section.83}{}}
\@writefile{toc}{\contentsline {section}{\numberline {83}Amendment 83}{104}{section.83}}
\newlabel{am84}{{84}{105}{Amendment 84\label {am84}\relax }{section.84}{}}
\@writefile{toc}{\contentsline {section}{\numberline {84}Amendment 84}{105}{section.84}}
\newlabel{am85}{{85}{106}{Amendment 85\label {am85}\relax }{section.85}{}}
\@writefile{toc}{\contentsline {section}{\numberline {85}Amendment 85}{106}{section.85}}
\newlabel{am86}{{86}{107}{Amendment 86\label {am86}\relax }{section.86}{}}
\@writefile{toc}{\contentsline {section}{\numberline {86}Amendment 86}{107}{section.86}}
\newlabel{am87}{{87}{108}{Amendment 87\label {am87}\relax }{section.87}{}}
\@writefile{toc}{\contentsline {section}{\numberline {87}Amendment 87}{108}{section.87}}
\newlabel{am88}{{88}{108}{Amendment 88\label {am88}\relax }{section.88}{}}
\@writefile{toc}{\contentsline {section}{\numberline {88}Amendment 88}{108}{section.88}}
\newlabel{am89}{{89}{109}{Amendment 89\label {am89}\relax }{section.89}{}}
\@writefile{toc}{\contentsline {section}{\numberline {89}Amendment 89}{109}{section.89}}
\newlabel{am90}{{90}{110}{Amendment 90\label {am90}\relax }{section.90}{}}
\@writefile{toc}{\contentsline {section}{\numberline {90}Amendment 90}{110}{section.90}}
\@writefile{toc}{\contentsline {subsection}{\numberline {90.1}critique}{111}{subsection.90.1}}
\newlabel{am91}{{91}{111}{Amendment 91\label {am91}\relax }{section.91}{}}
\@writefile{toc}{\contentsline {section}{\numberline {91}Amendment 91}{111}{section.91}}
\newlabel{am92}{{92}{112}{Amendment 92\label {am92}\relax }{section.92}{}}
\@writefile{toc}{\contentsline {section}{\numberline {92}Amendment 92}{112}{section.92}}
\@writefile{toc}{\contentsline {subsection}{\numberline {92.1}critique}{113}{subsection.92.1}}
\newlabel{am93}{{93}{113}{Amendment 93\label {am93}\relax }{section.93}{}}
\@writefile{toc}{\contentsline {section}{\numberline {93}Amendment 93}{113}{section.93}}
\@writefile{toc}{\contentsline {subsection}{\numberline {93.1}critique}{114}{subsection.93.1}}
\newlabel{am94}{{94}{114}{Amendment 94\label {am94}\relax }{section.94}{}}
\@writefile{toc}{\contentsline {section}{\numberline {94}Amendment 94}{114}{section.94}}
\newlabel{am95}{{95}{115}{Amendment 95\label {am95}\relax }{section.95}{}}
\@writefile{toc}{\contentsline {section}{\numberline {95}Amendment 95}{115}{section.95}}
\@writefile{toc}{\contentsline {subsection}{\numberline {95.1}critique}{116}{subsection.95.1}}
\newlabel{am96}{{96}{116}{Amendment 96\label {am96}\relax }{section.96}{}}
\@writefile{toc}{\contentsline {section}{\numberline {96}Amendment 96}{116}{section.96}}
\newlabel{am97}{{97}{117}{Amendment 97\label {am97}\relax }{section.97}{}}
\@writefile{toc}{\contentsline {section}{\numberline {97}Amendment 97}{117}{section.97}}
\@writefile{toc}{\contentsline {subsection}{\numberline {97.1}critique}{118}{subsection.97.1}}
\newlabel{am98}{{98}{118}{Amendment 98\label {am98}\relax }{section.98}{}}
\@writefile{toc}{\contentsline {section}{\numberline {98}Amendment 98}{118}{section.98}}
\@writefile{toc}{\contentsline {subsection}{\numberline {98.1}critique}{120}{subsection.98.1}}
\newlabel{am99}{{99}{120}{Amendment 99\label {am99}\relax }{section.99}{}}
\@writefile{toc}{\contentsline {section}{\numberline {99}Amendment 99}{120}{section.99}}
\@writefile{toc}{\contentsline {subsection}{\numberline {99.1}critique}{120}{subsection.99.1}}
\newlabel{am100}{{100}{121}{Amendment 100\label {am100}\relax }{section.100}{}}
\@writefile{toc}{\contentsline {section}{\numberline {100}Amendment 100}{121}{section.100}}
\@writefile{toc}{\contentsline {subsection}{\numberline {100.1}critique}{122}{subsection.100.1}}
\newlabel{am101}{{101}{122}{Amendment 101\label {am101}\relax }{section.101}{}}
\@writefile{toc}{\contentsline {section}{\numberline {101}Amendment 101}{122}{section.101}}
\@writefile{toc}{\contentsline {subsection}{\numberline {101.1}critique}{122}{subsection.101.1}}
\newlabel{am102}{{102}{123}{Amendment 102\label {am102}\relax }{section.102}{}}
\@writefile{toc}{\contentsline {section}{\numberline {102}Amendment 102}{123}{section.102}}
\@writefile{toc}{\contentsline {subsection}{\numberline {102.1}critique}{124}{subsection.102.1}}
\newlabel{am103}{{103}{124}{Amendment 103\label {am103}\relax }{section.103}{}}
\@writefile{toc}{\contentsline {section}{\numberline {103}Amendment 103}{124}{section.103}}
\@writefile{toc}{\contentsline {subsection}{\numberline {103.1}critique}{124}{subsection.103.1}}
\newlabel{am104}{{104}{125}{Amendment 104\label {am104}\relax }{section.104}{}}
\@writefile{toc}{\contentsline {section}{\numberline {104}Amendment 104}{125}{section.104}}
\@writefile{toc}{\contentsline {subsection}{\numberline {104.1}critique}{125}{subsection.104.1}}
\newlabel{am105}{{105}{126}{Amendment 105\label {am105}\relax }{section.105}{}}
\@writefile{toc}{\contentsline {section}{\numberline {105}Amendment 105}{126}{section.105}}
\@writefile{toc}{\contentsline {subsection}{\numberline {105.1}critique}{128}{subsection.105.1}}
\newlabel{am106}{{106}{128}{Amendment 106\label {am106}\relax }{section.106}{}}
\@writefile{toc}{\contentsline {section}{\numberline {106}Amendment 106}{128}{section.106}}
\@writefile{toc}{\contentsline {subsection}{\numberline {106.1}critique}{130}{subsection.106.1}}
\newlabel{am107}{{107}{130}{Amendment 107\label {am107}\relax }{section.107}{}}
\@writefile{toc}{\contentsline {section}{\numberline {107}Amendment 107}{130}{section.107}}
\@writefile{toc}{\contentsline {subsection}{\numberline {107.1}critique}{131}{subsection.107.1}}
\newlabel{am108}{{108}{131}{Amendment 108\label {am108}\relax }{section.108}{}}
\@writefile{toc}{\contentsline {section}{\numberline {108}Amendment 108}{131}{section.108}}
\newlabel{am109}{{109}{132}{Amendment 109\label {am109}\relax }{section.109}{}}
\@writefile{toc}{\contentsline {section}{\numberline {109}Amendment 109}{132}{section.109}}
\newlabel{am110}{{110}{133}{Amendment 110\label {am110}\relax }{section.110}{}}
\@writefile{toc}{\contentsline {section}{\numberline {110}Amendment 110}{133}{section.110}}
\@writefile{toc}{\contentsline {subsection}{\numberline {110.1}critique}{134}{subsection.110.1}}
\newlabel{am111}{{111}{134}{Amendment 111\label {am111}\relax }{section.111}{}}
\@writefile{toc}{\contentsline {section}{\numberline {111}Amendment 111}{134}{section.111}}
\@writefile{toc}{\contentsline {subsection}{\numberline {111.1}critique}{135}{subsection.111.1}}
\newlabel{am112}{{112}{135}{Amendment 112\label {am112}\relax }{section.112}{}}
\@writefile{toc}{\contentsline {section}{\numberline {112}Amendment 112}{135}{section.112}}
\@writefile{toc}{\contentsline {subsection}{\numberline {112.1}critique}{136}{subsection.112.1}}
\newlabel{am113}{{113}{136}{Amendment 113\label {am113}\relax }{section.113}{}}
\@writefile{toc}{\contentsline {section}{\numberline {113}Amendment 113}{136}{section.113}}
\@writefile{toc}{\contentsline {subsection}{\numberline {113.1}critique}{137}{subsection.113.1}}
\newlabel{am114}{{114}{137}{Amendment 114\label {am114}\relax }{section.114}{}}
\@writefile{toc}{\contentsline {section}{\numberline {114}Amendment 114}{137}{section.114}}
\newlabel{am115}{{115}{138}{Amendment 115\label {am115}\relax }{section.115}{}}
\@writefile{toc}{\contentsline {section}{\numberline {115}Amendment 115}{138}{section.115}}
\newlabel{am116}{{116}{139}{Amendment 116\label {am116}\relax }{section.116}{}}
\@writefile{toc}{\contentsline {section}{\numberline {116}Amendment 116}{139}{section.116}}
\@writefile{toc}{\contentsline {subsection}{\numberline {116.1}critique}{139}{subsection.116.1}}
\newlabel{am117}{{117}{140}{Amendment 117\label {am117}\relax }{section.117}{}}
\@writefile{toc}{\contentsline {section}{\numberline {117}Amendment 117}{140}{section.117}}
\@writefile{toc}{\contentsline {subsection}{\numberline {117.1}critique}{141}{subsection.117.1}}
\newlabel{am118}{{118}{141}{Amendment 118\label {am118}\relax }{section.118}{}}
\@writefile{toc}{\contentsline {section}{\numberline {118}Amendment 118}{141}{section.118}}
\@writefile{toc}{\contentsline {subsection}{\numberline {118.1}critique}{141}{subsection.118.1}}
\newlabel{am119}{{119}{142}{Amendment 119\label {am119}\relax }{section.119}{}}
\@writefile{toc}{\contentsline {section}{\numberline {119}Amendment 119}{142}{section.119}}
\@writefile{toc}{\contentsline {subsection}{\numberline {119.1}critique}{142}{subsection.119.1}}
\newlabel{am120}{{120}{143}{Amendment 120\label {am120}\relax }{section.120}{}}
\@writefile{toc}{\contentsline {section}{\numberline {120}Amendment 120}{143}{section.120}}
\@writefile{toc}{\contentsline {subsection}{\numberline {120.1}critique}{143}{subsection.120.1}}
\newlabel{am121}{{121}{144}{Amendment 121\label {am121}\relax }{section.121}{}}
\@writefile{toc}{\contentsline {section}{\numberline {121}Amendment 121}{144}{section.121}}
\newlabel{am122}{{122}{144}{Amendment 122\label {am122}\relax }{section.122}{}}
\@writefile{toc}{\contentsline {section}{\numberline {122}Amendment 122}{144}{section.122}}
\@writefile{toc}{\contentsline {subsection}{\numberline {122.1}critique}{145}{subsection.122.1}}
\newlabel{am123}{{123}{145}{Amendment 123\label {am123}\relax }{section.123}{}}
\@writefile{toc}{\contentsline {section}{\numberline {123}Amendment 123}{145}{section.123}}
\@writefile{toc}{\contentsline {subsection}{\numberline {123.1}critique}{146}{subsection.123.1}}
\newlabel{am124}{{124}{146}{Amendment 124\label {am124}\relax }{section.124}{}}
\@writefile{toc}{\contentsline {section}{\numberline {124}Amendment 124}{146}{section.124}}
\newlabel{am125}{{125}{148}{Amendment 125\label {am125}\relax }{section.125}{}}
\@writefile{toc}{\contentsline {section}{\numberline {125}Amendment 125}{148}{section.125}}
\newlabel{am126}{{126}{149}{Amendment 126\label {am126}\relax }{section.126}{}}
\@writefile{toc}{\contentsline {section}{\numberline {126}Amendment 126}{149}{section.126}}
\@writefile{toc}{\contentsline {subsection}{\numberline {126.1}critique}{150}{subsection.126.1}}
\newlabel{am127}{{127}{150}{Amendment 127\label {am127}\relax }{section.127}{}}
\@writefile{toc}{\contentsline {section}{\numberline {127}Amendment 127}{150}{section.127}}
\@writefile{toc}{\contentsline {subsection}{\numberline {127.1}critique}{151}{subsection.127.1}}
\newlabel{am128}{{128}{151}{Amendment 128\label {am128}\relax }{section.128}{}}
\@writefile{toc}{\contentsline {section}{\numberline {128}Amendment 128}{151}{section.128}}
\@writefile{toc}{\contentsline {subsection}{\numberline {128.1}critique}{152}{subsection.128.1}}
\newlabel{am129}{{129}{152}{Amendment 129\label {am129}\relax }{section.129}{}}
\@writefile{toc}{\contentsline {section}{\numberline {129}Amendment 129}{152}{section.129}}
\newlabel{am130}{{130}{153}{Amendment 130\label {am130}\relax }{section.130}{}}
\@writefile{toc}{\contentsline {section}{\numberline {130}Amendment 130}{153}{section.130}}
\@writefile{toc}{\contentsline {subsection}{\numberline {130.1}critique}{154}{subsection.130.1}}
\newlabel{am131}{{131}{154}{Amendment 131\label {am131}\relax }{section.131}{}}
\@writefile{toc}{\contentsline {section}{\numberline {131}Amendment 131}{154}{section.131}}
\@writefile{toc}{\contentsline {subsection}{\numberline {131.1}critique}{155}{subsection.131.1}}
\newlabel{am132}{{132}{155}{Amendment 132\label {am132}\relax }{section.132}{}}
\@writefile{toc}{\contentsline {section}{\numberline {132}Amendment 132}{155}{section.132}}
\newlabel{am133}{{133}{156}{Amendment 133\label {am133}\relax }{section.133}{}}
\@writefile{toc}{\contentsline {section}{\numberline {133}Amendment 133}{156}{section.133}}
\@writefile{toc}{\contentsline {subsection}{\numberline {133.1}critique}{157}{subsection.133.1}}
\newlabel{am134}{{134}{157}{Amendment 134\label {am134}\relax }{section.134}{}}
\@writefile{toc}{\contentsline {section}{\numberline {134}Amendment 134}{157}{section.134}}
\@writefile{toc}{\contentsline {subsection}{\numberline {134.1}critique}{158}{subsection.134.1}}
\newlabel{am135}{{135}{158}{Amendment 135\label {am135}\relax }{section.135}{}}
\@writefile{toc}{\contentsline {section}{\numberline {135}Amendment 135}{158}{section.135}}
\@writefile{toc}{\contentsline {subsection}{\numberline {135.1}critique}{159}{subsection.135.1}}
\newlabel{am136}{{136}{159}{Amendment 136\label {am136}\relax }{section.136}{}}
\@writefile{toc}{\contentsline {section}{\numberline {136}Amendment 136}{159}{section.136}}
\@writefile{toc}{\contentsline {subsection}{\numberline {136.1}critique}{160}{subsection.136.1}}
\newlabel{am137}{{137}{160}{Amendment 137\label {am137}\relax }{section.137}{}}
\@writefile{toc}{\contentsline {section}{\numberline {137}Amendment 137}{160}{section.137}}
\@writefile{toc}{\contentsline {subsection}{\numberline {137.1}critique}{161}{subsection.137.1}}
\newlabel{am138}{{138}{161}{Amendment 138\label {am138}\relax }{section.138}{}}
\@writefile{toc}{\contentsline {section}{\numberline {138}Amendment 138}{161}{section.138}}
\@writefile{toc}{\contentsline {subsection}{\numberline {138.1}critique}{161}{subsection.138.1}}
\newlabel{am139}{{139}{162}{Amendment 139\label {am139}\relax }{section.139}{}}
\@writefile{toc}{\contentsline {section}{\numberline {139}Amendment 139}{162}{section.139}}
\@writefile{toc}{\contentsline {subsection}{\numberline {139.1}critique}{163}{subsection.139.1}}
\newlabel{am140}{{140}{163}{Amendment 140\label {am140}\relax }{section.140}{}}
\@writefile{toc}{\contentsline {section}{\numberline {140}Amendment 140}{163}{section.140}}
\@writefile{toc}{\contentsline {subsection}{\numberline {140.1}critique}{163}{subsection.140.1}}
\newlabel{am141}{{141}{164}{Amendment 141\label {am141}\relax }{section.141}{}}
\@writefile{toc}{\contentsline {section}{\numberline {141}Amendment 141}{164}{section.141}}
\@writefile{toc}{\contentsline {subsection}{\numberline {141.1}critique}{164}{subsection.141.1}}
\newlabel{am142}{{142}{164}{Amendment 142\label {am142}\relax }{section.142}{}}
\@writefile{toc}{\contentsline {section}{\numberline {142}Amendment 142}{164}{section.142}}
\newlabel{am143}{{143}{165}{Amendment 143\label {am143}\relax }{section.143}{}}
\@writefile{toc}{\contentsline {section}{\numberline {143}Amendment 143}{165}{section.143}}
\@writefile{toc}{\contentsline {subsection}{\numberline {143.1}critique}{166}{subsection.143.1}}
\newlabel{am144}{{144}{166}{Amendment 144\label {am144}\relax }{section.144}{}}
\@writefile{toc}{\contentsline {section}{\numberline {144}Amendment 144}{166}{section.144}}
\newlabel{am145}{{145}{167}{Amendment 145\label {am145}\relax }{section.145}{}}
\@writefile{toc}{\contentsline {section}{\numberline {145}Amendment 145}{167}{section.145}}
\newlabel{am146}{{146}{169}{Amendment 146\label {am146}\relax }{section.146}{}}
\@writefile{toc}{\contentsline {section}{\numberline {146}Amendment 146}{169}{section.146}}
\newlabel{am147}{{147}{170}{Amendment 147\label {am147}\relax }{section.147}{}}
\@writefile{toc}{\contentsline {section}{\numberline {147}Amendment 147}{170}{section.147}}
\@writefile{toc}{\contentsline {subsection}{\numberline {147.1}critique}{170}{subsection.147.1}}
\newlabel{am148}{{148}{170}{Amendment 148\label {am148}\relax }{section.148}{}}
\@writefile{toc}{\contentsline {section}{\numberline {148}Amendment 148}{170}{section.148}}
\newlabel{am149}{{149}{172}{Amendment 149\label {am149}\relax }{section.149}{}}
\@writefile{toc}{\contentsline {section}{\numberline {149}Amendment 149}{172}{section.149}}
\newlabel{am150}{{150}{173}{Amendment 150\label {am150}\relax }{section.150}{}}
\@writefile{toc}{\contentsline {section}{\numberline {150}Amendment 150}{173}{section.150}}
\newlabel{am151}{{151}{174}{Amendment 151\label {am151}\relax }{section.151}{}}
\@writefile{toc}{\contentsline {section}{\numberline {151}Amendment 151}{174}{section.151}}
\newlabel{am152}{{152}{174}{Amendment 152\label {am152}\relax }{section.152}{}}
\@writefile{toc}{\contentsline {section}{\numberline {152}Amendment 152}{174}{section.152}}
\newlabel{am153}{{153}{175}{Amendment 153\label {am153}\relax }{section.153}{}}
\@writefile{toc}{\contentsline {section}{\numberline {153}Amendment 153}{175}{section.153}}
\newlabel{am154}{{154}{176}{Amendment 154\label {am154}\relax }{section.154}{}}
\@writefile{toc}{\contentsline {section}{\numberline {154}Amendment 154}{176}{section.154}}
\newlabel{am155}{{155}{177}{Amendment 155\label {am155}\relax }{section.155}{}}
\@writefile{toc}{\contentsline {section}{\numberline {155}Amendment 155}{177}{section.155}}
\newlabel{am156}{{156}{179}{Amendment 156\label {am156}\relax }{section.156}{}}
\@writefile{toc}{\contentsline {section}{\numberline {156}Amendment 156}{179}{section.156}}
\newlabel{am157}{{157}{180}{Amendment 157\label {am157}\relax }{section.157}{}}
\@writefile{toc}{\contentsline {section}{\numberline {157}Amendment 157}{180}{section.157}}
\newlabel{am158}{{158}{181}{Amendment 158\label {am158}\relax }{section.158}{}}
\@writefile{toc}{\contentsline {section}{\numberline {158}Amendment 158}{181}{section.158}}
\newlabel{am159}{{159}{181}{Amendment 159\label {am159}\relax }{section.159}{}}
\@writefile{toc}{\contentsline {section}{\numberline {159}Amendment 159}{181}{section.159}}
\newlabel{am160}{{160}{182}{Amendment 160\label {am160}\relax }{section.160}{}}
\@writefile{toc}{\contentsline {section}{\numberline {160}Amendment 160}{182}{section.160}}
\newlabel{am161}{{161}{185}{Amendment 161\label {am161}\relax }{section.161}{}}
\@writefile{toc}{\contentsline {section}{\numberline {161}Amendment 161}{185}{section.161}}
\newlabel{am162}{{162}{186}{Amendment 162\label {am162}\relax }{section.162}{}}
\@writefile{toc}{\contentsline {section}{\numberline {162}Amendment 162}{186}{section.162}}
\newlabel{am163}{{163}{187}{Amendment 163\label {am163}\relax }{section.163}{}}
\@writefile{toc}{\contentsline {section}{\numberline {163}Amendment 163}{187}{section.163}}
\newlabel{am164}{{164}{189}{Amendment 164\label {am164}\relax }{section.164}{}}
\@writefile{toc}{\contentsline {section}{\numberline {164}Amendment 164}{189}{section.164}}
\newlabel{am165}{{165}{190}{Amendment 165\label {am165}\relax }{section.165}{}}
\@writefile{toc}{\contentsline {section}{\numberline {165}Amendment 165}{190}{section.165}}
\newlabel{am166}{{166}{190}{Amendment 166\label {am166}\relax }{section.166}{}}
\@writefile{toc}{\contentsline {section}{\numberline {166}Amendment 166}{190}{section.166}}
\newlabel{am167}{{167}{191}{Amendment 167\label {am167}\relax }{section.167}{}}
\@writefile{toc}{\contentsline {section}{\numberline {167}Amendment 167}{191}{section.167}}
\newlabel{am168}{{168}{192}{Amendment 168\label {am168}\relax }{section.168}{}}
\@writefile{toc}{\contentsline {section}{\numberline {168}Amendment 168}{192}{section.168}}
\newlabel{am169}{{169}{193}{Amendment 169\label {am169}\relax }{section.169}{}}
\@writefile{toc}{\contentsline {section}{\numberline {169}Amendment 169}{193}{section.169}}
\newlabel{am170}{{170}{193}{Amendment 170\label {am170}\relax }{section.170}{}}
\@writefile{toc}{\contentsline {section}{\numberline {170}Amendment 170}{193}{section.170}}
\newlabel{am171}{{171}{194}{Amendment 171\label {am171}\relax }{section.171}{}}
\@writefile{toc}{\contentsline {section}{\numberline {171}Amendment 171}{194}{section.171}}
\newlabel{am172}{{172}{195}{Amendment 172\label {am172}\relax }{section.172}{}}
\@writefile{toc}{\contentsline {section}{\numberline {172}Amendment 172}{195}{section.172}}
\newlabel{am173}{{173}{195}{Amendment 173\label {am173}\relax }{section.173}{}}
\@writefile{toc}{\contentsline {section}{\numberline {173}Amendment 173}{195}{section.173}}
\newlabel{am174}{{174}{196}{Amendment 174\label {am174}\relax }{section.174}{}}
\@writefile{toc}{\contentsline {section}{\numberline {174}Amendment 174}{196}{section.174}}
\newlabel{am175}{{175}{197}{Amendment 175\label {am175}\relax }{section.175}{}}
\@writefile{toc}{\contentsline {section}{\numberline {175}Amendment 175}{197}{section.175}}
\newlabel{am176}{{176}{198}{Amendment 176\label {am176}\relax }{section.176}{}}
\@writefile{toc}{\contentsline {section}{\numberline {176}Amendment 176}{198}{section.176}}
\newlabel{am177}{{177}{198}{Amendment 177\label {am177}\relax }{section.177}{}}
\@writefile{toc}{\contentsline {section}{\numberline {177}Amendment 177}{198}{section.177}}
\newlabel{am178}{{178}{199}{Amendment 178\label {am178}\relax }{section.178}{}}
\@writefile{toc}{\contentsline {section}{\numberline {178}Amendment 178}{199}{section.178}}
\newlabel{am179}{{179}{200}{Amendment 179\label {am179}\relax }{section.179}{}}
\@writefile{toc}{\contentsline {section}{\numberline {179}Amendment 179}{200}{section.179}}
\newlabel{am180}{{180}{201}{Amendment 180\label {am180}\relax }{section.180}{}}
\@writefile{toc}{\contentsline {section}{\numberline {180}Amendment 180}{201}{section.180}}
\newlabel{am181}{{181}{202}{Amendment 181\label {am181}\relax }{section.181}{}}
\@writefile{toc}{\contentsline {section}{\numberline {181}Amendment 181}{202}{section.181}}
\newlabel{am182}{{182}{203}{Amendment 182\label {am182}\relax }{section.182}{}}
\@writefile{toc}{\contentsline {section}{\numberline {182}Amendment 182}{203}{section.182}}
\newlabel{am183}{{183}{204}{Amendment 183\label {am183}\relax }{section.183}{}}
\@writefile{toc}{\contentsline {section}{\numberline {183}Amendment 183}{204}{section.183}}
\newlabel{am184}{{184}{205}{Amendment 184\label {am184}\relax }{section.184}{}}
\@writefile{toc}{\contentsline {section}{\numberline {184}Amendment 184}{205}{section.184}}
\newlabel{am185}{{185}{205}{Amendment 185\label {am185}\relax }{section.185}{}}
\@writefile{toc}{\contentsline {section}{\numberline {185}Amendment 185}{205}{section.185}}
\newlabel{am186}{{186}{206}{Amendment 186\label {am186}\relax }{section.186}{}}
\@writefile{toc}{\contentsline {section}{\numberline {186}Amendment 186}{206}{section.186}}
\newlabel{am187}{{187}{208}{Amendment 187\label {am187}\relax }{section.187}{}}
\@writefile{toc}{\contentsline {section}{\numberline {187}Amendment 187}{208}{section.187}}
\newlabel{am188}{{188}{209}{Amendment 188\label {am188}\relax }{section.188}{}}
\@writefile{toc}{\contentsline {section}{\numberline {188}Amendment 188}{209}{section.188}}
\newlabel{am189}{{189}{211}{Amendment 189\label {am189}\relax }{section.189}{}}
\@writefile{toc}{\contentsline {section}{\numberline {189}Amendment 189}{211}{section.189}}
\newlabel{am190}{{190}{212}{Amendment 190\label {am190}\relax }{section.190}{}}
\@writefile{toc}{\contentsline {section}{\numberline {190}Amendment 190}{212}{section.190}}
\newlabel{am191}{{191}{214}{Amendment 191\label {am191}\relax }{section.191}{}}
\@writefile{toc}{\contentsline {section}{\numberline {191}Amendment 191}{214}{section.191}}
\newlabel{am192}{{192}{215}{Amendment 192\label {am192}\relax }{section.192}{}}
\@writefile{toc}{\contentsline {section}{\numberline {192}Amendment 192}{215}{section.192}}
\newlabel{am193}{{193}{216}{Amendment 193\label {am193}\relax }{section.193}{}}
\@writefile{toc}{\contentsline {section}{\numberline {193}Amendment 193}{216}{section.193}}
\@writefile{toc}{\contentsline {subsection}{\numberline {193.1}critique}{217}{subsection.193.1}}
\newlabel{am194}{{194}{217}{Amendment 194\label {am194}\relax }{section.194}{}}
\@writefile{toc}{\contentsline {section}{\numberline {194}Amendment 194}{217}{section.194}}
\newlabel{am195}{{195}{217}{Amendment 195\label {am195}\relax }{section.195}{}}
\@writefile{toc}{\contentsline {section}{\numberline {195}Amendment 195}{217}{section.195}}
\newlabel{am196}{{196}{218}{Amendment 196\label {am196}\relax }{section.196}{}}
\@writefile{toc}{\contentsline {section}{\numberline {196}Amendment 196}{218}{section.196}}
\newlabel{am197}{{197}{219}{Amendment 197\label {am197}\relax }{section.197}{}}
\@writefile{toc}{\contentsline {section}{\numberline {197}Amendment 197}{219}{section.197}}
\newlabel{am198}{{198}{220}{Amendment 198\label {am198}\relax }{section.198}{}}
\@writefile{toc}{\contentsline {section}{\numberline {198}Amendment 198}{220}{section.198}}
\newlabel{am199}{{199}{221}{Amendment 199\label {am199}\relax }{section.199}{}}
\@writefile{toc}{\contentsline {section}{\numberline {199}Amendment 199}{221}{section.199}}
\newlabel{am200}{{200}{222}{Amendment 200\label {am200}\relax }{section.200}{}}
\@writefile{toc}{\contentsline {section}{\numberline {200}Amendment 200}{222}{section.200}}
\newlabel{am201}{{201}{223}{Amendment 201\label {am201}\relax }{section.201}{}}
\@writefile{toc}{\contentsline {section}{\numberline {201}Amendment 201}{223}{section.201}}
\newlabel{am202}{{202}{224}{Amendment 202\label {am202}\relax }{section.202}{}}
\@writefile{toc}{\contentsline {section}{\numberline {202}Amendment 202}{224}{section.202}}
\newlabel{am203}{{203}{225}{Amendment 203\label {am203}\relax }{section.203}{}}
\@writefile{toc}{\contentsline {section}{\numberline {203}Amendment 203}{225}{section.203}}
\newlabel{am204}{{204}{226}{Amendment 204\label {am204}\relax }{section.204}{}}
\@writefile{toc}{\contentsline {section}{\numberline {204}Amendment 204}{226}{section.204}}
\newlabel{am205}{{205}{227}{Amendment 205\label {am205}\relax }{section.205}{}}
\@writefile{toc}{\contentsline {section}{\numberline {205}Amendment 205}{227}{section.205}}
\@writefile{toc}{\contentsline {subsection}{\numberline {205.1}critique}{228}{subsection.205.1}}
\newlabel{am206}{{206}{228}{Amendment 206\label {am206}\relax }{section.206}{}}
\@writefile{toc}{\contentsline {section}{\numberline {206}Amendment 206}{228}{section.206}}
\newlabel{am207}{{207}{229}{Amendment 207\label {am207}\relax }{section.207}{}}
\@writefile{toc}{\contentsline {section}{\numberline {207}Amendment 207}{229}{section.207}}
\@writefile{toc}{\contentsline {subsection}{\numberline {207.1}critique}{229}{subsection.207.1}}
\newlabel{am208}{{208}{230}{Amendment 208\label {am208}\relax }{section.208}{}}
\@writefile{toc}{\contentsline {section}{\numberline {208}Amendment 208}{230}{section.208}}
\newlabel{am209}{{209}{230}{Amendment 209\label {am209}\relax }{section.209}{}}
\@writefile{toc}{\contentsline {section}{\numberline {209}Amendment 209}{230}{section.209}}
\newlabel{am210}{{210}{231}{Amendment 210\label {am210}\relax }{section.210}{}}
\@writefile{toc}{\contentsline {section}{\numberline {210}Amendment 210}{231}{section.210}}
\newlabel{am211}{{211}{232}{Amendment 211\label {am211}\relax }{section.211}{}}
\@writefile{toc}{\contentsline {section}{\numberline {211}Amendment 211}{232}{section.211}}
\newlabel{am212}{{212}{232}{Amendment 212\label {am212}\relax }{section.212}{}}
\@writefile{toc}{\contentsline {section}{\numberline {212}Amendment 212}{232}{section.212}}
\newlabel{am213}{{213}{233}{Amendment 213\label {am213}\relax }{section.213}{}}
\@writefile{toc}{\contentsline {section}{\numberline {213}Amendment 213}{233}{section.213}}
\@writefile{toc}{\contentsline {subsection}{\numberline {213.1}critique}{234}{subsection.213.1}}
\newlabel{am214}{{214}{234}{Amendment 214\label {am214}\relax }{section.214}{}}
\@writefile{toc}{\contentsline {section}{\numberline {214}Amendment 214}{234}{section.214}}
\newlabel{am215}{{215}{235}{Amendment 215\label {am215}\relax }{section.215}{}}
\@writefile{toc}{\contentsline {section}{\numberline {215}Amendment 215}{235}{section.215}}
\newlabel{am216}{{216}{235}{Amendment 216\label {am216}\relax }{section.216}{}}
\@writefile{toc}{\contentsline {section}{\numberline {216}Amendment 216}{235}{section.216}}
\newlabel{am217}{{217}{236}{Amendment 217\label {am217}\relax }{section.217}{}}
\@writefile{toc}{\contentsline {section}{\numberline {217}Amendment 217}{236}{section.217}}
\newlabel{am218}{{218}{237}{Amendment 218\label {am218}\relax }{section.218}{}}
\@writefile{toc}{\contentsline {section}{\numberline {218}Amendment 218}{237}{section.218}}
\newlabel{am219}{{219}{238}{Amendment 219\label {am219}\relax }{section.219}{}}
\@writefile{toc}{\contentsline {section}{\numberline {219}Amendment 219}{238}{section.219}}
\@writefile{toc}{\contentsline {subsection}{\numberline {219.1}critique}{239}{subsection.219.1}}
\newlabel{am220}{{220}{239}{Amendment 220\label {am220}\relax }{section.220}{}}
\@writefile{toc}{\contentsline {section}{\numberline {220}Amendment 220}{239}{section.220}}
\newlabel{am221}{{221}{240}{Amendment 221\label {am221}\relax }{section.221}{}}
\@writefile{toc}{\contentsline {section}{\numberline {221}Amendment 221}{240}{section.221}}
\newlabel{am222}{{222}{240}{Amendment 222\label {am222}\relax }{section.222}{}}
\@writefile{toc}{\contentsline {section}{\numberline {222}Amendment 222}{240}{section.222}}
\newlabel{am223}{{223}{241}{Amendment 223\label {am223}\relax }{section.223}{}}
\@writefile{toc}{\contentsline {section}{\numberline {223}Amendment 223}{241}{section.223}}
\newlabel{am224}{{224}{242}{Amendment 224\label {am224}\relax }{section.224}{}}
\@writefile{toc}{\contentsline {section}{\numberline {224}Amendment 224}{242}{section.224}}
\newlabel{am225}{{225}{243}{Amendment 225\label {am225}\relax }{section.225}{}}
\@writefile{toc}{\contentsline {section}{\numberline {225}Amendment 225}{243}{section.225}}
\newlabel{am226}{{226}{244}{Amendment 226\label {am226}\relax }{section.226}{}}
\@writefile{toc}{\contentsline {section}{\numberline {226}Amendment 226}{244}{section.226}}
\newlabel{am227}{{227}{245}{Amendment 227\label {am227}\relax }{section.227}{}}
\@writefile{toc}{\contentsline {section}{\numberline {227}Amendment 227}{245}{section.227}}
\@writefile{toc}{\contentsline {subsection}{\numberline {227.1}critique}{246}{subsection.227.1}}
\newlabel{am228}{{228}{246}{Amendment 228\label {am228}\relax }{section.228}{}}
\@writefile{toc}{\contentsline {section}{\numberline {228}Amendment 228}{246}{section.228}}
\@writefile{toc}{\contentsline {subsection}{\numberline {228.1}critique}{246}{subsection.228.1}}
\newlabel{am229}{{229}{247}{Amendment 229\label {am229}\relax }{section.229}{}}
\@writefile{toc}{\contentsline {section}{\numberline {229}Amendment 229}{247}{section.229}}
\@writefile{toc}{\contentsline {subsection}{\numberline {229.1}critique}{248}{subsection.229.1}}
\newlabel{am230}{{230}{248}{Amendment 230\label {am230}\relax }{section.230}{}}
\@writefile{toc}{\contentsline {section}{\numberline {230}Amendment 230}{248}{section.230}}
\newlabel{am231}{{231}{249}{Amendment 231\label {am231}\relax }{section.231}{}}
\@writefile{toc}{\contentsline {section}{\numberline {231}Amendment 231}{249}{section.231}}
\newlabel{am232}{{232}{250}{Amendment 232\label {am232}\relax }{section.232}{}}
\@writefile{toc}{\contentsline {section}{\numberline {232}Amendment 232}{250}{section.232}}
\newlabel{am233}{{233}{251}{Amendment 233\label {am233}\relax }{section.233}{}}
\@writefile{toc}{\contentsline {section}{\numberline {233}Amendment 233}{251}{section.233}}
\@writefile{toc}{\contentsline {subsection}{\numberline {233.1}critique}{251}{subsection.233.1}}
\newlabel{am234}{{234}{252}{Amendment 234\label {am234}\relax }{section.234}{}}
\@writefile{toc}{\contentsline {section}{\numberline {234}Amendment 234}{252}{section.234}}
\newlabel{am235}{{235}{253}{Amendment 235\label {am235}\relax }{section.235}{}}
\@writefile{toc}{\contentsline {section}{\numberline {235}Amendment 235}{253}{section.235}}
\newlabel{am236}{{236}{254}{Amendment 236\label {am236}\relax }{section.236}{}}
\@writefile{toc}{\contentsline {section}{\numberline {236}Amendment 236}{254}{section.236}}
\newlabel{am237}{{237}{255}{Amendment 237\label {am237}\relax }{section.237}{}}
\@writefile{toc}{\contentsline {section}{\numberline {237}Amendment 237}{255}{section.237}}
\newlabel{am238}{{238}{256}{Amendment 238\label {am238}\relax }{section.238}{}}
\@writefile{toc}{\contentsline {section}{\numberline {238}Amendment 238}{256}{section.238}}
\newlabel{am239}{{239}{257}{Amendment 239\label {am239}\relax }{section.239}{}}
\@writefile{toc}{\contentsline {section}{\numberline {239}Amendment 239}{257}{section.239}}
\newlabel{am240}{{240}{257}{Amendment 240\label {am240}\relax }{section.240}{}}
\@writefile{toc}{\contentsline {section}{\numberline {240}Amendment 240}{257}{section.240}}
\newlabel{am241}{{241}{258}{Amendment 241\label {am241}\relax }{section.241}{}}
\@writefile{toc}{\contentsline {section}{\numberline {241}Amendment 241}{258}{section.241}}
\newlabel{am242}{{242}{259}{Amendment 242\label {am242}\relax }{section.242}{}}
\@writefile{toc}{\contentsline {section}{\numberline {242}Amendment 242}{259}{section.242}}
\newlabel{am243}{{243}{260}{Amendment 243\label {am243}\relax }{section.243}{}}
\@writefile{toc}{\contentsline {section}{\numberline {243}Amendment 243}{260}{section.243}}
\newlabel{am244}{{244}{262}{Amendment 244\label {am244}\relax }{section.244}{}}
\@writefile{toc}{\contentsline {section}{\numberline {244}Amendment 244}{262}{section.244}}
\newlabel{am245}{{245}{263}{Amendment 245\label {am245}\relax }{section.245}{}}
\@writefile{toc}{\contentsline {section}{\numberline {245}Amendment 245}{263}{section.245}}
\newlabel{am246}{{246}{263}{Amendment 246\label {am246}\relax }{section.246}{}}
\@writefile{toc}{\contentsline {section}{\numberline {246}Amendment 246}{263}{section.246}}
\newlabel{am247}{{247}{264}{Amendment 247\label {am247}\relax }{section.247}{}}
\@writefile{toc}{\contentsline {section}{\numberline {247}Amendment 247}{264}{section.247}}
\newlabel{am248}{{248}{266}{Amendment 248\label {am248}\relax }{section.248}{}}
\@writefile{toc}{\contentsline {section}{\numberline {248}Amendment 248}{266}{section.248}}
\newlabel{am249}{{249}{266}{Amendment 249\label {am249}\relax }{section.249}{}}
\@writefile{toc}{\contentsline {section}{\numberline {249}Amendment 249}{266}{section.249}}
\newlabel{am250}{{250}{267}{Amendment 250\label {am250}\relax }{section.250}{}}
\@writefile{toc}{\contentsline {section}{\numberline {250}Amendment 250}{267}{section.250}}
\newlabel{am251}{{251}{268}{Amendment 251\label {am251}\relax }{section.251}{}}
\@writefile{toc}{\contentsline {section}{\numberline {251}Amendment 251}{268}{section.251}}
\newlabel{am252}{{252}{269}{Amendment 252\label {am252}\relax }{section.252}{}}
\@writefile{toc}{\contentsline {section}{\numberline {252}Amendment 252}{269}{section.252}}
\newlabel{am253}{{253}{270}{Amendment 253\label {am253}\relax }{section.253}{}}
\@writefile{toc}{\contentsline {section}{\numberline {253}Amendment 253}{270}{section.253}}
\newlabel{am254}{{254}{271}{Amendment 254\label {am254}\relax }{section.254}{}}
\@writefile{toc}{\contentsline {section}{\numberline {254}Amendment 254}{271}{section.254}}
\newlabel{am255}{{255}{272}{Amendment 255\label {am255}\relax }{section.255}{}}
\@writefile{toc}{\contentsline {section}{\numberline {255}Amendment 255}{272}{section.255}}
\newlabel{am256}{{256}{274}{Amendment 256\label {am256}\relax }{section.256}{}}
\@writefile{toc}{\contentsline {section}{\numberline {256}Amendment 256}{274}{section.256}}
\gdef\scr@tpo@lst{0}
