\relax 
\ifx\hyper@anchor\@undefined
\global \let \oldcontentsline\contentsline
\gdef \contentsline#1#2#3#4{\oldcontentsline{#1}{#2}{#3}}
\global \let \oldnewlabel\newlabel
\gdef \newlabel#1#2{\newlabelxx{#1}#2}
\gdef \newlabelxx#1#2#3#4#5#6{\oldnewlabel{#1}{{#2}{#3}}}
\AtEndDocument{\let \contentsline\oldcontentsline
\let \newlabel\oldnewlabel}
\else
\global \let \hyper@last\relax 
\fi

\@writefile{toc}{\contentsline {section}{\numberline {1}Introduction}{2}{section.1}}
\newlabel{intro}{{1}{2}{Introduction\relax }{section.1}{}}
\@writefile{toc}{\contentsline {section}{\numberline {2}Voting List}{4}{section.2}}
\newlabel{votlist}{{2}{4}{Voting List\relax }{section.2}{}}
\@writefile{toc}{\contentsline {section}{\numberline {3}Amendments in Detail}{5}{section.3}}
\newlabel{amends}{{3}{5}{Amendments in Detail\relax }{section.3}{}}
\newlabel{am24}{{4}{5}{Amendment 24\label {am24}\relax }{section.4}{}}
\@writefile{toc}{\contentsline {section}{\numberline {4}Amendment 24}{5}{section.4}}
\@writefile{toc}{\contentsline {subsection}{\numberline {4.1}critique}{6}{subsection.4.1}}
\newlabel{am50}{{5}{6}{Amendment 50\label {am50}\relax }{section.5}{}}
\@writefile{toc}{\contentsline {section}{\numberline {5}Amendment 50}{6}{section.5}}
\@writefile{toc}{\contentsline {subsection}{\numberline {5.1}critique}{7}{subsection.5.1}}
\newlabel{am51}{{6}{7}{Amendment 51\label {am51}\relax }{section.6}{}}
\@writefile{toc}{\contentsline {section}{\numberline {6}Amendment 51}{7}{section.6}}
\@writefile{toc}{\contentsline {subsection}{\numberline {6.1}critique}{9}{subsection.6.1}}
\newlabel{am52}{{7}{9}{Amendment 52\label {am52}\relax }{section.7}{}}
\@writefile{toc}{\contentsline {section}{\numberline {7}Amendment 52}{9}{section.7}}
\@writefile{toc}{\contentsline {subsection}{\numberline {7.1}critique}{9}{subsection.7.1}}
\newlabel{am53}{{8}{10}{Amendment 53\label {am53}\relax }{section.8}{}}
\@writefile{toc}{\contentsline {section}{\numberline {8}Amendment 53}{10}{section.8}}
\@writefile{toc}{\contentsline {subsection}{\numberline {8.1}critique}{11}{subsection.8.1}}
\newlabel{am54}{{9}{11}{Amendment 54\label {am54}\relax }{section.9}{}}
\@writefile{toc}{\contentsline {section}{\numberline {9}Amendment 54}{11}{section.9}}
\@writefile{toc}{\contentsline {subsection}{\numberline {9.1}critique}{12}{subsection.9.1}}
\newlabel{am55}{{10}{12}{Amendment 55\label {am55}\relax }{section.10}{}}
\@writefile{toc}{\contentsline {section}{\numberline {10}Amendment 55}{12}{section.10}}
\@writefile{toc}{\contentsline {subsection}{\numberline {10.1}critique}{13}{subsection.10.1}}
\gdef\scr@tpo@lst{0}
