\relax 
\ifx\hyper@anchor\@undefined
\global \let \oldcontentsline\contentsline
\gdef \contentsline#1#2#3#4{\oldcontentsline{#1}{#2}{#3}}
\global \let \oldnewlabel\newlabel
\gdef \newlabel#1#2{\newlabelxx{#1}#2}
\gdef \newlabelxx#1#2#3#4#5#6{\oldnewlabel{#1}{{#2}{#3}}}
\AtEndDocument{\let \contentsline\oldcontentsline
\let \newlabel\oldnewlabel}
\else
\global \let \hyper@last\relax 
\fi

\@writefile{toc}{\contentsline {section}{\numberline {1}Introduction}{1}{section.1}}
\newlabel{intro}{{1}{1}{Introduction\relax }{section.1}{}}
\@writefile{toc}{\contentsline {section}{\numberline {2}Votes}{4}{section.2}}
\newlabel{votlst}{{2}{4}{Votes\relax }{section.2}{}}
\@writefile{toc}{\contentsline {section}{\numberline {3}Amendments in Detail}{5}{section.3}}
\newlabel{amends}{{3}{5}{Amendments in Detail\relax }{section.3}{}}
\newlabel{am33}{{4}{5}{Amendment 33\label {am33}\relax }{section.4}{}}
\@writefile{toc}{\contentsline {section}{\numberline {4}Amendment 33}{5}{section.4}}
\@writefile{toc}{\contentsline {subsection}{\numberline {4.1}critique}{6}{subsection.4.1}}
\newlabel{am116}{{5}{6}{Amendment 116\label {am116}\relax }{section.5}{}}
\@writefile{toc}{\contentsline {section}{\numberline {5}Amendment 116}{6}{section.5}}
\@writefile{toc}{\contentsline {subsection}{\numberline {5.1}critique}{7}{subsection.5.1}}
\newlabel{am117}{{6}{7}{Amendment 117\label {am117}\relax }{section.6}{}}
\@writefile{toc}{\contentsline {section}{\numberline {6}Amendment 117}{7}{section.6}}
\@writefile{toc}{\contentsline {subsection}{\numberline {6.1}critique}{7}{subsection.6.1}}
\newlabel{am118}{{7}{8}{Amendment 118\label {am118}\relax }{section.7}{}}
\@writefile{toc}{\contentsline {section}{\numberline {7}Amendment 118}{8}{section.7}}
\@writefile{toc}{\contentsline {subsection}{\numberline {7.1}critique}{9}{subsection.7.1}}
\newlabel{am119}{{8}{9}{Amendment 119\label {am119}\relax }{section.8}{}}
\@writefile{toc}{\contentsline {section}{\numberline {8}Amendment 119}{9}{section.8}}
\@writefile{toc}{\contentsline {subsection}{\numberline {8.1}critique}{10}{subsection.8.1}}
\newlabel{am120}{{9}{10}{Amendment 120\label {am120}\relax }{section.9}{}}
\@writefile{toc}{\contentsline {section}{\numberline {9}Amendment 120}{10}{section.9}}
\@writefile{toc}{\contentsline {subsection}{\numberline {9.1}critique}{11}{subsection.9.1}}
\newlabel{am121}{{10}{11}{Amendment 121\label {am121}\relax }{section.10}{}}
\@writefile{toc}{\contentsline {section}{\numberline {10}Amendment 121}{11}{section.10}}
\newlabel{am237}{{11}{12}{Amendment 237\label {am237}\relax }{section.11}{}}
\@writefile{toc}{\contentsline {section}{\numberline {11}Amendment 237}{12}{section.11}}
\newlabel{am238}{{12}{13}{Amendment 238\label {am238}\relax }{section.12}{}}
\@writefile{toc}{\contentsline {section}{\numberline {12}Amendment 238}{13}{section.12}}
\gdef\scr@tpo@lst{0}
