\contentsline {section}{\numberline {1}Introduction}{1}{section.1}
\contentsline {section}{\numberline {2}Voting List}{4}{section.2}
\contentsline {section}{\numberline {3}Amendments in Detail}{5}{section.3}
\contentsline {section}{\numberline {4}Amendment 31}{5}{section.4}
\contentsline {subsection}{\numberline {4.1}critique}{5}{subsection.4.1}
\contentsline {section}{\numberline {5}Amendment 97}{6}{section.5}
\contentsline {subsection}{\numberline {5.1}critique}{6}{subsection.5.1}
\contentsline {section}{\numberline {6}Amendment 99}{7}{section.6}
\contentsline {subsection}{\numberline {6.1}critique}{8}{subsection.6.1}
\contentsline {section}{\numberline {7}Amendment 100}{8}{section.7}
\contentsline {subsection}{\numberline {7.1}critique}{8}{subsection.7.1}
\contentsline {section}{\numberline {8}Amendment 101}{9}{section.8}
\contentsline {subsection}{\numberline {8.1}critique}{10}{subsection.8.1}
\contentsline {section}{\numberline {9}Amendment 102}{10}{section.9}
\contentsline {subsection}{\numberline {9.1}critique}{10}{subsection.9.1}
\contentsline {section}{\numberline {10}Amendment 103}{11}{section.10}
\contentsline {subsection}{\numberline {10.1}critique}{12}{subsection.10.1}
\contentsline {section}{\numberline {11}Amendment 104}{12}{section.11}
\contentsline {subsection}{\numberline {11.1}critique}{13}{subsection.11.1}
\contentsline {section}{\numberline {12}Amendment 105}{13}{section.12}
\contentsline {subsection}{\numberline {12.1}critique}{15}{subsection.12.1}
\contentsline {section}{\numberline {13}Amendment 106}{15}{section.13}
\contentsline {subsection}{\numberline {13.1}critique}{17}{subsection.13.1}
\contentsline {section}{\numberline {14}Amendment 107}{17}{section.14}
\contentsline {subsection}{\numberline {14.1}critique}{18}{subsection.14.1}
