\contentsline {section}{\numberline {1}Introduction}{2}{section.1}
\contentsline {section}{\numberline {2}Voting List}{5}{section.2}
\contentsline {section}{\numberline {3}Amendments in Detail}{6}{section.3}
\contentsline {section}{\numberline {4}Amendment 67}{6}{section.4}
\contentsline {subsection}{\numberline {4.1}critique}{6}{subsection.4.1}
\contentsline {section}{\numberline {5}Amendment 68}{7}{section.5}
\contentsline {subsection}{\numberline {5.1}critique}{7}{subsection.5.1}
\contentsline {section}{\numberline {6}Amendment 74}{7}{section.6}
\contentsline {subsection}{\numberline {6.1}critique}{8}{subsection.6.1}
\contentsline {section}{\numberline {7}Amendment 70}{8}{section.7}
\contentsline {subsection}{\numberline {7.1}critique}{9}{subsection.7.1}
\contentsline {section}{\numberline {8}Amendment 71}{9}{section.8}
\contentsline {subsection}{\numberline {8.1}critique}{10}{subsection.8.1}
\contentsline {section}{\numberline {9}Amendment 72}{10}{section.9}
\contentsline {subsection}{\numberline {9.1}critique}{11}{subsection.9.1}
\contentsline {section}{\numberline {10}Amendment 73}{11}{section.10}
\contentsline {subsection}{\numberline {10.1}critique}{12}{subsection.10.1}
\contentsline {section}{\numberline {11}Amendment 76}{12}{section.11}
\contentsline {subsection}{\numberline {11.1}critique}{13}{subsection.11.1}
