\contentsline {section}{\numberline {1}Die zu leistenden Zentralen Klarstellungen}{2}{section.1}
\contentsline {section}{\numberline {2}Nach Themen gruppierte \"{A}nderungsvorschl\"{a}ge}{3}{section.2}
\contentsline {section}{\numberline {3}Kommentierte Verweise}{5}{section.3}
