\contentsline {section}{\numberline {1}Amendment 94}{1}{section.1}
\contentsline {section}{\numberline {2}Amendment 96}{2}{section.2}
\contentsline {section}{\numberline {3}Amendment 158}{3}{section.3}
\contentsline {section}{\numberline {4}Amendment 239}{4}{section.4}
\contentsline {section}{\numberline {5}Amendment 240}{4}{section.5}
