\relax 
\ifx\hyper@anchor\@undefined
\global \let \oldcontentsline\contentsline
\gdef \contentsline#1#2#3#4{\oldcontentsline{#1}{#2}{#3}}
\global \let \oldnewlabel\newlabel
\gdef \newlabel#1#2{\newlabelxx{#1}#2}
\gdef \newlabelxx#1#2#3#4#5#6{\oldnewlabel{#1}{{#2}{#3}}}
\AtEndDocument{\let \contentsline\oldcontentsline
\let \newlabel\oldnewlabel}
\else
\global \let \hyper@last\relax 
\fi

\newlabel{text}{{1}{1}{Volltxext\label {text}\relax }{section.1}{}}
\@writefile{toc}{\contentsline {section}{\numberline {1}Volltxext}{1}{section.1}}
\newlabel{etc}{{2}{7}{Weitere Lekt\"{u}re\label {etc}\relax }{section.2}{}}
\@writefile{toc}{\contentsline {section}{\numberline {2}Weitere Lekt\"{u}re}{7}{section.2}}
