\select@language {french}
\select@language {french}
\contentsline {chapter}{\numberline {1}Vrais et faux privil\`{e}ges d'interop\'{e}rabilit\'{e}}{4}{chapter.1}
\contentsline {chapter}{\numberline {2}Liens annot\'{e}s}{6}{chapter.2}
