\contentsline {section}{\numberline {1}The Text}{2}{section.1}
\contentsline {section}{\numberline {2}Annotated Links}{8}{section.2}
\contentsline {section}{\numberline {3}Questions, Things To Do, How you can Help}{9}{section.3}
