\contentsline {section}{\numberline {1}Der Text}{2}{section.1}
\contentsline {section}{\numberline {2}Annotated Links}{8}{section.2}
\contentsline {section}{\numberline {3}Fragen, Aufgaben, Wie Sie helfen k\"{o}nnen}{10}{section.3}
