\relax 
\ifx\hyper@anchor\@undefined
\global \let \oldcontentsline\contentsline
\gdef \contentsline#1#2#3#4{\oldcontentsline{#1}{#2}{#3}}
\global \let \oldnewlabel\newlabel
\gdef \newlabel#1#2{\newlabelxx{#1}#2}
\gdef \newlabelxx#1#2#3#4#5#6{\oldnewlabel{#1}{{#2}{#3}}}
\AtEndDocument{\let \contentsline\oldcontentsline
\let \newlabel\oldnewlabel}
\else
\global \let \hyper@last\relax 
\fi

\@writefile{toc}{\contentsline {section}{\numberline {1}introduction}{2}{section.1}}
\newlabel{intro}{{1}{2}{introduction\relax }{section.1}{}}
\@writefile{toc}{\contentsline {section}{\numberline {2}Business method examples}{2}{section.2}}
\newlabel{bmex}{{2}{2}{Business method examples\relax }{section.2}{}}
\@writefile{toc}{\contentsline {section}{\numberline {3}On technical effect (2.29)}{2}{section.3}}
\newlabel{tech}{{3}{2}{On technical effect (2.29)\relax }{section.3}{}}
\@writefile{toc}{\contentsline {section}{\numberline {4}On Inventive Step}{3}{section.4}}
\newlabel{invstep}{{4}{3}{On Inventive Step\relax }{section.4}{}}
\@writefile{toc}{\contentsline {section}{\numberline {5}Annotated Links}{3}{section.5}}
\newlabel{links}{{5}{3}{Annotated Links\relax }{section.5}{}}
\gdef\scr@tpo@lst{0}
