\BOOKMARK [1][-]{section.1}{introduction}{}
\BOOKMARK [1][-]{section.2}{Business method examples}{}
\BOOKMARK [1][-]{section.3}{On technical effect \(2.29\)}{}
\BOOKMARK [1][-]{section.4}{On Inventive Step}{}
\BOOKMARK [1][-]{section.5}{Annotated Links}{}
