\contentsline {section}{\numberline {1}introduction}{2}{section.1}
\contentsline {section}{\numberline {2}Business method examples}{2}{section.2}
\contentsline {section}{\numberline {3}On technical effect (2.29)}{2}{section.3}
\contentsline {section}{\numberline {4}On Inventive Step}{3}{section.4}
\contentsline {section}{\numberline {5}Annotated Links}{3}{section.5}
