                     EP O 792 493 B1
_  ______
_    _
_ O O O O
_ -i_ -__ -__ -__
U _ _ _ _
.-__ U_ __ U_ U_
_ _ _ _ _
__.C-.C-.C-.-C
_ -_ -_ -_ -_
_ O O O O
_ E
C_ __O
E  _ _n _n _n
_u __ i i c
o _ zO zO zO
D o v v v
C                _
3                _
3_    ii DO                __
_    __ _l _n _n _n            _
_    w __ C C C
.__      o ZO zO zO            _
__     _ _ v v            ___
C
i iO
_ i
_ _
_ _
O _l
-_ E17_ n n n
__ _ _i _i C_
___ _ o o o
_ Z Z Z
_ V V V
_ _
_     _
E    C_ _
_   E _ __
Z __ _o _ _
i _ _ _ _
_-        ._ _u 3 E 3
_w        _U _ O _ O
_ _ _ _
_ _ _ _
-_
._-           5O
