\select@language {catalan}
\contentsline {section}{\numberline {1}Versi\'{o} actual de l'article 52.}{2}{section.1}
\contentsline {section}{\numberline {2}The Initial Interpretation and its Erosion}{2}{section.2}
\contentsline {section}{\numberline {3}Nova versi\'{o} de l'article 52 d'acord amb la proposta del l'OEP de 2000.}{5}{section.3}
\contentsline {section}{\numberline {4}The Amended Directive and the EPC}{5}{section.4}
\contentsline {section}{\numberline {5}Enlla\c {c}os anotats}{6}{section.5}
