\contentsline {section}{\numberline {1}Derzeitige Version des Art. 52}{2}{section.1}
\contentsline {section}{\numberline {2}Die urspr\"{u}ngliche Auslegung und ihre Aufweichung}{3}{section.2}
\contentsline {section}{\numberline {3}Neue Version des Art. 52 laut EPA-Basisvorschlag von 2000}{5}{section.3}
\contentsline {section}{\numberline {4}Die ge\"{a}nderte Richtlinie und Art. 52 EP\"{U}}{6}{section.4}
\contentsline {section}{\numberline {5}Kommentierte Verweise}{7}{section.5}
