\relax 
\ifx\hyper@anchor\@undefined
\global \let \oldcontentsline\contentsline
\gdef \contentsline#1#2#3#4{\oldcontentsline{#1}{#2}{#3}}
\global \let \oldnewlabel\newlabel
\gdef \newlabel#1#2{\newlabelxx{#1}#2}
\gdef \newlabelxx#1#2#3#4#5#6{\oldnewlabel{#1}{{#2}{#3}}}
\AtEndDocument{\let \contentsline\oldcontentsline
\let \newlabel\oldnewlabel}
\else
\global \let \hyper@last\relax 
\fi

\@writefile{toc}{\contentsline {section}{\numberline {1}Derzeitige Version des Art. 52}{2}{section.1}}
\newlabel{ep73}{{1}{2}{Derzeitige Version des Art. 52\relax }{section.1}{}}
\@writefile{toc}{\contentsline {section}{\numberline {2}Die urspr\"{u}ngliche Auslegung und ihre Aufweichung}{3}{section.2}}
\newlabel{ep78}{{2}{3}{Die urspr\"{u}ngliche Auslegung und ihre Aufweichung\relax }{section.2}{}}
\@writefile{toc}{\contentsline {section}{\numberline {3}Neue Version des Art. 52 laut EPA-Basisvorschlag von 2000}{5}{section.3}}
\newlabel{eb00}{{3}{5}{Neue Version des Art. 52 laut EPA-Basisvorschlag von 2000\relax }{section.3}{}}
\@writefile{toc}{\contentsline {section}{\numberline {4}Die ge\"{a}nderte Richtlinie und Art. 52 EP\"{U}}{6}{section.4}}
\newlabel{eu03}{{4}{6}{Die ge\"{a}nderte Richtlinie und Art. 52 EP\"{U}\relax }{section.4}{}}
\@writefile{toc}{\contentsline {section}{\numberline {5}Kommentierte Verweise}{7}{section.5}}
\newlabel{links}{{5}{7}{Kommentierte Verweise\relax }{section.5}{}}
\gdef\scr@tpo@lst{0}
