\relax 
\catcode`"\active
\ifx\hyper@anchor\@undefined
\global \let \oldcontentsline\contentsline
\gdef \contentsline#1#2#3#4{\oldcontentsline{#1}{#2}{#3}}
\global \let \oldnewlabel\newlabel
\gdef \newlabel#1#2{\newlabelxx{#1}#2}
\gdef \newlabelxx#1#2#3#4#5#6{\oldnewlabel{#1}{{#2}{#3}}}
\AtEndDocument{\let \contentsline\oldcontentsline
\let \newlabel\oldnewlabel}
\else
\global \let \hyper@last\relax 
\fi

\select@language{catalan}
\@writefile{toc}{\select@language{catalan}}
\@writefile{lof}{\select@language{catalan}}
\@writefile{lot}{\select@language{catalan}}
\@writefile{toc}{\contentsline {section}{\numberline {1}Versi\'{o} actual de l'article 52.}{2}{section.1}}
\newlabel{ep73}{{1}{2}{Versi\'{o} actual de l'article 52}{section.1}{}}
\@writefile{toc}{\contentsline {section}{\numberline {2}The Initial Interpretation and its Erosion}{2}{section.2}}
\newlabel{ep78}{{2}{2}{The Initial Interpretation and its Erosion\relax }{section.2}{}}
\@writefile{toc}{\contentsline {section}{\numberline {3}Nova versi\'{o} de l'article 52 d'acord amb la proposta del l'OEP de 2000.}{5}{section.3}}
\newlabel{eb00}{{3}{5}{Nova versi\'{o} de l'article 52 d'acord amb la proposta del l'OEP de 2000}{section.3}{}}
\@writefile{toc}{\contentsline {section}{\numberline {4}The Amended Directive and the EPC}{5}{section.4}}
\newlabel{eu03}{{4}{5}{The Amended Directive and the EPC\relax }{section.4}{}}
\@writefile{toc}{\contentsline {section}{\numberline {5}Enlla\c {c}os anotats}{6}{section.5}}
\newlabel{links}{{5}{6}{Enlla\c {c}os anotats\relax }{section.5}{}}
\gdef\scr@tpo@lst{0}
