\BOOKMARK [1][-]{section.1}{Current Version of Art 52}{}
\BOOKMARK [1][-]{section.2}{The Initial Interpretation and its Erosion}{}
\BOOKMARK [1][-]{section.3}{New Version of Art 52 according to the EPO's Base Proposal of 2000}{}
\BOOKMARK [1][-]{section.4}{The Amended Directive and the EPC}{}
\BOOKMARK [1][-]{section.5}{Annotated Links}{}
