\contentsline {section}{\numberline {1}Current Version of Art 52}{2}{section.1}
\contentsline {section}{\numberline {2}The Initial Interpretation and its Erosion}{3}{section.2}
\contentsline {section}{\numberline {3}New Version of Art 52 according to the EPO's Base Proposal of 2000}{5}{section.3}
\contentsline {section}{\numberline {4}The Amended Directive and the EPC}{5}{section.4}
\contentsline {section}{\numberline {5}Annotated Links}{6}{section.5}
