\relax 
\ifx\hyper@anchor\@undefined
\global \let \oldcontentsline\contentsline
\gdef \contentsline#1#2#3#4{\oldcontentsline{#1}{#2}{#3}}
\global \let \oldnewlabel\newlabel
\gdef \newlabel#1#2{\newlabelxx{#1}#2}
\gdef \newlabelxx#1#2#3#4#5#6{\oldnewlabel{#1}{{#2}{#3}}}
\AtEndDocument{\let \contentsline\oldcontentsline
\let \newlabel\oldnewlabel}
\else
\global \let \hyper@last\relax 
\fi

\@writefile{toc}{\contentsline {section}{\numberline {1}Current Version of Art 52}{2}{section.1}}
\newlabel{ep73}{{1}{2}{Current Version of Art 52\relax }{section.1}{}}
\@writefile{toc}{\contentsline {section}{\numberline {2}The Initial Interpretation and its Erosion}{3}{section.2}}
\newlabel{ep78}{{2}{3}{The Initial Interpretation and its Erosion\relax }{section.2}{}}
\@writefile{toc}{\contentsline {section}{\numberline {3}New Version of Art 52 according to the EPO's Base Proposal of 2000}{5}{section.3}}
\newlabel{eb00}{{3}{5}{New Version of Art 52 according to the EPO's Base Proposal of 2000\relax }{section.3}{}}
\@writefile{toc}{\contentsline {section}{\numberline {4}The Amended Directive and the EPC}{5}{section.4}}
\newlabel{eu03}{{4}{5}{The Amended Directive and the EPC\relax }{section.4}{}}
\@writefile{toc}{\contentsline {section}{\numberline {5}Annotated Links}{6}{section.5}}
\newlabel{links}{{5}{6}{Annotated Links\relax }{section.5}{}}
\gdef\scr@tpo@lst{0}
