                 EP O 2_2 _3_ B_
q       _
q    WZ   _    wZ
_    _   i    _
__    Oi   __  ..  Oi
i    i   i    i
_    _   _    _
O    O   O    O  _  wX       _
O
.                Z-
oZ
_          _-
__       _          _
_  -   W      _        w_
_                   _
_            _      _      _
__       - -_     _____-         _
-  o                   _   l
i _ o_ iz                     _
_i _ _ w   O             wi _  _
__ Oz iz w_               _  Z_ Z __  _
_ q u w               -_ ou - wi  _
OU          - _ -_
_O-  _
_W'_ u[]
__       _
-       _             O_
q       _          -
_                  Z
q    q   _     _      . _
i    z        z      i
_;    w   i_     W      q_ _
_z_ _    _   _     _      _ q
-    Oi   z     o      U _
z   -     iz      Cf _
-        -      U-
_
_
_3
