          EP02_2_3_ B_
ICON EDITOR
@@TERMINALS  @@ICOhl
_@@_   ..._.   @@cuAR
_.__.._._.   @@INVERT
__.______.  @@REVERT
','__,____=.___   @@SAVE
___.. '.'-._.  @@_UIT
@__-6-__ _
_   UNTITLE__- -  _-_ _______ U_TITLE0
_     6 _-'__-_____
IOOO
800   _   @@_
6oo       _  _
qoo        -_
200, _  @J      @@_ _
-   @@.2500    @@_ _
_        _
IOOO
800
600             _
_O
200
-o _
__C13C13C33_C13_C33_      _
F l G. - _O
19
