\BOOKMARK [1][-]{section.1}{Das GI-Papier als FAQ: Sammlung Popul\344rer Irrt\374mer}{}
\BOOKMARK [2][-]{subsection.1.1}{Abstrakte Maschinen technisch? ergo patentierbar?}{section.1}
\BOOKMARK [2][-]{subsection.1.2}{Gruselpatente nur in USA? Kritik nur von Ideologen?}{section.1}
\BOOKMARK [2][-]{subsection.1.3}{Sachzw\344nge als Ursprung aller Sachlichkeit ?}{section.1}
\BOOKMARK [2][-]{subsection.1.4}{Dualer Gegenstand erfordert zweigleisigen Rechtschutz ?}{section.1}
\BOOKMARK [2][-]{subsection.1.5}{Visuelles Programmieren = Technisches Erfinden ?}{section.1}
\BOOKMARK [2][-]{subsection.1.6}{Objektivierte menschliche Intelligenz besonders patentbed\374rftig ?}{section.1}
\BOOKMARK [2][-]{subsection.1.7}{``Technik'': Ein Wort als Bollwerk ?}{section.1}
\BOOKMARK [2][-]{subsection.1.8}{Urheberrecht und Patentrecht in reibungsloser Kumulation ?}{section.1}
\BOOKMARK [2][-]{subsection.1.9}{EPA-Forderung nach technischem Beitrag zu restriktiv ?}{section.1}
\BOOKMARK [2][-]{subsection.1.10}{Freiheit f\374r die Zensur von Textstrukturen aller Art ?}{section.1}
\BOOKMARK [2][-]{subsection.1.11}{Einspruchsverfahren als Allheilmittel ?}{section.1}
\BOOKMARK [2][-]{subsection.1.12}{K\374rzere Laufzeit f\374r Softwarepatente trotz Nicht-Unterscheidbarkeit und TRIPS ?}{section.1}
\BOOKMARK [2][-]{subsection.1.13}{Patente f\366rdern Offenlegung ?}{section.1}
\BOOKMARK [2][-]{subsection.1.14}{Patente fangen Wildwuchs des Wettbewerbsrechts ab ?}{section.1}
\BOOKMARK [2][-]{subsection.1.15}{Patente n\374tzen kleineren und mittleren Unternehmen ?}{section.1}
\BOOKMARK [2][-]{subsection.1.16}{Patentsystem steht und f\344llt mit Softwarepatenten ?}{section.1}
\BOOKMARK [1][-]{section.2}{Kritik am GI-Papier und weitere Lekt\374re}{}
