\relax 
\ifx\hyper@anchor\@undefined
\global \let \oldcontentsline\contentsline
\gdef \contentsline#1#2#3#4{\oldcontentsline{#1}{#2}{#3}}
\global \let \oldnewlabel\newlabel
\gdef \newlabel#1#2{\newlabelxx{#1}#2}
\gdef \newlabelxx#1#2#3#4#5#6{\oldnewlabel{#1}{{#2}{#3}}}
\AtEndDocument{\let \contentsline\oldcontentsline
\let \newlabel\oldnewlabel}
\else
\global \let \hyper@last\relax 
\fi

\@writefile{toc}{\contentsline {section}{\numberline {1}Das GI-Papier als FAQ: Sammlung Popul\"{a}rer Irrt\"{u}mer}{3}{section.1}}
\newlabel{pap}{{1}{3}{Das GI-Papier als FAQ: Sammlung Popul\"{a}rer Irrt\"{u}mer\relax }{section.1}{}}
\@writefile{toc}{\contentsline {subsection}{\numberline {1.1}Abstrakte Maschinen technisch? ergo patentierbar?}{3}{subsection.1.1}}
\newlabel{tech}{{1.1}{3}{Abstrakte Maschinen technisch? ergo patentierbar?\relax }{subsection.1.1}{}}
\@writefile{toc}{\contentsline {subsection}{\numberline {1.2}Gruselpatente nur in USA? Kritik nur von Ideologen?}{4}{subsection.1.2}}
\newlabel{fehl}{{1.2}{4}{Gruselpatente nur in USA? Kritik nur von Ideologen?\relax }{subsection.1.2}{}}
\@writefile{toc}{\contentsline {subsection}{\numberline {1.3}Sachzw\"{a}nge als Ursprung aller Sachlichkeit ?}{6}{subsection.1.3}}
\newlabel{trips}{{1.3}{6}{Sachzw\"{a}nge als Ursprung aller Sachlichkeit ?\relax }{subsection.1.3}{}}
\@writefile{toc}{\contentsline {subsection}{\numberline {1.4}Dualer Gegenstand erfordert zweigleisigen Rechtschutz ?}{7}{subsection.1.4}}
\newlabel{aequiv}{{1.4}{7}{Dualer Gegenstand erfordert zweigleisigen Rechtschutz ?\relax }{subsection.1.4}{}}
\@writefile{toc}{\contentsline {subsection}{\numberline {1.5}Visuelles Programmieren = Technisches Erfinden ?}{10}{subsection.1.5}}
\newlabel{guinv}{{1.5}{10}{Visuelles Programmieren = Technisches Erfinden ?\relax }{subsection.1.5}{}}
\@writefile{toc}{\contentsline {subsection}{\numberline {1.6}Objektivierte menschliche Intelligenz besonders patentbed\"{u}rftig ?}{11}{subsection.1.6}}
\newlabel{intelli}{{1.6}{11}{Objektivierte menschliche Intelligenz besonders patentbed\"{u}rftig ?\relax }{subsection.1.6}{}}
\@writefile{toc}{\contentsline {subsection}{\numberline {1.7}``Technik'': Ein Wort als Bollwerk ?}{12}{subsection.1.7}}
\newlabel{eutech}{{1.7}{12}{``Technik'': Ein Wort als Bollwerk ?\relax }{subsection.1.7}{}}
\@writefile{toc}{\contentsline {subsection}{\numberline {1.8}Urheberrecht und Patentrecht in reibungsloser Kumulation ?}{13}{subsection.1.8}}
\newlabel{urhpat}{{1.8}{13}{Urheberrecht und Patentrecht in reibungsloser Kumulation ?\relax }{subsection.1.8}{}}
\@writefile{toc}{\contentsline {subsection}{\numberline {1.9}EPA-Forderung nach technischem Beitrag zu restriktiv ?}{14}{subsection.1.9}}
\newlabel{beitr}{{1.9}{14}{EPA-Forderung nach technischem Beitrag zu restriktiv ?\relax }{subsection.1.9}{}}
\@writefile{toc}{\contentsline {subsection}{\numberline {1.10}Freiheit f\"{u}r die Zensur von Textstrukturen aller Art ?}{18}{subsection.1.10}}
\newlabel{cens}{{1.10}{18}{Freiheit f\"{u}r die Zensur von Textstrukturen aller Art ?\relax }{subsection.1.10}{}}
\@writefile{toc}{\contentsline {subsection}{\numberline {1.11}Einspruchsverfahren als Allheilmittel ?}{19}{subsection.1.11}}
\newlabel{einspr}{{1.11}{19}{Einspruchsverfahren als Allheilmittel ?\relax }{subsection.1.11}{}}
\@writefile{toc}{\contentsline {subsection}{\numberline {1.12}K\"{u}rzere Laufzeit f\"{u}r Softwarepatente trotz Nicht-Unterscheidbarkeit und TRIPS ?}{20}{subsection.1.12}}
\newlabel{jar5}{{1.12}{20}{K\"{u}rzere Laufzeit f\"{u}r Softwarepatente trotz Nicht-Unterscheidbarkeit und TRIPS ?\relax }{subsection.1.12}{}}
\@writefile{toc}{\contentsline {subsection}{\numberline {1.13}Patente f\"{o}rdern Offenlegung ?}{20}{subsection.1.13}}
\newlabel{sekret}{{1.13}{20}{Patente f\"{o}rdern Offenlegung ?\relax }{subsection.1.13}{}}
\@writefile{toc}{\contentsline {subsection}{\numberline {1.14}Patente fangen Wildwuchs des Wettbewerbsrechts ab ?}{21}{subsection.1.14}}
\newlabel{konkur}{{1.14}{21}{Patente fangen Wildwuchs des Wettbewerbsrechts ab ?\relax }{subsection.1.14}{}}
\@writefile{toc}{\contentsline {subsection}{\numberline {1.15}Patente n\"{u}tzen kleineren und mittleren Unternehmen ?}{22}{subsection.1.15}}
\newlabel{kmu}{{1.15}{22}{Patente n\"{u}tzen kleineren und mittleren Unternehmen ?\relax }{subsection.1.15}{}}
\@writefile{toc}{\contentsline {subsection}{\numberline {1.16}Patentsystem steht und f\"{a}llt mit Softwarepatenten ?}{22}{subsection.1.16}}
\newlabel{kvint}{{1.16}{22}{Patentsystem steht und f\"{a}llt mit Softwarepatenten ?\relax }{subsection.1.16}{}}
\@writefile{toc}{\contentsline {section}{\numberline {2}Kritik am GI-Papier und weitere Lekt\"{u}re}{23}{section.2}}
\newlabel{links}{{2}{23}{Kritik am GI-Papier und weitere Lekt\"{u}re\relax }{section.2}{}}
