\contentsline {section}{\numberline {1}FFII gegen Ausweitung des Haager \"{U}bereinkommens auf Informationsdelikte}{1}{section.1}
\contentsline {section}{\numberline {2}Gespr\"{a}che mit Rechtspolitikern in DE}{4}{section.2}
\contentsline {section}{\numberline {3}Weitere Lekt\"{u}re}{4}{section.3}
