\BOOKMARK [1][-]{section.1}{FFII gegen Ausweitung des Haager \334bereinkommens auf Informationsdelikte}{}
\BOOKMARK [1][-]{section.2}{Gespr\344che mit Rechtspolitikern in DE}{}
\BOOKMARK [1][-]{section.3}{Weitere Lekt\374re}{}
