\relax 
\ifx\hyper@anchor\@undefined
\global \let \oldcontentsline\contentsline
\gdef \contentsline#1#2#3#4{\oldcontentsline{#1}{#2}{#3}}
\global \let \oldnewlabel\newlabel
\gdef \newlabel#1#2{\newlabelxx{#1}#2}
\gdef \newlabelxx#1#2#3#4#5#6{\oldnewlabel{#1}{{#2}{#3}}}
\AtEndDocument{\let \contentsline\oldcontentsline
\let \newlabel\oldnewlabel}
\else
\global \let \hyper@last\relax 
\fi

\@writefile{toc}{\contentsline {section}{\numberline {1}FFII gegen Ausweitung des Haager \"{U}bereinkommens auf Informationsdelikte}{1}{section.1}}
\newlabel{nov}{{1}{1}{FFII gegen Ausweitung des Haager \"{U}bereinkommens auf Informationsdelikte\relax }{section.1}{}}
\@writefile{toc}{\contentsline {section}{\numberline {2}Gespr\"{a}che mit Rechtspolitikern in DE}{4}{section.2}}
\newlabel{bmj}{{2}{4}{Gespr\"{a}che mit Rechtspolitikern in DE\relax }{section.2}{}}
\@writefile{toc}{\contentsline {section}{\numberline {3}Weitere Lekt\"{u}re}{4}{section.3}}
\newlabel{etc}{{3}{4}{Weitere Lekt\"{u}re\relax }{section.3}{}}
