\contentsline {section}{\numberline {1}Unwort-Kandidat ``Computer-Implementierte Erfindung''}{2}{section.1}
\contentsline {section}{\numberline {2}Fragen, Aufgaben, Wie Sie helfen k\"{o}nnen}{4}{section.2}
\contentsline {section}{\numberline {3}Kommentierte Verweise}{4}{section.3}
