\relax 
\ifx\hyper@anchor\@undefined
\global \let \oldcontentsline\contentsline
\gdef \contentsline#1#2#3#4{\oldcontentsline{#1}{#2}{#3}}
\global \let \oldnewlabel\newlabel
\gdef \newlabel#1#2{\newlabelxx{#1}#2}
\gdef \newlabelxx#1#2#3#4#5#6{\oldnewlabel{#1}{{#2}{#3}}}
\AtEndDocument{\let \contentsline\oldcontentsline
\let \newlabel\oldnewlabel}
\else
\global \let \hyper@last\relax 
\fi

\@writefile{toc}{\contentsline {section}{\numberline {1}Unwort-Kandidat ``Computer-Implementierte Erfindung''}{2}{section.1}}
\newlabel{kinvunw}{{1}{2}{Unwort-Kandidat ``Computer-Implementierte Erfindung''\relax }{section.1}{}}
\@writefile{toc}{\contentsline {section}{\numberline {2}Fragen, Aufgaben, Wie Sie helfen k\"{o}nnen}{4}{section.2}}
\newlabel{tasks}{{2}{4}{Fragen, Aufgaben, Wie Sie helfen k\"{o}nnen\relax }{section.2}{}}
\@writefile{toc}{\contentsline {section}{\numberline {3}Kommentierte Verweise}{4}{section.3}}
\newlabel{links}{{3}{4}{Kommentierte Verweise\relax }{section.3}{}}
\gdef\scr@tpo@lst{0}
