\contentsline {section}{\numberline {1}Proposed Schedule}{2}{section.1}
\contentsline {section}{\numberline {2}Questions, Things To Do, How you can Help}{4}{section.2}
\contentsline {section}{\numberline {3}Annotated Links}{4}{section.3}
