\select@language {french}
\select@language {french}
\contentsline {section}{\numberline {1}Horaire Propos\'{e}}{1}{section.0.1}
\contentsline {section}{\numberline {2}Questions, Choses \`{a} faires, Comment vous pouvez aider}{4}{section.0.2}
\contentsline {section}{\numberline {3}Liens Annot\'{e}s}{4}{section.0.3}
