\relax 
\ifx\hyper@anchor\@undefined
\global \let \oldcontentsline\contentsline
\gdef \contentsline#1#2#3#4{\oldcontentsline{#1}{#2}{#3}}
\global \let \oldnewlabel\newlabel
\gdef \newlabel#1#2{\newlabelxx{#1}#2}
\gdef \newlabelxx#1#2#3#4#5#6{\oldnewlabel{#1}{{#2}{#3}}}
\AtEndDocument{\let \contentsline\oldcontentsline
\let \newlabel\oldnewlabel}
\else
\global \let \hyper@last\relax 
\fi

\@writefile{toc}{\contentsline {section}{\numberline {1}Verfahren zum Kontakte-Kn\"{u}pfen und Berichten}{1}{section.1}}
\newlabel{dem}{{1}{1}{Verfahren zum Kontakte-Kn\"{u}pfen und Berichten\relax }{section.1}{}}
\@writefile{toc}{\contentsline {section}{\numberline {2}Neue [ potentielle ] Petitions-Unterst\"{u}tzer von Systems 2001}{3}{section.2}}
\newlabel{syspet}{{2}{3}{Neue [ potentielle ] Petitions-Unterst\"{u}tzer von Systems 2001\relax }{section.2}{}}
\@writefile{toc}{\contentsline {section}{\numberline {3}Bestellungen}{4}{section.3}}
\newlabel{sysmend}{{3}{4}{Bestellungen\relax }{section.3}{}}
