\contentsline {section}{\numberline {1}Verfahren zum Kontakte-Kn\"{u}pfen und Berichten}{1}{section.1}
\contentsline {section}{\numberline {2}Neue [ potentielle ] Petitions-Unterst\"{u}tzer von Systems 2001}{4}{section.2}
\contentsline {section}{\numberline {3}Bestellungen}{5}{section.3}
