\contentsline {section}{\numberline {1}Z\"{u}giger Ausbau des Gruselkabinetts der Europ\"{a}ischen Softwarepatente}{2}{section.1}
\contentsline {section}{\numberline {2}Weltweit breiteste Anspruchswirkung dank \"{A}quivalenzdoktrin}{2}{section.2}
\contentsline {section}{\numberline {3}Doktrin der grenzenlosen Patentierbarkeit im EP\"{U}}{2}{section.3}
\contentsline {section}{\numberline {4}Konsultation unter Gleichgesinnten in Br\"{u}ssel}{2}{section.4}
\contentsline {section}{\numberline {5}Richter weiten Patentwesen aus und f\"{a}llen Urteil \"{u}ber ihre Kritiker}{3}{section.5}
