\relax 
\ifx\hyper@anchor\@undefined
\global \let \oldcontentsline\contentsline
\gdef \contentsline#1#2#3#4{\oldcontentsline{#1}{#2}{#3}}
\global \let \oldnewlabel\newlabel
\gdef \newlabel#1#2{\newlabelxx{#1}#2}
\gdef \newlabelxx#1#2#3#4#5#6{\oldnewlabel{#1}{{#2}{#3}}}
\AtEndDocument{\let \contentsline\oldcontentsline
\let \newlabel\oldnewlabel}
\else
\global \let \hyper@last\relax 
\fi

\@writefile{toc}{\contentsline {section}{\numberline {1}Z\"{u}giger Ausbau des Gruselkabinetts der Europ\"{a}ischen Softwarepatente}{2}{section.1}}
\newlabel{epat}{{1}{2}{Z\"{u}giger Ausbau des Gruselkabinetts der Europ\"{a}ischen Softwarepatente\relax }{section.1}{}}
\@writefile{toc}{\contentsline {section}{\numberline {2}Weltweit breiteste Anspruchswirkung dank \"{A}quivalenzdoktrin}{2}{section.2}}
\newlabel{equiv}{{2}{2}{Weltweit breiteste Anspruchswirkung dank \"{A}quivalenzdoktrin\relax }{section.2}{}}
\@writefile{toc}{\contentsline {section}{\numberline {3}Doktrin der grenzenlosen Patentierbarkeit im EP\"{U}}{2}{section.3}}
\newlabel{univers}{{3}{2}{Doktrin der grenzenlosen Patentierbarkeit im EP\"{U}\relax }{section.3}{}}
\@writefile{toc}{\contentsline {section}{\numberline {4}Konsultation unter Gleichgesinnten in Br\"{u}ssel}{2}{section.4}}
\newlabel{konsult}{{4}{2}{Konsultation unter Gleichgesinnten in Br\"{u}ssel\relax }{section.4}{}}
\@writefile{toc}{\contentsline {section}{\numberline {5}Richter weiten Patentwesen aus und f\"{a}llen Urteil \"{u}ber ihre Kritiker}{3}{section.5}}
\newlabel{bgh}{{5}{3}{Richter weiten Patentwesen aus und f\"{a}llen Urteil \"{u}ber ihre Kritiker\relax }{section.5}{}}
