                      EP O 747 840 B1
J1   (HT_L REFERENce               _
VV(E, _E CwUEg   i_ c ___G__   wEg    J2
EX_PLoRER)            SERVER
(DyNAMIc MTML To pReseNT    C PROGRAM
DIS RfPORT FILE      pCROoNGTR_O_L   J_
AGENT (REQu EsT To exEcuTE
_IS CAPSULE)
o_As    74 75
SYBASf                         DB2
DIS _N
ORACLE                        RED-
.              BRICK
IG,,.7
