\relax 
\ifx\hyper@anchor\@undefined
\global \let \oldcontentsline\contentsline
\gdef \contentsline#1#2#3#4{\oldcontentsline{#1}{#2}{#3}}
\global \let \oldnewlabel\newlabel
\gdef \newlabel#1#2{\newlabelxx{#1}#2}
\gdef \newlabelxx#1#2#3#4#5#6{\oldnewlabel{#1}{{#2}{#3}}}
\AtEndDocument{\let \contentsline\oldcontentsline
\let \newlabel\oldnewlabel}
\else
\global \let \hyper@last\relax 
\fi

\@writefile{toc}{\contentsline {chapter}{\numberline {1}08:49:03 Bolkestein}{5}{chapter.1}}
\@writefile{lof}{\addvspace {10\p@ }}
\@writefile{lot}{\addvspace {10\p@ }}
\newlabel{bolk}{{1}{5}{08:49:03 Bolkestein\relax }{chapter.1}{}}
\@writefile{toc}{\contentsline {chapter}{\numberline {2}8.59 McCarthy}{7}{chapter.2}}
\@writefile{lof}{\addvspace {10\p@ }}
\@writefile{lot}{\addvspace {10\p@ }}
\newlabel{amcc}{{2}{7}{8.59 McCarthy\relax }{chapter.2}{}}
\@writefile{toc}{\contentsline {chapter}{\numberline {3}09.04 Plooij}{9}{chapter.3}}
\@writefile{lof}{\addvspace {10\p@ }}
\@writefile{lot}{\addvspace {10\p@ }}
\newlabel{plooij}{{3}{9}{09.04 Plooij\relax }{chapter.3}{}}
\@writefile{toc}{\contentsline {chapter}{\numberline {4}09.07 rocard}{10}{chapter.4}}
\@writefile{lof}{\addvspace {10\p@ }}
\@writefile{lot}{\addvspace {10\p@ }}
\newlabel{rocard}{{4}{10}{09.07 rocard\relax }{chapter.4}{}}
\@writefile{toc}{\contentsline {chapter}{\numberline {5}09.11 Wuermeling}{11}{chapter.5}}
\@writefile{lof}{\addvspace {10\p@ }}
\@writefile{lot}{\addvspace {10\p@ }}
\newlabel{wuerm}{{5}{11}{09.11 Wuermeling\relax }{chapter.5}{}}
\@writefile{toc}{\contentsline {chapter}{\numberline {6}9.15 Medina Ortega (PSE)}{12}{chapter.6}}
\@writefile{lof}{\addvspace {10\p@ }}
\@writefile{lot}{\addvspace {10\p@ }}
\newlabel{ortega}{{6}{12}{9.15 Medina Ortega (PSE)\relax }{chapter.6}{}}
\@writefile{toc}{\contentsline {chapter}{\numberline {7}09.17 Manders}{13}{chapter.7}}
\@writefile{lof}{\addvspace {10\p@ }}
\@writefile{lot}{\addvspace {10\p@ }}
\newlabel{manders}{{7}{13}{09.17 Manders\relax }{chapter.7}{}}
\@writefile{toc}{\contentsline {chapter}{\numberline {8}9.21 Framm (United Left)}{14}{chapter.8}}
\@writefile{lof}{\addvspace {10\p@ }}
\@writefile{lot}{\addvspace {10\p@ }}
\newlabel{framm}{{8}{14}{9.21 Framm (United Left)\relax }{chapter.8}{}}
\@writefile{toc}{\contentsline {chapter}{\numberline {9}9.24 Echerer (Green/EFA)}{15}{chapter.9}}
\@writefile{lof}{\addvspace {10\p@ }}
\@writefile{lot}{\addvspace {10\p@ }}
\newlabel{echerer}{{9}{15}{9.24 Echerer (Green/EFA)\relax }{chapter.9}{}}
\@writefile{toc}{\contentsline {chapter}{\numberline {10}9.28 Boussa (UEN)}{16}{chapter.10}}
\@writefile{lof}{\addvspace {10\p@ }}
\@writefile{lot}{\addvspace {10\p@ }}
\newlabel{boussa}{{10}{16}{9.28 Boussa (UEN)\relax }{chapter.10}{}}
\@writefile{toc}{\contentsline {chapter}{\numberline {11}9.31 Andersson EDD}{17}{chapter.11}}
\@writefile{lof}{\addvspace {10\p@ }}
\@writefile{lot}{\addvspace {10\p@ }}
\newlabel{andersson}{{11}{17}{9.31 Andersson EDD\relax }{chapter.11}{}}
\@writefile{toc}{\contentsline {chapter}{\numberline {12}9.33 Cappato}{18}{chapter.12}}
\@writefile{lof}{\addvspace {10\p@ }}
\@writefile{lot}{\addvspace {10\p@ }}
\newlabel{cappato}{{12}{18}{9.33 Cappato\relax }{chapter.12}{}}
\@writefile{toc}{\contentsline {chapter}{\numberline {13}9.38 Fiori}{20}{chapter.13}}
\@writefile{lof}{\addvspace {10\p@ }}
\@writefile{lot}{\addvspace {10\p@ }}
\newlabel{fiori}{{13}{20}{9.38 Fiori\relax }{chapter.13}{}}
\@writefile{toc}{\contentsline {chapter}{\numberline {14}9.41 Gebhardt}{21}{chapter.14}}
\@writefile{lof}{\addvspace {10\p@ }}
\@writefile{lot}{\addvspace {10\p@ }}
\newlabel{gebhardt}{{14}{21}{9.41 Gebhardt\relax }{chapter.14}{}}
\@writefile{toc}{\contentsline {chapter}{\numberline {15}9.44 Mrs Boogerd}{22}{chapter.15}}
\@writefile{lof}{\addvspace {10\p@ }}
\@writefile{lot}{\addvspace {10\p@ }}
\newlabel{boogerd}{{15}{22}{9.44 Mrs Boogerd\relax }{chapter.15}{}}
\@writefile{toc}{\contentsline {chapter}{\numberline {16}9.46 Coutrand}{23}{chapter.16}}
\@writefile{lof}{\addvspace {10\p@ }}
\@writefile{lot}{\addvspace {10\p@ }}
\newlabel{coutrand}{{16}{23}{9.46 Coutrand\relax }{chapter.16}{}}
\@writefile{toc}{\contentsline {chapter}{\numberline {17}8.59 McCarthy}{24}{chapter.17}}
\@writefile{lof}{\addvspace {10\p@ }}
\@writefile{lot}{\addvspace {10\p@ }}
\newlabel{amcc}{{17}{24}{8.59 McCarthy\relax }{chapter.17}{}}
\@writefile{toc}{\contentsline {chapter}{\numberline {18}9.51 van Damme}{25}{chapter.18}}
\@writefile{lof}{\addvspace {10\p@ }}
\@writefile{lot}{\addvspace {10\p@ }}
\newlabel{vandamme}{{18}{25}{9.51 van Damme\relax }{chapter.18}{}}
\@writefile{toc}{\contentsline {chapter}{\numberline {19}9.53 Gormich}{26}{chapter.19}}
\@writefile{lof}{\addvspace {10\p@ }}
\@writefile{lot}{\addvspace {10\p@ }}
\newlabel{gormich}{{19}{26}{9.53 Gormich\relax }{chapter.19}{}}
\@writefile{toc}{\contentsline {chapter}{\numberline {20}9.56 Malcolm Harbour.}{27}{chapter.20}}
\@writefile{lof}{\addvspace {10\p@ }}
\@writefile{lot}{\addvspace {10\p@ }}
\newlabel{mharbour}{{20}{27}{9.56 Malcolm Harbour}{chapter.20}{}}
\@writefile{toc}{\contentsline {chapter}{\numberline {21}9.59.30 Berenguer Fuster}{28}{chapter.21}}
\@writefile{lof}{\addvspace {10\p@ }}
\@writefile{lot}{\addvspace {10\p@ }}
\newlabel{fuster}{{21}{28}{9.59.30 Berenguer Fuster\relax }{chapter.21}{}}
\@writefile{toc}{\contentsline {chapter}{\numberline {22}10.02 de Clerck}{29}{chapter.22}}
\@writefile{lof}{\addvspace {10\p@ }}
\@writefile{lot}{\addvspace {10\p@ }}
\newlabel{declerck}{{22}{29}{10.02 de Clerck\relax }{chapter.22}{}}
\@writefile{toc}{\contentsline {chapter}{\numberline {23}10.03 Mrs Fless}{30}{chapter.23}}
\@writefile{lof}{\addvspace {10\p@ }}
\@writefile{lot}{\addvspace {10\p@ }}
\newlabel{fless}{{23}{30}{10.03 Mrs Fless\relax }{chapter.23}{}}
\@writefile{toc}{\contentsline {chapter}{\numberline {24}10.06 Denn (Green)}{31}{chapter.24}}
\@writefile{lof}{\addvspace {10\p@ }}
\@writefile{lot}{\addvspace {10\p@ }}
\newlabel{denn}{{24}{31}{10.06 Denn (Green)\relax }{chapter.24}{}}
\@writefile{toc}{\contentsline {chapter}{\numberline {25}10.07 PPE}{32}{chapter.25}}
\@writefile{lof}{\addvspace {10\p@ }}
\@writefile{lot}{\addvspace {10\p@ }}
\newlabel{ppex}{{25}{32}{10.07 PPE\relax }{chapter.25}{}}
\@writefile{toc}{\contentsline {chapter}{\numberline {26}10.09.45 Gilladotte}{33}{chapter.26}}
\@writefile{lof}{\addvspace {10\p@ }}
\@writefile{lot}{\addvspace {10\p@ }}
\newlabel{gilla}{{26}{33}{10.09.45 Gilladotte\relax }{chapter.26}{}}
\@writefile{toc}{\contentsline {chapter}{\numberline {27}10.12 Mrs. Figuiredo}{34}{chapter.27}}
\@writefile{lof}{\addvspace {10\p@ }}
\@writefile{lot}{\addvspace {10\p@ }}
\newlabel{figueiredo}{{27}{34}{10.12 Mrs. Figuiredo\relax }{chapter.27}{}}
\@writefile{toc}{\contentsline {chapter}{\numberline {28}10.13}{35}{chapter.28}}
\@writefile{lof}{\addvspace {10\p@ }}
\@writefile{lot}{\addvspace {10\p@ }}
\newlabel{x1013}{{28}{35}{10.13\relax }{chapter.28}{}}
\@writefile{toc}{\contentsline {chapter}{\numberline {29}10.16}{36}{chapter.29}}
\@writefile{lof}{\addvspace {10\p@ }}
\@writefile{lot}{\addvspace {10\p@ }}
\newlabel{x1016}{{29}{36}{10.16\relax }{chapter.29}{}}
\@writefile{toc}{\contentsline {chapter}{\numberline {30}10.17 Niebler}{37}{chapter.30}}
\@writefile{lof}{\addvspace {10\p@ }}
\@writefile{lot}{\addvspace {10\p@ }}
\newlabel{niebler}{{30}{37}{10.17 Niebler\relax }{chapter.30}{}}
\@writefile{toc}{\contentsline {chapter}{\numberline {31}10.20 Mrs Frain}{38}{chapter.31}}
\@writefile{lof}{\addvspace {10\p@ }}
\@writefile{lot}{\addvspace {10\p@ }}
\newlabel{frain}{{31}{38}{10.20 Mrs Frain\relax }{chapter.31}{}}
\@writefile{toc}{\contentsline {chapter}{\numberline {32}10.21 Thyssen}{39}{chapter.32}}
\@writefile{lof}{\addvspace {10\p@ }}
\@writefile{lot}{\addvspace {10\p@ }}
\newlabel{thyssen}{{32}{39}{10.21 Thyssen\relax }{chapter.32}{}}
\@writefile{toc}{\contentsline {chapter}{\numberline {33}10.23 Pasolina}{40}{chapter.33}}
\@writefile{lof}{\addvspace {10\p@ }}
\@writefile{lot}{\addvspace {10\p@ }}
\newlabel{pasolina}{{33}{40}{10.23 Pasolina\relax }{chapter.33}{}}
\@writefile{toc}{\contentsline {chapter}{\numberline {34}10.25 Kauppi}{41}{chapter.34}}
\@writefile{lof}{\addvspace {10\p@ }}
\@writefile{lot}{\addvspace {10\p@ }}
\newlabel{kauppi}{{34}{41}{10.25 Kauppi\relax }{chapter.34}{}}
\@writefile{toc}{\contentsline {chapter}{\numberline {35}10.27 Bolkestein (EU Commissioner)}{42}{chapter.35}}
\@writefile{lof}{\addvspace {10\p@ }}
\@writefile{lot}{\addvspace {10\p@ }}
\newlabel{bolkfin}{{35}{42}{10.27 Bolkestein (EU Commissioner)\relax }{chapter.35}{}}
\@writefile{toc}{\contentsline {chapter}{\numberline {36}Bolkestein's Responses to particular individuals}{43}{chapter.36}}
\@writefile{lof}{\addvspace {10\p@ }}
\@writefile{lot}{\addvspace {10\p@ }}
\newlabel{bolkresp}{{36}{43}{Bolkestein's Responses to particular individuals\relax }{chapter.36}{}}
