\contentsline {chapter}{\numberline {1}08:49:03 Bolkestein}{5}{chapter.1}
\contentsline {chapter}{\numberline {2}8.59 McCarthy}{7}{chapter.2}
\contentsline {chapter}{\numberline {3}09.04 Plooij}{9}{chapter.3}
\contentsline {chapter}{\numberline {4}09.07 rocard}{10}{chapter.4}
\contentsline {chapter}{\numberline {5}09.11 Wuermeling}{11}{chapter.5}
\contentsline {chapter}{\numberline {6}9.15 Medina Ortega (PSE)}{12}{chapter.6}
\contentsline {chapter}{\numberline {7}09.17 Manders}{13}{chapter.7}
\contentsline {chapter}{\numberline {8}9.21 Framm (United Left)}{14}{chapter.8}
\contentsline {chapter}{\numberline {9}9.24 Echerer (Green/EFA)}{15}{chapter.9}
\contentsline {chapter}{\numberline {10}9.28 Boussa (UEN)}{16}{chapter.10}
\contentsline {chapter}{\numberline {11}9.31 Andersson EDD}{17}{chapter.11}
\contentsline {chapter}{\numberline {12}9.33 Cappato}{18}{chapter.12}
\contentsline {chapter}{\numberline {13}9.38 Fiori}{20}{chapter.13}
\contentsline {chapter}{\numberline {14}9.41 Gebhardt}{21}{chapter.14}
\contentsline {chapter}{\numberline {15}9.44 Mrs Boogerd}{22}{chapter.15}
\contentsline {chapter}{\numberline {16}9.46 Coutrand}{23}{chapter.16}
\contentsline {chapter}{\numberline {17}8.59 McCarthy}{24}{chapter.17}
\contentsline {chapter}{\numberline {18}9.51 van Damme}{25}{chapter.18}
\contentsline {chapter}{\numberline {19}9.53 Gormich}{26}{chapter.19}
\contentsline {chapter}{\numberline {20}9.56 Malcolm Harbour.}{27}{chapter.20}
\contentsline {chapter}{\numberline {21}9.59.30 Berenguer Fuster}{28}{chapter.21}
\contentsline {chapter}{\numberline {22}10.02 de Clerck}{29}{chapter.22}
\contentsline {chapter}{\numberline {23}10.03 Mrs Fless}{30}{chapter.23}
\contentsline {chapter}{\numberline {24}10.06 Denn (Green)}{31}{chapter.24}
\contentsline {chapter}{\numberline {25}10.07 PPE}{32}{chapter.25}
\contentsline {chapter}{\numberline {26}10.09.45 Gilladotte}{33}{chapter.26}
\contentsline {chapter}{\numberline {27}10.12 Mrs. Figuiredo}{34}{chapter.27}
\contentsline {chapter}{\numberline {28}10.13}{35}{chapter.28}
\contentsline {chapter}{\numberline {29}10.16}{36}{chapter.29}
\contentsline {chapter}{\numberline {30}10.17 Niebler}{37}{chapter.30}
\contentsline {chapter}{\numberline {31}10.20 Mrs Frain}{38}{chapter.31}
\contentsline {chapter}{\numberline {32}10.21 Thyssen}{39}{chapter.32}
\contentsline {chapter}{\numberline {33}10.23 Pasolina}{40}{chapter.33}
\contentsline {chapter}{\numberline {34}10.25 Kauppi}{41}{chapter.34}
\contentsline {chapter}{\numberline {35}10.27 Bolkestein (EU Commissioner)}{42}{chapter.35}
\contentsline {chapter}{\numberline {36}Bolkestein's Responses to particular individuals}{43}{chapter.36}
