\relax 
\ifx\hyper@anchor\@undefined
\global \let \oldcontentsline\contentsline
\gdef \contentsline#1#2#3#4{\oldcontentsline{#1}{#2}{#3}}
\global \let \oldnewlabel\newlabel
\gdef \newlabel#1#2{\newlabelxx{#1}#2}
\gdef \newlabelxx#1#2#3#4#5#6{\oldnewlabel{#1}{{#2}{#3}}}
\AtEndDocument{\let \contentsline\oldcontentsline
\let \newlabel\oldnewlabel}
\else
\global \let \hyper@last\relax 
\fi

\@writefile{toc}{\contentsline {chapter}{\numberline {1}Some Criticisms of McCarthy's Paper}{5}{chapter.1}}
\@writefile{lof}{\addvspace {10\p@ }}
\@writefile{lot}{\addvspace {10\p@ }}
\newlabel{krit}{{1}{5}{Some Criticisms of McCarthy's Paper\relax }{chapter.1}{}}
\@writefile{toc}{\contentsline {chapter}{\numberline {2}Responses to McCarthy's Questions}{10}{chapter.2}}
\@writefile{lof}{\addvspace {10\p@ }}
\@writefile{lot}{\addvspace {10\p@ }}
\newlabel{resp}{{2}{10}{Responses to McCarthy's Questions\relax }{chapter.2}{}}
\@writefile{toc}{\contentsline {section}{\numberline {2.1}Is such a directive necessary or can we just leave matters to the Boards of Appeal and the national patent courts?}{10}{section.2.1}}
\newlabel{amq1}{{2.1}{10}{Is such a directive necessary or can we just leave matters to the Boards of Appeal and the national patent courts?\relax }{section.2.1}{}}
\@writefile{toc}{\contentsline {subsection}{\numberline {2.1.1}Can we just leave matters to the EPO's boards of a appeal and national patent courts?}{10}{subsection.2.1.1}}
\newlabel{amq1a}{{2.1.1}{10}{Can we just leave matters to the EPO's boards of a appeal and national patent courts?\relax }{subsection.2.1.1}{}}
\@writefile{toc}{\contentsline {subsection}{\numberline {2.1.2}Is there a problem of divergent national rules which needs to be addressed by a directive, as CEC/BSA claim?}{11}{subsection.2.1.2}}
\newlabel{amq1b}{{2.1.2}{11}{Is there a problem of divergent national rules which needs to be addressed by a directive, as CEC/BSA claim?\relax }{subsection.2.1.2}{}}
\@writefile{toc}{\contentsline {subsection}{\numberline {2.1.3}Are the other proclaimed goals of the directive proposal valid?}{11}{subsection.2.1.3}}
\newlabel{amq1c}{{2.1.3}{11}{Are the other proclaimed goals of the directive proposal valid?\relax }{subsection.2.1.3}{}}
\@writefile{toc}{\contentsline {subsection}{\numberline {2.1.4}Are there any valid goals for which a directive might be necessary?}{11}{subsection.2.1.4}}
\newlabel{amq1d}{{2.1.4}{11}{Are there any valid goals for which a directive might be necessary?\relax }{subsection.2.1.4}{}}
\@writefile{toc}{\contentsline {section}{\numberline {2.2}Will the directive achieve its ends, in particular without unwanted side effects?}{12}{section.2.2}}
\newlabel{amq2}{{2.2}{12}{Will the directive achieve its ends, in particular without unwanted side effects?\relax }{section.2.2}{}}
\@writefile{toc}{\contentsline {section}{\numberline {2.3}Does Art. 5 run counter to TRIPs in imposing artificial restrictions on the type of claims permissible in this field? Is it intended to be retroactive? If so, with what effects?}{12}{section.2.3}}
\newlabel{amq3}{{2.3}{12}{Does Art. 5 run counter to TRIPs in imposing artificial restrictions on the type of claims permissible in this field? Is it intended to be retroactive? If so, with what effects?\relax }{section.2.3}{}}
\@writefile{toc}{\contentsline {section}{\numberline {2.4}Is the proposal legally watertight (legal certainty)?}{13}{section.2.4}}
\newlabel{amq4}{{2.4}{13}{Is the proposal legally watertight (legal certainty)?\relax }{section.2.4}{}}
\@writefile{toc}{\contentsline {section}{\numberline {2.5}Is there any merit in following in the footsteps of the USA (patentability of business methods) or should patentability of business methods be clearly and specifically precluded?}{13}{section.2.5}}
\newlabel{amq5}{{2.5}{13}{Is there any merit in following in the footsteps of the USA (patentability of business methods) or should patentability of business methods be clearly and specifically precluded?\relax }{section.2.5}{}}
\@writefile{toc}{\contentsline {section}{\numberline {2.6}Should the system of (compulsory) licences be reviewed to prevent abuse of the patent system?}{13}{section.2.6}}
\newlabel{amq6}{{2.6}{13}{Should the system of (compulsory) licences be reviewed to prevent abuse of the patent system?\relax }{section.2.6}{}}
\@writefile{toc}{\contentsline {section}{\numberline {2.7}Is the issue of trivial patents a problem? If so, how should it be addressed?}{13}{section.2.7}}
\newlabel{amq7}{{2.7}{13}{Is the issue of trivial patents a problem? If so, how should it be addressed?\relax }{section.2.7}{}}
\@writefile{toc}{\contentsline {section}{\numberline {2.8}What risk, if any, is posed to open-source software? If so, how is it that open-source and proprietary software seem to co-exist at present?}{14}{section.2.8}}
\newlabel{amq8}{{2.8}{14}{What risk, if any, is posed to open-source software? If so, how is it that open-source and proprietary software seem to co-exist at present?\relax }{section.2.8}{}}
\@writefile{toc}{\contentsline {section}{\numberline {2.9}Is it possible to argue that patents may stifle innovation, if so how?}{14}{section.2.9}}
\newlabel{amq9}{{2.9}{14}{Is it possible to argue that patents may stifle innovation, if so how?\relax }{section.2.9}{}}
\@writefile{toc}{\contentsline {section}{\numberline {2.10}Is it possible to quantify in economic terms/employment the benefits/disbenefits of software patentability?}{14}{section.2.10}}
\newlabel{amq10}{{2.10}{14}{Is it possible to quantify in economic terms/employment the benefits/disbenefits of software patentability?\relax }{section.2.10}{}}
\@writefile{toc}{\contentsline {section}{\numberline {2.11}What impact, if any, will action in this area, one way or another, have on SMEs?}{15}{section.2.11}}
\newlabel{amq11}{{2.11}{15}{What impact, if any, will action in this area, one way or another, have on SMEs?\relax }{section.2.11}{}}
\@writefile{toc}{\contentsline {section}{\numberline {2.12}What is the impact of TRIPs?}{15}{section.2.12}}
\newlabel{amq12}{{2.12}{15}{What is the impact of TRIPs?\relax }{section.2.12}{}}
\@writefile{toc}{\contentsline {section}{\numberline {2.13}The EPC is not limited to EU countries. What are the implications of this in the event that the directive is adopted?}{15}{section.2.13}}
\newlabel{amq13}{{2.13}{15}{The EPC is not limited to EU countries. What are the implications of this in the event that the directive is adopted?\relax }{section.2.13}{}}
\@writefile{toc}{\contentsline {section}{\numberline {2.14}Do recital 18 and Art. 6 of the proposal for a directive need to be reworded in order to allow decompilation of programs for the purposes of interoperability as is permitted under Directive 91/250?}{16}{section.2.14}}
\newlabel{amq14}{{2.14}{16}{Do recital 18 and Art. 6 of the proposal for a directive need to be reworded in order to allow decompilation of programs for the purposes of interoperability as is permitted under Directive 91/250?\relax }{section.2.14}{}}
\@writefile{toc}{\contentsline {chapter}{\numberline {3}Unasked Questions}{17}{chapter.3}}
\@writefile{lof}{\addvspace {10\p@ }}
\@writefile{lot}{\addvspace {10\p@ }}
\newlabel{rest}{{3}{17}{Unasked Questions\relax }{chapter.3}{}}
