\contentsline {chapter}{\numberline {1}Some Criticisms of McCarthy's Paper}{4}{chapter.1}
\contentsline {chapter}{\numberline {2}Responses to McCarthy's Questions}{9}{chapter.2}
\contentsline {chapter}{\numberline {3}Unasked Questions}{10}{chapter.3}
